<?xml version="1.0" encoding="UTF-8" standalone="no"?>
<svg xmlns:xlink="http://www.w3.org/1999/xlink" height="564.7px" width="1151.8px" xmlns="http://www.w3.org/2000/svg">
  <g transform="matrix(1.0, 0.0, 0.0, 1.0, 742.8, 272.2)">
    <use data-characterId="1601" height="221.0" id="basedefences" transform="matrix(1.0, 0.0, 0.0, 1.0, -34.0, -46.9)" width="321.0" xlink:href="#sprite0"/>
    <use data-characterId="1069" height="20.25" id="exitbutton" transform="matrix(1.0, 0.0, 0.0, 1.0, 237.5, 217.25)" width="66.0" xlink:href="#sprite6"/>
    <use data-characterId="1604" height="80.5" id="squadinformationbutton" transform="matrix(1.0, 0.0, 0.0, 1.0, -34.0, -133.9)" width="321.0" xlink:href="#sprite7"/>
    <use data-characterId="1605" height="27.25" id="welcomemsg" transform="matrix(1.0, 0.0, 0.0, 1.0, -248.95, -269.5)" width="390.95" xlink:href="#text3"/>
    <use data-characterId="1608" height="63.0" id="upgradebasebutton" transform="matrix(1.0, 0.0, 0.0, 1.0, -314.5, -135.9)" width="237.0" xlink:href="#sprite8"/>
    <use data-characterId="1611" height="57.0" transform="matrix(1.0, 0.0, 0.0, 1.0, -320.5, -44.9)" width="236.0" xlink:href="#sprite9"/>
    <use data-characterId="1584" height="43.0" id="savegame" transform="matrix(1.0, 0.0, 0.0, 1.0, 194.5, -268.4)" width="126.0" xlink:href="#sprite10"/>
    <use data-characterId="1535" height="40.45" transform="matrix(1.5038, 0.0, 0.0, 1.5, -377.1089, 183.35)" width="72.05" xlink:href="#button0"/>
  </g>
  <defs>
    <g id="sprite0" transform="matrix(1.0, 0.0, 0.0, 1.0, 90.25, 110.5)">
      <use data-characterId="1596" height="221.0" transform="matrix(1.0, 0.0, 0.0, 1.0, -90.25, -110.5)" width="321.0" xlink:href="#shape0"/>
      <use data-characterId="1597" height="42.1" transform="matrix(1.0, 0.0, 0.0, 1.0, -61.4, -92.5)" width="62.75" xlink:href="#text0"/>
      <use data-characterId="1243" height="34.5" transform="matrix(1.0, 0.0, 0.0, 1.0, 103.0, -26.0)" width="63.0" xlink:href="#sprite1"/>
      <use data-characterId="1600" height="32.0" transform="matrix(1.0, 0.0, 0.0, 1.0, 72.5, -79.5)" width="74.0" xlink:href="#sprite2"/>
      <use data-characterId="1079" height="35.0" transform="matrix(1.0, 0.0, 0.0, 1.0, 88.0, 11.5)" width="35.5" xlink:href="#sprite3"/>
      <use data-characterId="1243" height="34.5" transform="matrix(1.0, 0.0, 0.0, 1.0, 157.25, 21.0)" width="63.0" xlink:href="#sprite1"/>
      <use data-characterId="1077" height="40.0" transform="matrix(1.4573, 0.0, 0.0, 1.4, 140.6045, -79.4999)" width="39.9" xlink:href="#sprite4"/>
      <use data-characterId="1075" height="33.0" transform="matrix(2.0263, 0.0, 0.0, 1.9063, 132.237, -82.9531)" width="39.0" xlink:href="#sprite5"/>
    </g>
    <g id="shape0" transform="matrix(1.0, 0.0, 0.0, 1.0, 90.25, 110.5)">
      <path d="M53.8 -0.45 Q50.7 -10.3 39.9 -14.35 L-28.9 17.85 Q-55.9 7.25 -89.75 0.0 L-89.75 -110.0 230.25 -110.0 230.25 110.0 70.25 110.0 Q53.85 58.35 -6.35 27.9 L53.8 -0.45" fill="#000000" fill-rule="evenodd" stroke="none"/>
      <path d="M-6.35 27.9 Q53.85 58.35 70.25 110.0 L-89.75 110.0 -89.75 98.0 -63.95 98.0 -63.95 98.05 -63.85 98.0 -11.75 75.0 -30.15 39.05 -6.35 27.9 M-89.75 0.0 Q-55.9 7.25 -28.9 17.85 L-45.05 25.4 -80.75 13.0 -89.75 13.0 -89.75 0.0" fill="#ff0000" fill-rule="evenodd" stroke="none"/>
      <path d="M-30.15 39.05 L-11.75 75.0 -63.85 98.0 -63.95 98.05 -63.95 98.0 -89.75 98.0 -89.75 50.0 -75.75 50.0 -89.75 50.0 -89.75 13.0 -80.75 13.0 -45.05 25.4 -34.75 30.0 -30.15 39.05 M-75.75 50.0 L-63.95 98.0 -63.85 98.0 -63.95 98.0 -75.75 50.0 -34.75 30.0 -75.75 50.0" fill="#cccccc" fill-rule="evenodd" stroke="none"/>
      <path d="M39.9 -14.35 Q50.7 -10.3 53.8 -0.45 L-6.35 27.9 -30.15 39.05 -34.75 30.0 -45.05 25.4 -28.9 17.85 39.9 -14.35" fill="#666666" fill-rule="evenodd" stroke="none"/>
      <path d="M-6.35 27.9 Q53.85 58.35 70.25 110.0 L230.25 110.0 230.25 -110.0 -89.75 -110.0 -89.75 0.0 Q-55.9 7.25 -28.9 17.85 M-89.75 98.0 L-89.75 110.0 70.25 110.0 M-89.75 50.0 L-89.75 98.0 M-89.75 0.0 L-89.75 13.0 -89.75 50.0" fill="none" stroke="#cccccc" stroke-linecap="round" stroke-linejoin="round" stroke-width="1.0"/>
      <path d="M39.9 -14.35 Q50.7 -10.3 53.8 -0.45 M-30.15 39.05 L-11.75 75.0 -63.85 98.0 -63.95 98.05 -63.95 98.0 -89.75 98.0 M-45.05 25.4 L-34.75 30.0 -30.15 39.05 M-89.75 13.0 L-80.75 13.0 -45.05 25.4 -28.9 17.85 M-63.85 98.0 L-63.95 98.0 -75.75 50.0 -34.75 30.0" fill="none" stroke="#999999" stroke-linecap="round" stroke-linejoin="round" stroke-width="1.0"/>
      <path d="M53.8 -0.45 L-6.35 27.9 -30.15 39.05 M-28.9 17.85 L39.9 -14.35 M-75.75 50.0 L-89.75 50.0" fill="none" stroke="#999999" stroke-linecap="round" stroke-linejoin="round" stroke-width="1.0"/>
    </g>
    <g id="text0" transform="matrix(1.0, 0.0, 0.0, 1.0, -12.85, -3.25)">
      <g transform="matrix(1.0, 0.0, 0.0, 1.0, 0.0, 0.0)">
        <use fill="#00ff00" height="42.1" transform="matrix(0.0195, 0.0, 0.0, 0.0195, 28.0, 19.0)" width="62.75" xlink:href="#font_Trebuchet_MS_B0"/>
        <use fill="#00ff00" height="42.1" transform="matrix(0.0195, 0.0, 0.0, 0.0195, 36.2, 19.0)" width="62.75" xlink:href="#font_Trebuchet_MS_A0"/>
        <use fill="#00ff00" height="42.1" transform="matrix(0.0195, 0.0, 0.0, 0.0195, 44.85, 19.0)" width="62.75" xlink:href="#font_Trebuchet_MS_S0"/>
        <use fill="#00ff00" height="42.1" transform="matrix(0.0195, 0.0, 0.0, 0.0195, 51.35, 19.0)" width="62.75" xlink:href="#font_Trebuchet_MS_E0"/>
      </g>
      <g transform="matrix(1.0, 0.0, 0.0, 1.0, 0.0, 0.0)">
        <use fill="#00ff00" height="42.1" transform="matrix(0.0195, 0.0, 0.0, 0.0195, 11.0, 44.0)" width="62.75" xlink:href="#font_Trebuchet_MS_D0"/>
        <use fill="#00ff00" height="42.1" transform="matrix(0.0195, 0.0, 0.0, 0.0195, 20.15, 44.0)" width="62.75" xlink:href="#font_Trebuchet_MS_E0"/>
        <use fill="#00ff00" height="42.1" transform="matrix(0.0195, 0.0, 0.0, 0.0195, 27.75, 44.0)" width="62.75" xlink:href="#font_Trebuchet_MS_F0"/>
        <use fill="#00ff00" height="42.1" transform="matrix(0.0195, 0.0, 0.0, 0.0195, 35.1, 44.0)" width="62.75" xlink:href="#font_Trebuchet_MS_E0"/>
        <use fill="#00ff00" height="42.1" transform="matrix(0.0195, 0.0, 0.0, 0.0195, 42.7, 44.0)" width="62.75" xlink:href="#font_Trebuchet_MS_N0"/>
        <use fill="#00ff00" height="42.1" transform="matrix(0.0195, 0.0, 0.0, 0.0195, 52.35, 44.0)" width="62.75" xlink:href="#font_Trebuchet_MS_S0"/>
        <use fill="#00ff00" height="42.1" transform="matrix(0.0195, 0.0, 0.0, 0.0195, 58.85, 44.0)" width="62.75" xlink:href="#font_Trebuchet_MS_E0"/>
      </g>
    </g>
    <g id="font_Trebuchet_MS_B0">
      <path d="M175.0 -364.5 L255.5 -367.0 Q352.0 -367.0 393.5 -333.0 434.5 -299.0 434.5 -227.5 434.5 -150.5 391.5 -115.0 348.0 -80.0 254.0 -80.0 226.5 -80.0 175.0 -85.0 L175.0 -364.5 M175.0 -652.5 Q214.5 -656.0 264.5 -656.0 395.0 -656.0 395.0 -554.5 395.0 -439.0 253.0 -439.0 206.5 -439.0 175.0 -442.0 L175.0 -652.5 M284.0 0.0 Q398.0 0.0 469.0 -57.5 539.5 -115.0 539.5 -211.5 539.5 -295.0 500.0 -343.5 460.0 -392.0 373.0 -413.0 419.0 -423.5 457.0 -465.5 495.0 -507.5 495.0 -558.5 495.0 -645.5 435.5 -692.0 376.0 -739.0 267.5 -739.0 208.5 -739.0 75.0 -732.5 L75.0 0.0 284.0 0.0" fill-rule="evenodd" stroke="none"/>
    </g>
    <g id="font_Trebuchet_MS_A0">
      <path d="M308.0 -550.5 L412.0 -228.0 194.5 -228.0 Q251.5 -389.0 308.0 -550.5 M491.0 0.0 L602.0 0.0 326.0 -742.5 299.5 -742.5 Q151.0 -371.0 2.0 0.0 L114.0 0.0 168.0 -154.5 440.5 -154.5 491.0 0.0" fill-rule="evenodd" stroke="none"/>
    </g>
    <g id="font_Trebuchet_MS_S0">
      <path d="M42.0 -33.5 Q111.0 12.5 208.5 12.5 319.5 12.5 386.0 -45.0 452.0 -102.5 452.0 -185.0 452.0 -261.0 422.0 -310.0 391.5 -359.5 316.5 -395.0 286.5 -409.0 256.5 -423.5 198.5 -451.5 180.0 -467.0 161.0 -482.5 150.5 -505.5 140.0 -528.5 140.0 -556.5 140.0 -602.0 169.5 -631.0 198.5 -660.0 249.5 -660.0 284.5 -660.0 325.5 -646.5 366.5 -633.0 386.5 -618.5 401.5 -662.0 416.0 -705.5 368.5 -745.0 247.0 -745.0 156.0 -745.0 98.0 -691.0 40.0 -637.0 40.0 -555.0 40.0 -487.5 70.0 -439.5 99.5 -391.5 174.5 -356.5 204.0 -342.5 233.5 -329.0 313.0 -291.5 333.0 -259.5 352.5 -228.0 352.5 -191.0 352.5 -141.5 317.0 -109.5 281.5 -77.5 223.0 -77.5 190.0 -77.5 148.5 -91.0 106.5 -105.0 78.5 -125.5 60.5 -79.5 42.0 -33.5" fill-rule="evenodd" stroke="none"/>
    </g>
    <g id="font_Trebuchet_MS_E0">
      <path d="M175.0 -642.5 L512.5 -642.5 512.5 -732.5 75.0 -732.5 75.0 0.0 507.0 0.0 507.0 -90.0 175.0 -90.0 175.0 -354.0 417.0 -354.0 417.0 -439.0 175.0 -439.0 175.0 -642.5" fill-rule="evenodd" stroke="none"/>
    </g>
    <g id="font_Trebuchet_MS_D0">
      <path d="M175.0 -642.5 Q235.5 -647.5 249.5 -647.5 483.0 -647.5 483.0 -387.5 483.0 -247.5 423.0 -168.5 363.0 -90.0 258.0 -90.0 208.5 -90.0 175.0 -95.0 L175.0 -642.5 M222.5 0.0 Q588.0 0.0 588.0 -396.0 588.0 -551.0 498.5 -644.0 409.0 -737.5 255.5 -737.5 216.0 -737.5 75.0 -732.5 L75.0 0.0 222.5 0.0" fill-rule="evenodd" stroke="none"/>
    </g>
    <g id="font_Trebuchet_MS_F0">
      <path d="M175.0 -642.5 L527.5 -642.5 527.5 -732.5 75.0 -732.5 75.0 0.0 175.0 0.0 175.0 -354.0 432.5 -354.0 432.5 -439.0 175.0 -439.0 175.0 -642.5" fill-rule="evenodd" stroke="none"/>
    </g>
    <g id="font_Trebuchet_MS_N0">
      <path d="M548.5 10.0 L578.5 10.0 578.5 -732.5 483.5 -732.5 483.5 -226.0 115.0 -732.5 75.0 -732.5 75.0 0.0 170.0 0.0 170.0 -525.5 548.5 10.0" fill-rule="evenodd" stroke="none"/>
    </g>
    <g id="sprite1" transform="matrix(1.0, 0.0, 0.0, 1.0, 26.5, 13.5)">
      <use data-characterId="1242" height="34.5" transform="matrix(1.0, 0.0, 0.0, 1.0, -26.5, -13.5)" width="63.0" xlink:href="#shape1"/>
    </g>
    <g id="shape1" transform="matrix(1.0, 0.0, 0.0, 1.0, 26.5, 13.5)">
      <path d="M15.5 -6.5 L15.0 -6.5 15.0 -6.0 M14.5 -6.5 L15.0 -6.5 15.0 -7.0 M36.0 11.0 L35.5 11.0 35.5 11.5 M35.0 11.0 L35.5 11.0 35.5 10.5 M-9.0 -12.5 L-8.5 -12.5 -8.5 -13.0 M-8.0 -12.5 L-8.5 -12.5 -8.5 -12.0 M-26.0 5.0 L-25.5 5.0 -25.5 4.5 M-25.0 5.0 L-25.5 5.0 -25.5 5.5" fill="none" stroke="#ffffff" stroke-linecap="round" stroke-linejoin="round" stroke-width="1.0"/>
      <path d="M6.5 20.0 L6.0 20.0 6.0 20.5 M5.5 20.0 L6.0 20.0 6.0 19.5" fill="none" stroke="#ccffff" stroke-linecap="round" stroke-linejoin="round" stroke-width="1.0"/>
      <path d="M-6.5 0.5 L-7.0 0.5 -7.0 1.0 M-7.5 0.5 L-7.0 0.5 -7.0 0.0" fill="none" stroke="#ffffcc" stroke-linecap="round" stroke-linejoin="round" stroke-width="1.0"/>
    </g>
    <g id="sprite2" transform="matrix(1.0, 0.0, 0.0, 1.0, 37.0, 16.0)">
      <use data-characterId="1599" height="32.0" transform="matrix(1.0, 0.0, 0.0, 1.0, -37.0, -16.0)" width="74.0" xlink:href="#shape2"/>
    </g>
    <g id="shape2" transform="matrix(1.0, 0.0, 0.0, 1.0, 37.0, 16.0)">
      <pattern height="32" id="PatternID_1599_1" overflow="visible" patternTransform="matrix(1.0, 0.0, 0.0, 1.0, -37.0, -16.0)" patternUnits="userSpaceOnUse" viewBox="0 0 74 32" width="74">
        <image height="32" width="74" xlink:href="data:image/PNG;base64,iVBORw0KGgoAAAANSUhEUgAAAEoAAAAgCAYAAAC1v+5NAAAAW0lEQVR42u3WsQ2AIBBAUVZyNEdgLlt1GDoLQqgUWhsLGyPvJbfATy53IfBNZ6MCALxVSol9lAAAgCHefxWEgpslpWnNeVbiQY+013oogSMnFPDTvd9iHyUY1wVjbitw8CtXpQAAAABJRU5ErkJggg=="/>
      </pattern>
      <path d="M37.0 16.0 L-37.0 16.0 -37.0 -16.0 37.0 -16.0 37.0 16.0" style="fill:url(#PatternID_1599_1)"/>
    </g>
    <g id="sprite3" transform="matrix(1.0, 0.0, 0.0, 1.0, 27.5, 15.0)">
      <use data-characterId="1078" height="35.0" transform="matrix(1.0, 0.0, 0.0, 1.0, -27.5, -15.0)" width="35.5" xlink:href="#shape3"/>
    </g>
    <g id="shape3" transform="matrix(1.0, 0.0, 0.0, 1.0, 27.5, 15.0)">
      <path d="M1.5 -14.0 L1.0 -14.0 1.0 -13.5 M0.5 -14.0 L1.0 -14.0 1.0 -14.5 M6.5 19.0 L7.0 19.0 7.0 18.5 M7.5 19.0 L7.0 19.0 7.0 19.5" fill="none" stroke="#ffffff" stroke-linecap="round" stroke-linejoin="round" stroke-width="1.0"/>
      <path d="M0.5 0.0 L0.0 0.0 0.0 0.5 M-0.5 0.0 L0.0 0.0 0.0 -0.5" fill="none" stroke="#ffffcc" stroke-linecap="round" stroke-linejoin="round" stroke-width="1.0"/>
      <path d="M-27.0 14.0 L-26.5 14.0 -26.5 13.5 M-26.05 14.0 L-26.5 14.0 -26.5 14.5" fill="none" stroke="#ffffff" stroke-linecap="round" stroke-linejoin="round" stroke-width="1.0"/>
    </g>
    <g id="sprite4" transform="matrix(1.0, 0.0, 0.0, 1.0, 20.0, 20.0)">
      <use data-characterId="1076" height="40.0" transform="matrix(1.0, 0.0, 0.0, 1.0, -20.0, -20.0)" width="39.9" xlink:href="#shape4"/>
    </g>
    <g id="shape4" transform="matrix(1.0, 0.0, 0.0, 1.0, 20.0, 20.0)">
      <path d="M5.9 -15.85 L5.35 -15.85 5.65 -18.8 7.2 -18.8 7.5 -15.85 6.95 -15.85 5.9 -15.85 M-7.0 -15.85 L-7.55 -15.85 -7.25 -18.8 -5.7 -18.8 -5.4 -15.85 -5.95 -15.85 -7.0 -15.85" fill="#ff0000" fill-rule="evenodd" stroke="none"/>
      <path d="M5.95 -8.45 L5.9 -15.85 6.95 -15.85 7.0 -8.45 5.95 -8.45 M7.9 15.5 L8.4 17.8 1.4 17.8 2.0 15.1 2.25 13.9 7.55 13.9 7.9 15.5 M-2.0 15.1 L-1.4 17.85 -8.35 17.85 -7.9 15.55 -7.85 15.5 -7.85 15.55 -7.85 15.5 -7.5 13.95 -2.25 13.95 -2.0 15.1 M-7.1 -8.45 L-7.0 -15.85 -5.95 -15.85 -6.0 -8.45 -7.1 -8.45 M10.0 -2.7 Q10.95 -3.75 12.35 -3.75 13.65 -3.75 14.65 -2.7 15.6 -1.7 15.6 -0.25 15.6 1.15 14.65 2.15 13.65 3.15 12.35 3.2 10.95 3.15 10.0 2.15 9.05 1.15 9.05 -0.25 9.05 -1.7 10.0 -2.7 M-14.7 -2.7 Q-13.75 -3.7 -12.4 -3.7 -11.05 -3.7 -10.1 -2.7 -9.15 -1.7 -9.15 -0.25 -9.15 1.2 -10.1 2.2 -11.05 3.2 -12.4 3.25 -13.75 3.2 -14.7 2.2 -15.65 1.2 -15.65 -0.25 -15.65 -1.7 -14.7 -2.7" fill="#cccccc" fill-rule="evenodd" stroke="none"/>
      <path d="M-3.05 -13.75 L-3.15 -16.2 -1.6 -18.8 1.45 -18.8 3.0 -16.25 3.05 -13.75 -0.05 -11.9 -3.05 -13.75" fill="#0000ff" fill-rule="evenodd" stroke="none"/>
      <path d="M3.05 -13.75 L3.05 -8.45 3.05 -3.2 4.3 3.1 4.35 3.2 11.4 14.95 7.9 15.5 7.55 13.9 6.65 9.9 3.15 9.9 2.25 13.9 2.0 15.1 -2.0 15.1 -2.25 13.95 -3.15 9.95 -6.6 9.95 -7.5 13.95 -7.85 15.5 -7.9 15.55 -11.4 15.0 -11.55 15.3 -11.65 15.1 -4.35 3.25 -4.4 3.15 -3.1 -3.15 -3.1 -8.45 -3.05 -13.75 -0.05 -11.9 3.05 -13.75" fill="#aaaaaa" fill-rule="evenodd" stroke="none"/>
      <path d="M3.05 -8.45 L5.95 -8.45 7.0 -8.45 8.8 -8.45 4.3 3.1 3.05 -3.2 3.05 -8.45 M8.4 17.8 L6.85 19.95 2.95 19.95 1.4 17.8 8.4 17.8 M-1.4 17.85 L-2.95 20.0 -6.8 20.0 -8.35 17.85 -1.4 17.85 M-8.85 -8.45 L-7.1 -8.45 -6.0 -8.45 -3.1 -8.45 -3.1 -3.15 -4.4 3.15 -8.85 -8.45 M2.25 13.9 L3.15 9.9 6.65 9.9 7.55 13.9 2.25 13.9 M-7.5 13.95 L-6.6 9.95 -3.15 9.95 -2.25 13.95 -7.5 13.95" fill="#999999" fill-rule="evenodd" stroke="none"/>
      <path d="M8.8 -8.45 L14.25 -20.0 19.9 -6.75 18.1 4.5 11.7 15.1 11.4 14.95 4.35 3.2 4.3 3.1 8.8 -8.45 M-11.65 15.1 L-18.15 4.55 -19.65 -5.35 -20.0 -6.7 -14.35 -20.0 -8.85 -8.45 -4.4 3.15 -4.35 3.25 -11.65 15.1 M10.0 -2.7 Q9.05 -1.7 9.05 -0.25 9.05 1.15 10.0 2.15 10.95 3.15 12.35 3.2 13.65 3.15 14.65 2.15 15.6 1.15 15.6 -0.25 15.6 -1.7 14.65 -2.7 13.65 -3.75 12.35 -3.75 10.95 -3.75 10.0 -2.7 M-14.7 -2.7 Q-15.65 -1.7 -15.65 -0.25 -15.65 1.2 -14.7 2.2 -13.75 3.2 -12.4 3.25 -11.05 3.2 -10.1 2.2 -9.15 1.2 -9.15 -0.25 -9.15 -1.7 -10.1 -2.7 -11.05 -3.7 -12.4 -3.7 -13.75 -3.7 -14.7 -2.7" fill="#0066cc" fill-rule="evenodd" stroke="none"/>
      <path d="M5.9 -15.85 L5.35 -15.85 5.65 -18.8 7.2 -18.8 7.5 -15.85 6.95 -15.85 5.9 -15.85 M-7.0 -15.85 L-7.55 -15.85 -7.25 -18.8 -5.7 -18.8 -5.4 -15.85 -5.95 -15.85 -7.0 -15.85" fill="none" stroke="#ff0000" stroke-linecap="round" stroke-linejoin="round" stroke-width="0.1"/>
      <path d="M11.7 15.1 L11.6 15.25 11.55 15.25 11.4 14.95 4.35 3.2 4.3 3.1 8.8 -8.45 M-11.4 15.0 L-11.55 15.3 -11.65 15.1 -4.35 3.25 -4.4 3.15 -8.85 -8.45 M-3.05 -13.75 L-0.05 -11.9 3.05 -13.75 M10.0 -2.7 Q10.95 -3.75 12.35 -3.75 13.65 -3.75 14.65 -2.7 15.6 -1.7 15.6 -0.25 15.6 1.15 14.65 2.15 13.65 3.15 12.35 3.2 10.95 3.15 10.0 2.15 9.05 1.15 9.05 -0.25 9.05 -1.7 10.0 -2.7 M3.05 -8.45 L3.05 -3.2 4.3 3.1 M2.25 13.9 L3.15 9.9 6.65 9.9 7.55 13.9 7.9 15.5 M2.25 13.9 L2.0 15.1 M7.55 13.9 L2.25 13.9 M8.4 17.8 L1.4 17.8 M-14.7 -2.7 Q-15.65 -1.7 -15.65 -0.25 -15.65 1.2 -14.7 2.2 -13.75 3.2 -12.4 3.25 -11.05 3.2 -10.1 2.2 -9.15 1.2 -9.15 -0.25 -9.15 -1.7 -10.1 -2.7 -11.05 -3.7 -12.4 -3.7 -13.75 -3.7 -14.7 -2.7 M-3.1 -8.45 L-3.1 -3.15 -4.4 3.15 M-7.5 13.95 L-6.6 9.95 -3.15 9.95 -2.25 13.95 -2.0 15.1 M-7.85 15.5 L-7.9 15.55 M-7.85 15.5 L-7.85 15.55 M-7.5 13.95 L-7.85 15.5 M-8.35 17.85 L-1.4 17.85 M-2.25 13.95 L-7.5 13.95" fill="none" stroke="#000000" stroke-linecap="round" stroke-linejoin="round" stroke-width="0.1"/>
      <path d="M5.95 -8.45 L5.9 -15.85 M6.95 -15.85 L7.0 -8.45 5.95 -8.45 M-7.1 -8.45 L-7.0 -15.85 M-5.95 -15.85 L-6.0 -8.45 -7.1 -8.45" fill="none" stroke="#cccccc" stroke-linecap="round" stroke-linejoin="round" stroke-width="0.1"/>
    </g>
    <g id="sprite5" transform="matrix(1.0, 0.0, 0.0, 1.0, 19.5, 16.5)">
      <use data-characterId="1074" height="33.0" transform="matrix(1.0, 0.0, 0.0, 1.0, -19.5, -16.5)" width="39.0" xlink:href="#shape5"/>
    </g>
    <g id="shape5" transform="matrix(1.0, 0.0, 0.0, 1.0, 19.5, 16.5)">
      <path d="M13.25 -16.0 L19.0 -16.0 19.0 -11.5 M19.0 10.5 L19.0 16.0 13.25 16.0 M-19.0 -11.5 L-19.0 -16.0 -11.75 -16.0 M-11.75 16.0 L-19.0 16.0 -19.0 10.5" fill="none" stroke="#ff0000" stroke-linecap="round" stroke-linejoin="round" stroke-width="1.0"/>
    </g>
    <g id="sprite6" transform="matrix(1.0, 0.0, 0.0, 1.0, 46.0, 10.25)">
      <use data-characterId="1067" height="18.85" transform="matrix(1.0, 0.0, 0.0, 1.0, -46.0, -10.25)" width="66.0" xlink:href="#shape6"/>
      <use data-characterId="1068" height="19.0" id="label" transform="matrix(1.0, 0.0, 0.0, 1.0, -42.85, -9.0)" width="61.35" xlink:href="#text1"/>
    </g>
    <g id="shape6" transform="matrix(1.0, 0.0, 0.0, 1.0, 46.0, 10.25)">
      <path d="M19.5 -9.75 L19.5 8.1 -45.5 8.1 -45.5 -9.75 19.5 -9.75" fill="#ffff00" fill-rule="evenodd" stroke="none"/>
      <path d="M19.5 -9.75 L19.5 8.1 -45.5 8.1 -45.5 -9.75 19.5 -9.75 Z" fill="none" stroke="#cccccc" stroke-linecap="round" stroke-linejoin="round" stroke-width="1.0"/>
    </g>
    <g id="text1" transform="matrix(1.0, 0.0, 0.0, 1.0, 2.0, 2.0)">
      <g transform="matrix(1.0, 0.0, 0.0, 1.0, -2.0, -2.0)">
        <use fill="#000000" height="19.0" transform="matrix(0.0117, 0.0, 0.0, 0.0117, 30.65, 14.0)" width="61.35" xlink:href="#font_Trebuchet_MS_U0"/>
        <use fill="#000000" height="19.0" transform="matrix(0.0117, 0.0, 0.0, 0.0117, 30.65, 14.0)" width="61.35" xlink:href="#font_Trebuchet_MS_P0"/>
        <use fill="#000000" height="19.0" transform="matrix(0.0117, 0.0, 0.0, 0.0117, 30.65, 14.0)" width="61.35" xlink:href="#font_Trebuchet_MS_G0"/>
        <use fill="#000000" height="19.0" transform="matrix(0.0117, 0.0, 0.0, 0.0117, 30.65, 14.0)" width="61.35" xlink:href="#font_Trebuchet_MS_R0"/>
        <use fill="#000000" height="19.0" transform="matrix(0.0117, 0.0, 0.0, 0.0117, 30.65, 14.0)" width="61.35" xlink:href="#font_Trebuchet_MS_A0"/>
        <use fill="#000000" height="19.0" transform="matrix(0.0117, 0.0, 0.0, 0.0117, 30.65, 14.0)" width="61.35" xlink:href="#font_Trebuchet_MS_D0"/>
        <use fill="#000000" height="19.0" transform="matrix(0.0117, 0.0, 0.0, 0.0117, 30.65, 14.0)" width="61.35" xlink:href="#font_Trebuchet_MS_E0"/>
      </g>
    </g>
    <g id="font_Trebuchet_MS_U0">
      <path d="M75.0 -732.5 L75.0 -223.5 Q75.0 -109.5 141.5 -48.5 208.0 12.5 331.0 12.5 450.5 12.5 520.0 -49.5 589.0 -112.0 589.0 -223.0 L589.0 -732.5 489.0 -732.5 489.0 -233.5 Q489.0 -161.5 446.5 -119.5 404.0 -77.5 330.0 -77.5 260.0 -77.5 217.5 -120.5 175.0 -164.0 175.0 -231.0 L175.0 -732.5 75.0 -732.5" fill-rule="evenodd" stroke="none"/>
    </g>
    <g id="font_Trebuchet_MS_P0">
      <path d="M175.0 -642.5 Q209.5 -647.5 229.5 -647.5 428.0 -647.5 428.0 -513.5 428.0 -367.0 242.0 -367.0 L175.0 -372.0 175.0 -642.5 M175.0 -282.0 Q232.0 -277.0 249.0 -277.0 531.0 -277.0 531.0 -524.0 531.0 -737.5 212.0 -737.5 L75.0 -732.5 75.0 0.0 175.0 0.0 175.0 -282.0" fill-rule="evenodd" stroke="none"/>
    </g>
    <g id="font_Trebuchet_MS_G0">
      <path d="M582.5 -681.5 Q510.5 -745.0 396.0 -745.0 232.5 -745.0 136.5 -639.0 40.0 -533.5 40.0 -363.5 40.0 -193.0 128.0 -90.0 215.5 12.5 367.0 12.5 434.5 12.5 506.0 -8.0 577.5 -29.0 617.5 -63.0 L617.5 -382.0 416.0 -382.0 416.0 -297.0 517.5 -297.0 517.5 -125.5 Q468.0 -77.5 388.0 -77.5 275.5 -77.5 210.5 -155.0 145.0 -232.5 145.0 -359.5 145.0 -493.0 211.5 -574.0 278.0 -655.0 393.0 -655.0 465.5 -655.0 541.0 -599.0 562.0 -640.0 582.5 -681.5" fill-rule="evenodd" stroke="none"/>
    </g>
    <g id="font_Trebuchet_MS_R0">
      <path d="M180.0 -642.5 Q224.0 -647.5 239.0 -647.5 334.0 -647.5 378.0 -620.5 422.0 -593.5 422.0 -532.0 422.0 -457.5 381.0 -428.5 340.0 -399.5 250.0 -399.5 216.0 -399.5 180.0 -404.5 L180.0 -642.5 M481.5 0.0 L596.0 0.0 383.5 -337.0 Q442.0 -350.5 484.5 -405.5 527.0 -461.0 527.0 -530.0 527.0 -740.0 263.0 -740.0 L158.0 -736.0 80.0 -732.5 80.0 0.0 180.0 0.0 180.0 -319.5 Q252.5 -314.5 286.0 -314.5 L481.5 0.0" fill-rule="evenodd" stroke="none"/>
    </g>
    <g id="sprite7" transform="matrix(1.0, 0.0, 0.0, 1.0, 164.5, 99.5)">
      <use data-characterId="1602" height="80.5" transform="matrix(1.0, 0.0, 0.0, 1.0, -164.5, -99.5)" width="321.0" xlink:href="#shape7"/>
      <use data-characterId="1603" height="42.1" transform="matrix(1.0, 0.0, 0.0, 1.0, -96.25, -93.55)" width="154.95" xlink:href="#text2"/>
    </g>
    <g id="shape7" transform="matrix(1.0, 0.0, 0.0, 1.0, 164.5, 99.5)">
      <path d="M156.0 -19.5 L-164.0 -19.5 -164.0 -99.0 156.0 -99.0 156.0 -19.5" fill="#000000" fill-rule="evenodd" stroke="none"/>
      <path d="M156.0 -19.5 L-164.0 -19.5 -164.0 -99.0 156.0 -99.0 156.0 -19.5 Z" fill="none" stroke="#cccccc" stroke-linecap="round" stroke-linejoin="round" stroke-width="1.0"/>
    </g>
    <g id="text2" transform="matrix(1.0, 0.0, 0.0, 1.0, -43.75, -3.25)">
      <g transform="matrix(1.0, 0.0, 0.0, 1.0, 0.0, 0.0)">
        <use fill="#00ff00" height="42.1" transform="matrix(0.0195, 0.0, 0.0, 0.0195, 43.0, 19.0)" width="154.95" xlink:href="#font_Trebuchet_MS_S0"/>
        <use fill="#00ff00" height="42.1" transform="matrix(0.0195, 0.0, 0.0, 0.0195, 49.45, 19.0)" width="154.95" xlink:href="#font_Trebuchet_MS_Q0"/>
        <use fill="#00ff00" height="42.1" transform="matrix(0.0195, 0.0, 0.0, 0.0195, 59.8, 19.0)" width="154.95" xlink:href="#font_Trebuchet_MS_U0"/>
        <use fill="#00ff00" height="42.1" transform="matrix(0.0195, 0.0, 0.0, 0.0195, 69.6, 19.0)" width="154.95" xlink:href="#font_Trebuchet_MS_A0"/>
        <use fill="#00ff00" height="42.1" transform="matrix(0.0195, 0.0, 0.0, 0.0195, 78.2, 19.0)" width="154.95" xlink:href="#font_Trebuchet_MS_D0"/>
        <use fill="#00ff00" height="42.1" transform="matrix(0.0195, 0.0, 0.0, 0.0195, 90.2, 19.0)" width="154.95" xlink:href="#font_Trebuchet_MS_I0"/>
        <use fill="#00ff00" height="42.1" transform="matrix(0.0195, 0.0, 0.0, 0.0195, 92.6, 19.0)" width="154.95" xlink:href="#font_Trebuchet_MS_N0"/>
        <use fill="#00ff00" height="42.1" transform="matrix(0.0195, 0.0, 0.0, 0.0195, 102.2, 19.0)" width="154.95" xlink:href="#font_Trebuchet_MS_F0"/>
        <use fill="#00ff00" height="42.1" transform="matrix(0.0195, 0.0, 0.0, 0.0195, 109.5, 19.0)" width="154.95" xlink:href="#font_Trebuchet_MS_O0"/>
        <use fill="#00ff00" height="42.1" transform="matrix(0.0195, 0.0, 0.0, 0.0195, 119.85, 19.0)" width="154.95" xlink:href="#font_Trebuchet_MS_R0"/>
        <use fill="#00ff00" height="42.1" transform="matrix(0.0195, 0.0, 0.0, 0.0195, 128.35, 19.0)" width="154.95" xlink:href="#font_Trebuchet_MS_M0"/>
        <use fill="#00ff00" height="42.1" transform="matrix(0.0195, 0.0, 0.0, 0.0195, 139.4, 19.0)" width="154.95" xlink:href="#font_Trebuchet_MS_A0"/>
        <use fill="#00ff00" height="42.1" transform="matrix(0.0195, 0.0, 0.0, 0.0195, 146.1, 19.0)" width="154.95" xlink:href="#font_Trebuchet_MS_T0"/>
        <use fill="#00ff00" height="42.1" transform="matrix(0.0195, 0.0, 0.0, 0.0195, 154.55, 19.0)" width="154.95" xlink:href="#font_Trebuchet_MS_I0"/>
        <use fill="#00ff00" height="42.1" transform="matrix(0.0195, 0.0, 0.0, 0.0195, 156.95, 19.0)" width="154.95" xlink:href="#font_Trebuchet_MS_O0"/>
        <use fill="#00ff00" height="42.1" transform="matrix(0.0195, 0.0, 0.0, 0.0195, 167.3, 19.0)" width="154.95" xlink:href="#font_Trebuchet_MS_N0"/>
        <use fill="#00ff00" height="42.1" transform="matrix(0.0195, 0.0, 0.0, 0.0195, 179.8, 19.0)" width="154.95" xlink:href="#font_Trebuchet_MS__1"/>
      </g>
      <g transform="matrix(1.0, 0.0, 0.0, 1.0, 0.0, 0.0)">
        <use fill="#00ff00" height="42.1" transform="matrix(0.0195, 0.0, 0.0, 0.0195, 84.0, 44.0)" width="154.95" xlink:href="#font_Trebuchet_MS_M0"/>
        <use fill="#00ff00" height="42.1" transform="matrix(0.0195, 0.0, 0.0, 0.0195, 95.15, 44.0)" width="154.95" xlink:href="#font_Trebuchet_MS_A0"/>
        <use fill="#00ff00" height="42.1" transform="matrix(0.0195, 0.0, 0.0, 0.0195, 103.85, 44.0)" width="154.95" xlink:href="#font_Trebuchet_MS_N0"/>
        <use fill="#00ff00" height="42.1" transform="matrix(0.0195, 0.0, 0.0, 0.0195, 113.55, 44.0)" width="154.95" xlink:href="#font_Trebuchet_MS_A0"/>
        <use fill="#00ff00" height="42.1" transform="matrix(0.0195, 0.0, 0.0, 0.0195, 122.25, 44.0)" width="154.95" xlink:href="#font_Trebuchet_MS_G0"/>
        <use fill="#00ff00" height="42.1" transform="matrix(0.0195, 0.0, 0.0, 0.0195, 132.75, 44.0)" width="154.95" xlink:href="#font_Trebuchet_MS_E0"/>
        <use fill="#00ff00" height="42.1" transform="matrix(0.0195, 0.0, 0.0, 0.0195, 140.4, 44.0)" width="154.95" xlink:href="#font_Trebuchet_MS_M0"/>
        <use fill="#00ff00" height="42.1" transform="matrix(0.0195, 0.0, 0.0, 0.0195, 151.55, 44.0)" width="154.95" xlink:href="#font_Trebuchet_MS_E0"/>
        <use fill="#00ff00" height="42.1" transform="matrix(0.0195, 0.0, 0.0, 0.0195, 159.2, 44.0)" width="154.95" xlink:href="#font_Trebuchet_MS_N0"/>
        <use fill="#00ff00" height="42.1" transform="matrix(0.0195, 0.0, 0.0, 0.0195, 168.9, 44.0)" width="154.95" xlink:href="#font_Trebuchet_MS_T0"/>
      </g>
    </g>
    <g id="font_Trebuchet_MS_Q0">
      <path d="M335.0 -655.5 Q545.0 -655.5 545.0 -372.5 545.0 -234.0 491.5 -155.5 438.0 -77.5 335.0 -77.5 244.5 -77.5 195.0 -162.0 145.0 -246.5 145.0 -372.5 145.0 -503.5 193.5 -579.5 242.0 -655.5 335.0 -655.5 M760.0 54.0 L682.0 54.0 Q553.5 54.0 499.0 -26.0 650.0 -120.0 650.0 -372.5 650.0 -548.5 569.0 -647.0 487.5 -745.5 335.0 -745.5 199.0 -745.5 119.5 -638.0 40.0 -531.0 40.0 -372.5 40.0 -203.5 118.5 -95.5 196.5 12.5 335.0 12.5 386.0 12.5 401.5 6.0 483.0 151.5 745.0 151.5 L760.0 54.0" fill-rule="evenodd" stroke="none"/>
    </g>
    <g id="font_Trebuchet_MS_I0">
      <path d="M92.5 0.0 L192.5 0.0 192.5 -732.5 92.5 -732.5 92.5 0.0" fill-rule="evenodd" stroke="none"/>
    </g>
    <g id="font_Trebuchet_MS_O0">
      <path d="M145.0 -372.5 Q145.0 -503.5 193.5 -579.5 242.0 -655.5 335.0 -655.5 545.0 -655.5 545.0 -372.5 545.0 -232.5 491.5 -155.0 437.5 -77.5 335.0 -77.5 244.5 -77.5 195.0 -162.0 145.0 -246.5 145.0 -372.5 M40.0 -372.5 Q40.0 -203.5 118.5 -95.5 196.5 12.5 335.0 12.5 487.0 12.5 568.5 -89.5 650.0 -192.0 650.0 -372.5 650.0 -548.5 569.0 -647.0 487.5 -745.5 335.0 -745.5 199.5 -745.5 120.0 -638.5 40.0 -531.5 40.0 -372.5" fill-rule="evenodd" stroke="none"/>
    </g>
    <g id="font_Trebuchet_MS_M0">
      <path d="M626.5 0.0 L721.5 0.0 573.0 -732.5 528.0 -732.5 367.0 -198.0 192.5 -732.5 147.0 -732.5 10.0 0.0 105.0 0.0 190.0 -470.5 354.5 10.0 379.5 10.0 539.5 -470.5 626.5 0.0" fill-rule="evenodd" stroke="none"/>
    </g>
    <g id="font_Trebuchet_MS_T0">
      <path d="M342.0 -642.5 L585.5 -642.5 585.5 -732.5 9.0 -732.5 9.0 -642.5 242.0 -642.5 242.0 0.0 342.0 0.0 342.0 -642.5" fill-rule="evenodd" stroke="none"/>
    </g>
    <g id="font_Trebuchet_MS__1">
      <path d="M175.0 0.0 Q307.5 -367.5 439.5 -735.5 L360.0 -735.5 Q227.5 -367.5 94.5 0.0 L175.0 0.0" fill-rule="evenodd" stroke="none"/>
    </g>
    <g id="text3" transform="matrix(1.0, 0.0, 0.0, 1.0, 2.0, 2.0)">
      <g transform="matrix(1.0, 0.0, 0.0, 1.0, -2.0, -2.0)">
        <use fill="#00ff00" height="27.25" transform="matrix(0.0195, 0.0, 0.0, 0.0195, 195.45, 22.0)" width="390.95" xlink:href="#font_Trebuchet_MS_W0"/>
        <use fill="#00ff00" height="27.25" transform="matrix(0.0195, 0.0, 0.0, 0.0195, 195.45, 22.0)" width="390.95" xlink:href="#font_Trebuchet_MS_e0"/>
        <use fill="#00ff00" height="27.25" transform="matrix(0.0195, 0.0, 0.0, 0.0195, 195.45, 22.0)" width="390.95" xlink:href="#font_Trebuchet_MS_l0"/>
        <use fill="#00ff00" height="27.25" transform="matrix(0.0195, 0.0, 0.0, 0.0195, 195.45, 22.0)" width="390.95" xlink:href="#font_Trebuchet_MS_c0"/>
        <use fill="#00ff00" height="27.25" transform="matrix(0.0195, 0.0, 0.0, 0.0195, 195.45, 22.0)" width="390.95" xlink:href="#font_Trebuchet_MS_o0"/>
        <use fill="#00ff00" height="27.25" transform="matrix(0.0195, 0.0, 0.0, 0.0195, 195.45, 22.0)" width="390.95" xlink:href="#font_Trebuchet_MS_m0"/>
        <use fill="#00ff00" height="27.25" transform="matrix(0.0195, 0.0, 0.0, 0.0195, 195.45, 22.0)" width="390.95" xlink:href="#font_Trebuchet_MS_e0"/>
      </g>
      <g transform="matrix(1.0, 0.0, 0.0, 1.0, -2.0, -2.0)">
        <use fill="#00ff00" height="27.25" transform="matrix(0.0195, 0.0, 0.0, 0.0195, 195.45, 22.0)" width="390.95" xlink:href="#font_Trebuchet_MS_t0"/>
        <use fill="#00ff00" height="27.25" transform="matrix(0.0195, 0.0, 0.0, 0.0195, 195.45, 22.0)" width="390.95" xlink:href="#font_Trebuchet_MS_o0"/>
      </g>
      <g transform="matrix(1.0, 0.0, 0.0, 1.0, -2.0, -2.0)">
        <use fill="#00ff00" height="27.25" transform="matrix(0.0195, 0.0, 0.0, 0.0195, 195.45, 22.0)" width="390.95" xlink:href="#font_Trebuchet_MS_S0"/>
        <use fill="#00ff00" height="27.25" transform="matrix(0.0195, 0.0, 0.0, 0.0195, 195.45, 22.0)" width="390.95" xlink:href="#font_Trebuchet_MS_q0"/>
        <use fill="#00ff00" height="27.25" transform="matrix(0.0195, 0.0, 0.0, 0.0195, 195.45, 22.0)" width="390.95" xlink:href="#font_Trebuchet_MS_u0"/>
        <use fill="#00ff00" height="27.25" transform="matrix(0.0195, 0.0, 0.0, 0.0195, 195.45, 22.0)" width="390.95" xlink:href="#font_Trebuchet_MS_a0"/>
        <use fill="#00ff00" height="27.25" transform="matrix(0.0195, 0.0, 0.0, 0.0195, 195.45, 22.0)" width="390.95" xlink:href="#font_Trebuchet_MS_d0"/>
      </g>
      <g transform="matrix(1.0, 0.0, 0.0, 1.0, -2.0, -2.0)">
        <use fill="#00ff00" height="27.25" transform="matrix(0.0195, 0.0, 0.0, 0.0195, 195.45, 22.0)" width="390.95" xlink:href="#font_Trebuchet_MS_B0"/>
        <use fill="#00ff00" height="27.25" transform="matrix(0.0195, 0.0, 0.0, 0.0195, 195.45, 22.0)" width="390.95" xlink:href="#font_Trebuchet_MS_a0"/>
        <use fill="#00ff00" height="27.25" transform="matrix(0.0195, 0.0, 0.0, 0.0195, 195.45, 22.0)" width="390.95" xlink:href="#font_Trebuchet_MS_s0"/>
        <use fill="#00ff00" height="27.25" transform="matrix(0.0195, 0.0, 0.0, 0.0195, 195.45, 22.0)" width="390.95" xlink:href="#font_Trebuchet_MS_e0"/>
      </g>
      <g transform="matrix(1.0, 0.0, 0.0, 1.0, -2.0, -2.0)">
        <use fill="#00ff00" height="27.25" transform="matrix(0.0195, 0.0, 0.0, 0.0195, 195.45, 22.0)" width="390.95" xlink:href="#font_Trebuchet_MS_B0"/>
        <use fill="#00ff00" height="27.25" transform="matrix(0.0195, 0.0, 0.0, 0.0195, 195.45, 22.0)" width="390.95" xlink:href="#font_Trebuchet_MS_A0"/>
        <use fill="#00ff00" height="27.25" transform="matrix(0.0195, 0.0, 0.0, 0.0195, 195.45, 22.0)" width="390.95" xlink:href="#font_Trebuchet_MS_S0"/>
        <use fill="#00ff00" height="27.25" transform="matrix(0.0195, 0.0, 0.0, 0.0195, 195.45, 22.0)" width="390.95" xlink:href="#font_Trebuchet_MS_E0"/>
        <use fill="#00ff00" height="27.25" transform="matrix(0.0195, 0.0, 0.0, 0.0195, 195.45, 22.0)" width="390.95" xlink:href="#font_Trebuchet_MS_D0"/>
        <use fill="#00ff00" height="27.25" transform="matrix(0.0195, 0.0, 0.0, 0.0195, 195.45, 22.0)" width="390.95" xlink:href="#font_Trebuchet_MS_I0"/>
        <use fill="#00ff00" height="27.25" transform="matrix(0.0195, 0.0, 0.0, 0.0195, 195.45, 22.0)" width="390.95" xlink:href="#font_Trebuchet_MS_D0"/>
      </g>
    </g>
    <g id="font_Trebuchet_MS_W0">
      <path d="M638.0 10.0 L866.0 -732.5 762.0 -732.5 Q687.5 -477.0 612.5 -222.0 L453.5 -732.5 418.5 -732.5 257.5 -221.0 110.5 -732.5 6.5 -732.5 237.5 10.0 269.0 10.0 432.0 -495.0 Q519.5 -242.5 606.5 10.0 L638.0 10.0" fill-rule="evenodd" stroke="none"/>
    </g>
    <g id="font_Trebuchet_MS_e0">
      <path d="M288.0 -465.5 Q356.0 -465.5 395.5 -423.5 431.5 -385.0 431.5 -327.5 L135.0 -327.5 Q140.5 -385.5 181.5 -424.5 224.5 -465.5 288.0 -465.5 M518.5 -258.5 Q526.0 -285.0 526.0 -316.5 526.0 -419.0 463.0 -481.0 398.0 -545.5 283.5 -545.5 185.0 -545.5 113.0 -474.0 32.5 -394.0 32.5 -261.5 32.5 -134.0 111.0 -58.5 181.5 10.0 282.5 10.0 352.5 10.0 409.5 -11.0 455.0 -27.0 477.0 -49.0 L437.0 -117.5 Q382.5 -70.0 301.0 -70.0 229.5 -70.0 184.0 -114.0 132.5 -164.5 132.5 -258.5 L518.5 -258.5" fill-rule="evenodd" stroke="none"/>
    </g>
    <g id="font_Trebuchet_MS_l0">
      <path d="M75.0 -151.5 Q75.0 10.0 259.5 10.0 L259.5 -75.0 Q219.5 -75.0 195.0 -99.5 170.0 -124.5 170.0 -167.5 L170.0 -755.0 75.0 -755.0 75.0 -151.5" fill-rule="evenodd" stroke="none"/>
    </g>
    <g id="font_Trebuchet_MS_c0">
      <path d="M471.5 -492.0 Q448.5 -510.5 400.0 -528.0 351.5 -545.5 310.0 -545.5 181.0 -545.5 107.0 -468.0 32.5 -390.5 32.5 -262.5 32.5 -137.0 104.0 -63.5 175.5 10.0 285.0 10.0 398.0 10.0 474.5 -39.5 456.0 -79.5 437.0 -119.5 372.0 -70.0 308.0 -70.0 225.5 -70.0 179.0 -119.0 132.5 -168.5 132.5 -262.5 132.5 -357.0 178.0 -411.0 223.5 -465.5 301.0 -465.5 336.5 -465.5 373.5 -452.5 410.0 -439.5 424.5 -425.0 L471.5 -492.0" fill-rule="evenodd" stroke="none"/>
    </g>
    <g id="font_Trebuchet_MS_o0">
      <path d="M132.5 -269.0 Q132.5 -362.0 171.5 -415.0 210.0 -468.0 275.0 -468.0 417.0 -468.0 417.0 -269.0 417.0 -175.5 379.5 -121.5 341.5 -67.5 275.0 -67.5 132.5 -67.5 132.5 -269.0 M32.5 -269.0 Q32.5 -141.0 96.5 -65.5 160.5 10.0 275.0 10.0 387.0 10.0 452.0 -64.5 517.0 -139.5 517.0 -269.0 517.0 -399.0 453.5 -472.0 390.0 -545.5 275.0 -545.5 166.0 -545.5 99.5 -469.0 32.5 -393.0 32.5 -269.0" fill-rule="evenodd" stroke="none"/>
    </g>
    <g id="font_Trebuchet_MS_m0">
      <path d="M687.5 0.0 L782.5 0.0 782.5 -358.0 Q782.5 -447.0 737.0 -496.0 691.5 -545.5 608.5 -545.5 562.5 -545.5 519.0 -525.0 475.5 -504.5 459.5 -474.0 413.5 -545.5 298.5 -545.5 216.0 -545.5 161.0 -473.5 L129.5 -535.5 67.5 -535.5 67.5 0.0 162.5 0.0 162.5 -395.0 Q176.0 -421.5 208.5 -443.5 240.5 -465.5 269.0 -465.5 318.0 -465.5 348.0 -442.5 377.5 -420.0 377.5 -380.5 L377.5 0.0 472.5 0.0 472.5 -396.0 Q483.5 -423.0 513.5 -444.0 543.5 -465.5 578.0 -465.5 687.5 -465.5 687.5 -339.0 L687.5 0.0" fill-rule="evenodd" stroke="none"/>
    </g>
    <g id="font_Trebuchet_MS_t0">
      <path d="M101.5 -460.5 L101.5 -156.5 Q101.5 -84.5 145.5 -37.0 189.0 10.0 252.5 10.0 323.0 10.0 382.0 -5.0 L368.0 -88.5 Q329.0 -70.0 292.5 -70.0 242.0 -70.0 219.5 -98.5 196.5 -127.0 196.5 -194.5 L196.5 -460.5 343.5 -460.5 343.5 -535.5 196.5 -535.5 196.5 -684.0 Q149.0 -665.5 101.5 -647.5 L101.5 -535.5 39.5 -535.5 39.5 -460.5 101.5 -460.5" fill-rule="evenodd" stroke="none"/>
    </g>
    <g id="font_Trebuchet_MS_q0">
      <path d="M410.5 -424.5 L410.5 -105.0 Q372.5 -70.0 304.0 -70.0 227.5 -70.0 182.5 -121.5 137.5 -173.5 137.5 -266.5 137.5 -356.5 182.5 -411.0 227.5 -465.5 308.0 -465.5 369.5 -465.5 410.5 -424.5 M410.5 210.0 L505.5 210.0 505.5 -535.5 448.0 -535.5 Q435.5 -515.0 422.5 -495.0 362.0 -545.5 292.0 -545.5 180.0 -545.5 109.0 -470.0 37.5 -395.0 37.5 -266.5 37.5 -136.5 100.0 -63.0 162.0 10.0 271.5 10.0 369.0 10.0 410.5 -31.5 L410.5 210.0" fill-rule="evenodd" stroke="none"/>
    </g>
    <g id="font_Trebuchet_MS_u0">
      <path d="M157.5 -535.5 L62.5 -535.5 62.5 -184.0 Q62.5 -91.0 109.5 -40.5 156.0 10.0 244.0 10.0 290.0 10.0 338.5 -16.0 386.5 -42.5 402.5 -74.0 L402.5 0.0 497.5 0.0 497.5 -535.5 402.5 -535.5 402.5 -159.5 Q390.0 -124.0 351.0 -97.0 312.0 -70.0 265.0 -70.0 157.5 -70.0 157.5 -194.0 L157.5 -535.5" fill-rule="evenodd" stroke="none"/>
    </g>
    <g id="font_Trebuchet_MS_a0">
      <path d="M361.0 -263.0 L361.0 -133.5 Q305.5 -65.0 233.5 -65.0 135.0 -65.0 135.0 -148.5 135.0 -199.0 180.5 -236.0 226.0 -273.0 298.0 -273.0 316.0 -273.0 361.0 -263.0 M370.0 -61.5 Q382.5 -23.5 411.5 -7.0 440.0 9.5 498.0 9.5 L498.0 -38.0 Q456.0 -61.5 456.0 -132.0 L456.0 -324.0 Q456.0 -439.5 403.5 -492.5 350.5 -545.5 234.0 -545.5 190.5 -545.5 143.0 -529.5 95.0 -514.0 68.0 -492.0 L108.0 -412.5 Q156.0 -460.5 245.0 -460.5 361.0 -460.5 361.0 -330.5 323.0 -343.5 293.0 -343.5 182.5 -343.5 111.5 -287.0 40.0 -231.0 40.0 -149.5 40.0 -81.5 86.5 -35.5 132.5 10.0 195.5 10.0 313.0 10.0 370.0 -61.5" fill-rule="evenodd" stroke="none"/>
    </g>
    <g id="font_Trebuchet_MS_d0">
      <path d="M407.0 -411.5 L407.0 -114.5 Q399.0 -98.5 367.5 -84.0 336.0 -70.0 313.5 -70.0 137.5 -70.0 137.5 -263.5 137.5 -351.5 185.0 -408.5 232.0 -465.5 308.5 -465.5 371.0 -465.5 407.0 -411.5 M407.0 -0.5 L502.0 -0.5 502.0 -755.0 407.0 -755.0 407.0 -506.5 Q364.0 -545.5 281.0 -545.5 181.5 -545.5 109.5 -460.0 37.5 -375.0 37.5 -254.5 37.5 -134.5 100.0 -62.5 162.5 9.5 263.0 9.5 357.5 9.5 407.0 -40.0 L407.0 -0.5" fill-rule="evenodd" stroke="none"/>
    </g>
    <g id="font_Trebuchet_MS_s0">
      <path d="M32.5 -32.0 Q107.0 10.0 191.5 10.0 281.0 10.0 331.5 -30.5 382.0 -71.5 382.0 -143.5 382.0 -198.5 353.5 -235.0 325.0 -271.5 262.5 -300.0 L194.5 -331.0 Q136.0 -357.5 136.0 -409.0 136.0 -433.5 159.5 -449.5 182.5 -465.5 216.5 -465.5 273.5 -465.5 330.0 -420.5 L357.0 -508.5 Q268.0 -545.5 209.5 -545.5 132.0 -545.5 84.0 -508.5 36.0 -471.5 36.0 -405.5 36.0 -380.0 44.5 -357.5 52.5 -335.5 69.5 -315.5 86.0 -296.0 109.0 -280.5 131.5 -265.0 197.0 -235.0 282.0 -197.0 282.0 -144.0 282.0 -70.0 194.0 -70.0 145.5 -70.0 66.0 -122.0 49.5 -77.0 32.5 -32.0" fill-rule="evenodd" stroke="none"/>
    </g>
    <g id="sprite8" transform="matrix(1.0, 0.0, 0.0, 1.0, 118.5, 31.5)">
      <use data-characterId="1606" height="63.0" transform="matrix(1.0, 0.0, 0.0, 1.0, -118.5, -31.5)" width="237.0" xlink:href="#shape8"/>
      <use data-characterId="1607" height="42.1" transform="matrix(1.0, 0.0, 0.0, 1.0, -74.15, -22.05)" width="119.35" xlink:href="#text4"/>
    </g>
    <g id="shape8" transform="matrix(1.0, 0.0, 0.0, 1.0, 118.5, 31.5)">
      <path d="M-118.0 -31.0 L118.0 -31.0 118.0 31.0 -118.0 31.0 -118.0 -31.0" fill="#000000" fill-rule="evenodd" stroke="none"/>
      <path d="M-118.0 -31.0 L118.0 -31.0 118.0 31.0 -118.0 31.0 -118.0 -31.0 Z" fill="none" stroke="#cccccc" stroke-linecap="round" stroke-linejoin="round" stroke-width="1.0"/>
    </g>
    <g id="text4" transform="matrix(1.0, 0.0, 0.0, 1.0, -39.35, -3.25)">
      <g transform="matrix(1.0, 0.0, 0.0, 1.0, 0.0, 0.0)">
        <use fill="#00ff00" height="42.1" transform="matrix(0.0195, 0.0, 0.0, 0.0195, 38.0, 19.0)" width="119.35" xlink:href="#font_Trebuchet_MS_U0"/>
        <use fill="#00ff00" height="42.1" transform="matrix(0.0195, 0.0, 0.0, 0.0195, 47.8, 19.0)" width="119.35" xlink:href="#font_Trebuchet_MS_P0"/>
        <use fill="#00ff00" height="42.1" transform="matrix(0.0195, 0.0, 0.0, 0.0195, 55.8, 19.0)" width="119.35" xlink:href="#font_Trebuchet_MS_G0"/>
        <use fill="#00ff00" height="42.1" transform="matrix(0.0195, 0.0, 0.0, 0.0195, 66.2, 19.0)" width="119.35" xlink:href="#font_Trebuchet_MS_R0"/>
        <use fill="#00ff00" height="42.1" transform="matrix(0.0195, 0.0, 0.0, 0.0195, 74.7, 19.0)" width="119.35" xlink:href="#font_Trebuchet_MS_A0"/>
        <use fill="#00ff00" height="42.1" transform="matrix(0.0195, 0.0, 0.0, 0.0195, 83.3, 19.0)" width="119.35" xlink:href="#font_Trebuchet_MS_D0"/>
        <use fill="#00ff00" height="42.1" transform="matrix(0.0195, 0.0, 0.0, 0.0195, 92.4, 19.0)" width="119.35" xlink:href="#font_Trebuchet_MS_E0"/>
        <use fill="#00ff00" height="42.1" transform="matrix(0.0195, 0.0, 0.0, 0.0195, 102.85, 19.0)" width="119.35" xlink:href="#font_Trebuchet_MS_S0"/>
        <use fill="#00ff00" height="42.1" transform="matrix(0.0195, 0.0, 0.0, 0.0195, 109.3, 19.0)" width="119.35" xlink:href="#font_Trebuchet_MS_Q0"/>
        <use fill="#00ff00" height="42.1" transform="matrix(0.0195, 0.0, 0.0, 0.0195, 119.65, 19.0)" width="119.35" xlink:href="#font_Trebuchet_MS_U0"/>
        <use fill="#00ff00" height="42.1" transform="matrix(0.0195, 0.0, 0.0, 0.0195, 129.45, 19.0)" width="119.35" xlink:href="#font_Trebuchet_MS_A0"/>
        <use fill="#00ff00" height="42.1" transform="matrix(0.0195, 0.0, 0.0, 0.0195, 138.05, 19.0)" width="119.35" xlink:href="#font_Trebuchet_MS_D0"/>
      </g>
      <g transform="matrix(1.0, 0.0, 0.0, 1.0, 0.0, 0.0)">
        <use fill="#00ff00" height="42.1" transform="matrix(0.0195, 0.0, 0.0, 0.0195, 91.0, 44.0)" width="119.35" xlink:href="#font_Trebuchet_MS_B0"/>
        <use fill="#00ff00" height="42.1" transform="matrix(0.0195, 0.0, 0.0, 0.0195, 99.2, 44.0)" width="119.35" xlink:href="#font_Trebuchet_MS_A0"/>
        <use fill="#00ff00" height="42.1" transform="matrix(0.0195, 0.0, 0.0, 0.0195, 107.85, 44.0)" width="119.35" xlink:href="#font_Trebuchet_MS_S0"/>
        <use fill="#00ff00" height="42.1" transform="matrix(0.0195, 0.0, 0.0, 0.0195, 114.35, 44.0)" width="119.35" xlink:href="#font_Trebuchet_MS_E0"/>
      </g>
    </g>
    <g id="sprite9" transform="matrix(1.0, 0.0, 0.0, 1.0, 118.0, 28.5)">
      <use data-characterId="1609" height="57.0" transform="matrix(1.0, 0.0, 0.0, 1.0, -118.0, -28.5)" width="236.0" xlink:href="#shape9"/>
      <use data-characterId="1610" height="18.7" transform="matrix(1.0, 0.0, 0.0, 1.0, -92.6, -7.6)" width="187.85" xlink:href="#text5"/>
    </g>
    <g id="shape9" transform="matrix(1.0, 0.0, 0.0, 1.0, 118.0, 28.5)">
      <path d="M-117.5 -28.0 L117.5 -28.0 117.5 28.0 -117.5 28.0 -117.5 -28.0" fill="#000000" fill-rule="evenodd" stroke="none"/>
      <path d="M-117.5 -28.0 L117.5 -28.0 117.5 28.0 -117.5 28.0 -117.5 -28.0 Z" fill="none" stroke="#cccccc" stroke-linecap="round" stroke-linejoin="round" stroke-width="1.0"/>
    </g>
    <g id="text5" transform="matrix(1.0, 0.0, 0.0, 1.0, -1.4, -2.2)">
      <g transform="matrix(1.0, 0.0, 0.0, 1.0, 0.0, 0.0)">
        <use fill="#00ff00" height="18.7" transform="matrix(0.0176, 0.0, 0.0, 0.0176, 0.0, 16.0)" width="187.85" xlink:href="#font_Arial_P0"/>
        <use fill="#00ff00" height="18.7" transform="matrix(0.0176, 0.0, 0.0, 0.0176, 12.0, 16.0)" width="187.85" xlink:href="#font_Arial_u0"/>
        <use fill="#00ff00" height="18.7" transform="matrix(0.0176, 0.0, 0.0, 0.0176, 22.0, 16.0)" width="187.85" xlink:href="#font_Arial_r0"/>
        <use fill="#00ff00" height="18.7" transform="matrix(0.0176, 0.0, 0.0, 0.0176, 28.0, 16.0)" width="187.85" xlink:href="#font_Arial_c0"/>
        <use fill="#00ff00" height="18.7" transform="matrix(0.0176, 0.0, 0.0, 0.0176, 37.0, 16.0)" width="187.85" xlink:href="#font_Arial_h0"/>
        <use fill="#00ff00" height="18.7" transform="matrix(0.0176, 0.0, 0.0, 0.0176, 47.0, 16.0)" width="187.85" xlink:href="#font_Arial_a0"/>
        <use fill="#00ff00" height="18.7" transform="matrix(0.0176, 0.0, 0.0, 0.0176, 57.0, 16.0)" width="187.85" xlink:href="#font_Arial_s0"/>
        <use fill="#00ff00" height="18.7" transform="matrix(0.0176, 0.0, 0.0, 0.0176, 66.0, 16.0)" width="187.85" xlink:href="#font_Arial_e0"/>
        <use fill="#00ff00" height="18.7" transform="matrix(0.0176, 0.0, 0.0, 0.0176, 81.0, 16.0)" width="187.85" xlink:href="#font_Arial_C0"/>
        <use fill="#00ff00" height="18.7" transform="matrix(0.0176, 0.0, 0.0, 0.0176, 94.0, 16.0)" width="187.85" xlink:href="#font_Arial_a0"/>
        <use fill="#00ff00" height="18.7" transform="matrix(0.0176, 0.0, 0.0, 0.0176, 104.0, 16.0)" width="187.85" xlink:href="#font_Arial_p0"/>
        <use fill="#00ff00" height="18.7" transform="matrix(0.0176, 0.0, 0.0, 0.0176, 114.0, 16.0)" width="187.85" xlink:href="#font_Arial_i0"/>
        <use fill="#00ff00" height="18.7" transform="matrix(0.0176, 0.0, 0.0, 0.0176, 118.0, 16.0)" width="187.85" xlink:href="#font_Arial_t0"/>
        <use fill="#00ff00" height="18.7" transform="matrix(0.0176, 0.0, 0.0, 0.0176, 123.0, 16.0)" width="187.85" xlink:href="#font_Arial_a0"/>
        <use fill="#00ff00" height="18.7" transform="matrix(0.0176, 0.0, 0.0, 0.0176, 133.0, 16.0)" width="187.85" xlink:href="#font_Arial_l0"/>
        <use fill="#00ff00" height="18.7" transform="matrix(0.0176, 0.0, 0.0, 0.0176, 142.0, 16.0)" width="187.85" xlink:href="#font_Arial_S0"/>
        <use fill="#00ff00" height="18.7" transform="matrix(0.0176, 0.0, 0.0, 0.0176, 154.0, 16.0)" width="187.85" xlink:href="#font_Arial_h0"/>
        <use fill="#00ff00" height="18.7" transform="matrix(0.0176, 0.0, 0.0, 0.0176, 164.0, 16.0)" width="187.85" xlink:href="#font_Arial_i0"/>
        <use fill="#00ff00" height="18.7" transform="matrix(0.0176, 0.0, 0.0, 0.0176, 168.0, 16.0)" width="187.85" xlink:href="#font_Arial_p0"/>
      </g>
    </g>
    <g id="font_Arial_P0">
      <path d="M176.0 -384.5 L176.0 -646.5 363.5 -646.5 Q429.5 -646.5 454.0 -640.0 492.0 -629.5 515.5 -596.5 538.5 -564.0 538.5 -518.0 538.5 -454.5 499.0 -419.5 459.5 -384.5 365.5 -384.5 L176.0 -384.5 M79.0 0.0 L176.0 0.0 176.0 -298.0 364.0 -298.0 Q519.5 -298.0 579.0 -362.5 638.5 -427.5 638.5 -521.0 638.5 -575.5 616.5 -621.0 594.0 -666.5 557.5 -691.5 521.0 -717.0 467.0 -726.0 428.5 -733.0 355.5 -733.0 L79.0 -733.0 79.0 0.0" fill-rule="evenodd" stroke="none"/>
    </g>
    <g id="font_Arial_u0">
      <path d="M415.5 0.0 L496.0 0.0 496.0 -531.0 406.0 -531.0 406.0 -246.5 Q406.0 -178.5 391.5 -142.5 376.5 -107.0 341.0 -86.0 305.5 -65.5 265.0 -65.5 224.5 -65.5 197.0 -85.5 169.5 -106.0 161.0 -141.5 155.5 -166.0 155.5 -236.5 L155.5 -531.0 65.5 -531.0 65.5 -202.0 Q65.5 -144.5 71.0 -118.0 79.0 -78.5 99.0 -51.0 118.5 -24.0 159.5 -6.0 200.0 12.0 247.0 12.0 353.5 12.0 415.5 -78.0 L415.5 0.0" fill-rule="evenodd" stroke="none"/>
    </g>
    <g id="font_Arial_r0">
      <path d="M66.5 0.0 L156.5 0.0 156.5 -278.0 Q156.5 -335.0 171.5 -383.0 181.5 -414.5 205.0 -432.0 228.5 -450.0 258.0 -450.0 291.0 -450.0 324.0 -430.5 L355.0 -514.0 Q308.0 -543.0 262.5 -543.0 231.0 -543.0 205.0 -525.0 178.5 -507.0 147.5 -450.5 L147.5 -531.0 66.5 -531.0 66.5 0.0" fill-rule="evenodd" stroke="none"/>
    </g>
    <g id="font_Arial_c0">
      <path d="M414.0 -194.5 Q404.5 -127.0 369.0 -94.5 333.5 -62.0 280.5 -62.0 214.5 -62.0 173.5 -110.5 132.5 -159.0 132.5 -266.0 132.5 -371.5 175.0 -420.0 217.5 -469.0 285.5 -469.0 330.5 -469.0 362.5 -442.0 394.0 -415.0 406.5 -361.5 L494.0 -375.0 Q478.5 -455.5 423.5 -499.0 368.5 -543.0 282.0 -543.0 213.5 -543.0 155.5 -510.5 97.0 -478.5 68.5 -414.0 40.0 -349.5 40.0 -263.5 40.0 -130.5 106.5 -59.0 172.5 12.0 281.5 12.0 368.5 12.0 428.5 -39.5 488.0 -91.5 502.5 -183.0 L414.0 -194.5" fill-rule="evenodd" stroke="none"/>
    </g>
    <g id="font_Arial_h0">
      <path d="M67.5 0.0 L157.5 0.0 157.5 -290.5 Q157.5 -353.0 172.5 -388.5 187.5 -424.0 223.0 -444.5 258.0 -465.5 298.0 -465.5 351.5 -465.5 381.0 -434.5 410.0 -404.0 410.0 -336.5 L410.0 0.0 500.0 0.0 500.0 -336.5 Q500.0 -414.5 481.5 -455.5 462.5 -496.5 419.0 -519.5 375.5 -543.0 316.5 -543.0 220.5 -543.0 157.5 -470.0 L157.5 -733.0 67.5 -733.0 67.5 0.0" fill-rule="evenodd" stroke="none"/>
    </g>
    <g id="font_Arial_a0">
      <path d="M406.5 -266.5 L406.5 -233.5 Q406.5 -174.0 392.0 -143.5 373.0 -104.0 332.5 -81.0 292.0 -58.5 240.0 -58.5 187.5 -58.5 160.5 -82.5 133.0 -106.5 133.0 -142.5 133.0 -166.0 145.5 -185.0 158.0 -204.5 181.0 -214.5 204.0 -224.5 259.5 -232.5 357.5 -246.5 406.5 -266.5 M414.0 -65.5 Q418.0 -28.0 432.0 0.0 L526.0 0.0 Q509.0 -30.5 503.5 -63.5 497.5 -97.0 497.5 -222.5 L497.5 -342.5 Q497.5 -402.5 493.0 -425.5 485.0 -462.5 465.0 -486.5 445.0 -511.0 402.5 -527.0 360.0 -543.0 292.0 -543.0 223.5 -543.0 171.5 -524.0 119.5 -505.5 92.0 -470.5 64.5 -436.0 52.5 -379.5 L140.5 -367.5 Q155.0 -424.0 185.5 -446.0 215.5 -468.5 279.0 -468.5 347.0 -468.5 381.5 -438.0 407.0 -415.5 407.0 -360.5 L406.5 -337.0 Q355.0 -319.0 246.0 -306.0 192.5 -299.5 166.0 -292.5 130.0 -282.5 101.5 -263.0 72.5 -243.5 55.0 -211.0 37.0 -179.0 37.0 -140.0 37.0 -73.5 84.0 -30.5 131.0 12.0 218.5 12.0 271.5 12.0 318.0 -5.5 364.0 -23.0 414.0 -65.5" fill-rule="evenodd" stroke="none"/>
    </g>
    <g id="font_Arial_s0">
      <path d="M31.5 -158.5 Q46.5 -74.0 101.0 -31.0 155.0 12.0 258.5 12.0 321.0 12.0 370.5 -9.5 420.0 -31.5 446.5 -71.0 472.5 -111.0 472.5 -156.0 472.5 -202.0 451.0 -233.0 429.5 -264.0 392.0 -280.0 354.0 -296.5 258.5 -322.0 192.5 -340.0 179.0 -345.0 155.5 -354.5 144.5 -369.0 133.5 -383.0 133.5 -400.5 133.5 -428.0 160.0 -448.5 186.5 -469.0 248.5 -469.0 301.0 -469.0 330.0 -446.0 358.5 -423.0 364.5 -382.0 L452.5 -394.0 Q444.0 -445.5 421.5 -476.0 399.0 -507.0 352.0 -525.0 304.5 -543.0 242.0 -543.0 200.5 -543.0 164.5 -532.0 128.0 -521.5 107.0 -506.0 79.0 -486.0 63.0 -455.5 46.5 -425.5 46.5 -390.0 46.5 -351.0 66.5 -318.5 86.0 -286.5 124.5 -268.0 162.5 -250.0 261.5 -225.0 335.0 -206.5 353.5 -194.5 380.0 -177.0 380.0 -146.5 380.0 -112.5 350.0 -87.0 320.0 -62.0 258.0 -62.0 196.5 -62.0 162.5 -90.5 128.0 -119.0 120.5 -172.5 L31.5 -158.5" fill-rule="evenodd" stroke="none"/>
    </g>
    <g id="font_Arial_e0">
      <path d="M135.5 -316.5 Q140.0 -386.0 182.5 -427.5 224.5 -469.0 286.5 -469.0 355.0 -469.0 398.0 -417.0 426.0 -383.5 432.0 -316.5 L135.5 -316.5 M431.0 -171.0 Q410.5 -114.0 375.5 -88.0 340.5 -62.0 291.0 -62.0 224.5 -62.0 180.0 -108.5 135.5 -155.0 130.5 -242.5 L526.5 -242.5 527.0 -266.5 Q527.0 -398.0 459.5 -470.5 392.0 -543.0 285.5 -543.0 175.5 -543.0 106.5 -469.0 37.5 -395.0 37.5 -261.0 37.5 -131.5 106.0 -59.5 174.0 12.0 290.5 12.0 383.0 12.0 442.5 -33.0 502.0 -78.0 524.0 -159.5 L431.0 -171.0" fill-rule="evenodd" stroke="none"/>
    </g>
    <g id="font_Arial_C0">
      <path d="M602.0 -257.0 Q582.0 -164.5 525.5 -117.5 469.0 -70.5 387.5 -70.5 320.5 -70.5 263.0 -105.0 205.5 -139.5 178.5 -209.0 151.0 -279.0 151.0 -372.5 151.0 -445.0 174.0 -513.0 197.0 -581.5 254.0 -622.0 310.5 -662.5 395.0 -662.5 468.5 -662.5 517.0 -626.0 565.5 -589.5 591.0 -509.5 639.0 -520.5 686.5 -532.0 657.0 -633.5 582.0 -689.5 507.0 -745.5 397.0 -745.5 300.0 -745.5 219.5 -701.0 138.5 -657.0 95.0 -571.5 51.0 -486.5 51.0 -372.0 51.0 -267.0 90.0 -175.5 128.5 -84.0 203.0 -35.5 277.0 12.5 395.5 12.5 510.0 12.5 589.5 -50.0 668.5 -113.0 699.0 -232.5 650.5 -244.5 602.0 -257.0" fill-rule="evenodd" stroke="none"/>
    </g>
    <g id="font_Arial_p0">
      <path d="M149.0 -262.5 Q149.0 -365.0 193.5 -418.5 237.5 -472.5 295.0 -472.5 353.0 -472.5 395.0 -422.0 436.5 -371.5 436.5 -270.0 436.5 -163.5 394.0 -112.5 351.0 -62.0 291.0 -62.0 232.0 -62.0 190.5 -111.0 149.0 -160.0 149.0 -262.5 M67.5 203.5 L157.5 203.5 157.5 -55.0 Q180.5 -26.0 216.5 -7.0 252.0 12.0 297.0 12.0 358.5 12.0 414.5 -22.5 470.0 -57.5 499.5 -122.5 528.5 -188.0 528.5 -269.5 528.5 -345.5 502.0 -409.0 475.5 -473.0 423.5 -508.0 371.5 -543.0 303.5 -543.0 251.5 -543.0 215.0 -522.5 178.5 -502.5 149.5 -462.0 L149.5 -531.0 67.5 -531.0 67.5 203.5" fill-rule="evenodd" stroke="none"/>
    </g>
    <g id="font_Arial_i0">
      <path d="M68.0 0.0 L158.0 0.0 158.0 -531.0 68.0 -531.0 68.0 0.0 M68.0 -629.5 L158.0 -629.5 158.0 -733.0 68.0 -733.0 68.0 -629.5" fill-rule="evenodd" stroke="none"/>
    </g>
    <g id="font_Arial_t0">
      <path d="M264.0 -80.5 Q239.5 -77.0 224.5 -77.0 204.5 -77.0 194.0 -83.5 183.0 -90.0 178.5 -101.0 173.5 -112.0 173.5 -150.5 L173.5 -461.0 264.0 -461.0 264.0 -531.0 173.5 -531.0 173.5 -716.5 84.0 -662.5 84.0 -531.0 18.0 -531.0 18.0 -461.0 84.0 -461.0 84.0 -155.5 Q84.0 -74.5 95.0 -49.0 106.0 -24.0 133.0 -8.5 160.0 7.0 209.0 7.0 239.0 7.0 277.0 -1.0 L264.0 -80.5" fill-rule="evenodd" stroke="none"/>
    </g>
    <g id="font_Arial_l0">
      <path d="M65.5 0.0 L155.5 0.0 155.5 -733.0 65.5 -733.0 65.5 0.0" fill-rule="evenodd" stroke="none"/>
    </g>
    <g id="font_Arial_S0">
      <path d="M46.0 -235.5 Q48.0 -162.0 86.5 -103.5 124.5 -45.5 192.0 -16.5 259.0 12.5 358.5 12.5 437.0 12.5 500.0 -16.0 562.5 -45.0 596.0 -96.5 629.5 -148.5 629.5 -207.0 629.5 -266.0 599.0 -311.0 568.5 -356.5 504.5 -386.0 460.5 -406.0 342.5 -432.5 224.0 -459.5 196.0 -485.0 167.5 -510.5 167.5 -550.0 167.5 -595.5 208.0 -627.5 248.0 -660.0 336.0 -660.0 420.5 -660.0 464.0 -624.5 507.0 -589.0 514.5 -519.5 L607.5 -526.5 Q605.0 -591.0 571.5 -642.0 538.0 -693.0 476.0 -719.0 413.5 -745.5 332.0 -745.5 258.0 -745.5 197.5 -720.5 137.0 -695.5 105.5 -647.0 74.0 -599.0 74.0 -543.5 74.0 -493.0 100.0 -452.0 125.5 -411.5 178.0 -384.0 218.5 -362.5 319.5 -338.0 420.5 -314.0 450.0 -302.5 496.0 -285.0 516.0 -259.0 536.0 -233.5 536.0 -199.0 536.0 -165.0 515.5 -136.0 494.5 -107.5 452.0 -91.0 409.5 -74.5 354.0 -74.5 291.5 -74.5 241.5 -96.0 191.5 -118.0 168.0 -153.0 144.0 -188.5 137.5 -243.5 L46.0 -235.5" fill-rule="evenodd" stroke="none"/>
    </g>
    <g id="sprite10" transform="matrix(1.0, 0.0, 0.0, 1.0, 63.0, 21.5)">
      <use data-characterId="1582" height="43.0" transform="matrix(1.0, 0.0, 0.0, 1.0, -63.0, -21.5)" width="126.0" xlink:href="#shape10"/>
      <use data-characterId="1583" height="22.0" id="savestatus" transform="matrix(1.0, 0.0, 0.0, 1.0, -59.7, -10.0)" width="115.7" xlink:href="#text6"/>
    </g>
    <g id="shape10" transform="matrix(1.0, 0.0, 0.0, 1.0, 63.0, 21.5)">
      <path d="M62.5 21.0 L-62.5 21.0 -62.5 -21.0 62.5 -21.0 62.5 21.0" fill="#000000" fill-rule="evenodd" stroke="none"/>
      <path d="M62.5 21.0 L-62.5 21.0 -62.5 -21.0 62.5 -21.0 62.5 21.0 Z" fill="none" stroke="#ffffff" stroke-linecap="round" stroke-linejoin="round" stroke-width="1.0"/>
    </g>
    <g id="text6" transform="matrix(1.0, 0.0, 0.0, 1.0, 2.0, 2.0)">
      <g transform="matrix(1.0, 0.0, 0.0, 1.0, -2.0, -2.0)">
        <use fill="#ffff00" height="22.0" transform="matrix(0.0137, 0.0, 0.0, 0.0137, 57.85, 16.0)" width="115.7" xlink:href="#font_Trebuchet_MS_S0"/>
        <use fill="#ffff00" height="22.0" transform="matrix(0.0137, 0.0, 0.0, 0.0137, 57.85, 16.0)" width="115.7" xlink:href="#font_Trebuchet_MS_A0"/>
        <use fill="#ffff00" height="22.0" transform="matrix(0.0137, 0.0, 0.0, 0.0137, 57.85, 16.0)" width="115.7" xlink:href="#font_Trebuchet_MS_V0"/>
        <use fill="#ffff00" height="22.0" transform="matrix(0.0137, 0.0, 0.0, 0.0137, 57.85, 16.0)" width="115.7" xlink:href="#font_Trebuchet_MS_E0"/>
      </g>
      <g transform="matrix(1.0, 0.0, 0.0, 1.0, -2.0, -2.0)">
        <use fill="#ffff00" height="22.0" transform="matrix(0.0137, 0.0, 0.0, 0.0137, 57.85, 16.0)" width="115.7" xlink:href="#font_Trebuchet_MS_G0"/>
        <use fill="#ffff00" height="22.0" transform="matrix(0.0137, 0.0, 0.0, 0.0137, 57.85, 16.0)" width="115.7" xlink:href="#font_Trebuchet_MS_A0"/>
        <use fill="#ffff00" height="22.0" transform="matrix(0.0137, 0.0, 0.0, 0.0137, 57.85, 16.0)" width="115.7" xlink:href="#font_Trebuchet_MS_M0"/>
        <use fill="#ffff00" height="22.0" transform="matrix(0.0137, 0.0, 0.0, 0.0137, 57.85, 16.0)" width="115.7" xlink:href="#font_Trebuchet_MS_E0"/>
      </g>
    </g>
    <g id="font_Trebuchet_MS_V0">
      <path d="M330.0 10.0 L595.0 -732.5 487.5 -732.5 Q397.0 -462.5 306.0 -193.0 L117.5 -732.5 6.5 -732.5 279.5 10.0 330.0 10.0" fill-rule="evenodd" stroke="none"/>
    </g>
    <g id="button0" transform="matrix(1.0, 0.0, 0.0, 1.0, 15.7, 24.5)">
      <use data-characterId="1530" height="22.0" transform="matrix(1.0, 0.0, 0.0, 1.0, -11.65, -10.05)" width="21.95" xlink:href="#shape11"/>
    </g>
    <g id="shape11" transform="matrix(1.0, 0.0, 0.0, 1.0, 11.65, 10.05)">
      <path d="M9.25 2.15 L6.95 2.15 Q6.9 1.25 6.25 0.6 5.55 -0.1 4.6 -0.1 3.6 -0.1 2.9 0.6 L2.85 0.65 -0.4 -2.25 -0.1 -2.5 Q0.45 -3.05 0.45 -3.8 0.45 -4.55 -0.1 -5.1 -0.6 -5.65 -1.35 -5.6 L-1.65 -5.6 -2.4 -8.6 -1.65 -5.6 -1.35 -5.6 Q-0.6 -5.65 -0.1 -5.1 0.45 -4.55 0.45 -3.8 0.45 -3.05 -0.1 -2.5 L-0.4 -2.25 2.85 0.65 2.9 0.6 Q3.6 -0.1 4.6 -0.1 5.55 -0.1 6.25 0.6 6.9 1.25 6.95 2.15 L9.25 2.15 Q8.85 5.5 6.4 8.0 3.45 10.9 -0.65 10.95 L-3.0 10.7 -3.05 10.65 -3.95 6.7 -4.5 6.75 Q-5.65 6.75 -6.5 5.9 -7.3 5.1 -7.3 3.95 L-7.2 3.25 -10.55 2.5 -7.2 3.25 Q-7.05 2.55 -6.5 2.0 -5.65 1.15 -4.5 1.2 L-3.75 1.3 -2.1 -2.1 -2.7 -2.5 Q-3.25 -3.05 -3.2 -3.8 -3.25 -4.55 -2.7 -5.1 -2.25 -5.5 -1.65 -5.6 -2.25 -5.5 -2.7 -5.1 -3.25 -4.55 -3.2 -3.8 -3.25 -3.05 -2.7 -2.5 L-2.1 -2.1 -3.75 1.3 -4.5 1.2 Q-5.65 1.15 -6.5 2.0 -7.05 2.55 -7.2 3.25 L-7.3 3.95 Q-7.3 5.1 -6.5 5.9 -5.65 6.75 -4.5 6.75 L-3.95 6.7 Q-3.15 6.5 -2.55 5.9 -1.75 5.1 -1.75 3.95 -1.75 2.8 -2.55 2.0 -3.1 1.45 -3.75 1.3 -3.1 1.45 -2.55 2.0 -1.75 2.8 -1.75 3.95 -1.75 5.1 -2.55 5.9 -3.15 6.5 -3.95 6.7 L-3.05 10.65 Q-5.7 10.05 -7.75 8.0 -10.1 5.65 -10.55 2.5 L-10.65 0.95 Q-10.7 -3.2 -7.75 -6.15 -4.8 -9.1 -0.65 -9.05 3.45 -9.1 6.4 -6.15 9.3 -3.2 9.3 0.95 L9.25 2.15 M-2.1 -2.1 L-1.35 -1.95 Q-0.85 -1.95 -0.4 -2.25 -0.85 -1.95 -1.35 -1.95 L-2.1 -2.1 M2.85 0.65 Q2.2 1.3 2.25 2.25 2.2 3.25 2.9 3.95 3.6 4.6 4.6 4.65 5.55 4.6 6.25 3.95 6.95 3.25 6.95 2.25 L6.95 2.15 6.95 2.25 Q6.95 3.25 6.25 3.95 5.55 4.6 4.6 4.65 3.6 4.6 2.9 3.95 2.2 3.25 2.25 2.25 2.2 1.3 2.85 0.65" fill="#ff9900" fill-rule="evenodd" stroke="none"/>
      <path d="M-2.4 -8.6 L-1.65 -5.6 -1.35 -5.6 Q-0.6 -5.65 -0.1 -5.1 0.45 -4.55 0.45 -3.8 0.45 -3.05 -0.1 -2.5 L-0.4 -2.25 2.85 0.65 2.9 0.6 Q3.6 -0.1 4.6 -0.1 5.55 -0.1 6.25 0.6 6.9 1.25 6.95 2.15 L9.25 2.15 9.3 0.95 Q9.3 -3.2 6.4 -6.15 3.45 -9.1 -0.65 -9.05 -4.8 -9.1 -7.75 -6.15 -10.7 -3.2 -10.65 0.95 L-10.55 2.5 -7.2 3.25 Q-7.05 2.55 -6.5 2.0 -5.65 1.15 -4.5 1.2 L-3.75 1.3 -2.1 -2.1 -2.7 -2.5 Q-3.25 -3.05 -3.2 -3.8 -3.25 -4.55 -2.7 -5.1 -2.25 -5.5 -1.65 -5.6 M-0.4 -2.25 Q-0.85 -1.95 -1.35 -1.95 L-2.1 -2.1 M-7.2 3.25 L-7.3 3.95 Q-7.3 5.1 -6.5 5.9 -5.65 6.75 -4.5 6.75 L-3.95 6.7 Q-3.15 6.5 -2.55 5.9 -1.75 5.1 -1.75 3.95 -1.75 2.8 -2.55 2.0 -3.1 1.45 -3.75 1.3 M-3.05 10.65 L-3.0 10.7 -0.65 10.95 Q3.45 10.9 6.4 8.0 8.85 5.5 9.25 2.15 M-3.05 10.65 L-3.95 6.7 M-10.55 2.5 Q-10.1 5.65 -7.75 8.0 -5.7 10.05 -3.05 10.65 M6.95 2.15 L6.95 2.25 Q6.95 3.25 6.25 3.95 5.55 4.6 4.6 4.65 3.6 4.6 2.9 3.95 2.2 3.25 2.25 2.25 2.2 1.3 2.85 0.65" fill="none" stroke="#000000" stroke-linecap="round" stroke-linejoin="round" stroke-width="2.0"/>
    </g>
  </defs>
</svg>
