<?xml version="1.0" encoding="UTF-8" standalone="no"?>
<svg xmlns:xlink="http://www.w3.org/1999/xlink" height="564.7px" width="1151.8px" xmlns="http://www.w3.org/2000/svg">
  <g transform="matrix(1.0, 0.0, 0.0, 1.0, 742.8, 272.2)">
    <use data-characterId="1740" height="415.05" id="squadinformation" transform="matrix(1.0, 0.0, 0.0, 1.0, -742.8, -272.2)" width="1076.0" xlink:href="#sprite0"/>
  </g>
  <defs>
    <g id="sprite0" transform="matrix(1.0, 0.0, 0.0, 1.0, 719.5, 186.15)">
      <use data-characterId="1685" height="242.35" transform="matrix(1.0, 0.0, 0.0, 1.0, -359.0, -119.35)" width="479.15" xlink:href="#shape0"/>
      <use data-characterId="1686" height="17.75" transform="matrix(1.0, 0.0, 0.0, 1.0, -338.4, -175.15)" width="211.65" xlink:href="#text0"/>
      <use data-characterId="1069" height="20.25" id="exit" transform="matrix(1.0, 0.0, 0.0, 1.0, 194.05, -55.3)" width="66.0" xlink:href="#sprite1"/>
      <use data-characterId="1687" height="12.35" transform="matrix(0.9998, 0.0, 0.0, 1.0025, -267.4501, -134.1452)" width="74.2" xlink:href="#text2"/>
      <use data-characterId="1688" height="12.45" transform="matrix(0.9998, 0.0, 0.0, 1.0025, -267.6001, -86.4455)" width="74.65" xlink:href="#text3"/>
      <use data-characterId="1689" height="12.45" transform="matrix(0.9998, 0.0, 0.0, 1.0025, -267.2502, -37.5455)" width="72.1" xlink:href="#text4"/>
      <use data-characterId="1690" height="20.25" id="creatorname" transform="matrix(0.9997, 0.0, 0.0, 1.0025, -269.9995, -116.3049)" width="182.95" xlink:href="#text5"/>
      <use data-characterId="1691" height="20.25" id="secondname" transform="matrix(0.9997, 0.0, 0.0, 1.0025, -269.9995, -67.8049)" width="182.95" xlink:href="#text6"/>
      <use data-characterId="1692" height="20.25" id="thirdname" transform="matrix(0.9997, 0.0, 0.0, 1.0025, -269.9995, -19.9049)" width="182.95" xlink:href="#text7"/>
      <use data-characterId="1069" height="20.25" id="secondin" transform="matrix(1.0, 0.0, 0.0, 1.0025, -155.5, -90.776)" width="66.0" xlink:href="#sprite1"/>
      <use data-characterId="1069" height="20.25" id="thirdin" transform="matrix(1.0, 0.0, 0.0, 1.0025, -156.5, -40.776)" width="66.0" xlink:href="#sprite1"/>
      <use data-characterId="1693" height="12.45" transform="matrix(1.0, 0.0, 0.0, 1.0, -14.8, -140.6)" width="50.45" xlink:href="#text8"/>
      <use data-characterId="1694" height="172.0" id="squadmemberlist" transform="matrix(1.0, 0.0, 0.0, 1.0, -14.5, -114.5)" width="124.9" xlink:href="#text9"/>
      <use data-characterId="1695" height="21.1" id="noofmembers" transform="matrix(1.0, 0.0, 0.0, 1.0, 48.0, -144.6)" width="42.4" xlink:href="#text10"/>
      <use data-characterId="1696" height="16.0" transform="matrix(1.0, 0.0, 0.0, 1.0, -54.05, 40.6)" width="26.0" xlink:href="#button0"/>
      <use data-characterId="1697" height="16.0" transform="matrix(1.0, 0.0, 0.0, 1.0, -54.05, -113.8)" width="26.0" xlink:href="#button1"/>
      <use data-characterId="1705" height="120.35" id="alterations" transform="matrix(1.0, 0.0, 0.0, 1.0, -59.95, 72.15)" width="364.0" xlink:href="#sprite2"/>
      <use data-characterId="1710" height="56.0" id="changeleader" transform="matrix(1.0, 0.0, 0.0, 1.0, -359.95, 133.0)" width="287.0" xlink:href="#sprite3"/>
      <use data-characterId="1711" height="20.25" transform="matrix(1.0, 0.0, 0.0, 1.0, -359.0, 8.85)" width="155.0" xlink:href="#text20"/>
      <use data-characterId="1712" height="94.0" id="squadmessage" transform="matrix(1.0, 0.0, 0.0, 1.0, -360.0, 27.85)" width="280.0" xlink:href="#text21"/>
      <use data-characterId="1716" height="126.4" id="changemessage" transform="matrix(1.0, 0.0, 0.0, 1.0, -719.5, 47.0)" width="287.0" xlink:href="#sprite4"/>
      <use data-characterId="1069" height="20.25" id="changemessagebut" transform="matrix(1.0, 0.0, 0.0, 1.0025, -181.0, 4.074)" width="66.0" xlink:href="#sprite1"/>
      <use data-characterId="1069" height="20.25" id="treaties" transform="matrix(1.0, 0.0, 0.0, 1.0025, 194.1, -91.276)" width="66.0" xlink:href="#sprite1"/>
      <use data-characterId="1718" height="55.55" transform="matrix(0.9998, 0.0, 0.0, 1.0025, -36.5495, -186.1549)" width="393.15" xlink:href="#text24"/>
      <use data-characterId="1719" height="15.15" transform="matrix(0.9998, 0.0, 0.0, 1.0025, -78.9503, 194.7045)" width="262.5" xlink:href="#text25"/>
      <use data-characterId="1720" height="15.15" transform="matrix(0.9998, 0.0, 0.0, 1.0025, -83.1001, 213.7045)" width="263.8" xlink:href="#text26"/>
    </g>
    <g id="shape0" transform="matrix(1.0, 0.0, 0.0, 1.0, 359.0, 119.35)">
      <path d="M119.65 60.15 L-19.2 60.15 -19.2 -118.85 119.65 -118.85 119.65 60.15 M-79.5 122.5 L-358.5 122.5 -358.5 28.5 -79.5 28.5 -79.5 122.5 Z" fill="none" stroke="#cccccc" stroke-linecap="round" stroke-linejoin="round" stroke-width="1.0"/>
    </g>
    <g id="text0" transform="matrix(1.0, 0.0, 0.0, 1.0, -47.6, -2.8)">
      <g transform="matrix(1.0, 0.0, 0.0, 1.0, 0.0, 0.0)">
        <use fill="#00ff00" height="17.75" transform="matrix(0.0176, 0.0, 0.0, 0.0176, 47.0, 17.0)" width="211.65" xlink:href="#font_Trebuchet_MS_S0"/>
        <use fill="#00ff00" height="17.75" transform="matrix(0.0176, 0.0, 0.0, 0.0176, 52.85, 17.0)" width="211.65" xlink:href="#font_Trebuchet_MS_Q0"/>
        <use fill="#00ff00" height="17.75" transform="matrix(0.0176, 0.0, 0.0, 0.0176, 62.2, 17.0)" width="211.65" xlink:href="#font_Trebuchet_MS_U0"/>
        <use fill="#00ff00" height="17.75" transform="matrix(0.0176, 0.0, 0.0, 0.0176, 71.05, 17.0)" width="211.65" xlink:href="#font_Trebuchet_MS_A0"/>
        <use fill="#00ff00" height="17.75" transform="matrix(0.0176, 0.0, 0.0, 0.0176, 78.85, 17.0)" width="211.65" xlink:href="#font_Trebuchet_MS_D0"/>
        <use fill="#00ff00" height="17.75" transform="matrix(0.0176, 0.0, 0.0, 0.0176, 89.65, 17.0)" width="211.65" xlink:href="#font_Trebuchet_MS_I0"/>
        <use fill="#00ff00" height="17.75" transform="matrix(0.0176, 0.0, 0.0, 0.0176, 91.85, 17.0)" width="211.65" xlink:href="#font_Trebuchet_MS_N0"/>
        <use fill="#00ff00" height="17.75" transform="matrix(0.0176, 0.0, 0.0, 0.0176, 100.55, 17.0)" width="211.65" xlink:href="#font_Trebuchet_MS_F0"/>
        <use fill="#00ff00" height="17.75" transform="matrix(0.0176, 0.0, 0.0, 0.0176, 107.15, 17.0)" width="211.65" xlink:href="#font_Trebuchet_MS_O0"/>
        <use fill="#00ff00" height="17.75" transform="matrix(0.0176, 0.0, 0.0, 0.0176, 116.5, 17.0)" width="211.65" xlink:href="#font_Trebuchet_MS_R0"/>
        <use fill="#00ff00" height="17.75" transform="matrix(0.0176, 0.0, 0.0, 0.0176, 124.2, 17.0)" width="211.65" xlink:href="#font_Trebuchet_MS_M0"/>
        <use fill="#00ff00" height="17.75" transform="matrix(0.0176, 0.0, 0.0, 0.0176, 134.15, 17.0)" width="211.65" xlink:href="#font_Trebuchet_MS_A0"/>
        <use fill="#00ff00" height="17.75" transform="matrix(0.0176, 0.0, 0.0, 0.0176, 140.2, 17.0)" width="211.65" xlink:href="#font_Trebuchet_MS_T0"/>
        <use fill="#00ff00" height="17.75" transform="matrix(0.0176, 0.0, 0.0, 0.0176, 147.85, 17.0)" width="211.65" xlink:href="#font_Trebuchet_MS_I0"/>
        <use fill="#00ff00" height="17.75" transform="matrix(0.0176, 0.0, 0.0, 0.0176, 150.05, 17.0)" width="211.65" xlink:href="#font_Trebuchet_MS_O0"/>
        <use fill="#00ff00" height="17.75" transform="matrix(0.0176, 0.0, 0.0, 0.0176, 159.4, 17.0)" width="211.65" xlink:href="#font_Trebuchet_MS_N0"/>
        <use fill="#00ff00" height="17.75" transform="matrix(0.0176, 0.0, 0.0, 0.0176, 168.1, 17.0)" width="211.65" xlink:href="#font_Trebuchet_MS__1"/>
        <use fill="#00ff00" height="17.75" transform="matrix(0.0176, 0.0, 0.0, 0.0176, 174.7, 17.0)" width="211.65" xlink:href="#font_Trebuchet_MS_M0"/>
        <use fill="#00ff00" height="17.75" transform="matrix(0.0176, 0.0, 0.0, 0.0176, 184.65, 17.0)" width="211.65" xlink:href="#font_Trebuchet_MS_A0"/>
        <use fill="#00ff00" height="17.75" transform="matrix(0.0176, 0.0, 0.0, 0.0176, 192.45, 17.0)" width="211.65" xlink:href="#font_Trebuchet_MS_N0"/>
        <use fill="#00ff00" height="17.75" transform="matrix(0.0176, 0.0, 0.0, 0.0176, 201.15, 17.0)" width="211.65" xlink:href="#font_Trebuchet_MS_A0"/>
        <use fill="#00ff00" height="17.75" transform="matrix(0.0176, 0.0, 0.0, 0.0176, 208.95, 17.0)" width="211.65" xlink:href="#font_Trebuchet_MS_G0"/>
        <use fill="#00ff00" height="17.75" transform="matrix(0.0176, 0.0, 0.0, 0.0176, 218.3, 17.0)" width="211.65" xlink:href="#font_Trebuchet_MS_M0"/>
        <use fill="#00ff00" height="17.75" transform="matrix(0.0176, 0.0, 0.0, 0.0176, 228.25, 17.0)" width="211.65" xlink:href="#font_Trebuchet_MS_E0"/>
        <use fill="#00ff00" height="17.75" transform="matrix(0.0176, 0.0, 0.0, 0.0176, 235.1, 17.0)" width="211.65" xlink:href="#font_Trebuchet_MS_N0"/>
        <use fill="#00ff00" height="17.75" transform="matrix(0.0176, 0.0, 0.0, 0.0176, 243.8, 17.0)" width="211.65" xlink:href="#font_Trebuchet_MS_T0"/>
      </g>
    </g>
    <g id="font_Trebuchet_MS_S0">
      <path d="M42.0 -33.5 Q111.0 12.5 208.5 12.5 319.5 12.5 386.0 -45.0 452.0 -102.5 452.0 -185.0 452.0 -261.0 422.0 -310.0 391.5 -359.5 316.5 -395.0 286.5 -409.0 256.5 -423.5 198.5 -451.5 180.0 -467.0 161.0 -482.5 150.5 -505.5 140.0 -528.5 140.0 -556.5 140.0 -602.0 169.5 -631.0 198.5 -660.0 249.5 -660.0 284.5 -660.0 325.5 -646.5 366.5 -633.0 386.5 -618.5 401.5 -662.0 416.0 -705.5 368.5 -745.0 247.0 -745.0 156.0 -745.0 98.0 -691.0 40.0 -637.0 40.0 -555.0 40.0 -487.5 70.0 -439.5 99.5 -391.5 174.5 -356.5 204.0 -342.5 233.5 -329.0 313.0 -291.5 333.0 -259.5 352.5 -228.0 352.5 -191.0 352.5 -141.5 317.0 -109.5 281.5 -77.5 223.0 -77.5 190.0 -77.5 148.5 -91.0 106.5 -105.0 78.5 -125.5 60.5 -79.5 42.0 -33.5" fill-rule="evenodd" stroke="none"/>
    </g>
    <g id="font_Trebuchet_MS_Q0">
      <path d="M335.0 -655.5 Q545.0 -655.5 545.0 -372.5 545.0 -234.0 491.5 -155.5 438.0 -77.5 335.0 -77.5 244.5 -77.5 195.0 -162.0 145.0 -246.5 145.0 -372.5 145.0 -503.5 193.5 -579.5 242.0 -655.5 335.0 -655.5 M760.0 54.0 L682.0 54.0 Q553.5 54.0 499.0 -26.0 650.0 -120.0 650.0 -372.5 650.0 -548.5 569.0 -647.0 487.5 -745.5 335.0 -745.5 199.0 -745.5 119.5 -638.0 40.0 -531.0 40.0 -372.5 40.0 -203.5 118.5 -95.5 196.5 12.5 335.0 12.5 386.0 12.5 401.5 6.0 483.0 151.5 745.0 151.5 L760.0 54.0" fill-rule="evenodd" stroke="none"/>
    </g>
    <g id="font_Trebuchet_MS_U0">
      <path d="M75.0 -732.5 L75.0 -223.5 Q75.0 -109.5 141.5 -48.5 208.0 12.5 331.0 12.5 450.5 12.5 520.0 -49.5 589.0 -112.0 589.0 -223.0 L589.0 -732.5 489.0 -732.5 489.0 -233.5 Q489.0 -161.5 446.5 -119.5 404.0 -77.5 330.0 -77.5 260.0 -77.5 217.5 -120.5 175.0 -164.0 175.0 -231.0 L175.0 -732.5 75.0 -732.5" fill-rule="evenodd" stroke="none"/>
    </g>
    <g id="font_Trebuchet_MS_A0">
      <path d="M308.0 -550.5 L412.0 -228.0 194.5 -228.0 Q251.5 -389.0 308.0 -550.5 M491.0 0.0 L602.0 0.0 326.0 -742.5 299.5 -742.5 Q151.0 -371.0 2.0 0.0 L114.0 0.0 168.0 -154.5 440.5 -154.5 491.0 0.0" fill-rule="evenodd" stroke="none"/>
    </g>
    <g id="font_Trebuchet_MS_D0">
      <path d="M175.0 -642.5 Q235.5 -647.5 249.5 -647.5 483.0 -647.5 483.0 -387.5 483.0 -247.5 423.0 -168.5 363.0 -90.0 258.0 -90.0 208.5 -90.0 175.0 -95.0 L175.0 -642.5 M222.5 0.0 Q588.0 0.0 588.0 -396.0 588.0 -551.0 498.5 -644.0 409.0 -737.5 255.5 -737.5 216.0 -737.5 75.0 -732.5 L75.0 0.0 222.5 0.0" fill-rule="evenodd" stroke="none"/>
    </g>
    <g id="font_Trebuchet_MS_I0">
      <path d="M92.5 0.0 L192.5 0.0 192.5 -732.5 92.5 -732.5 92.5 0.0" fill-rule="evenodd" stroke="none"/>
    </g>
    <g id="font_Trebuchet_MS_N0">
      <path d="M548.5 10.0 L578.5 10.0 578.5 -732.5 483.5 -732.5 483.5 -226.0 115.0 -732.5 75.0 -732.5 75.0 0.0 170.0 0.0 170.0 -525.5 548.5 10.0" fill-rule="evenodd" stroke="none"/>
    </g>
    <g id="font_Trebuchet_MS_F0">
      <path d="M175.0 -642.5 L527.5 -642.5 527.5 -732.5 75.0 -732.5 75.0 0.0 175.0 0.0 175.0 -354.0 432.5 -354.0 432.5 -439.0 175.0 -439.0 175.0 -642.5" fill-rule="evenodd" stroke="none"/>
    </g>
    <g id="font_Trebuchet_MS_O0">
      <path d="M145.0 -372.5 Q145.0 -503.5 193.5 -579.5 242.0 -655.5 335.0 -655.5 545.0 -655.5 545.0 -372.5 545.0 -232.5 491.5 -155.0 437.5 -77.5 335.0 -77.5 244.5 -77.5 195.0 -162.0 145.0 -246.5 145.0 -372.5 M40.0 -372.5 Q40.0 -203.5 118.5 -95.5 196.5 12.5 335.0 12.5 487.0 12.5 568.5 -89.5 650.0 -192.0 650.0 -372.5 650.0 -548.5 569.0 -647.0 487.5 -745.5 335.0 -745.5 199.5 -745.5 120.0 -638.5 40.0 -531.5 40.0 -372.5" fill-rule="evenodd" stroke="none"/>
    </g>
    <g id="font_Trebuchet_MS_R0">
      <path d="M180.0 -642.5 Q224.0 -647.5 239.0 -647.5 334.0 -647.5 378.0 -620.5 422.0 -593.5 422.0 -532.0 422.0 -457.5 381.0 -428.5 340.0 -399.5 250.0 -399.5 216.0 -399.5 180.0 -404.5 L180.0 -642.5 M481.5 0.0 L596.0 0.0 383.5 -337.0 Q442.0 -350.5 484.5 -405.5 527.0 -461.0 527.0 -530.0 527.0 -740.0 263.0 -740.0 L158.0 -736.0 80.0 -732.5 80.0 0.0 180.0 0.0 180.0 -319.5 Q252.5 -314.5 286.0 -314.5 L481.5 0.0" fill-rule="evenodd" stroke="none"/>
    </g>
    <g id="font_Trebuchet_MS_M0">
      <path d="M626.5 0.0 L721.5 0.0 573.0 -732.5 528.0 -732.5 367.0 -198.0 192.5 -732.5 147.0 -732.5 10.0 0.0 105.0 0.0 190.0 -470.5 354.5 10.0 379.5 10.0 539.5 -470.5 626.5 0.0" fill-rule="evenodd" stroke="none"/>
    </g>
    <g id="font_Trebuchet_MS_T0">
      <path d="M342.0 -642.5 L585.5 -642.5 585.5 -732.5 9.0 -732.5 9.0 -642.5 242.0 -642.5 242.0 0.0 342.0 0.0 342.0 -642.5" fill-rule="evenodd" stroke="none"/>
    </g>
    <g id="font_Trebuchet_MS__1">
      <path d="M175.0 0.0 Q307.5 -367.5 439.5 -735.5 L360.0 -735.5 Q227.5 -367.5 94.5 0.0 L175.0 0.0" fill-rule="evenodd" stroke="none"/>
    </g>
    <g id="font_Trebuchet_MS_G0">
      <path d="M582.5 -681.5 Q510.5 -745.0 396.0 -745.0 232.5 -745.0 136.5 -639.0 40.0 -533.5 40.0 -363.5 40.0 -193.0 128.0 -90.0 215.5 12.5 367.0 12.5 434.5 12.5 506.0 -8.0 577.5 -29.0 617.5 -63.0 L617.5 -382.0 416.0 -382.0 416.0 -297.0 517.5 -297.0 517.5 -125.5 Q468.0 -77.5 388.0 -77.5 275.5 -77.5 210.5 -155.0 145.0 -232.5 145.0 -359.5 145.0 -493.0 211.5 -574.0 278.0 -655.0 393.0 -655.0 465.5 -655.0 541.0 -599.0 562.0 -640.0 582.5 -681.5" fill-rule="evenodd" stroke="none"/>
    </g>
    <g id="font_Trebuchet_MS_E0">
      <path d="M175.0 -642.5 L512.5 -642.5 512.5 -732.5 75.0 -732.5 75.0 0.0 507.0 0.0 507.0 -90.0 175.0 -90.0 175.0 -354.0 417.0 -354.0 417.0 -439.0 175.0 -439.0 175.0 -642.5" fill-rule="evenodd" stroke="none"/>
    </g>
    <g id="sprite1" transform="matrix(1.0, 0.0, 0.0, 1.0, 46.0, 10.25)">
      <use data-characterId="1067" height="18.85" transform="matrix(1.0, 0.0, 0.0, 1.0, -46.0, -10.25)" width="66.0" xlink:href="#shape1"/>
      <use data-characterId="1068" height="19.0" id="label" transform="matrix(1.0, 0.0, 0.0, 1.0, -42.85, -9.0)" width="61.35" xlink:href="#text1"/>
    </g>
    <g id="shape1" transform="matrix(1.0, 0.0, 0.0, 1.0, 46.0, 10.25)">
      <path d="M19.5 -9.75 L19.5 8.1 -45.5 8.1 -45.5 -9.75 19.5 -9.75" fill="#ffff00" fill-rule="evenodd" stroke="none"/>
      <path d="M19.5 -9.75 L19.5 8.1 -45.5 8.1 -45.5 -9.75 19.5 -9.75 Z" fill="none" stroke="#cccccc" stroke-linecap="round" stroke-linejoin="round" stroke-width="1.0"/>
    </g>
    <g id="text1" transform="matrix(1.0, 0.0, 0.0, 1.0, 2.0, 2.0)">
      <g transform="matrix(1.0, 0.0, 0.0, 1.0, -2.0, -2.0)">
        <use fill="#000000" height="19.0" transform="matrix(0.0117, 0.0, 0.0, 0.0117, 30.65, 14.0)" width="61.35" xlink:href="#font_Trebuchet_MS_U0"/>
        <use fill="#000000" height="19.0" transform="matrix(0.0117, 0.0, 0.0, 0.0117, 30.65, 14.0)" width="61.35" xlink:href="#font_Trebuchet_MS_P0"/>
        <use fill="#000000" height="19.0" transform="matrix(0.0117, 0.0, 0.0, 0.0117, 30.65, 14.0)" width="61.35" xlink:href="#font_Trebuchet_MS_G0"/>
        <use fill="#000000" height="19.0" transform="matrix(0.0117, 0.0, 0.0, 0.0117, 30.65, 14.0)" width="61.35" xlink:href="#font_Trebuchet_MS_R0"/>
        <use fill="#000000" height="19.0" transform="matrix(0.0117, 0.0, 0.0, 0.0117, 30.65, 14.0)" width="61.35" xlink:href="#font_Trebuchet_MS_A0"/>
        <use fill="#000000" height="19.0" transform="matrix(0.0117, 0.0, 0.0, 0.0117, 30.65, 14.0)" width="61.35" xlink:href="#font_Trebuchet_MS_D0"/>
        <use fill="#000000" height="19.0" transform="matrix(0.0117, 0.0, 0.0, 0.0117, 30.65, 14.0)" width="61.35" xlink:href="#font_Trebuchet_MS_E0"/>
      </g>
    </g>
    <g id="font_Trebuchet_MS_P0">
      <path d="M175.0 -642.5 Q209.5 -647.5 229.5 -647.5 428.0 -647.5 428.0 -513.5 428.0 -367.0 242.0 -367.0 L175.0 -372.0 175.0 -642.5 M175.0 -282.0 Q232.0 -277.0 249.0 -277.0 531.0 -277.0 531.0 -524.0 531.0 -737.5 212.0 -737.5 L75.0 -732.5 75.0 0.0 175.0 0.0 175.0 -282.0" fill-rule="evenodd" stroke="none"/>
    </g>
    <g id="text2" transform="matrix(1.0, 0.0, 0.0, 1.0, -0.55, -1.95)">
      <g transform="matrix(1.0, 0.0, 0.0, 1.0, 0.0, 0.0)">
        <use fill="#00ff00" height="12.35" transform="matrix(0.0137, 0.0, 0.0, 0.0137, 0.0, 13.0)" width="74.2" xlink:href="#font_Trebuchet_MS_C0"/>
        <use fill="#00ff00" height="12.35" transform="matrix(0.0137, 0.0, 0.0, 0.0137, 6.3, 13.0)" width="74.2" xlink:href="#font_Trebuchet_MS_r0"/>
        <use fill="#00ff00" height="12.35" transform="matrix(0.0137, 0.0, 0.0, 0.0137, 9.7, 13.0)" width="74.2" xlink:href="#font_Trebuchet_MS_e0"/>
        <use fill="#00ff00" height="12.35" transform="matrix(0.0137, 0.0, 0.0, 0.0137, 15.3, 13.0)" width="74.2" xlink:href="#font_Trebuchet_MS_a0"/>
        <use fill="#00ff00" height="12.35" transform="matrix(0.0137, 0.0, 0.0, 0.0137, 20.6, 13.0)" width="74.2" xlink:href="#font_Trebuchet_MS_t0"/>
        <use fill="#00ff00" height="12.35" transform="matrix(0.0137, 0.0, 0.0, 0.0137, 24.1, 13.0)" width="74.2" xlink:href="#font_Trebuchet_MS_o0"/>
        <use fill="#00ff00" height="12.35" transform="matrix(0.0137, 0.0, 0.0, 0.0137, 29.55, 13.0)" width="74.2" xlink:href="#font_Trebuchet_MS_r0"/>
        <use fill="#00ff00" height="12.35" transform="matrix(0.0137, 0.0, 0.0, 0.0137, 32.95, 13.0)" width="74.2" xlink:href="#font_Trebuchet_MS__1"/>
        <use fill="#00ff00" height="12.35" transform="matrix(0.0137, 0.0, 0.0, 0.0137, 38.25, 13.0)" width="74.2" xlink:href="#font_Trebuchet_MS_O0"/>
        <use fill="#00ff00" height="12.35" transform="matrix(0.0137, 0.0, 0.0, 0.0137, 45.65, 13.0)" width="74.2" xlink:href="#font_Trebuchet_MS_w0"/>
        <use fill="#00ff00" height="12.35" transform="matrix(0.0137, 0.0, 0.0, 0.0137, 54.0, 13.0)" width="74.2" xlink:href="#font_Trebuchet_MS_n0"/>
        <use fill="#00ff00" height="12.35" transform="matrix(0.0137, 0.0, 0.0, 0.0137, 59.6, 13.0)" width="74.2" xlink:href="#font_Trebuchet_MS_e0"/>
        <use fill="#00ff00" height="12.35" transform="matrix(0.0137, 0.0, 0.0, 0.0137, 65.2, 13.0)" width="74.2" xlink:href="#font_Trebuchet_MS_r0"/>
      </g>
    </g>
    <g id="font_Trebuchet_MS_C0">
      <path d="M542.5 -705.5 Q475.0 -745.0 355.5 -745.0 216.0 -745.0 128.0 -636.5 40.0 -528.0 40.0 -364.0 40.0 -194.5 122.5 -91.0 205.0 12.5 348.5 12.5 485.5 12.5 572.5 -74.0 545.0 -112.0 517.5 -150.5 462.0 -77.5 359.0 -77.5 264.5 -77.5 205.0 -155.0 145.0 -233.0 145.0 -358.0 145.0 -489.0 203.5 -572.0 261.5 -655.0 358.0 -655.0 461.0 -655.0 509.0 -620.0 526.0 -662.5 542.5 -705.5" fill-rule="evenodd" stroke="none"/>
    </g>
    <g id="font_Trebuchet_MS_r0">
      <path d="M358.5 -444.0 Q378.5 -490.0 398.0 -536.5 350.0 -545.5 324.5 -545.5 222.0 -545.5 170.0 -450.0 L170.0 -535.5 75.0 -535.5 75.0 0.0 170.0 0.0 170.0 -307.0 Q170.0 -372.5 208.0 -419.0 245.5 -465.5 296.0 -465.5 327.5 -465.5 358.5 -444.0" fill-rule="evenodd" stroke="none"/>
    </g>
    <g id="font_Trebuchet_MS_e0">
      <path d="M288.0 -465.5 Q356.0 -465.5 395.5 -423.5 431.5 -385.0 431.5 -327.5 L135.0 -327.5 Q140.5 -385.5 181.5 -424.5 224.5 -465.5 288.0 -465.5 M518.5 -258.5 Q526.0 -285.0 526.0 -316.5 526.0 -419.0 463.0 -481.0 398.0 -545.5 283.5 -545.5 185.0 -545.5 113.0 -474.0 32.5 -394.0 32.5 -261.5 32.5 -134.0 111.0 -58.5 181.5 10.0 282.5 10.0 352.5 10.0 409.5 -11.0 455.0 -27.0 477.0 -49.0 L437.0 -117.5 Q382.5 -70.0 301.0 -70.0 229.5 -70.0 184.0 -114.0 132.5 -164.5 132.5 -258.5 L518.5 -258.5" fill-rule="evenodd" stroke="none"/>
    </g>
    <g id="font_Trebuchet_MS_a0">
      <path d="M361.0 -263.0 L361.0 -133.5 Q305.5 -65.0 233.5 -65.0 135.0 -65.0 135.0 -148.5 135.0 -199.0 180.5 -236.0 226.0 -273.0 298.0 -273.0 316.0 -273.0 361.0 -263.0 M370.0 -61.5 Q382.5 -23.5 411.5 -7.0 440.0 9.5 498.0 9.5 L498.0 -38.0 Q456.0 -61.5 456.0 -132.0 L456.0 -324.0 Q456.0 -439.5 403.5 -492.5 350.5 -545.5 234.0 -545.5 190.5 -545.5 143.0 -529.5 95.0 -514.0 68.0 -492.0 L108.0 -412.5 Q156.0 -460.5 245.0 -460.5 361.0 -460.5 361.0 -330.5 323.0 -343.5 293.0 -343.5 182.5 -343.5 111.5 -287.0 40.0 -231.0 40.0 -149.5 40.0 -81.5 86.5 -35.5 132.5 10.0 195.5 10.0 313.0 10.0 370.0 -61.5" fill-rule="evenodd" stroke="none"/>
    </g>
    <g id="font_Trebuchet_MS_t0">
      <path d="M101.5 -460.5 L101.5 -156.5 Q101.5 -84.5 145.5 -37.0 189.0 10.0 252.5 10.0 323.0 10.0 382.0 -5.0 L368.0 -88.5 Q329.0 -70.0 292.5 -70.0 242.0 -70.0 219.5 -98.5 196.5 -127.0 196.5 -194.5 L196.5 -460.5 343.5 -460.5 343.5 -535.5 196.5 -535.5 196.5 -684.0 Q149.0 -665.5 101.5 -647.5 L101.5 -535.5 39.5 -535.5 39.5 -460.5 101.5 -460.5" fill-rule="evenodd" stroke="none"/>
    </g>
    <g id="font_Trebuchet_MS_o0">
      <path d="M132.5 -269.0 Q132.5 -362.0 171.5 -415.0 210.0 -468.0 275.0 -468.0 417.0 -468.0 417.0 -269.0 417.0 -175.5 379.5 -121.5 341.5 -67.5 275.0 -67.5 132.5 -67.5 132.5 -269.0 M32.5 -269.0 Q32.5 -141.0 96.5 -65.5 160.5 10.0 275.0 10.0 387.0 10.0 452.0 -64.5 517.0 -139.5 517.0 -269.0 517.0 -399.0 453.5 -472.0 390.0 -545.5 275.0 -545.5 166.0 -545.5 99.5 -469.0 32.5 -393.0 32.5 -269.0" fill-rule="evenodd" stroke="none"/>
    </g>
    <g id="font_Trebuchet_MS_w0">
      <path d="M562.5 10.0 L754.5 -537.0 661.0 -537.0 538.0 -185.5 391.0 -537.0 366.0 -537.0 Q295.0 -361.0 223.5 -185.5 L109.0 -537.0 7.5 -537.0 Q103.5 -263.5 199.0 10.0 L224.0 10.0 Q302.5 -172.0 380.5 -354.5 L537.5 10.0 562.5 10.0" fill-rule="evenodd" stroke="none"/>
    </g>
    <g id="font_Trebuchet_MS_n0">
      <path d="M397.0 0.0 L492.0 0.0 492.0 -331.5 Q492.0 -545.5 316.0 -545.5 209.5 -545.5 162.5 -466.5 L132.5 -535.5 67.5 -535.5 67.5 0.0 162.5 0.0 162.5 -398.0 Q181.5 -426.5 217.0 -446.0 252.5 -465.5 285.0 -465.5 345.5 -465.5 371.5 -431.0 397.0 -397.0 397.0 -311.5 L397.0 0.0" fill-rule="evenodd" stroke="none"/>
    </g>
    <g id="text3" transform="matrix(1.0, 0.0, 0.0, 1.0, -0.4, -1.85)">
      <g transform="matrix(1.0, 0.0, 0.0, 1.0, 0.0, 0.0)">
        <use fill="#00ff00" height="12.45" transform="matrix(0.0137, 0.0, 0.0, 0.0137, 0.0, 13.0)" width="74.65" xlink:href="#font_Trebuchet_MS_20"/>
        <use fill="#00ff00" height="12.45" transform="matrix(0.0137, 0.0, 0.0, 0.0137, 4.8, 13.0)" width="74.65" xlink:href="#font_Trebuchet_MS_n0"/>
        <use fill="#00ff00" height="12.45" transform="matrix(0.0137, 0.0, 0.0, 0.0137, 9.9, 13.0)" width="74.65" xlink:href="#font_Trebuchet_MS_d0"/>
        <use fill="#00ff00" height="12.45" transform="matrix(0.0137, 0.0, 0.0, 0.0137, 16.8, 13.0)" width="74.65" xlink:href="#font_Trebuchet_MS_I0"/>
        <use fill="#00ff00" height="12.45" transform="matrix(0.0137, 0.0, 0.0, 0.0137, 18.15, 13.0)" width="74.65" xlink:href="#font_Trebuchet_MS_n0"/>
        <use fill="#00ff00" height="12.45" transform="matrix(0.0137, 0.0, 0.0, 0.0137, 24.9, 13.0)" width="74.65" xlink:href="#font_Trebuchet_MS_C0"/>
        <use fill="#00ff00" height="12.45" transform="matrix(0.0137, 0.0, 0.0, 0.0137, 30.7, 13.0)" width="74.65" xlink:href="#font_Trebuchet_MS_o0"/>
        <use fill="#00ff00" height="12.45" transform="matrix(0.0137, 0.0, 0.0, 0.0137, 35.65, 13.0)" width="74.65" xlink:href="#font_Trebuchet_MS_m0"/>
        <use fill="#00ff00" height="12.45" transform="matrix(0.0137, 0.0, 0.0, 0.0137, 44.7, 13.0)" width="74.65" xlink:href="#font_Trebuchet_MS_m0"/>
        <use fill="#00ff00" height="12.45" transform="matrix(0.0137, 0.0, 0.0, 0.0137, 53.75, 13.0)" width="74.65" xlink:href="#font_Trebuchet_MS_a0"/>
        <use fill="#00ff00" height="12.45" transform="matrix(0.0137, 0.0, 0.0, 0.0137, 58.55, 13.0)" width="74.65" xlink:href="#font_Trebuchet_MS_n0"/>
        <use fill="#00ff00" height="12.45" transform="matrix(0.0137, 0.0, 0.0, 0.0137, 63.65, 13.0)" width="74.65" xlink:href="#font_Trebuchet_MS_d0"/>
      </g>
    </g>
    <g id="font_Trebuchet_MS_20">
      <path d="M34.5 0.0 L484.5 0.0 484.5 -90.0 197.5 -90.0 362.0 -351.0 Q441.0 -476.5 441.0 -559.0 441.0 -648.0 381.5 -696.5 322.0 -745.5 216.5 -745.5 146.0 -745.5 96.5 -716.5 46.5 -687.5 29.5 -638.5 L94.0 -585.5 Q110.0 -618.0 145.5 -639.0 181.0 -660.5 221.5 -660.5 336.0 -660.5 336.0 -559.0 336.0 -482.0 264.0 -371.5 149.5 -195.5 34.5 -20.0 L34.5 0.0" fill-rule="evenodd" stroke="none"/>
    </g>
    <g id="font_Trebuchet_MS_d0">
      <path d="M407.0 -411.5 L407.0 -114.5 Q399.0 -98.5 367.5 -84.0 336.0 -70.0 313.5 -70.0 137.5 -70.0 137.5 -263.5 137.5 -351.5 185.0 -408.5 232.0 -465.5 308.5 -465.5 371.0 -465.5 407.0 -411.5 M407.0 -0.5 L502.0 -0.5 502.0 -755.0 407.0 -755.0 407.0 -506.5 Q364.0 -545.5 281.0 -545.5 181.5 -545.5 109.5 -460.0 37.5 -375.0 37.5 -254.5 37.5 -134.5 100.0 -62.5 162.5 9.5 263.0 9.5 357.5 9.5 407.0 -40.0 L407.0 -0.5" fill-rule="evenodd" stroke="none"/>
    </g>
    <g id="font_Trebuchet_MS_m0">
      <path d="M687.5 0.0 L782.5 0.0 782.5 -358.0 Q782.5 -447.0 737.0 -496.0 691.5 -545.5 608.5 -545.5 562.5 -545.5 519.0 -525.0 475.5 -504.5 459.5 -474.0 413.5 -545.5 298.5 -545.5 216.0 -545.5 161.0 -473.5 L129.5 -535.5 67.5 -535.5 67.5 0.0 162.5 0.0 162.5 -395.0 Q176.0 -421.5 208.5 -443.5 240.5 -465.5 269.0 -465.5 318.0 -465.5 348.0 -442.5 377.5 -420.0 377.5 -380.5 L377.5 0.0 472.5 0.0 472.5 -396.0 Q483.5 -423.0 513.5 -444.0 543.5 -465.5 578.0 -465.5 687.5 -465.5 687.5 -339.0 L687.5 0.0" fill-rule="evenodd" stroke="none"/>
    </g>
    <g id="text4" transform="matrix(1.0, 0.0, 0.0, 1.0, -0.75, -1.85)">
      <g transform="matrix(1.0, 0.0, 0.0, 1.0, 0.0, 0.0)">
        <use fill="#00ff00" height="12.45" transform="matrix(0.0137, 0.0, 0.0, 0.0137, 0.0, 13.0)" width="72.1" xlink:href="#font_Trebuchet_MS_30"/>
        <use fill="#00ff00" height="12.45" transform="matrix(0.0137, 0.0, 0.0, 0.0137, 4.8, 13.0)" width="72.1" xlink:href="#font_Trebuchet_MS_r0"/>
        <use fill="#00ff00" height="12.45" transform="matrix(0.0137, 0.0, 0.0, 0.0137, 7.7, 13.0)" width="72.1" xlink:href="#font_Trebuchet_MS_d0"/>
        <use fill="#00ff00" height="12.45" transform="matrix(0.0137, 0.0, 0.0, 0.0137, 14.6, 13.0)" width="72.1" xlink:href="#font_Trebuchet_MS_I0"/>
        <use fill="#00ff00" height="12.45" transform="matrix(0.0137, 0.0, 0.0, 0.0137, 15.95, 13.0)" width="72.1" xlink:href="#font_Trebuchet_MS_n0"/>
        <use fill="#00ff00" height="12.45" transform="matrix(0.0137, 0.0, 0.0, 0.0137, 22.7, 13.0)" width="72.1" xlink:href="#font_Trebuchet_MS_C0"/>
        <use fill="#00ff00" height="12.45" transform="matrix(0.0137, 0.0, 0.0, 0.0137, 28.5, 13.0)" width="72.1" xlink:href="#font_Trebuchet_MS_o0"/>
        <use fill="#00ff00" height="12.45" transform="matrix(0.0137, 0.0, 0.0, 0.0137, 33.45, 13.0)" width="72.1" xlink:href="#font_Trebuchet_MS_m0"/>
        <use fill="#00ff00" height="12.45" transform="matrix(0.0137, 0.0, 0.0, 0.0137, 42.5, 13.0)" width="72.1" xlink:href="#font_Trebuchet_MS_m0"/>
        <use fill="#00ff00" height="12.45" transform="matrix(0.0137, 0.0, 0.0, 0.0137, 51.55, 13.0)" width="72.1" xlink:href="#font_Trebuchet_MS_a0"/>
        <use fill="#00ff00" height="12.45" transform="matrix(0.0137, 0.0, 0.0, 0.0137, 56.35, 13.0)" width="72.1" xlink:href="#font_Trebuchet_MS_n0"/>
        <use fill="#00ff00" height="12.45" transform="matrix(0.0137, 0.0, 0.0, 0.0137, 61.45, 13.0)" width="72.1" xlink:href="#font_Trebuchet_MS_d0"/>
      </g>
    </g>
    <g id="font_Trebuchet_MS_30">
      <path d="M54.5 -52.0 Q82.0 -26.5 129.0 -8.0 176.0 10.0 225.0 10.0 341.5 10.0 406.0 -45.5 470.5 -101.0 470.5 -203.0 470.5 -273.0 433.5 -322.0 396.0 -371.5 333.0 -392.0 378.5 -408.0 412.5 -455.0 446.0 -502.0 446.0 -563.0 446.0 -643.0 385.5 -694.0 325.0 -745.5 229.0 -745.5 120.0 -745.5 73.5 -685.0 L118.0 -617.0 Q156.5 -660.5 221.5 -660.5 341.0 -660.5 341.0 -543.5 341.0 -431.5 214.0 -431.5 L209.5 -431.5 209.5 -350.5 217.5 -350.5 Q284.5 -350.5 325.0 -311.5 365.5 -273.0 365.5 -211.0 365.5 -75.0 226.5 -75.0 151.5 -75.0 102.5 -129.0 L54.5 -52.0" fill-rule="evenodd" stroke="none"/>
    </g>
    <g id="text5" transform="matrix(1.0, 0.0, 0.0, 1.0, 2.0, 2.0)">
      <g transform="matrix(1.0, 0.0, 0.0, 1.0, -2.0, -2.0)">
        <use fill="#ffff00" height="20.25" transform="matrix(0.0137, 0.0, 0.0, 0.0137, 0.0, 16.0)" width="182.95" xlink:href="#font_Trebuchet_MS_c0"/>
        <use fill="#ffff00" height="20.25" transform="matrix(0.0137, 0.0, 0.0, 0.0137, 0.0, 16.0)" width="182.95" xlink:href="#font_Trebuchet_MS_r0"/>
        <use fill="#ffff00" height="20.25" transform="matrix(0.0137, 0.0, 0.0, 0.0137, 0.0, 16.0)" width="182.95" xlink:href="#font_Trebuchet_MS_e0"/>
        <use fill="#ffff00" height="20.25" transform="matrix(0.0137, 0.0, 0.0, 0.0137, 0.0, 16.0)" width="182.95" xlink:href="#font_Trebuchet_MS_a0"/>
        <use fill="#ffff00" height="20.25" transform="matrix(0.0137, 0.0, 0.0, 0.0137, 0.0, 16.0)" width="182.95" xlink:href="#font_Trebuchet_MS_t0"/>
        <use fill="#ffff00" height="20.25" transform="matrix(0.0137, 0.0, 0.0, 0.0137, 0.0, 16.0)" width="182.95" xlink:href="#font_Trebuchet_MS_o0"/>
        <use fill="#ffff00" height="20.25" transform="matrix(0.0137, 0.0, 0.0, 0.0137, 0.0, 16.0)" width="182.95" xlink:href="#font_Trebuchet_MS_r0"/>
      </g>
    </g>
    <g id="font_Trebuchet_MS_c0">
      <path d="M471.5 -492.0 Q448.5 -510.5 400.0 -528.0 351.5 -545.5 310.0 -545.5 181.0 -545.5 107.0 -468.0 32.5 -390.5 32.5 -262.5 32.5 -137.0 104.0 -63.5 175.5 10.0 285.0 10.0 398.0 10.0 474.5 -39.5 456.0 -79.5 437.0 -119.5 372.0 -70.0 308.0 -70.0 225.5 -70.0 179.0 -119.0 132.5 -168.5 132.5 -262.5 132.5 -357.0 178.0 -411.0 223.5 -465.5 301.0 -465.5 336.5 -465.5 373.5 -452.5 410.0 -439.5 424.5 -425.0 L471.5 -492.0" fill-rule="evenodd" stroke="none"/>
    </g>
    <g id="text6" transform="matrix(1.0, 0.0, 0.0, 1.0, 2.0, 2.0)">
      <g transform="matrix(1.0, 0.0, 0.0, 1.0, -2.0, -2.0)">
        <use fill="#ffff00" height="20.25" transform="matrix(0.0137, 0.0, 0.0, 0.0137, 0.0, 16.0)" width="182.95" xlink:href="#font_Trebuchet_MS_20"/>
        <use fill="#ffff00" height="20.25" transform="matrix(0.0137, 0.0, 0.0, 0.0137, 0.0, 16.0)" width="182.95" xlink:href="#font_Trebuchet_MS_n0"/>
        <use fill="#ffff00" height="20.25" transform="matrix(0.0137, 0.0, 0.0, 0.0137, 0.0, 16.0)" width="182.95" xlink:href="#font_Trebuchet_MS_d0"/>
      </g>
    </g>
    <g id="text7" transform="matrix(1.0, 0.0, 0.0, 1.0, 2.0, 2.0)">
      <g transform="matrix(1.0, 0.0, 0.0, 1.0, -2.0, -2.0)">
        <use fill="#ffff00" height="20.25" transform="matrix(0.0137, 0.0, 0.0, 0.0137, 0.0, 16.0)" width="182.95" xlink:href="#font_Trebuchet_MS_30"/>
        <use fill="#ffff00" height="20.25" transform="matrix(0.0137, 0.0, 0.0, 0.0137, 0.0, 16.0)" width="182.95" xlink:href="#font_Trebuchet_MS_r0"/>
        <use fill="#ffff00" height="20.25" transform="matrix(0.0137, 0.0, 0.0, 0.0137, 0.0, 16.0)" width="182.95" xlink:href="#font_Trebuchet_MS_d0"/>
      </g>
    </g>
    <g id="text8" transform="matrix(1.0, 0.0, 0.0, 1.0, -0.15, -1.85)">
      <g transform="matrix(1.0, 0.0, 0.0, 1.0, 0.0, 0.0)">
        <use fill="#00ff00" height="12.45" transform="matrix(0.0137, 0.0, 0.0, 0.0137, 0.0, 13.0)" width="50.45" xlink:href="#font_Trebuchet_MS_M0"/>
        <use fill="#00ff00" height="12.45" transform="matrix(0.0137, 0.0, 0.0, 0.0137, 7.9, 13.0)" width="50.45" xlink:href="#font_Trebuchet_MS_e0"/>
        <use fill="#00ff00" height="12.45" transform="matrix(0.0137, 0.0, 0.0, 0.0137, 13.5, 13.0)" width="50.45" xlink:href="#font_Trebuchet_MS_m0"/>
        <use fill="#00ff00" height="12.45" transform="matrix(0.0137, 0.0, 0.0, 0.0137, 23.05, 13.0)" width="50.45" xlink:href="#font_Trebuchet_MS_b0"/>
        <use fill="#00ff00" height="12.45" transform="matrix(0.0137, 0.0, 0.0, 0.0137, 28.8, 13.0)" width="50.45" xlink:href="#font_Trebuchet_MS_e0"/>
        <use fill="#00ff00" height="12.45" transform="matrix(0.0137, 0.0, 0.0, 0.0137, 34.4, 13.0)" width="50.45" xlink:href="#font_Trebuchet_MS_r0"/>
        <use fill="#00ff00" height="12.45" transform="matrix(0.0137, 0.0, 0.0, 0.0137, 37.8, 13.0)" width="50.45" xlink:href="#font_Trebuchet_MS_s0"/>
        <use fill="#00ff00" height="12.45" transform="matrix(0.0137, 0.0, 0.0, 0.0137, 41.4, 13.0)" width="50.45" xlink:href="#font_Trebuchet_MS_:0"/>
      </g>
    </g>
    <g id="font_Trebuchet_MS_b0">
      <path d="M162.5 -423.5 Q172.0 -435.5 203.5 -450.5 234.5 -465.5 252.0 -465.5 335.0 -465.5 384.0 -414.5 433.0 -363.5 433.0 -272.5 433.0 -163.0 391.0 -116.5 349.0 -70.0 252.0 -70.0 233.5 -70.0 198.0 -88.0 162.5 -106.5 162.5 -114.5 L162.5 -423.5 M148.5 -38.5 Q167.5 -18.5 204.5 -4.0 241.0 10.0 279.0 10.0 396.0 10.0 464.5 -66.5 533.0 -143.5 533.0 -277.5 533.0 -393.5 465.0 -469.5 396.5 -545.5 286.5 -545.5 250.5 -545.5 213.5 -530.0 176.0 -514.5 162.5 -496.0 L162.5 -755.0 67.5 -755.0 67.5 10.0 115.0 10.0 Q132.0 -14.0 148.5 -38.5" fill-rule="evenodd" stroke="none"/>
    </g>
    <g id="font_Trebuchet_MS_s0">
      <path d="M32.5 -32.0 Q107.0 10.0 191.5 10.0 281.0 10.0 331.5 -30.5 382.0 -71.5 382.0 -143.5 382.0 -198.5 353.5 -235.0 325.0 -271.5 262.5 -300.0 L194.5 -331.0 Q136.0 -357.5 136.0 -409.0 136.0 -433.5 159.5 -449.5 182.5 -465.5 216.5 -465.5 273.5 -465.5 330.0 -420.5 L357.0 -508.5 Q268.0 -545.5 209.5 -545.5 132.0 -545.5 84.0 -508.5 36.0 -471.5 36.0 -405.5 36.0 -380.0 44.5 -357.5 52.5 -335.5 69.5 -315.5 86.0 -296.0 109.0 -280.5 131.5 -265.0 197.0 -235.0 282.0 -197.0 282.0 -144.0 282.0 -70.0 194.0 -70.0 145.5 -70.0 66.0 -122.0 49.5 -77.0 32.5 -32.0" fill-rule="evenodd" stroke="none"/>
    </g>
    <g id="font_Trebuchet_MS_:0">
      <path d="M177.0 -140.5 Q146.0 -140.5 124.0 -118.5 102.0 -96.5 102.0 -65.5 102.0 -34.5 124.0 -12.0 146.0 10.0 177.0 10.0 208.0 10.0 230.0 -12.0 252.0 -34.5 252.0 -65.5 252.0 -96.5 230.0 -118.5 208.0 -140.5 177.0 -140.5 M177.0 -545.5 Q146.0 -545.5 124.0 -523.5 102.0 -501.5 102.0 -470.5 102.0 -439.5 124.0 -417.0 146.0 -395.0 177.0 -395.0 208.0 -395.0 230.0 -417.0 252.0 -439.5 252.0 -470.5 252.0 -501.5 230.0 -523.5 208.0 -545.5 177.0 -545.5" fill-rule="evenodd" stroke="none"/>
    </g>
    <g id="text9" transform="matrix(1.0, 0.0, 0.0, 1.0, 2.0, 2.0)">
      <g transform="matrix(1.0, 0.0, 0.0, 1.0, -2.0, -2.0)">
        <use fill="#ffff00" height="172.0" transform="matrix(0.0137, 0.0, 0.0, 0.0137, 0.0, 16.0)" width="124.9" xlink:href="#font_Trebuchet_MS_M0"/>
        <use fill="#ffff00" height="172.0" transform="matrix(0.0137, 0.0, 0.0, 0.0137, 0.0, 16.0)" width="124.9" xlink:href="#font_Trebuchet_MS_e0"/>
        <use fill="#ffff00" height="172.0" transform="matrix(0.0137, 0.0, 0.0, 0.0137, 0.0, 16.0)" width="124.9" xlink:href="#font_Trebuchet_MS_m0"/>
        <use fill="#ffff00" height="172.0" transform="matrix(0.0137, 0.0, 0.0, 0.0137, 0.0, 16.0)" width="124.9" xlink:href="#font_Trebuchet_MS_b0"/>
        <use fill="#ffff00" height="172.0" transform="matrix(0.0137, 0.0, 0.0, 0.0137, 0.0, 16.0)" width="124.9" xlink:href="#font_Trebuchet_MS_e0"/>
        <use fill="#ffff00" height="172.0" transform="matrix(0.0137, 0.0, 0.0, 0.0137, 0.0, 16.0)" width="124.9" xlink:href="#font_Trebuchet_MS_r0"/>
      </g>
      <g transform="matrix(1.0, 0.0, 0.0, 1.0, -2.0, -2.0)">
        <use fill="#ffff00" height="172.0" transform="matrix(0.0137, 0.0, 0.0, 0.0137, 0.0, 16.0)" width="124.9" xlink:href="#font_Trebuchet_MS_l0"/>
        <use fill="#ffff00" height="172.0" transform="matrix(0.0137, 0.0, 0.0, 0.0137, 0.0, 16.0)" width="124.9" xlink:href="#font_Trebuchet_MS_i0"/>
        <use fill="#ffff00" height="172.0" transform="matrix(0.0137, 0.0, 0.0, 0.0137, 0.0, 16.0)" width="124.9" xlink:href="#font_Trebuchet_MS_s0"/>
        <use fill="#ffff00" height="172.0" transform="matrix(0.0137, 0.0, 0.0, 0.0137, 0.0, 16.0)" width="124.9" xlink:href="#font_Trebuchet_MS_t0"/>
      </g>
    </g>
    <g id="font_Trebuchet_MS_l0">
      <path d="M75.0 -151.5 Q75.0 10.0 259.5 10.0 L259.5 -75.0 Q219.5 -75.0 195.0 -99.5 170.0 -124.5 170.0 -167.5 L170.0 -755.0 75.0 -755.0 75.0 -151.5" fill-rule="evenodd" stroke="none"/>
    </g>
    <g id="font_Trebuchet_MS_i0">
      <path d="M113.5 0.0 L208.5 0.0 208.5 -535.5 40.0 -535.5 40.0 -455.5 113.5 -455.5 113.5 0.0 M165.5 -738.0 Q141.0 -738.0 124.0 -721.0 107.0 -704.0 107.0 -679.5 107.0 -655.0 124.5 -637.5 141.5 -620.5 165.5 -620.5 190.0 -620.5 207.5 -637.5 224.5 -655.0 224.5 -679.5 224.5 -703.5 207.5 -720.5 190.0 -738.0 165.5 -738.0" fill-rule="evenodd" stroke="none"/>
    </g>
    <g id="text10" transform="matrix(1.0, 0.0, 0.0, 1.0, 2.0, 2.0)">
      <g transform="matrix(1.0, 0.0, 0.0, 1.0, -2.0, -2.0)">
        <use fill="#ffff00" height="21.1" transform="matrix(0.0137, 0.0, 0.0, 0.0137, 0.0, 16.0)" width="42.4" xlink:href="#font_Trebuchet_MS_20"/>
        <use fill="#ffff00" height="21.1" transform="matrix(0.0137, 0.0, 0.0, 0.0137, 0.0, 16.0)" width="42.4" xlink:href="#font_Trebuchet_MS_n0"/>
        <use fill="#ffff00" height="21.1" transform="matrix(0.0137, 0.0, 0.0, 0.0137, 0.0, 16.0)" width="42.4" xlink:href="#font_Trebuchet_MS_d0"/>
      </g>
    </g>
    <g id="button0" transform="matrix(1.0, 0.0, 0.0, 1.0, 0.0, 0.0)">
      <use data-characterId="502" height="16.0" transform="matrix(1.0, 0.0, 0.0, 1.0, 0.0, 0.0)" width="26.0" xlink:href="#shape2"/>
    </g>
    <g id="shape2" transform="matrix(1.0, 0.0, 0.0, 1.0, 0.0, 0.0)">
      <path d="M20.0 5.0 L13.0 12.0 6.0 5.0 13.0 12.0 20.0 5.0 M0.5 15.5 L0.5 0.5 25.5 0.5 25.5 15.5 0.5 15.5" fill="#ccff00" fill-rule="evenodd" stroke="none"/>
      <path d="M6.0 5.0 L13.0 12.0 20.0 5.0" fill="none" stroke="#000000" stroke-linecap="round" stroke-linejoin="round" stroke-width="1.0"/>
      <path d="M0.5 15.5 L25.5 15.5 25.5 0.5 0.5 0.5 0.5 15.5 Z" fill="none" stroke="#cccccc" stroke-linecap="round" stroke-linejoin="round" stroke-width="1.0"/>
    </g>
    <g id="button1" transform="matrix(1.0, 0.0, 0.0, 1.0, 0.5, 0.5)">
      <use data-characterId="500" height="16.0" transform="matrix(1.0, 0.0, 0.0, 1.0, -0.5, -0.5)" width="26.0" xlink:href="#shape3"/>
    </g>
    <g id="shape3" transform="matrix(1.0, 0.0, 0.0, 1.0, 0.5, 0.5)">
      <path d="M19.5 10.5 L12.5 3.5 5.5 10.5 12.5 3.5 19.5 10.5 M0.0 15.0 L0.0 0.0 25.0 0.0 25.0 15.0 0.0 15.0" fill="#ccff00" fill-rule="evenodd" stroke="none"/>
      <path d="M5.5 10.5 L12.5 3.5 19.5 10.5" fill="none" stroke="#000000" stroke-linecap="round" stroke-linejoin="round" stroke-width="1.0"/>
      <path d="M0.0 15.0 L0.0 0.0 25.0 0.0 25.0 15.0 0.0 15.0 Z" fill="none" stroke="#cccccc" stroke-linecap="round" stroke-linejoin="round" stroke-width="1.0"/>
    </g>
    <g id="sprite2" transform="matrix(1.0, 0.0, 0.0, 1.0, 182.0, 58.5)">
      <use data-characterId="1698" height="117.0" transform="matrix(1.0, 0.0, 0.0, 1.0, -182.0, -58.5)" width="364.0" xlink:href="#shape4"/>
      <use data-characterId="1699" height="37.2" transform="matrix(1.0, 0.0, 0.0, 1.0, -166.5, -35.3)" width="84.35" xlink:href="#text11"/>
      <use data-characterId="1700" height="37.2" transform="matrix(1.0, 0.0, 0.0, 1.0, -163.95, 24.65)" width="141.15" xlink:href="#text12"/>
      <use data-characterId="1701" height="37.2" transform="matrix(1.0, 0.0, 0.0, 1.0, -163.95, -2.35)" width="141.15" xlink:href="#text13"/>
      <use data-characterId="1702" height="19.6" id="kickauser" transform="matrix(1.0, 0.0, 0.0, 1.0, -97.05, -36.3)" width="127.0" xlink:href="#text14"/>
      <use data-characterId="1703" height="19.6" id="currentpass" transform="matrix(1.0, 0.0, 0.0, 1.0, -41.45, -2.45)" width="127.0" xlink:href="#text15"/>
      <use data-characterId="1704" height="19.6" id="changepassto" transform="matrix(1.0, 0.0, 0.0, 1.0, -39.45, 22.55)" width="127.0" xlink:href="#text16"/>
      <use data-characterId="1069" height="20.25" id="changepassword" transform="matrix(1.0, 0.0, 0.0, 1.0, 103.1, 22.75)" width="66.0" xlink:href="#sprite1"/>
      <use data-characterId="1069" height="20.25" id="kickuser" transform="matrix(1.0, 0.0, 0.0, 1.0, 39.95, -37.35)" width="66.0" xlink:href="#sprite1"/>
    </g>
    <g id="shape4" transform="matrix(1.0, 0.0, 0.0, 1.0, 182.0, 58.5)">
      <path d="M29.5 -15.0 L-95.5 -15.0 -95.5 -37.0 29.5 -37.0 29.5 -15.0 M-38.4 22.0 L86.6 22.0 86.6 44.0 -38.4 44.0 -38.4 22.0" fill="none" stroke="#cccccc" stroke-linecap="round" stroke-linejoin="round" stroke-width="1.0"/>
      <path d="M-181.5 -58.0 L181.5 -58.0 181.5 58.0 -181.5 58.0 -181.5 -58.0 Z" fill="none" stroke="#cccccc" stroke-linecap="round" stroke-linejoin="round" stroke-width="1.0"/>
    </g>
    <g id="text11" transform="matrix(1.0, 0.0, 0.0, 1.0, 2.0, 2.0)">
      <g transform="matrix(1.0, 0.0, 0.0, 1.0, -2.0, -2.0)">
        <use fill="#00ff00" height="37.2" transform="matrix(0.0137, 0.0, 0.0, 0.0137, 0.0, 14.65)" width="84.35" xlink:href="#font__sans_i0"/>
        <use fill="#00ff00" height="37.2" transform="matrix(0.0137, 0.0, 0.0, 0.0137, 3.1, 14.65)" width="84.35" xlink:href="#font__sans_c0"/>
        <use fill="#00ff00" height="37.2" transform="matrix(0.0137, 0.0, 0.0, 0.0137, 10.1, 14.65)" width="84.35" xlink:href="#font__sans_k0"/>
      </g>
      <g transform="matrix(1.0, 0.0, 0.0, 1.0, -2.0, -2.0)">
        <use fill="#00ff00" height="37.2" transform="matrix(0.0137, 0.0, 0.0, 0.0137, 30.35, 14.65)" width="84.35" xlink:href="#font__sans_s0"/>
        <use fill="#00ff00" height="37.2" transform="matrix(0.0137, 0.0, 0.0, 0.0137, 37.35, 14.65)" width="84.35" xlink:href="#font__sans_e0"/>
        <use fill="#00ff00" height="37.2" transform="matrix(0.0137, 0.0, 0.0, 0.0137, 45.15, 14.65)" width="84.35" xlink:href="#font__sans_r0"/>
      </g>
    </g>
    <g id="font__sans_i0">
      <path d="M68.0 0.0 L158.0 0.0 158.0 -531.0 68.0 -531.0 68.0 0.0 M68.0 -629.5 L158.0 -629.5 158.0 -733.0 68.0 -733.0 68.0 -629.5" fill-rule="evenodd" stroke="none"/>
    </g>
    <g id="font__sans_c0">
      <path d="M414.0 -194.5 Q404.5 -127.0 369.0 -94.5 333.5 -62.0 280.5 -62.0 214.5 -62.0 173.5 -110.5 132.5 -159.0 132.5 -266.0 132.5 -371.5 175.0 -420.0 217.5 -469.0 285.5 -469.0 330.5 -469.0 362.5 -442.0 394.0 -415.0 406.5 -361.5 L494.0 -375.0 Q478.5 -455.5 423.5 -499.0 368.5 -543.0 282.0 -543.0 213.5 -543.0 155.5 -510.5 97.0 -478.5 68.5 -414.0 40.0 -349.5 40.0 -263.5 40.0 -130.5 106.5 -59.0 172.5 12.0 281.5 12.0 368.5 12.0 428.5 -39.5 488.0 -91.5 502.5 -183.0 L414.0 -194.5" fill-rule="evenodd" stroke="none"/>
    </g>
    <g id="font__sans_k0">
      <path d="M68.0 0.0 L158.0 0.0 158.0 -210.5 221.5 -271.5 397.0 0.0 508.0 0.0 Q396.5 -167.0 284.5 -334.0 L487.5 -531.0 371.0 -531.0 158.0 -315.0 158.0 -733.0 68.0 -733.0 68.0 0.0" fill-rule="evenodd" stroke="none"/>
    </g>
    <g id="font__sans_s0">
      <path d="M31.5 -158.5 Q46.5 -74.0 101.0 -31.0 155.0 12.0 258.5 12.0 321.0 12.0 370.5 -9.5 420.0 -31.5 446.5 -71.0 472.5 -111.0 472.5 -156.0 472.5 -202.0 451.0 -233.0 429.5 -264.0 392.0 -280.0 354.0 -296.5 258.5 -322.0 192.5 -340.0 179.0 -345.0 155.5 -354.5 144.5 -369.0 133.5 -383.0 133.5 -400.5 133.5 -428.0 160.0 -448.5 186.5 -469.0 248.5 -469.0 301.0 -469.0 330.0 -446.0 358.5 -423.0 364.5 -382.0 L452.5 -394.0 Q444.0 -445.5 421.5 -476.0 399.0 -507.0 352.0 -525.0 304.5 -543.0 242.0 -543.0 200.5 -543.0 164.5 -532.0 128.0 -521.5 107.0 -506.0 79.0 -486.0 63.0 -455.5 46.5 -425.5 46.5 -390.0 46.5 -351.0 66.5 -318.5 86.0 -286.5 124.5 -268.0 162.5 -250.0 261.5 -225.0 335.0 -206.5 353.5 -194.5 380.0 -177.0 380.0 -146.5 380.0 -112.5 350.0 -87.0 320.0 -62.0 258.0 -62.0 196.5 -62.0 162.5 -90.5 128.0 -119.0 120.5 -172.5 L31.5 -158.5" fill-rule="evenodd" stroke="none"/>
    </g>
    <g id="font__sans_e0">
      <path d="M135.5 -316.5 Q140.0 -386.0 182.5 -427.5 224.5 -469.0 286.5 -469.0 355.0 -469.0 398.0 -417.0 426.0 -383.5 432.0 -316.5 L135.5 -316.5 M431.0 -171.0 Q410.5 -114.0 375.5 -88.0 340.5 -62.0 291.0 -62.0 224.5 -62.0 180.0 -108.5 135.5 -155.0 130.5 -242.5 L526.5 -242.5 527.0 -266.5 Q527.0 -398.0 459.5 -470.5 392.0 -543.0 285.5 -543.0 175.5 -543.0 106.5 -469.0 37.5 -395.0 37.5 -261.0 37.5 -131.5 106.0 -59.5 174.0 12.0 290.5 12.0 383.0 12.0 442.5 -33.0 502.0 -78.0 524.0 -159.5 L431.0 -171.0" fill-rule="evenodd" stroke="none"/>
    </g>
    <g id="font__sans_r0">
      <path d="M66.5 0.0 L156.5 0.0 156.5 -278.0 Q156.5 -335.0 171.5 -383.0 181.5 -414.5 205.0 -432.0 228.5 -450.0 258.0 -450.0 291.0 -450.0 324.0 -430.5 L355.0 -514.0 Q308.0 -543.0 262.5 -543.0 231.0 -543.0 205.0 -525.0 178.5 -507.0 147.5 -450.5 L147.5 -531.0 66.5 -531.0 66.5 0.0" fill-rule="evenodd" stroke="none"/>
    </g>
    <g id="text12" transform="matrix(1.0, 0.0, 0.0, 1.0, 2.0, 2.0)">
      <g transform="matrix(1.0, 0.0, 0.0, 1.0, -2.0, -2.0)">
        <use fill="#00ff00" height="37.2" transform="matrix(0.0137, 0.0, 0.0, 0.0137, 0.0, 14.65)" width="141.15" xlink:href="#font__sans_h0"/>
        <use fill="#00ff00" height="37.2" transform="matrix(0.0137, 0.0, 0.0, 0.0137, 7.8, 14.65)" width="141.15" xlink:href="#font__sans_a0"/>
        <use fill="#00ff00" height="37.2" transform="matrix(0.0137, 0.0, 0.0, 0.0137, 15.6, 14.65)" width="141.15" xlink:href="#font__sans_n0"/>
        <use fill="#00ff00" height="37.2" transform="matrix(0.0137, 0.0, 0.0, 0.0137, 23.4, 14.65)" width="141.15" xlink:href="#font__sans_g0"/>
        <use fill="#00ff00" height="37.2" transform="matrix(0.0137, 0.0, 0.0, 0.0137, 31.2, 14.65)" width="141.15" xlink:href="#font__sans_e0"/>
      </g>
      <g transform="matrix(1.0, 0.0, 0.0, 1.0, -2.0, -2.0)">
        <use fill="#00ff00" height="37.2" transform="matrix(0.0137, 0.0, 0.0, 0.0137, 53.0, 14.65)" width="141.15" xlink:href="#font__sans_a0"/>
        <use fill="#00ff00" height="37.2" transform="matrix(0.0137, 0.0, 0.0, 0.0137, 60.8, 14.65)" width="141.15" xlink:href="#font__sans_s0"/>
        <use fill="#00ff00" height="37.2" transform="matrix(0.0137, 0.0, 0.0, 0.0137, 67.8, 14.65)" width="141.15" xlink:href="#font__sans_s0"/>
        <use fill="#00ff00" height="37.2" transform="matrix(0.0137, 0.0, 0.0, 0.0137, 74.8, 14.65)" width="141.15" xlink:href="#font__sans_w0"/>
        <use fill="#00ff00" height="37.2" transform="matrix(0.0137, 0.0, 0.0, 0.0137, 84.9, 14.65)" width="141.15" xlink:href="#font__sans_o0"/>
        <use fill="#00ff00" height="37.2" transform="matrix(0.0137, 0.0, 0.0, 0.0137, 92.7, 14.65)" width="141.15" xlink:href="#font__sans_r0"/>
        <use fill="#00ff00" height="37.2" transform="matrix(0.0137, 0.0, 0.0, 0.0137, 97.35, 14.65)" width="141.15" xlink:href="#font__sans_d0"/>
      </g>
    </g>
    <g id="font__sans_h0">
      <path d="M67.5 0.0 L157.5 0.0 157.5 -290.5 Q157.5 -353.0 172.5 -388.5 187.5 -424.0 223.0 -444.5 258.0 -465.5 298.0 -465.5 351.5 -465.5 381.0 -434.5 410.0 -404.0 410.0 -336.5 L410.0 0.0 500.0 0.0 500.0 -336.5 Q500.0 -414.5 481.5 -455.5 462.5 -496.5 419.0 -519.5 375.5 -543.0 316.5 -543.0 220.5 -543.0 157.5 -470.0 L157.5 -733.0 67.5 -733.0 67.5 0.0" fill-rule="evenodd" stroke="none"/>
    </g>
    <g id="font__sans_a0">
      <path d="M406.5 -266.5 L406.5 -233.5 Q406.5 -174.0 392.0 -143.5 373.0 -104.0 332.5 -81.0 292.0 -58.5 240.0 -58.5 187.5 -58.5 160.5 -82.5 133.0 -106.5 133.0 -142.5 133.0 -166.0 145.5 -185.0 158.0 -204.5 181.0 -214.5 204.0 -224.5 259.5 -232.5 357.5 -246.5 406.5 -266.5 M414.0 -65.5 Q418.0 -28.0 432.0 0.0 L526.0 0.0 Q509.0 -30.5 503.5 -63.5 497.5 -97.0 497.5 -222.5 L497.5 -342.5 Q497.5 -402.5 493.0 -425.5 485.0 -462.5 465.0 -486.5 445.0 -511.0 402.5 -527.0 360.0 -543.0 292.0 -543.0 223.5 -543.0 171.5 -524.0 119.5 -505.5 92.0 -470.5 64.5 -436.0 52.5 -379.5 L140.5 -367.5 Q155.0 -424.0 185.5 -446.0 215.5 -468.5 279.0 -468.5 347.0 -468.5 381.5 -438.0 407.0 -415.5 407.0 -360.5 L406.5 -337.0 Q355.0 -319.0 246.0 -306.0 192.5 -299.5 166.0 -292.5 130.0 -282.5 101.5 -263.0 72.5 -243.5 55.0 -211.0 37.0 -179.0 37.0 -140.0 37.0 -73.5 84.0 -30.5 131.0 12.0 218.5 12.0 271.5 12.0 318.0 -5.5 364.0 -23.0 414.0 -65.5" fill-rule="evenodd" stroke="none"/>
    </g>
    <g id="font__sans_n0">
      <path d="M67.5 0.0 L157.5 0.0 157.5 -290.0 Q157.5 -392.0 199.5 -428.5 241.0 -465.0 298.5 -465.0 334.5 -465.0 361.5 -448.5 388.0 -432.5 398.5 -405.0 409.0 -378.0 409.0 -323.0 L409.0 0.0 499.0 0.0 499.0 -326.5 Q499.0 -389.0 494.0 -414.0 486.0 -452.5 466.0 -480.5 446.0 -508.5 406.0 -525.5 365.5 -543.0 317.5 -543.0 207.0 -543.0 148.5 -455.5 L148.5 -531.0 67.5 -531.0 67.5 0.0" fill-rule="evenodd" stroke="none"/>
    </g>
    <g id="font__sans_g0">
      <path d="M125.5 -275.0 Q125.5 -371.0 167.5 -419.5 209.5 -468.5 269.5 -468.5 330.5 -468.5 374.0 -419.0 417.0 -369.5 417.0 -272.0 417.0 -170.0 375.0 -122.0 333.0 -74.5 271.0 -74.5 208.5 -74.5 167.0 -122.5 125.5 -170.5 125.5 -275.0 M51.0 44.0 Q49.0 130.0 107.5 173.0 166.0 215.5 261.0 215.5 341.0 215.5 396.0 185.5 450.5 155.5 476.0 104.0 501.0 52.0 501.0 -72.0 L501.0 -531.0 418.0 -531.0 418.0 -467.0 Q357.0 -543.0 263.0 -543.0 192.5 -543.0 140.5 -508.0 88.0 -473.0 60.5 -408.5 33.0 -344.5 33.0 -268.5 33.0 -158.0 93.0 -79.0 153.0 0.0 262.5 0.0 350.5 0.0 409.5 -69.5 410.0 18.5 403.0 46.0 391.0 91.0 357.0 116.0 323.0 141.0 260.5 141.0 202.5 141.0 169.0 116.0 144.0 97.5 138.5 57.0 L51.0 44.0" fill-rule="evenodd" stroke="none"/>
    </g>
    <g id="font__sans_w0">
      <path d="M165.5 0.0 L259.5 0.0 Q313.5 -204.0 367.0 -408.5 L387.5 -318.0 Q430.0 -159.0 472.0 0.0 L565.5 0.0 731.5 -531.0 644.0 -531.0 553.0 -224.0 Q538.0 -172.5 522.5 -121.5 L496.0 -223.0 Q456.5 -377.0 416.5 -531.0 L324.0 -531.0 Q282.0 -375.5 239.5 -220.0 214.0 -119.0 212.0 -110.5 196.5 -167.5 180.5 -224.5 L96.0 -531.0 3.0 -531.0 Q84.5 -265.5 165.5 0.0" fill-rule="evenodd" stroke="none"/>
    </g>
    <g id="font__sans_o0">
      <path d="M126.5 -265.5 Q126.5 -367.5 171.0 -418.0 215.5 -468.5 283.0 -468.5 349.5 -468.5 394.5 -417.5 439.0 -367.0 439.0 -268.5 439.0 -164.0 394.5 -113.0 350.0 -62.0 283.0 -62.0 215.5 -62.0 171.0 -112.5 126.5 -163.5 126.5 -265.5 M34.0 -265.5 Q34.0 -131.0 103.0 -59.5 171.5 12.0 283.0 12.0 352.5 12.0 411.5 -20.5 470.0 -53.0 501.0 -111.5 531.5 -170.5 531.5 -273.0 531.5 -399.5 462.0 -471.0 392.5 -543.0 283.0 -543.0 184.5 -543.0 116.0 -484.0 34.0 -413.0 34.0 -265.5" fill-rule="evenodd" stroke="none"/>
    </g>
    <g id="font__sans_d0">
      <path d="M127.5 -265.0 Q127.5 -370.5 168.0 -419.5 208.0 -468.5 268.0 -468.5 329.5 -468.5 371.5 -417.5 413.5 -366.5 413.5 -257.5 413.5 -158.5 372.5 -110.0 331.0 -62.0 272.0 -62.0 213.5 -62.0 170.5 -112.5 127.5 -163.0 127.5 -265.0 M412.0 0.0 L495.5 0.0 495.5 -733.0 406.0 -733.0 406.0 -470.0 Q382.5 -502.5 345.0 -522.5 307.5 -543.0 259.5 -543.0 194.0 -543.0 141.0 -508.5 88.0 -474.0 61.5 -409.0 35.0 -344.5 35.0 -265.0 35.0 -183.5 64.5 -120.5 93.5 -58.0 147.0 -23.0 200.0 12.0 263.5 12.0 361.5 12.0 412.0 -67.0 L412.0 0.0" fill-rule="evenodd" stroke="none"/>
    </g>
    <g id="text13" transform="matrix(1.0, 0.0, 0.0, 1.0, 2.0, 2.0)">
      <g transform="matrix(1.0, 0.0, 0.0, 1.0, -2.0, -2.0)">
        <use fill="#00ff00" height="37.2" transform="matrix(0.0137, 0.0, 0.0, 0.0137, 0.0, 14.65)" width="141.15" xlink:href="#font__sans_u0"/>
        <use fill="#00ff00" height="37.2" transform="matrix(0.0137, 0.0, 0.0, 0.0137, 7.8, 14.65)" width="141.15" xlink:href="#font__sans_r0"/>
        <use fill="#00ff00" height="37.2" transform="matrix(0.0137, 0.0, 0.0, 0.0137, 12.45, 14.65)" width="141.15" xlink:href="#font__sans_r0"/>
        <use fill="#00ff00" height="37.2" transform="matrix(0.0137, 0.0, 0.0, 0.0137, 17.1, 14.65)" width="141.15" xlink:href="#font__sans_e0"/>
        <use fill="#00ff00" height="37.2" transform="matrix(0.0137, 0.0, 0.0, 0.0137, 24.9, 14.65)" width="141.15" xlink:href="#font__sans_n0"/>
        <use fill="#00ff00" height="37.2" transform="matrix(0.0137, 0.0, 0.0, 0.0137, 32.7, 14.65)" width="141.15" xlink:href="#font__sans_t0"/>
      </g>
      <g transform="matrix(1.0, 0.0, 0.0, 1.0, -2.0, -2.0)">
        <use fill="#00ff00" height="37.2" transform="matrix(0.0137, 0.0, 0.0, 0.0137, 50.6, 14.65)" width="141.15" xlink:href="#font__sans_a0"/>
        <use fill="#00ff00" height="37.2" transform="matrix(0.0137, 0.0, 0.0, 0.0137, 58.4, 14.65)" width="141.15" xlink:href="#font__sans_s0"/>
        <use fill="#00ff00" height="37.2" transform="matrix(0.0137, 0.0, 0.0, 0.0137, 65.4, 14.65)" width="141.15" xlink:href="#font__sans_s0"/>
        <use fill="#00ff00" height="37.2" transform="matrix(0.0137, 0.0, 0.0, 0.0137, 72.4, 14.65)" width="141.15" xlink:href="#font__sans_w0"/>
        <use fill="#00ff00" height="37.2" transform="matrix(0.0137, 0.0, 0.0, 0.0137, 82.5, 14.65)" width="141.15" xlink:href="#font__sans_o0"/>
        <use fill="#00ff00" height="37.2" transform="matrix(0.0137, 0.0, 0.0, 0.0137, 90.3, 14.65)" width="141.15" xlink:href="#font__sans_r0"/>
        <use fill="#00ff00" height="37.2" transform="matrix(0.0137, 0.0, 0.0, 0.0137, 94.95, 14.65)" width="141.15" xlink:href="#font__sans_d0"/>
      </g>
    </g>
    <g id="font__sans_u0">
      <path d="M415.5 0.0 L496.0 0.0 496.0 -531.0 406.0 -531.0 406.0 -246.5 Q406.0 -178.5 391.5 -142.5 376.5 -107.0 341.0 -86.0 305.5 -65.5 265.0 -65.5 224.5 -65.5 197.0 -85.5 169.5 -106.0 161.0 -141.5 155.5 -166.0 155.5 -236.5 L155.5 -531.0 65.5 -531.0 65.5 -202.0 Q65.5 -144.5 71.0 -118.0 79.0 -78.5 99.0 -51.0 118.5 -24.0 159.5 -6.0 200.0 12.0 247.0 12.0 353.5 12.0 415.5 -78.0 L415.5 0.0" fill-rule="evenodd" stroke="none"/>
    </g>
    <g id="font__sans_t0">
      <path d="M264.0 -80.5 Q239.5 -77.0 224.5 -77.0 204.5 -77.0 194.0 -83.5 183.0 -90.0 178.5 -101.0 173.5 -112.0 173.5 -150.5 L173.5 -461.0 264.0 -461.0 264.0 -531.0 173.5 -531.0 173.5 -716.5 84.0 -662.5 84.0 -531.0 18.0 -531.0 18.0 -461.0 84.0 -461.0 84.0 -155.5 Q84.0 -74.5 95.0 -49.0 106.0 -24.0 133.0 -8.5 160.0 7.0 209.0 7.0 239.0 7.0 277.0 -1.0 L264.0 -80.5" fill-rule="evenodd" stroke="none"/>
    </g>
    <g id="sprite3" transform="matrix(1.0, 0.0, 0.0, 1.0, 143.5, 28.0)">
      <use data-characterId="1706" height="56.0" transform="matrix(1.0, 0.0, 0.0, 1.0, -143.5, -28.0)" width="287.0" xlink:href="#shape5"/>
      <use data-characterId="1707" height="20.25" id="changeleadnameto" transform="matrix(1.0, 0.0, 0.0, 1.0025, -58.55, 2.7451)" width="125.0" xlink:href="#text17"/>
      <use data-characterId="1069" height="20.25" id="changeleadercancel" transform="matrix(1.0, 0.0, 0.0, 1.0025, 74.5, -21.426)" width="66.0" xlink:href="#sprite1"/>
      <use data-characterId="1069" height="20.25" id="changeleadernamebut" transform="matrix(1.0, 0.0, 0.0, 1.0025, 74.5, 2.974)" width="66.0" xlink:href="#sprite1"/>
      <use data-characterId="1708" height="20.25" id="commandchanging" transform="matrix(1.0, 0.0, 0.0, 1.0025, -58.5, -22.0049)" width="125.0" xlink:href="#text18"/>
      <use data-characterId="1709" height="30.95" transform="matrix(1.0, 0.0, 0.0, 1.0, -130.1, -13.9)" width="47.7" xlink:href="#text19"/>
    </g>
    <g id="shape5" transform="matrix(1.0, 0.0, 0.0, 1.0, 143.5, 28.0)">
      <path d="M143.0 27.5 L-143.0 27.5 -143.0 -27.5 143.0 -27.5 143.0 27.5 M67.0 24.5 L-61.0 24.5 -61.0 2.5 67.0 2.5 67.0 24.5 Z" fill="none" stroke="#cccccc" stroke-linecap="round" stroke-linejoin="round" stroke-width="1.0"/>
    </g>
    <g id="text17" transform="matrix(1.0, 0.0, 0.0, 1.0, 2.0, 2.0)">
      <g transform="matrix(1.0, 0.0, 0.0, 1.0, -2.0, -2.0)">
        <use fill="#ffff00" height="20.25" transform="matrix(0.0137, 0.0, 0.0, 0.0137, 62.5, 16.0)" width="125.0" xlink:href="#font_Trebuchet_MS_C0"/>
        <use fill="#ffff00" height="20.25" transform="matrix(0.0137, 0.0, 0.0, 0.0137, 62.5, 16.0)" width="125.0" xlink:href="#font_Trebuchet_MS_h0"/>
        <use fill="#ffff00" height="20.25" transform="matrix(0.0137, 0.0, 0.0, 0.0137, 62.5, 16.0)" width="125.0" xlink:href="#font_Trebuchet_MS_a0"/>
        <use fill="#ffff00" height="20.25" transform="matrix(0.0137, 0.0, 0.0, 0.0137, 62.5, 16.0)" width="125.0" xlink:href="#font_Trebuchet_MS_n0"/>
        <use fill="#ffff00" height="20.25" transform="matrix(0.0137, 0.0, 0.0, 0.0137, 62.5, 16.0)" width="125.0" xlink:href="#font_Trebuchet_MS_g0"/>
        <use fill="#ffff00" height="20.25" transform="matrix(0.0137, 0.0, 0.0, 0.0137, 62.5, 16.0)" width="125.0" xlink:href="#font_Trebuchet_MS_e0"/>
      </g>
      <g transform="matrix(1.0, 0.0, 0.0, 1.0, -2.0, -2.0)">
        <use fill="#ffff00" height="20.25" transform="matrix(0.0137, 0.0, 0.0, 0.0137, 62.5, 16.0)" width="125.0" xlink:href="#font_Trebuchet_MS_t0"/>
        <use fill="#ffff00" height="20.25" transform="matrix(0.0137, 0.0, 0.0, 0.0137, 62.5, 16.0)" width="125.0" xlink:href="#font_Trebuchet_MS_h0"/>
        <use fill="#ffff00" height="20.25" transform="matrix(0.0137, 0.0, 0.0, 0.0137, 62.5, 16.0)" width="125.0" xlink:href="#font_Trebuchet_MS_i0"/>
        <use fill="#ffff00" height="20.25" transform="matrix(0.0137, 0.0, 0.0, 0.0137, 62.5, 16.0)" width="125.0" xlink:href="#font_Trebuchet_MS_r0"/>
        <use fill="#ffff00" height="20.25" transform="matrix(0.0137, 0.0, 0.0, 0.0137, 62.5, 16.0)" width="125.0" xlink:href="#font_Trebuchet_MS_d0"/>
      </g>
      <g transform="matrix(1.0, 0.0, 0.0, 1.0, -2.0, -2.0)">
        <use fill="#ffff00" height="20.25" transform="matrix(0.0137, 0.0, 0.0, 0.0137, 62.5, 16.0)" width="125.0" xlink:href="#font_Trebuchet_MS_t0"/>
        <use fill="#ffff00" height="20.25" transform="matrix(0.0137, 0.0, 0.0, 0.0137, 62.5, 16.0)" width="125.0" xlink:href="#font_Trebuchet_MS_o0"/>
        <use fill="#ffff00" height="20.25" transform="matrix(0.0137, 0.0, 0.0, 0.0137, 62.5, 16.0)" width="125.0" xlink:href="#font_Trebuchet_MS_:0"/>
      </g>
    </g>
    <g id="font_Trebuchet_MS_h0">
      <path d="M397.5 0.0 L492.5 0.0 492.5 -336.5 Q492.5 -433.5 444.5 -489.5 396.0 -545.5 311.0 -545.5 266.0 -545.5 224.0 -525.5 181.5 -506.0 162.5 -476.5 L162.5 -755.0 67.5 -755.0 67.5 0.0 162.5 0.0 162.5 -398.0 Q181.0 -425.0 216.0 -445.0 250.5 -465.5 285.0 -465.5 338.5 -465.5 368.0 -431.0 397.5 -396.5 397.5 -336.5 L397.5 0.0" fill-rule="evenodd" stroke="none"/>
    </g>
    <g id="font_Trebuchet_MS_g0">
      <path d="M249.5 -469.0 Q295.5 -469.0 326.5 -434.0 357.0 -399.0 357.0 -349.0 357.0 -291.0 328.5 -255.0 300.0 -219.5 249.5 -219.5 198.0 -219.5 168.0 -256.0 137.5 -293.0 137.5 -349.0 137.5 -399.0 169.0 -434.0 200.0 -469.0 249.5 -469.0 M48.0 146.5 Q83.0 173.0 140.5 191.5 198.0 210.0 250.0 210.0 351.5 210.0 418.0 164.5 484.0 119.0 484.0 45.0 484.0 -22.0 440.0 -59.5 395.5 -97.5 316.5 -97.5 294.5 -97.5 249.0 -89.5 203.5 -82.0 182.0 -82.0 133.0 -82.0 133.0 -102.5 133.0 -117.5 156.5 -126.5 180.0 -136.0 194.0 -137.5 L272.5 -145.5 Q354.5 -153.5 405.0 -208.5 455.5 -263.5 455.5 -344.5 455.5 -421.0 419.0 -468.5 L476.0 -511.5 Q445.0 -540.5 414.0 -570.0 L366.5 -513.0 Q322.0 -545.5 243.0 -545.5 157.0 -545.5 98.5 -489.5 40.0 -433.5 40.0 -349.5 40.0 -218.5 153.0 -165.5 113.5 -156.0 87.0 -134.5 60.0 -113.0 60.0 -86.5 60.0 -0.5 174.0 -0.5 197.5 -0.5 239.5 -8.5 281.5 -16.5 297.5 -16.5 391.5 -16.5 391.5 48.5 391.5 81.5 354.5 104.0 317.0 126.0 252.5 126.0 182.5 126.0 99.5 70.5 L48.0 146.5" fill-rule="evenodd" stroke="none"/>
    </g>
    <g id="text18" transform="matrix(1.0, 0.0, 0.0, 1.0, 2.0, 2.0)">
      <g transform="matrix(1.0, 0.0, 0.0, 1.0, -2.0, -2.0)">
        <use fill="#00ff00" height="20.25" transform="matrix(0.0137, 0.0, 0.0, 0.0137, 62.5, 16.0)" width="125.0" xlink:href="#font_Trebuchet_MS_C0"/>
        <use fill="#00ff00" height="20.25" transform="matrix(0.0137, 0.0, 0.0, 0.0137, 62.5, 16.0)" width="125.0" xlink:href="#font_Trebuchet_MS_h0"/>
        <use fill="#00ff00" height="20.25" transform="matrix(0.0137, 0.0, 0.0, 0.0137, 62.5, 16.0)" width="125.0" xlink:href="#font_Trebuchet_MS_a0"/>
        <use fill="#00ff00" height="20.25" transform="matrix(0.0137, 0.0, 0.0, 0.0137, 62.5, 16.0)" width="125.0" xlink:href="#font_Trebuchet_MS_n0"/>
        <use fill="#00ff00" height="20.25" transform="matrix(0.0137, 0.0, 0.0, 0.0137, 62.5, 16.0)" width="125.0" xlink:href="#font_Trebuchet_MS_g0"/>
        <use fill="#00ff00" height="20.25" transform="matrix(0.0137, 0.0, 0.0, 0.0137, 62.5, 16.0)" width="125.0" xlink:href="#font_Trebuchet_MS_e0"/>
      </g>
      <g transform="matrix(1.0, 0.0, 0.0, 1.0, -2.0, -2.0)">
        <use fill="#00ff00" height="20.25" transform="matrix(0.0137, 0.0, 0.0, 0.0137, 62.5, 16.0)" width="125.0" xlink:href="#font_Trebuchet_MS_t0"/>
        <use fill="#00ff00" height="20.25" transform="matrix(0.0137, 0.0, 0.0, 0.0137, 62.5, 16.0)" width="125.0" xlink:href="#font_Trebuchet_MS_h0"/>
        <use fill="#00ff00" height="20.25" transform="matrix(0.0137, 0.0, 0.0, 0.0137, 62.5, 16.0)" width="125.0" xlink:href="#font_Trebuchet_MS_i0"/>
        <use fill="#00ff00" height="20.25" transform="matrix(0.0137, 0.0, 0.0, 0.0137, 62.5, 16.0)" width="125.0" xlink:href="#font_Trebuchet_MS_r0"/>
        <use fill="#00ff00" height="20.25" transform="matrix(0.0137, 0.0, 0.0, 0.0137, 62.5, 16.0)" width="125.0" xlink:href="#font_Trebuchet_MS_d0"/>
      </g>
      <g transform="matrix(1.0, 0.0, 0.0, 1.0, -2.0, -2.0)">
        <use fill="#00ff00" height="20.25" transform="matrix(0.0137, 0.0, 0.0, 0.0137, 62.5, 16.0)" width="125.0" xlink:href="#font_Trebuchet_MS_t0"/>
        <use fill="#00ff00" height="20.25" transform="matrix(0.0137, 0.0, 0.0, 0.0137, 62.5, 16.0)" width="125.0" xlink:href="#font_Trebuchet_MS_o0"/>
        <use fill="#00ff00" height="20.25" transform="matrix(0.0137, 0.0, 0.0, 0.0137, 62.5, 16.0)" width="125.0" xlink:href="#font_Trebuchet_MS_:0"/>
      </g>
    </g>
    <g id="text19" transform="matrix(1.0, 0.0, 0.0, 1.0, -1.9, -2.0)">
      <g transform="matrix(1.0, 0.0, 0.0, 1.0, 0.0, 0.0)">
        <use fill="#ff6600" height="30.95" transform="matrix(0.0137, 0.0, 0.0, 0.0137, 16.0, 13.0)" width="47.7" xlink:href="#font_Trebuchet_MS_N0"/>
        <use fill="#ff6600" height="30.95" transform="matrix(0.0137, 0.0, 0.0, 0.0137, 23.6, 13.0)" width="47.7" xlink:href="#font_Trebuchet_MS__1"/>
        <use fill="#ff6600" height="30.95" transform="matrix(0.0137, 0.0, 0.0, 0.0137, 29.6, 13.0)" width="47.7" xlink:href="#font_Trebuchet_MS_A0"/>
      </g>
      <g transform="matrix(1.0, 0.0, 0.0, 1.0, 0.0, 0.0)">
        <use fill="#ff6600" height="30.95" transform="matrix(0.0137, 0.0, 0.0, 0.0137, 1.0, 32.0)" width="47.7" xlink:href="#font_Trebuchet_MS_f0"/>
        <use fill="#ff6600" height="30.95" transform="matrix(0.0137, 0.0, 0.0, 0.0137, 4.6, 32.0)" width="47.7" xlink:href="#font_Trebuchet_MS_o0"/>
        <use fill="#ff6600" height="30.95" transform="matrix(0.0137, 0.0, 0.0, 0.0137, 10.6, 32.0)" width="47.7" xlink:href="#font_Trebuchet_MS_r0"/>
        <use fill="#ff6600" height="30.95" transform="matrix(0.0137, 0.0, 0.0, 0.0137, 17.25, 32.0)" width="47.7" xlink:href="#font_Trebuchet_MS_N0"/>
        <use fill="#ff6600" height="30.95" transform="matrix(0.0137, 0.0, 0.0, 0.0137, 24.7, 32.0)" width="47.7" xlink:href="#font_Trebuchet_MS_o0"/>
        <use fill="#ff6600" height="30.95" transform="matrix(0.0137, 0.0, 0.0, 0.0137, 30.7, 32.0)" width="47.7" xlink:href="#font_Trebuchet_MS_n0"/>
        <use fill="#ff6600" height="30.95" transform="matrix(0.0137, 0.0, 0.0, 0.0137, 36.85, 32.0)" width="47.7" xlink:href="#font_Trebuchet_MS_e0"/>
      </g>
    </g>
    <g id="font_Trebuchet_MS_f0">
      <path d="M357.0 -670.0 Q370.5 -705.0 383.5 -740.0 336.0 -755.0 294.5 -755.0 211.5 -755.0 161.0 -696.5 110.5 -638.0 110.5 -535.5 L32.5 -535.5 32.5 -455.5 110.5 -455.5 110.5 0.0 205.5 0.0 205.5 -455.5 314.5 -455.5 314.5 -535.5 205.5 -535.5 Q203.0 -550.0 203.0 -563.5 203.0 -614.0 231.5 -647.0 259.5 -680.0 303.0 -680.0 328.0 -680.0 357.0 -670.0" fill-rule="evenodd" stroke="none"/>
    </g>
    <g id="text20" transform="matrix(1.0, 0.0, 0.0, 1.0, 2.0, 2.0)">
      <g transform="matrix(1.0, 0.0, 0.0, 1.0, -2.0, -2.0)">
        <use fill="#00ff00" height="20.25" transform="matrix(0.0137, 0.0, 0.0, 0.0137, 77.5, 16.0)" width="155.0" xlink:href="#font_Trebuchet_MS_S0"/>
        <use fill="#00ff00" height="20.25" transform="matrix(0.0137, 0.0, 0.0, 0.0137, 77.5, 16.0)" width="155.0" xlink:href="#font_Trebuchet_MS_q0"/>
        <use fill="#00ff00" height="20.25" transform="matrix(0.0137, 0.0, 0.0, 0.0137, 77.5, 16.0)" width="155.0" xlink:href="#font_Trebuchet_MS_u0"/>
        <use fill="#00ff00" height="20.25" transform="matrix(0.0137, 0.0, 0.0, 0.0137, 77.5, 16.0)" width="155.0" xlink:href="#font_Trebuchet_MS_a0"/>
        <use fill="#00ff00" height="20.25" transform="matrix(0.0137, 0.0, 0.0, 0.0137, 77.5, 16.0)" width="155.0" xlink:href="#font_Trebuchet_MS_d0"/>
      </g>
      <g transform="matrix(1.0, 0.0, 0.0, 1.0, -2.0, -2.0)">
        <use fill="#00ff00" height="20.25" transform="matrix(0.0137, 0.0, 0.0, 0.0137, 77.5, 16.0)" width="155.0" xlink:href="#font_Trebuchet_MS_M0"/>
        <use fill="#00ff00" height="20.25" transform="matrix(0.0137, 0.0, 0.0, 0.0137, 77.5, 16.0)" width="155.0" xlink:href="#font_Trebuchet_MS_e0"/>
        <use fill="#00ff00" height="20.25" transform="matrix(0.0137, 0.0, 0.0, 0.0137, 77.5, 16.0)" width="155.0" xlink:href="#font_Trebuchet_MS_s0"/>
        <use fill="#00ff00" height="20.25" transform="matrix(0.0137, 0.0, 0.0, 0.0137, 77.5, 16.0)" width="155.0" xlink:href="#font_Trebuchet_MS_s0"/>
        <use fill="#00ff00" height="20.25" transform="matrix(0.0137, 0.0, 0.0, 0.0137, 77.5, 16.0)" width="155.0" xlink:href="#font_Trebuchet_MS_a0"/>
        <use fill="#00ff00" height="20.25" transform="matrix(0.0137, 0.0, 0.0, 0.0137, 77.5, 16.0)" width="155.0" xlink:href="#font_Trebuchet_MS_g0"/>
        <use fill="#00ff00" height="20.25" transform="matrix(0.0137, 0.0, 0.0, 0.0137, 77.5, 16.0)" width="155.0" xlink:href="#font_Trebuchet_MS_e0"/>
      </g>
    </g>
    <g id="font_Trebuchet_MS_q0">
      <path d="M410.5 -424.5 L410.5 -105.0 Q372.5 -70.0 304.0 -70.0 227.5 -70.0 182.5 -121.5 137.5 -173.5 137.5 -266.5 137.5 -356.5 182.5 -411.0 227.5 -465.5 308.0 -465.5 369.5 -465.5 410.5 -424.5 M410.5 210.0 L505.5 210.0 505.5 -535.5 448.0 -535.5 Q435.5 -515.0 422.5 -495.0 362.0 -545.5 292.0 -545.5 180.0 -545.5 109.0 -470.0 37.5 -395.0 37.5 -266.5 37.5 -136.5 100.0 -63.0 162.0 10.0 271.5 10.0 369.0 10.0 410.5 -31.5 L410.5 210.0" fill-rule="evenodd" stroke="none"/>
    </g>
    <g id="font_Trebuchet_MS_u0">
      <path d="M157.5 -535.5 L62.5 -535.5 62.5 -184.0 Q62.5 -91.0 109.5 -40.5 156.0 10.0 244.0 10.0 290.0 10.0 338.5 -16.0 386.5 -42.5 402.5 -74.0 L402.5 0.0 497.5 0.0 497.5 -535.5 402.5 -535.5 402.5 -159.5 Q390.0 -124.0 351.0 -97.0 312.0 -70.0 265.0 -70.0 157.5 -70.0 157.5 -194.0 L157.5 -535.5" fill-rule="evenodd" stroke="none"/>
    </g>
    <g id="sprite4" transform="matrix(1.0, 0.0, 0.0, 1.0, 0.5, 0.5)">
      <use data-characterId="1713" height="126.4" transform="matrix(1.0, 0.0, 0.0, 1.0, -0.5, -0.5)" width="287.0" xlink:href="#shape6"/>
      <use data-characterId="1069" height="20.25" id="changeleadercancel" transform="matrix(1.0, 0.0, 0.0, 1.0025, 8.5, 5.474)" width="66.0" xlink:href="#sprite1"/>
      <use data-characterId="1069" height="20.25" id="changeleadernamebut" transform="matrix(1.0, 0.0, 0.0, 1.0025, 216.5, 5.474)" width="66.0" xlink:href="#sprite1"/>
      <use data-characterId="1714" height="10.9" transform="matrix(1.0, 0.0, 0.0, 1.0, 107.05, 9.95)" width="47.35" xlink:href="#text22"/>
      <use data-characterId="1715" height="94.0" id="newsquadmessage" transform="matrix(1.0, 0.0, 0.0, 1.0, 2.0, 30.9)" width="280.0" xlink:href="#text23"/>
    </g>
    <g id="shape6" transform="matrix(1.0, 0.0, 0.0, 1.0, 0.5, 0.5)">
      <path d="M286.0 125.4 L0.0 125.4 0.0 0.0 286.0 0.0 286.0 125.4" fill="#000000" fill-rule="evenodd" stroke="none"/>
      <path d="M286.0 125.4 L0.0 125.4 0.0 0.0 286.0 0.0 286.0 125.4 Z" fill="none" stroke="#cccccc" stroke-linecap="round" stroke-linejoin="round" stroke-width="1.0"/>
    </g>
    <g id="text22" transform="matrix(1.0, 0.0, 0.0, 1.0, -12.55, -2.05)">
      <g transform="matrix(1.0, 0.0, 0.0, 1.0, 0.0, 0.0)">
        <use fill="#00ff00" height="10.9" transform="matrix(0.0117, 0.0, 0.0, 0.0117, 12.0, 12.0)" width="47.35" xlink:href="#font_Trebuchet_MS_N0"/>
        <use fill="#00ff00" height="10.9" transform="matrix(0.0117, 0.0, 0.0, 0.0117, 16.65, 12.0)" width="47.35" xlink:href="#font_Trebuchet_MS_E0"/>
        <use fill="#00ff00" height="10.9" transform="matrix(0.0117, 0.0, 0.0, 0.0117, 20.1, 12.0)" width="47.35" xlink:href="#font_Trebuchet_MS_W0"/>
        <use fill="#00ff00" height="10.9" transform="matrix(0.0117, 0.0, 0.0, 0.0117, 27.9, 12.0)" width="47.35" xlink:href="#font_Trebuchet_MS_M0"/>
        <use fill="#00ff00" height="10.9" transform="matrix(0.0117, 0.0, 0.0, 0.0117, 33.4, 12.0)" width="47.35" xlink:href="#font_Trebuchet_MS_E0"/>
        <use fill="#00ff00" height="10.9" transform="matrix(0.0117, 0.0, 0.0, 0.0117, 36.85, 12.0)" width="47.35" xlink:href="#font_Trebuchet_MS_S0"/>
        <use fill="#00ff00" height="10.9" transform="matrix(0.0117, 0.0, 0.0, 0.0117, 39.6, 12.0)" width="47.35" xlink:href="#font_Trebuchet_MS_S0"/>
        <use fill="#00ff00" height="10.9" transform="matrix(0.0117, 0.0, 0.0, 0.0117, 42.35, 12.0)" width="47.35" xlink:href="#font_Trebuchet_MS_A0"/>
        <use fill="#00ff00" height="10.9" transform="matrix(0.0117, 0.0, 0.0, 0.0117, 46.45, 12.0)" width="47.35" xlink:href="#font_Trebuchet_MS_G0"/>
        <use fill="#00ff00" height="10.9" transform="matrix(0.0117, 0.0, 0.0, 0.0117, 51.55, 12.0)" width="47.35" xlink:href="#font_Trebuchet_MS_E0"/>
      </g>
    </g>
    <g id="font_Trebuchet_MS_W0">
      <path d="M638.0 10.0 L866.0 -732.5 762.0 -732.5 Q687.5 -477.0 612.5 -222.0 L453.5 -732.5 418.5 -732.5 257.5 -221.0 110.5 -732.5 6.5 -732.5 237.5 10.0 269.0 10.0 432.0 -495.0 Q519.5 -242.5 606.5 10.0 L638.0 10.0" fill-rule="evenodd" stroke="none"/>
    </g>
    <g id="text23" transform="matrix(1.0, 0.0, 0.0, 1.0, 2.0, 2.0)">
      <g transform="matrix(1.0, 0.0, 0.0, 1.0, -2.0, -2.0)">
        <use fill="#ffff00" height="94.0" transform="matrix(0.0117, 0.0, 0.0, 0.0117, 0.0, 14.0)" width="280.0" xlink:href="#font_Trebuchet_MS_m0"/>
        <use fill="#ffff00" height="94.0" transform="matrix(0.0117, 0.0, 0.0, 0.0117, 0.0, 14.0)" width="280.0" xlink:href="#font_Trebuchet_MS_e0"/>
        <use fill="#ffff00" height="94.0" transform="matrix(0.0117, 0.0, 0.0, 0.0117, 0.0, 14.0)" width="280.0" xlink:href="#font_Trebuchet_MS_s0"/>
        <use fill="#ffff00" height="94.0" transform="matrix(0.0117, 0.0, 0.0, 0.0117, 0.0, 14.0)" width="280.0" xlink:href="#font_Trebuchet_MS_s0"/>
        <use fill="#ffff00" height="94.0" transform="matrix(0.0117, 0.0, 0.0, 0.0117, 0.0, 14.0)" width="280.0" xlink:href="#font_Trebuchet_MS_a0"/>
        <use fill="#ffff00" height="94.0" transform="matrix(0.0117, 0.0, 0.0, 0.0117, 0.0, 14.0)" width="280.0" xlink:href="#font_Trebuchet_MS_g0"/>
        <use fill="#ffff00" height="94.0" transform="matrix(0.0117, 0.0, 0.0, 0.0117, 0.0, 14.0)" width="280.0" xlink:href="#font_Trebuchet_MS_e0"/>
      </g>
    </g>
    <g id="text25" transform="matrix(1.0, 0.0, 0.0, 1.0, -1.25, -1.85)">
      <g transform="matrix(1.0, 0.0, 0.0, 1.0, 0.0, 0.0)">
        <use fill="#00ff00" height="15.15" transform="matrix(0.0137, 0.0, 0.0, 0.0137, 0.0, 13.0)" width="262.5" xlink:href="#font_Trebuchet_MS_I0"/>
        <use fill="#00ff00" height="15.15" transform="matrix(0.0137, 0.0, 0.0, 0.0137, 1.85, 13.0)" width="262.5" xlink:href="#font_Trebuchet_MS_f0"/>
        <use fill="#00ff00" height="15.15" transform="matrix(0.0137, 0.0, 0.0, 0.0137, 7.05, 13.0)" width="262.5" xlink:href="#font_Trebuchet_MS_y0"/>
        <use fill="#00ff00" height="15.15" transform="matrix(0.0137, 0.0, 0.0, 0.0137, 11.9, 13.0)" width="262.5" xlink:href="#font_Trebuchet_MS_o0"/>
        <use fill="#00ff00" height="15.15" transform="matrix(0.0137, 0.0, 0.0, 0.0137, 17.35, 13.0)" width="262.5" xlink:href="#font_Trebuchet_MS_u0"/>
        <use fill="#00ff00" height="15.15" transform="matrix(0.0137, 0.0, 0.0, 0.0137, 25.1, 13.0)" width="262.5" xlink:href="#font_Trebuchet_MS_c0"/>
        <use fill="#00ff00" height="15.15" transform="matrix(0.0137, 0.0, 0.0, 0.0137, 30.0, 13.0)" width="262.5" xlink:href="#font_Trebuchet_MS_h0"/>
        <use fill="#00ff00" height="15.15" transform="matrix(0.0137, 0.0, 0.0, 0.0137, 35.6, 13.0)" width="262.5" xlink:href="#font_Trebuchet_MS_a0"/>
        <use fill="#00ff00" height="15.15" transform="matrix(0.0137, 0.0, 0.0, 0.0137, 40.9, 13.0)" width="262.5" xlink:href="#font_Trebuchet_MS_n0"/>
        <use fill="#00ff00" height="15.15" transform="matrix(0.0137, 0.0, 0.0, 0.0137, 46.5, 13.0)" width="262.5" xlink:href="#font_Trebuchet_MS_g0"/>
        <use fill="#00ff00" height="15.15" transform="matrix(0.0137, 0.0, 0.0, 0.0137, 51.5, 13.0)" width="262.5" xlink:href="#font_Trebuchet_MS_e0"/>
        <use fill="#00ff00" height="15.15" transform="matrix(0.0137, 0.0, 0.0, 0.0137, 59.25, 13.0)" width="262.5" xlink:href="#font_Trebuchet_MS_t0"/>
        <use fill="#00ff00" height="15.15" transform="matrix(0.0137, 0.0, 0.0, 0.0137, 62.75, 13.0)" width="262.5" xlink:href="#font_Trebuchet_MS_h0"/>
        <use fill="#00ff00" height="15.15" transform="matrix(0.0137, 0.0, 0.0, 0.0137, 68.35, 13.0)" width="262.5" xlink:href="#font_Trebuchet_MS_e0"/>
        <use fill="#00ff00" height="15.15" transform="matrix(0.0137, 0.0, 0.0, 0.0137, 76.1, 13.0)" width="262.5" xlink:href="#font_Trebuchet_MS_p0"/>
        <use fill="#00ff00" height="15.15" transform="matrix(0.0137, 0.0, 0.0, 0.0137, 81.85, 13.0)" width="262.5" xlink:href="#font_Trebuchet_MS_a0"/>
        <use fill="#00ff00" height="15.15" transform="matrix(0.0137, 0.0, 0.0, 0.0137, 87.15, 13.0)" width="262.5" xlink:href="#font_Trebuchet_MS_s0"/>
        <use fill="#00ff00" height="15.15" transform="matrix(0.0137, 0.0, 0.0, 0.0137, 90.75, 13.0)" width="262.5" xlink:href="#font_Trebuchet_MS_s0"/>
        <use fill="#00ff00" height="15.15" transform="matrix(0.0137, 0.0, 0.0, 0.0137, 94.35, 13.0)" width="262.5" xlink:href="#font_Trebuchet_MS_w0"/>
        <use fill="#00ff00" height="15.15" transform="matrix(0.0137, 0.0, 0.0, 0.0137, 102.7, 13.0)" width="262.5" xlink:href="#font_Trebuchet_MS_o0"/>
        <use fill="#00ff00" height="15.15" transform="matrix(0.0137, 0.0, 0.0, 0.0137, 108.15, 13.0)" width="262.5" xlink:href="#font_Trebuchet_MS_r0"/>
        <use fill="#00ff00" height="15.15" transform="matrix(0.0137, 0.0, 0.0, 0.0137, 111.55, 13.0)" width="262.5" xlink:href="#font_Trebuchet_MS_d0"/>
        <use fill="#00ff00" height="15.15" transform="matrix(0.0137, 0.0, 0.0, 0.0137, 117.3, 13.0)" width="262.5" xlink:href="#font_Trebuchet_MS__2"/>
        <use fill="#00ff00" height="15.15" transform="matrix(0.0137, 0.0, 0.0, 0.0137, 122.5, 13.0)" width="262.5" xlink:href="#font_Trebuchet_MS_a0"/>
        <use fill="#00ff00" height="15.15" transform="matrix(0.0137, 0.0, 0.0, 0.0137, 127.8, 13.0)" width="262.5" xlink:href="#font_Trebuchet_MS_l0"/>
        <use fill="#00ff00" height="15.15" transform="matrix(0.0137, 0.0, 0.0, 0.0137, 129.9, 13.0)" width="262.5" xlink:href="#font_Trebuchet_MS_l0"/>
        <use fill="#00ff00" height="15.15" transform="matrix(0.0137, 0.0, 0.0, 0.0137, 134.15, 13.0)" width="262.5" xlink:href="#font_Trebuchet_MS_o0"/>
        <use fill="#00ff00" height="15.15" transform="matrix(0.0137, 0.0, 0.0, 0.0137, 139.6, 13.0)" width="262.5" xlink:href="#font_Trebuchet_MS_f0"/>
        <use fill="#00ff00" height="15.15" transform="matrix(0.0137, 0.0, 0.0, 0.0137, 144.8, 13.0)" width="262.5" xlink:href="#font_Trebuchet_MS_y0"/>
        <use fill="#00ff00" height="15.15" transform="matrix(0.0137, 0.0, 0.0, 0.0137, 149.65, 13.0)" width="262.5" xlink:href="#font_Trebuchet_MS_o0"/>
        <use fill="#00ff00" height="15.15" transform="matrix(0.0137, 0.0, 0.0, 0.0137, 155.1, 13.0)" width="262.5" xlink:href="#font_Trebuchet_MS_u0"/>
        <use fill="#00ff00" height="15.15" transform="matrix(0.0137, 0.0, 0.0, 0.0137, 160.7, 13.0)" width="262.5" xlink:href="#font_Trebuchet_MS_r0"/>
        <use fill="#00ff00" height="15.15" transform="matrix(0.0137, 0.0, 0.0, 0.0137, 166.25, 13.0)" width="262.5" xlink:href="#font_Trebuchet_MS_s0"/>
        <use fill="#00ff00" height="15.15" transform="matrix(0.0137, 0.0, 0.0, 0.0137, 169.85, 13.0)" width="262.5" xlink:href="#font_Trebuchet_MS_q0"/>
        <use fill="#00ff00" height="15.15" transform="matrix(0.0137, 0.0, 0.0, 0.0137, 175.6, 13.0)" width="262.5" xlink:href="#font_Trebuchet_MS_u0"/>
        <use fill="#00ff00" height="15.15" transform="matrix(0.0137, 0.0, 0.0, 0.0137, 181.2, 13.0)" width="262.5" xlink:href="#font_Trebuchet_MS_a0"/>
        <use fill="#00ff00" height="15.15" transform="matrix(0.0137, 0.0, 0.0, 0.0137, 186.5, 13.0)" width="262.5" xlink:href="#font_Trebuchet_MS_d0"/>
        <use fill="#00ff00" height="15.15" transform="matrix(0.0137, 0.0, 0.0, 0.0137, 194.4, 13.0)" width="262.5" xlink:href="#font_Trebuchet_MS_m0"/>
        <use fill="#00ff00" height="15.15" transform="matrix(0.0137, 0.0, 0.0, 0.0137, 203.95, 13.0)" width="262.5" xlink:href="#font_Trebuchet_MS_u0"/>
        <use fill="#00ff00" height="15.15" transform="matrix(0.0137, 0.0, 0.0, 0.0137, 209.55, 13.0)" width="262.5" xlink:href="#font_Trebuchet_MS_s0"/>
        <use fill="#00ff00" height="15.15" transform="matrix(0.0137, 0.0, 0.0, 0.0137, 213.15, 13.0)" width="262.5" xlink:href="#font_Trebuchet_MS_t0"/>
        <use fill="#00ff00" height="15.15" transform="matrix(0.0137, 0.0, 0.0, 0.0137, 218.8, 13.0)" width="262.5" xlink:href="#font_Trebuchet_MS_r0"/>
        <use fill="#00ff00" height="15.15" transform="matrix(0.0137, 0.0, 0.0, 0.0137, 222.2, 13.0)" width="262.5" xlink:href="#font_Trebuchet_MS_e0"/>
        <use fill="#00ff00" height="15.15" transform="matrix(0.0137, 0.0, 0.0, 0.0137, 227.8, 13.0)" width="262.5" xlink:href="#font_Trebuchet_MS_-0"/>
        <use fill="#00ff00" height="15.15" transform="matrix(0.0137, 0.0, 0.0, 0.0137, 230.85, 13.0)" width="262.5" xlink:href="#font_Trebuchet_MS_e0"/>
        <use fill="#00ff00" height="15.15" transform="matrix(0.0137, 0.0, 0.0, 0.0137, 236.45, 13.0)" width="262.5" xlink:href="#font_Trebuchet_MS_n0"/>
        <use fill="#00ff00" height="15.15" transform="matrix(0.0137, 0.0, 0.0, 0.0137, 242.05, 13.0)" width="262.5" xlink:href="#font_Trebuchet_MS_t0"/>
        <use fill="#00ff00" height="15.15" transform="matrix(0.0137, 0.0, 0.0, 0.0137, 245.55, 13.0)" width="262.5" xlink:href="#font_Trebuchet_MS_e0"/>
        <use fill="#00ff00" height="15.15" transform="matrix(0.0137, 0.0, 0.0, 0.0137, 251.15, 13.0)" width="262.5" xlink:href="#font_Trebuchet_MS_r0"/>
        <use fill="#00ff00" height="15.15" transform="matrix(0.0137, 0.0, 0.0, 0.0137, 254.55, 13.0)" width="262.5" xlink:href="#font_Trebuchet_MS__3"/>
      </g>
    </g>
    <g id="font_Trebuchet_MS_y0">
      <path d="M272.0 91.0 L499.0 -535.5 402.0 -535.5 Q331.5 -328.5 260.5 -121.5 182.0 -328.5 103.0 -535.5 L6.0 -535.5 151.0 -163.0 Q175.5 -100.0 191.0 -57.0 206.5 -14.5 206.5 29.5 206.5 69.5 164.0 97.5 121.5 125.0 62.0 125.0 L62.0 210.0 Q135.0 210.0 194.5 176.0 253.5 142.0 272.0 91.0" fill-rule="evenodd" stroke="none"/>
    </g>
    <g id="font_Trebuchet_MS_p0">
      <path d="M162.5 -420.0 Q179.5 -437.5 208.5 -451.5 237.5 -465.5 257.5 -465.5 350.0 -465.5 392.0 -418.5 434.0 -371.5 434.0 -270.0 434.0 -70.0 257.0 -70.0 229.5 -70.0 200.5 -82.0 171.5 -94.5 162.5 -108.0 L162.5 -420.0 M162.5 -29.5 Q173.5 -14.0 212.5 -2.0 251.0 10.0 285.0 10.0 406.0 10.0 470.0 -67.0 534.0 -144.5 534.0 -266.5 534.0 -403.5 470.5 -474.5 407.0 -545.5 293.0 -545.5 216.5 -545.5 162.5 -491.5 L162.5 -535.5 67.5 -535.5 67.5 210.0 162.5 210.0 162.5 -29.5" fill-rule="evenodd" stroke="none"/>
    </g>
    <g id="font_Trebuchet_MS__2">
      <path d="M112.0 181.5 Q202.0 114.5 230.0 61.5 257.5 8.0 257.5 -58.5 257.5 -90.5 236.0 -114.5 214.0 -138.5 186.5 -138.5 155.5 -138.5 135.0 -121.0 114.5 -104.0 114.5 -77.5 114.5 -39.0 157.5 -18.5 172.5 3.5 172.5 25.5 172.5 75.0 86.5 145.5 99.5 163.5 112.0 181.5" fill-rule="evenodd" stroke="none"/>
    </g>
    <g id="font_Trebuchet_MS_-0">
      <path d="M79.5 -253.0 L293.5 -253.0 293.5 -340.5 79.5 -340.5 79.5 -253.0" fill-rule="evenodd" stroke="none"/>
    </g>
    <g id="font_Trebuchet_MS__3">
      <path d="M192.0 -140.5 Q161.0 -140.5 139.0 -118.5 117.0 -96.5 117.0 -65.5 117.0 -34.5 139.0 -12.0 161.0 10.0 192.0 10.0 223.0 10.0 245.0 -12.0 267.0 -34.5 267.0 -65.5 267.0 -96.5 245.0 -118.5 223.0 -140.5 192.0 -140.5 M206.5 -191.0 Q245.5 -445.5 245.5 -541.0 L245.5 -745.5 132.5 -745.5 132.5 -540.5 Q132.5 -442.5 171.0 -191.0 L206.5 -191.0" fill-rule="evenodd" stroke="none"/>
    </g>
    <g id="text26" transform="matrix(1.0, 0.0, 0.0, 1.0, -0.55, -1.85)">
      <g transform="matrix(1.0, 0.0, 0.0, 1.0, 0.0, 0.0)">
        <use fill="#00ff00" height="15.15" transform="matrix(0.0137, 0.0, 0.0, 0.0137, 0.0, 13.0)" width="263.8" xlink:href="#font_Trebuchet_MS_O0"/>
        <use fill="#00ff00" height="15.15" transform="matrix(0.0137, 0.0, 0.0, 0.0137, 7.25, 13.0)" width="263.8" xlink:href="#font_Trebuchet_MS_r0"/>
        <use fill="#00ff00" height="15.15" transform="matrix(0.0137, 0.0, 0.0, 0.0137, 12.5, 13.0)" width="263.8" xlink:href="#font_Trebuchet_MS_e0"/>
        <use fill="#00ff00" height="15.15" transform="matrix(0.0137, 0.0, 0.0, 0.0137, 17.95, 13.0)" width="263.8" xlink:href="#font_Trebuchet_MS_l0"/>
        <use fill="#00ff00" height="15.15" transform="matrix(0.0137, 0.0, 0.0, 0.0137, 19.9, 13.0)" width="263.8" xlink:href="#font_Trebuchet_MS_s0"/>
        <use fill="#00ff00" height="15.15" transform="matrix(0.0137, 0.0, 0.0, 0.0137, 23.35, 13.0)" width="263.8" xlink:href="#font_Trebuchet_MS_e0"/>
        <use fill="#00ff00" height="15.15" transform="matrix(0.0137, 0.0, 0.0, 0.0137, 30.8, 13.0)" width="263.8" xlink:href="#font_Trebuchet_MS_t0"/>
        <use fill="#00ff00" height="15.15" transform="matrix(0.0137, 0.0, 0.0, 0.0137, 34.15, 13.0)" width="263.8" xlink:href="#font_Trebuchet_MS_h0"/>
        <use fill="#00ff00" height="15.15" transform="matrix(0.0137, 0.0, 0.0, 0.0137, 39.6, 13.0)" width="263.8" xlink:href="#font_Trebuchet_MS_e0"/>
        <use fill="#00ff00" height="15.15" transform="matrix(0.0137, 0.0, 0.0, 0.0137, 45.05, 13.0)" width="263.8" xlink:href="#font_Trebuchet_MS_y0"/>
        <use fill="#00ff00" height="15.15" transform="matrix(0.0137, 0.0, 0.0, 0.0137, 51.75, 13.0)" width="263.8" xlink:href="#font_Trebuchet_MS_m0"/>
        <use fill="#00ff00" height="15.15" transform="matrix(0.0137, 0.0, 0.0, 0.0137, 61.15, 13.0)" width="263.8" xlink:href="#font_Trebuchet_MS_a0"/>
        <use fill="#00ff00" height="15.15" transform="matrix(0.0137, 0.0, 0.0, 0.0137, 66.3, 13.0)" width="263.8" xlink:href="#font_Trebuchet_MS_y0"/>
        <use fill="#00ff00" height="15.15" transform="matrix(0.0137, 0.0, 0.0, 0.0137, 73.0, 13.0)" width="263.8" xlink:href="#font_Trebuchet_MS_g0"/>
        <use fill="#00ff00" height="15.15" transform="matrix(0.0137, 0.0, 0.0, 0.0137, 77.85, 13.0)" width="263.8" xlink:href="#font_Trebuchet_MS_e0"/>
        <use fill="#00ff00" height="15.15" transform="matrix(0.0137, 0.0, 0.0, 0.0137, 83.3, 13.0)" width="263.8" xlink:href="#font_Trebuchet_MS_t0"/>
        <use fill="#00ff00" height="15.15" transform="matrix(0.0137, 0.0, 0.0, 0.0137, 88.65, 13.0)" width="263.8" xlink:href="#font_Trebuchet_MS_t0"/>
        <use fill="#00ff00" height="15.15" transform="matrix(0.0137, 0.0, 0.0, 0.0137, 92.0, 13.0)" width="263.8" xlink:href="#font_Trebuchet_MS_e0"/>
        <use fill="#00ff00" height="15.15" transform="matrix(0.0137, 0.0, 0.0, 0.0137, 97.45, 13.0)" width="263.8" xlink:href="#font_Trebuchet_MS_m0"/>
        <use fill="#00ff00" height="15.15" transform="matrix(0.0137, 0.0, 0.0, 0.0137, 106.85, 13.0)" width="263.8" xlink:href="#font_Trebuchet_MS_p0"/>
        <use fill="#00ff00" height="15.15" transform="matrix(0.0137, 0.0, 0.0, 0.0137, 114.45, 13.0)" width="263.8" xlink:href="#font_Trebuchet_MS_b0"/>
        <use fill="#00ff00" height="15.15" transform="matrix(0.0137, 0.0, 0.0, 0.0137, 120.05, 13.0)" width="263.8" xlink:href="#font_Trebuchet_MS_a0"/>
        <use fill="#00ff00" height="15.15" transform="matrix(0.0137, 0.0, 0.0, 0.0137, 125.2, 13.0)" width="263.8" xlink:href="#font_Trebuchet_MS_n0"/>
        <use fill="#00ff00" height="15.15" transform="matrix(0.0137, 0.0, 0.0, 0.0137, 130.65, 13.0)" width="263.8" xlink:href="#font_Trebuchet_MS_n0"/>
        <use fill="#00ff00" height="15.15" transform="matrix(0.0137, 0.0, 0.0, 0.0137, 136.1, 13.0)" width="263.8" xlink:href="#font_Trebuchet_MS_e0"/>
        <use fill="#00ff00" height="15.15" transform="matrix(0.0137, 0.0, 0.0, 0.0137, 141.55, 13.0)" width="263.8" xlink:href="#font_Trebuchet_MS_d0"/>
        <use fill="#00ff00" height="15.15" transform="matrix(0.0137, 0.0, 0.0, 0.0137, 149.15, 13.0)" width="263.8" xlink:href="#font_Trebuchet_MS_i0"/>
        <use fill="#00ff00" height="15.15" transform="matrix(0.0137, 0.0, 0.0, 0.0137, 150.95, 13.0)" width="263.8" xlink:href="#font_Trebuchet_MS_n0"/>
        <use fill="#00ff00" height="15.15" transform="matrix(0.0137, 0.0, 0.0, 0.0137, 158.4, 13.0)" width="263.8" xlink:href="#font_Trebuchet_MS_t0"/>
        <use fill="#00ff00" height="15.15" transform="matrix(0.0137, 0.0, 0.0, 0.0137, 161.75, 13.0)" width="263.8" xlink:href="#font_Trebuchet_MS_h0"/>
        <use fill="#00ff00" height="15.15" transform="matrix(0.0137, 0.0, 0.0, 0.0137, 167.2, 13.0)" width="263.8" xlink:href="#font_Trebuchet_MS_e0"/>
        <use fill="#00ff00" height="15.15" transform="matrix(0.0137, 0.0, 0.0, 0.0137, 174.65, 13.0)" width="263.8" xlink:href="#font_Trebuchet_MS_f0"/>
        <use fill="#00ff00" height="15.15" transform="matrix(0.0137, 0.0, 0.0, 0.0137, 177.55, 13.0)" width="263.8" xlink:href="#font_Trebuchet_MS_u0"/>
        <use fill="#00ff00" height="15.15" transform="matrix(0.0137, 0.0, 0.0, 0.0137, 183.0, 13.0)" width="263.8" xlink:href="#font_Trebuchet_MS_t0"/>
        <use fill="#00ff00" height="15.15" transform="matrix(0.0137, 0.0, 0.0, 0.0137, 186.35, 13.0)" width="263.8" xlink:href="#font_Trebuchet_MS_u0"/>
        <use fill="#00ff00" height="15.15" transform="matrix(0.0137, 0.0, 0.0, 0.0137, 191.8, 13.0)" width="263.8" xlink:href="#font_Trebuchet_MS_r0"/>
        <use fill="#00ff00" height="15.15" transform="matrix(0.0137, 0.0, 0.0, 0.0137, 195.05, 13.0)" width="263.8" xlink:href="#font_Trebuchet_MS_e0"/>
        <use fill="#00ff00" height="15.15" transform="matrix(0.0137, 0.0, 0.0, 0.0137, 200.5, 13.0)" width="263.8" xlink:href="#font_Trebuchet_MS__3"/>
        <use fill="#00ff00" height="15.15" transform="matrix(0.0137, 0.0, 0.0, 0.0137, 205.4, 13.0)" width="263.8" xlink:href="#font_Trebuchet_MS_D0"/>
        <use fill="#00ff00" height="15.15" transform="matrix(0.0137, 0.0, 0.0, 0.0137, 211.8, 13.0)" width="263.8" xlink:href="#font_Trebuchet_MS_o0"/>
        <use fill="#00ff00" height="15.15" transform="matrix(0.0137, 0.0, 0.0, 0.0137, 219.1, 13.0)" width="263.8" xlink:href="#font_Trebuchet_MS_s0"/>
        <use fill="#00ff00" height="15.15" transform="matrix(0.0137, 0.0, 0.0, 0.0137, 222.55, 13.0)" width="263.8" xlink:href="#font_Trebuchet_MS_p0"/>
        <use fill="#00ff00" height="15.15" transform="matrix(0.0137, 0.0, 0.0, 0.0137, 228.15, 13.0)" width="263.8" xlink:href="#font_Trebuchet_MS_a0"/>
        <use fill="#00ff00" height="15.15" transform="matrix(0.0137, 0.0, 0.0, 0.0137, 233.3, 13.0)" width="263.8" xlink:href="#font_Trebuchet_MS_r0"/>
        <use fill="#00ff00" height="15.15" transform="matrix(0.0137, 0.0, 0.0, 0.0137, 236.55, 13.0)" width="263.8" xlink:href="#font_Trebuchet_MS_i0"/>
        <use fill="#00ff00" height="15.15" transform="matrix(0.0137, 0.0, 0.0, 0.0137, 238.35, 13.0)" width="263.8" xlink:href="#font_Trebuchet_MS_n0"/>
        <use fill="#00ff00" height="15.15" transform="matrix(0.0137, 0.0, 0.0, 0.0137, 243.8, 13.0)" width="263.8" xlink:href="#font_Trebuchet_MS_g0"/>
        <use fill="#00ff00" height="15.15" transform="matrix(0.0137, 0.0, 0.0, 0.0137, 248.65, 13.0)" width="263.8" xlink:href="#font_Trebuchet_MS_l0"/>
        <use fill="#00ff00" height="15.15" transform="matrix(0.0137, 0.0, 0.0, 0.0137, 250.6, 13.0)" width="263.8" xlink:href="#font_Trebuchet_MS_y0"/>
        <use fill="#00ff00" height="15.15" transform="matrix(0.0137, 0.0, 0.0, 0.0137, 255.3, 13.0)" width="263.8" xlink:href="#font_Trebuchet_MS__3"/>
      </g>
    </g>
  </defs>
</svg>
