<?xml version="1.0" encoding="UTF-8" standalone="no"?>
<svg xmlns:xlink="http://www.w3.org/1999/xlink" height="564.7px" width="1151.8px" xmlns="http://www.w3.org/2000/svg">
  <g transform="matrix(1.0, 0.0, 0.0, 1.0, 742.8, 272.2)">
    <use data-characterId="1751" height="559.0" id="upgradebasescreen" transform="matrix(1.0, 0.0, 0.0, 1.0, -445.5, -266.5)" width="779.0" xlink:href="#sprite0"/>
  </g>
  <defs>
    <g id="sprite0" transform="matrix(1.0, 0.0, 0.0, 1.0, 389.4, 279.5)">
      <use data-characterId="1741" height="559.0" transform="matrix(1.0, 0.0, 0.0, 1.0, -389.4, -279.5)" width="779.0" xlink:href="#shape0"/>
      <use data-characterId="1069" height="20.25" transform="matrix(1.0, 0.0, 0.0, 1.0, 258.0, 204.25)" width="66.0" xlink:href="#sprite1"/>
      <use data-characterId="1072" height="28.0" id="fundsdisplay" transform="matrix(1.0, 0.0, 0.0, 1.0, 182.55, -254.8)" width="177.3" xlink:href="#sprite2"/>
      <use data-characterId="1742" height="16.8" transform="matrix(1.0, 0.0, 0.0, 1.0, -105.7, -246.55)" width="95.7" xlink:href="#text2"/>
      <use data-characterId="1743" height="37.2" transform="matrix(1.0, 0.0, 0.0, 1.0019, -284.0, -175.2038)" width="228.35" xlink:href="#text3"/>
      <use data-characterId="1744" height="26.35" id="currentbasetypedisp" transform="matrix(1.0, 0.0, 0.0, 1.0, -150.0, -177.35)" width="56.0" xlink:href="#text4"/>
      <use data-characterId="1745" height="37.2" transform="matrix(1.0, 0.0, 0.0, 1.0019, -284.0, -142.2038)" width="208.15" xlink:href="#text5"/>
      <use data-characterId="1069" height="20.25" transform="matrix(1.0, 0.0, 0.0, 1.0, -75.0, -144.75)" width="66.0" xlink:href="#sprite1"/>
      <use data-characterId="1746" height="37.2" transform="matrix(1.0, 0.0, 0.0, 1.0019, -283.5, -109.2038)" width="63.6" xlink:href="#text6"/>
      <use data-characterId="1747" height="150.1" id="basetypeupgcost" transform="matrix(1.0, 0.0, 0.0, 1.0, -245.0, -108.1)" width="174.05" xlink:href="#text7"/>
      <use data-characterId="1748" height="19.6" id="upgradebasetolevel" transform="matrix(1.0, 0.0, 0.0, 1.0, -164.5, -142.1)" width="56.5" xlink:href="#text8"/>
      <use data-characterId="1749" height="37.2" transform="matrix(1.0, 0.0, 0.0, 1.0, 27.0, -128.65)" width="148.4" xlink:href="#text9"/>
      <use data-characterId="1750" height="128.65" id="upginfo" transform="matrix(1.0, 0.0, 0.0, 1.0, 25.0, -101.65)" width="253.95" xlink:href="#text10"/>
      <use data-characterId="1681" height="168.0" id="baseimage" transform="matrix(1.0, 0.0, 0.0, 1.0, -271.0, -24.85)" width="168.0" xlink:href="#sprite3"/>
    </g>
    <g id="shape0" transform="matrix(1.0, 0.0, 0.0, 1.0, 389.4, 279.5)">
      <path d="M283.5 -102.5 L283.5 30.5 24.5 30.5 24.5 -102.5 283.5 -102.5 M389.1 279.0 L-388.9 279.0 -388.9 -279.0 389.1 -279.0 389.1 279.0 M-164.0 -143.45 L-108.0 -143.45 -108.0 -120.45 -164.0 -120.45 -164.0 -143.45 Z" fill="none" stroke="#cccccc" stroke-linecap="round" stroke-linejoin="round" stroke-width="1.0"/>
    </g>
    <g id="sprite1" transform="matrix(1.0, 0.0, 0.0, 1.0, 46.0, 10.25)">
      <use data-characterId="1067" height="18.85" transform="matrix(1.0, 0.0, 0.0, 1.0, -46.0, -10.25)" width="66.0" xlink:href="#shape1"/>
      <use data-characterId="1068" height="19.0" id="label" transform="matrix(1.0, 0.0, 0.0, 1.0, -42.85, -9.0)" width="61.35" xlink:href="#text0"/>
    </g>
    <g id="shape1" transform="matrix(1.0, 0.0, 0.0, 1.0, 46.0, 10.25)">
      <path d="M19.5 -9.75 L19.5 8.1 -45.5 8.1 -45.5 -9.75 19.5 -9.75" fill="#ffff00" fill-rule="evenodd" stroke="none"/>
      <path d="M19.5 -9.75 L19.5 8.1 -45.5 8.1 -45.5 -9.75 19.5 -9.75 Z" fill="none" stroke="#cccccc" stroke-linecap="round" stroke-linejoin="round" stroke-width="1.0"/>
    </g>
    <g id="text0" transform="matrix(1.0, 0.0, 0.0, 1.0, 2.0, 2.0)">
      <g transform="matrix(1.0, 0.0, 0.0, 1.0, -2.0, -2.0)">
        <use fill="#000000" height="19.0" transform="matrix(0.0117, 0.0, 0.0, 0.0117, 30.65, 14.0)" width="61.35" xlink:href="#font_Trebuchet_MS_U0"/>
        <use fill="#000000" height="19.0" transform="matrix(0.0117, 0.0, 0.0, 0.0117, 30.65, 14.0)" width="61.35" xlink:href="#font_Trebuchet_MS_P0"/>
        <use fill="#000000" height="19.0" transform="matrix(0.0117, 0.0, 0.0, 0.0117, 30.65, 14.0)" width="61.35" xlink:href="#font_Trebuchet_MS_G0"/>
        <use fill="#000000" height="19.0" transform="matrix(0.0117, 0.0, 0.0, 0.0117, 30.65, 14.0)" width="61.35" xlink:href="#font_Trebuchet_MS_R0"/>
        <use fill="#000000" height="19.0" transform="matrix(0.0117, 0.0, 0.0, 0.0117, 30.65, 14.0)" width="61.35" xlink:href="#font_Trebuchet_MS_A0"/>
        <use fill="#000000" height="19.0" transform="matrix(0.0117, 0.0, 0.0, 0.0117, 30.65, 14.0)" width="61.35" xlink:href="#font_Trebuchet_MS_D0"/>
        <use fill="#000000" height="19.0" transform="matrix(0.0117, 0.0, 0.0, 0.0117, 30.65, 14.0)" width="61.35" xlink:href="#font_Trebuchet_MS_E0"/>
      </g>
    </g>
    <g id="font_Trebuchet_MS_U0">
      <path d="M75.0 -732.5 L75.0 -223.5 Q75.0 -109.5 141.5 -48.5 208.0 12.5 331.0 12.5 450.5 12.5 520.0 -49.5 589.0 -112.0 589.0 -223.0 L589.0 -732.5 489.0 -732.5 489.0 -233.5 Q489.0 -161.5 446.5 -119.5 404.0 -77.5 330.0 -77.5 260.0 -77.5 217.5 -120.5 175.0 -164.0 175.0 -231.0 L175.0 -732.5 75.0 -732.5" fill-rule="evenodd" stroke="none"/>
    </g>
    <g id="font_Trebuchet_MS_P0">
      <path d="M175.0 -642.5 Q209.5 -647.5 229.5 -647.5 428.0 -647.5 428.0 -513.5 428.0 -367.0 242.0 -367.0 L175.0 -372.0 175.0 -642.5 M175.0 -282.0 Q232.0 -277.0 249.0 -277.0 531.0 -277.0 531.0 -524.0 531.0 -737.5 212.0 -737.5 L75.0 -732.5 75.0 0.0 175.0 0.0 175.0 -282.0" fill-rule="evenodd" stroke="none"/>
    </g>
    <g id="font_Trebuchet_MS_G0">
      <path d="M582.5 -681.5 Q510.5 -745.0 396.0 -745.0 232.5 -745.0 136.5 -639.0 40.0 -533.5 40.0 -363.5 40.0 -193.0 128.0 -90.0 215.5 12.5 367.0 12.5 434.5 12.5 506.0 -8.0 577.5 -29.0 617.5 -63.0 L617.5 -382.0 416.0 -382.0 416.0 -297.0 517.5 -297.0 517.5 -125.5 Q468.0 -77.5 388.0 -77.5 275.5 -77.5 210.5 -155.0 145.0 -232.5 145.0 -359.5 145.0 -493.0 211.5 -574.0 278.0 -655.0 393.0 -655.0 465.5 -655.0 541.0 -599.0 562.0 -640.0 582.5 -681.5" fill-rule="evenodd" stroke="none"/>
    </g>
    <g id="font_Trebuchet_MS_R0">
      <path d="M180.0 -642.5 Q224.0 -647.5 239.0 -647.5 334.0 -647.5 378.0 -620.5 422.0 -593.5 422.0 -532.0 422.0 -457.5 381.0 -428.5 340.0 -399.5 250.0 -399.5 216.0 -399.5 180.0 -404.5 L180.0 -642.5 M481.5 0.0 L596.0 0.0 383.5 -337.0 Q442.0 -350.5 484.5 -405.5 527.0 -461.0 527.0 -530.0 527.0 -740.0 263.0 -740.0 L158.0 -736.0 80.0 -732.5 80.0 0.0 180.0 0.0 180.0 -319.5 Q252.5 -314.5 286.0 -314.5 L481.5 0.0" fill-rule="evenodd" stroke="none"/>
    </g>
    <g id="font_Trebuchet_MS_A0">
      <path d="M308.0 -550.5 L412.0 -228.0 194.5 -228.0 Q251.5 -389.0 308.0 -550.5 M491.0 0.0 L602.0 0.0 326.0 -742.5 299.5 -742.5 Q151.0 -371.0 2.0 0.0 L114.0 0.0 168.0 -154.5 440.5 -154.5 491.0 0.0" fill-rule="evenodd" stroke="none"/>
    </g>
    <g id="font_Trebuchet_MS_D0">
      <path d="M175.0 -642.5 Q235.5 -647.5 249.5 -647.5 483.0 -647.5 483.0 -387.5 483.0 -247.5 423.0 -168.5 363.0 -90.0 258.0 -90.0 208.5 -90.0 175.0 -95.0 L175.0 -642.5 M222.5 0.0 Q588.0 0.0 588.0 -396.0 588.0 -551.0 498.5 -644.0 409.0 -737.5 255.5 -737.5 216.0 -737.5 75.0 -732.5 L75.0 0.0 222.5 0.0" fill-rule="evenodd" stroke="none"/>
    </g>
    <g id="font_Trebuchet_MS_E0">
      <path d="M175.0 -642.5 L512.5 -642.5 512.5 -732.5 75.0 -732.5 75.0 0.0 507.0 0.0 507.0 -90.0 175.0 -90.0 175.0 -354.0 417.0 -354.0 417.0 -439.0 175.0 -439.0 175.0 -642.5" fill-rule="evenodd" stroke="none"/>
    </g>
    <g id="sprite2" transform="matrix(1.0, 0.0, 0.0, 1.0, 95.25, 12.5)">
      <use data-characterId="1070" height="27.0" transform="matrix(1.0, 0.0, 0.0, 1.0, -95.25, -12.5)" width="177.3" xlink:href="#shape2"/>
      <use data-characterId="1071" height="23.75" transform="matrix(1.0, 0.0, 0.0, 1.0, -87.5, -8.25)" width="167.0" xlink:href="#text1"/>
    </g>
    <g id="shape2" transform="matrix(1.0, 0.0, 0.0, 1.0, 95.25, 12.5)">
      <path d="M70.65 13.0 L70.65 13.5 -84.3 13.5 Q-88.45 13.45 -91.4 9.8 -94.3 6.15 -94.25 0.95 -94.3 -4.25 -91.4 -7.9 -88.7 -11.25 -84.3 -11.5 L70.65 -11.5 Q75.0 -11.5 78.05 -7.85 81.05 -4.2 81.05 1.0 81.05 6.2 78.05 9.85 L77.95 10.0 Q74.95 13.45 70.7 13.5 L70.65 13.0" fill="url(#gradient0)" fill-rule="evenodd" stroke="none"/>
      <path d="M70.65 13.0 L70.65 13.5 -84.3 13.5 Q-88.45 13.45 -91.4 9.8 -94.3 6.15 -94.25 0.95 -94.3 -4.25 -91.4 -7.9 -88.7 -11.25 -84.3 -11.5 L70.65 -11.5 Q75.0 -11.5 78.05 -7.85 81.05 -4.2 81.05 1.0 81.05 6.2 78.05 9.85 L77.95 10.0 Q74.95 13.45 70.7 13.5" fill="none" stroke="#555555" stroke-linecap="round" stroke-linejoin="round" stroke-width="2.0"/>
    </g>
    <radialGradient cx="0" cy="0" gradientTransform="matrix(0.1071, 0.0, 0.0, 0.0986, -6.6, 1.0)" gradientUnits="userSpaceOnUse" id="gradient0" r="819.2" spreadMethod="pad">
      <stop offset="0.0" stop-color="#727272"/>
      <stop offset="1.0" stop-color="#656565"/>
    </radialGradient>
    <g id="text1" transform="matrix(1.0, 0.0, 0.0, 1.0, 2.0, 2.0)">
      <g transform="matrix(1.0, 0.0, 0.0, 1.0, -2.0, -2.0)">
        <use fill="#ffffff" height="23.75" transform="matrix(0.0127, 0.0, 0.0, 0.0127, 0.0, 13.65)" width="167.0" xlink:href="#font_Arial_f0"/>
        <use fill="#ffffff" height="23.75" transform="matrix(0.0127, 0.0, 0.0, 0.0127, 3.6, 13.65)" width="167.0" xlink:href="#font_Arial_u0"/>
        <use fill="#ffffff" height="23.75" transform="matrix(0.0127, 0.0, 0.0, 0.0127, 10.85, 13.65)" width="167.0" xlink:href="#font_Arial_n0"/>
        <use fill="#ffffff" height="23.75" transform="matrix(0.0127, 0.0, 0.0, 0.0127, 18.1, 13.65)" width="167.0" xlink:href="#font_Arial_d0"/>
        <use fill="#ffffff" height="23.75" transform="matrix(0.0127, 0.0, 0.0, 0.0127, 25.35, 13.65)" width="167.0" xlink:href="#font_Arial_s0"/>
      </g>
    </g>
    <g id="font_Arial_f0">
      <path d="M89.0 0.0 L178.5 0.0 178.5 -461.0 282.0 -461.0 282.0 -531.0 178.5 -531.0 178.5 -580.0 Q178.5 -628.0 195.5 -645.5 212.5 -663.0 253.5 -663.0 278.5 -663.0 306.5 -658.0 313.5 -697.0 320.0 -736.5 274.0 -745.5 236.0 -745.5 177.0 -745.5 144.5 -723.5 111.5 -702.0 98.5 -667.0 89.0 -641.0 89.0 -587.5 L89.0 -531.0 9.5 -531.0 9.5 -461.0 89.0 -461.0 89.0 0.0" fill-rule="evenodd" stroke="none"/>
    </g>
    <g id="font_Arial_u0">
      <path d="M415.5 0.0 L496.0 0.0 496.0 -531.0 406.0 -531.0 406.0 -246.5 Q406.0 -178.5 391.5 -142.5 376.5 -107.0 341.0 -86.0 305.5 -65.5 265.0 -65.5 224.5 -65.5 197.0 -85.5 169.5 -106.0 161.0 -141.5 155.5 -166.0 155.5 -236.5 L155.5 -531.0 65.5 -531.0 65.5 -202.0 Q65.5 -144.5 71.0 -118.0 79.0 -78.5 99.0 -51.0 118.5 -24.0 159.5 -6.0 200.0 12.0 247.0 12.0 353.5 12.0 415.5 -78.0 L415.5 0.0" fill-rule="evenodd" stroke="none"/>
    </g>
    <g id="font_Arial_n0">
      <path d="M67.5 0.0 L157.5 0.0 157.5 -290.0 Q157.5 -392.0 199.5 -428.5 241.0 -465.0 298.5 -465.0 334.5 -465.0 361.5 -448.5 388.0 -432.5 398.5 -405.0 409.0 -378.0 409.0 -323.0 L409.0 0.0 499.0 0.0 499.0 -326.5 Q499.0 -389.0 494.0 -414.0 486.0 -452.5 466.0 -480.5 446.0 -508.5 406.0 -525.5 365.5 -543.0 317.5 -543.0 207.0 -543.0 148.5 -455.5 L148.5 -531.0 67.5 -531.0 67.5 0.0" fill-rule="evenodd" stroke="none"/>
    </g>
    <g id="font_Arial_d0">
      <path d="M127.5 -265.0 Q127.5 -370.5 168.0 -419.5 208.0 -468.5 268.0 -468.5 329.5 -468.5 371.5 -417.5 413.5 -366.5 413.5 -257.5 413.5 -158.5 372.5 -110.0 331.0 -62.0 272.0 -62.0 213.5 -62.0 170.5 -112.5 127.5 -163.0 127.5 -265.0 M412.0 0.0 L495.5 0.0 495.5 -733.0 406.0 -733.0 406.0 -470.0 Q382.5 -502.5 345.0 -522.5 307.5 -543.0 259.5 -543.0 194.0 -543.0 141.0 -508.5 88.0 -474.0 61.5 -409.0 35.0 -344.5 35.0 -265.0 35.0 -183.5 64.5 -120.5 93.5 -58.0 147.0 -23.0 200.0 12.0 263.5 12.0 361.5 12.0 412.0 -67.0 L412.0 0.0" fill-rule="evenodd" stroke="none"/>
    </g>
    <g id="font_Arial_s0">
      <path d="M31.5 -158.5 Q46.5 -74.0 101.0 -31.0 155.0 12.0 258.5 12.0 321.0 12.0 370.5 -9.5 420.0 -31.5 446.5 -71.0 472.5 -111.0 472.5 -156.0 472.5 -202.0 451.0 -233.0 429.5 -264.0 392.0 -280.0 354.0 -296.5 258.5 -322.0 192.5 -340.0 179.0 -345.0 155.5 -354.5 144.5 -369.0 133.5 -383.0 133.5 -400.5 133.5 -428.0 160.0 -448.5 186.5 -469.0 248.5 -469.0 301.0 -469.0 330.0 -446.0 358.5 -423.0 364.5 -382.0 L452.5 -394.0 Q444.0 -445.5 421.5 -476.0 399.0 -507.0 352.0 -525.0 304.5 -543.0 242.0 -543.0 200.5 -543.0 164.5 -532.0 128.0 -521.5 107.0 -506.0 79.0 -486.0 63.0 -455.5 46.5 -425.5 46.5 -390.0 46.5 -351.0 66.5 -318.5 86.0 -286.5 124.5 -268.0 162.5 -250.0 261.5 -225.0 335.0 -206.5 353.5 -194.5 380.0 -177.0 380.0 -146.5 380.0 -112.5 350.0 -87.0 320.0 -62.0 258.0 -62.0 196.5 -62.0 162.5 -90.5 128.0 -119.0 120.5 -172.5 L31.5 -158.5" fill-rule="evenodd" stroke="none"/>
    </g>
    <g id="text2" transform="matrix(1.0, 0.0, 0.0, 1.0, -46.3, -3.25)">
      <g transform="matrix(1.0, 0.0, 0.0, 1.0, 0.0, 0.0)">
        <use fill="#00ff00" height="16.8" transform="matrix(0.0195, 0.0, 0.0, 0.0195, 45.0, 19.0)" width="95.7" xlink:href="#font_Trebuchet_MS_B0"/>
        <use fill="#00ff00" height="16.8" transform="matrix(0.0195, 0.0, 0.0, 0.0195, 52.1, 19.0)" width="95.7" xlink:href="#font_Trebuchet_MS_A0"/>
        <use fill="#00ff00" height="16.8" transform="matrix(0.0195, 0.0, 0.0, 0.0195, 59.65, 19.0)" width="95.7" xlink:href="#font_Trebuchet_MS_S0"/>
        <use fill="#00ff00" height="16.8" transform="matrix(0.0195, 0.0, 0.0, 0.0195, 65.05, 19.0)" width="95.7" xlink:href="#font_Trebuchet_MS_E0"/>
        <use fill="#00ff00" height="16.8" transform="matrix(0.0195, 0.0, 0.0, 0.0195, 73.4, 19.0)" width="95.7" xlink:href="#font_Trebuchet_MS_U0"/>
        <use fill="#00ff00" height="16.8" transform="matrix(0.0195, 0.0, 0.0, 0.0195, 82.15, 19.0)" width="95.7" xlink:href="#font_Trebuchet_MS_P0"/>
        <use fill="#00ff00" height="16.8" transform="matrix(0.0195, 0.0, 0.0, 0.0195, 89.1, 19.0)" width="95.7" xlink:href="#font_Trebuchet_MS_G0"/>
        <use fill="#00ff00" height="16.8" transform="matrix(0.0195, 0.0, 0.0, 0.0195, 98.45, 19.0)" width="95.7" xlink:href="#font_Trebuchet_MS_R0"/>
        <use fill="#00ff00" height="16.8" transform="matrix(0.0195, 0.0, 0.0, 0.0195, 105.9, 19.0)" width="95.7" xlink:href="#font_Trebuchet_MS_A0"/>
        <use fill="#00ff00" height="16.8" transform="matrix(0.0195, 0.0, 0.0, 0.0195, 113.45, 19.0)" width="95.7" xlink:href="#font_Trebuchet_MS_D0"/>
        <use fill="#00ff00" height="16.8" transform="matrix(0.0195, 0.0, 0.0, 0.0195, 121.5, 19.0)" width="95.7" xlink:href="#font_Trebuchet_MS_E0"/>
        <use fill="#00ff00" height="16.8" transform="matrix(0.0195, 0.0, 0.0, 0.0195, 128.0, 19.0)" width="95.7" xlink:href="#font_Trebuchet_MS_S0"/>
      </g>
    </g>
    <g id="font_Trebuchet_MS_B0">
      <path d="M175.0 -364.5 L255.5 -367.0 Q352.0 -367.0 393.5 -333.0 434.5 -299.0 434.5 -227.5 434.5 -150.5 391.5 -115.0 348.0 -80.0 254.0 -80.0 226.5 -80.0 175.0 -85.0 L175.0 -364.5 M175.0 -652.5 Q214.5 -656.0 264.5 -656.0 395.0 -656.0 395.0 -554.5 395.0 -439.0 253.0 -439.0 206.5 -439.0 175.0 -442.0 L175.0 -652.5 M284.0 0.0 Q398.0 0.0 469.0 -57.5 539.5 -115.0 539.5 -211.5 539.5 -295.0 500.0 -343.5 460.0 -392.0 373.0 -413.0 419.0 -423.5 457.0 -465.5 495.0 -507.5 495.0 -558.5 495.0 -645.5 435.5 -692.0 376.0 -739.0 267.5 -739.0 208.5 -739.0 75.0 -732.5 L75.0 0.0 284.0 0.0" fill-rule="evenodd" stroke="none"/>
    </g>
    <g id="font_Trebuchet_MS_S0">
      <path d="M42.0 -33.5 Q111.0 12.5 208.5 12.5 319.5 12.5 386.0 -45.0 452.0 -102.5 452.0 -185.0 452.0 -261.0 422.0 -310.0 391.5 -359.5 316.5 -395.0 286.5 -409.0 256.5 -423.5 198.5 -451.5 180.0 -467.0 161.0 -482.5 150.5 -505.5 140.0 -528.5 140.0 -556.5 140.0 -602.0 169.5 -631.0 198.5 -660.0 249.5 -660.0 284.5 -660.0 325.5 -646.5 366.5 -633.0 386.5 -618.5 401.5 -662.0 416.0 -705.5 368.5 -745.0 247.0 -745.0 156.0 -745.0 98.0 -691.0 40.0 -637.0 40.0 -555.0 40.0 -487.5 70.0 -439.5 99.5 -391.5 174.5 -356.5 204.0 -342.5 233.5 -329.0 313.0 -291.5 333.0 -259.5 352.5 -228.0 352.5 -191.0 352.5 -141.5 317.0 -109.5 281.5 -77.5 223.0 -77.5 190.0 -77.5 148.5 -91.0 106.5 -105.0 78.5 -125.5 60.5 -79.5 42.0 -33.5" fill-rule="evenodd" stroke="none"/>
    </g>
    <g id="text3" transform="matrix(1.0, 0.0, 0.0, 1.0, 2.0, 2.0)">
      <g transform="matrix(1.0, 0.0, 0.0, 1.0, -2.0, -2.0)">
        <use fill="#00ff00" height="37.2" transform="matrix(0.0137, 0.0, 0.0, 0.0137, 0.0, 14.65)" width="228.35" xlink:href="#font__sans_u0"/>
        <use fill="#00ff00" height="37.2" transform="matrix(0.0137, 0.0, 0.0, 0.0137, 7.8, 14.65)" width="228.35" xlink:href="#font__sans_r0"/>
        <use fill="#00ff00" height="37.2" transform="matrix(0.0137, 0.0, 0.0, 0.0137, 12.45, 14.65)" width="228.35" xlink:href="#font__sans_r0"/>
        <use fill="#00ff00" height="37.2" transform="matrix(0.0137, 0.0, 0.0, 0.0137, 17.1, 14.65)" width="228.35" xlink:href="#font__sans_e0"/>
        <use fill="#00ff00" height="37.2" transform="matrix(0.0137, 0.0, 0.0, 0.0137, 24.9, 14.65)" width="228.35" xlink:href="#font__sans_n0"/>
        <use fill="#00ff00" height="37.2" transform="matrix(0.0137, 0.0, 0.0, 0.0137, 32.7, 14.65)" width="228.35" xlink:href="#font__sans_t0"/>
      </g>
      <g transform="matrix(1.0, 0.0, 0.0, 1.0, -2.0, -2.0)">
        <use fill="#00ff00" height="37.2" transform="matrix(0.0137, 0.0, 0.0, 0.0137, 50.6, 14.65)" width="228.35" xlink:href="#font__sans_B0"/>
        <use fill="#00ff00" height="37.2" transform="matrix(0.0137, 0.0, 0.0, 0.0137, 59.95, 14.65)" width="228.35" xlink:href="#font__sans_a0"/>
        <use fill="#00ff00" height="37.2" transform="matrix(0.0137, 0.0, 0.0, 0.0137, 67.75, 14.65)" width="228.35" xlink:href="#font__sans_s0"/>
        <use fill="#00ff00" height="37.2" transform="matrix(0.0137, 0.0, 0.0, 0.0137, 74.75, 14.65)" width="228.35" xlink:href="#font__sans_e0"/>
      </g>
      <g transform="matrix(1.0, 0.0, 0.0, 1.0, -2.0, -2.0)">
        <use fill="#00ff00" height="37.2" transform="matrix(0.0137, 0.0, 0.0, 0.0137, 86.45, 14.65)" width="228.35" xlink:href="#font__sans_e0"/>
        <use fill="#00ff00" height="37.2" transform="matrix(0.0137, 0.0, 0.0, 0.0137, 94.25, 14.65)" width="228.35" xlink:href="#font__sans_e0"/>
        <use fill="#00ff00" height="37.2" transform="matrix(0.0137, 0.0, 0.0, 0.0137, 102.05, 14.65)" width="228.35" xlink:href="#font__sans_l0"/>
      </g>
    </g>
    <g id="font__sans_u0">
      <path d="M415.5 0.0 L496.0 0.0 496.0 -531.0 406.0 -531.0 406.0 -246.5 Q406.0 -178.5 391.5 -142.5 376.5 -107.0 341.0 -86.0 305.5 -65.5 265.0 -65.5 224.5 -65.5 197.0 -85.5 169.5 -106.0 161.0 -141.5 155.5 -166.0 155.5 -236.5 L155.5 -531.0 65.5 -531.0 65.5 -202.0 Q65.5 -144.5 71.0 -118.0 79.0 -78.5 99.0 -51.0 118.5 -24.0 159.5 -6.0 200.0 12.0 247.0 12.0 353.5 12.0 415.5 -78.0 L415.5 0.0" fill-rule="evenodd" stroke="none"/>
    </g>
    <g id="font__sans_r0">
      <path d="M66.5 0.0 L156.5 0.0 156.5 -278.0 Q156.5 -335.0 171.5 -383.0 181.5 -414.5 205.0 -432.0 228.5 -450.0 258.0 -450.0 291.0 -450.0 324.0 -430.5 L355.0 -514.0 Q308.0 -543.0 262.5 -543.0 231.0 -543.0 205.0 -525.0 178.5 -507.0 147.5 -450.5 L147.5 -531.0 66.5 -531.0 66.5 0.0" fill-rule="evenodd" stroke="none"/>
    </g>
    <g id="font__sans_e0">
      <path d="M135.5 -316.5 Q140.0 -386.0 182.5 -427.5 224.5 -469.0 286.5 -469.0 355.0 -469.0 398.0 -417.0 426.0 -383.5 432.0 -316.5 L135.5 -316.5 M431.0 -171.0 Q410.5 -114.0 375.5 -88.0 340.5 -62.0 291.0 -62.0 224.5 -62.0 180.0 -108.5 135.5 -155.0 130.5 -242.5 L526.5 -242.5 527.0 -266.5 Q527.0 -398.0 459.5 -470.5 392.0 -543.0 285.5 -543.0 175.5 -543.0 106.5 -469.0 37.5 -395.0 37.5 -261.0 37.5 -131.5 106.0 -59.5 174.0 12.0 290.5 12.0 383.0 12.0 442.5 -33.0 502.0 -78.0 524.0 -159.5 L431.0 -171.0" fill-rule="evenodd" stroke="none"/>
    </g>
    <g id="font__sans_n0">
      <path d="M67.5 0.0 L157.5 0.0 157.5 -290.0 Q157.5 -392.0 199.5 -428.5 241.0 -465.0 298.5 -465.0 334.5 -465.0 361.5 -448.5 388.0 -432.5 398.5 -405.0 409.0 -378.0 409.0 -323.0 L409.0 0.0 499.0 0.0 499.0 -326.5 Q499.0 -389.0 494.0 -414.0 486.0 -452.5 466.0 -480.5 446.0 -508.5 406.0 -525.5 365.5 -543.0 317.5 -543.0 207.0 -543.0 148.5 -455.5 L148.5 -531.0 67.5 -531.0 67.5 0.0" fill-rule="evenodd" stroke="none"/>
    </g>
    <g id="font__sans_t0">
      <path d="M264.0 -80.5 Q239.5 -77.0 224.5 -77.0 204.5 -77.0 194.0 -83.5 183.0 -90.0 178.5 -101.0 173.5 -112.0 173.5 -150.5 L173.5 -461.0 264.0 -461.0 264.0 -531.0 173.5 -531.0 173.5 -716.5 84.0 -662.5 84.0 -531.0 18.0 -531.0 18.0 -461.0 84.0 -461.0 84.0 -155.5 Q84.0 -74.5 95.0 -49.0 106.0 -24.0 133.0 -8.5 160.0 7.0 209.0 7.0 239.0 7.0 277.0 -1.0 L264.0 -80.5" fill-rule="evenodd" stroke="none"/>
    </g>
    <g id="font__sans_B0">
      <path d="M172.0 -86.5 L172.0 -338.5 341.5 -338.5 Q411.5 -338.5 449.0 -326.0 486.0 -314.0 507.0 -283.5 528.0 -253.5 528.0 -212.5 528.0 -177.5 513.5 -150.5 499.0 -124.0 476.5 -110.0 454.0 -96.0 420.5 -90.0 401.5 -86.5 354.5 -86.5 L172.0 -86.5 M172.0 -425.0 L172.0 -646.5 318.5 -646.5 Q397.5 -646.5 430.0 -636.0 462.5 -626.0 480.0 -598.0 497.5 -570.5 497.5 -534.0 497.5 -495.5 479.0 -470.0 460.0 -444.5 423.0 -433.5 395.0 -425.0 330.5 -425.0 L172.0 -425.0 M75.0 0.0 L354.5 0.0 Q424.5 0.0 473.0 -12.0 521.0 -24.5 553.0 -48.5 585.0 -72.5 607.0 -116.5 628.5 -161.0 628.5 -212.5 628.5 -276.5 593.0 -323.5 557.0 -370.5 490.5 -390.0 542.0 -415.5 567.5 -457.0 593.0 -498.5 593.0 -545.5 593.0 -596.0 564.5 -642.0 535.5 -688.5 485.0 -710.5 434.0 -733.0 350.0 -733.0 L75.0 -733.0 75.0 0.0" fill-rule="evenodd" stroke="none"/>
    </g>
    <g id="font__sans_a0">
      <path d="M406.5 -266.5 L406.5 -233.5 Q406.5 -174.0 392.0 -143.5 373.0 -104.0 332.5 -81.0 292.0 -58.5 240.0 -58.5 187.5 -58.5 160.5 -82.5 133.0 -106.5 133.0 -142.5 133.0 -166.0 145.5 -185.0 158.0 -204.5 181.0 -214.5 204.0 -224.5 259.5 -232.5 357.5 -246.5 406.5 -266.5 M414.0 -65.5 Q418.0 -28.0 432.0 0.0 L526.0 0.0 Q509.0 -30.5 503.5 -63.5 497.5 -97.0 497.5 -222.5 L497.5 -342.5 Q497.5 -402.5 493.0 -425.5 485.0 -462.5 465.0 -486.5 445.0 -511.0 402.5 -527.0 360.0 -543.0 292.0 -543.0 223.5 -543.0 171.5 -524.0 119.5 -505.5 92.0 -470.5 64.5 -436.0 52.5 -379.5 L140.5 -367.5 Q155.0 -424.0 185.5 -446.0 215.5 -468.5 279.0 -468.5 347.0 -468.5 381.5 -438.0 407.0 -415.5 407.0 -360.5 L406.5 -337.0 Q355.0 -319.0 246.0 -306.0 192.5 -299.5 166.0 -292.5 130.0 -282.5 101.5 -263.0 72.5 -243.5 55.0 -211.0 37.0 -179.0 37.0 -140.0 37.0 -73.5 84.0 -30.5 131.0 12.0 218.5 12.0 271.5 12.0 318.0 -5.5 364.0 -23.0 414.0 -65.5" fill-rule="evenodd" stroke="none"/>
    </g>
    <g id="font__sans_s0">
      <path d="M31.5 -158.5 Q46.5 -74.0 101.0 -31.0 155.0 12.0 258.5 12.0 321.0 12.0 370.5 -9.5 420.0 -31.5 446.5 -71.0 472.5 -111.0 472.5 -156.0 472.5 -202.0 451.0 -233.0 429.5 -264.0 392.0 -280.0 354.0 -296.5 258.5 -322.0 192.5 -340.0 179.0 -345.0 155.5 -354.5 144.5 -369.0 133.5 -383.0 133.5 -400.5 133.5 -428.0 160.0 -448.5 186.5 -469.0 248.5 -469.0 301.0 -469.0 330.0 -446.0 358.5 -423.0 364.5 -382.0 L452.5 -394.0 Q444.0 -445.5 421.5 -476.0 399.0 -507.0 352.0 -525.0 304.5 -543.0 242.0 -543.0 200.5 -543.0 164.5 -532.0 128.0 -521.5 107.0 -506.0 79.0 -486.0 63.0 -455.5 46.5 -425.5 46.5 -390.0 46.5 -351.0 66.5 -318.5 86.0 -286.5 124.5 -268.0 162.5 -250.0 261.5 -225.0 335.0 -206.5 353.5 -194.5 380.0 -177.0 380.0 -146.5 380.0 -112.5 350.0 -87.0 320.0 -62.0 258.0 -62.0 196.5 -62.0 162.5 -90.5 128.0 -119.0 120.5 -172.5 L31.5 -158.5" fill-rule="evenodd" stroke="none"/>
    </g>
    <g id="font__sans_l0">
      <path d="M65.5 0.0 L155.5 0.0 155.5 -733.0 65.5 -733.0 65.5 0.0" fill-rule="evenodd" stroke="none"/>
    </g>
    <g id="text5" transform="matrix(1.0, 0.0, 0.0, 1.0, 2.0, 2.0)">
      <g transform="matrix(1.0, 0.0, 0.0, 1.0, -2.0, -2.0)">
        <use fill="#00ff00" height="37.2" transform="matrix(0.0137, 0.0, 0.0, 0.0137, 0.0, 14.65)" width="208.15" xlink:href="#font__sans_p0"/>
        <use fill="#00ff00" height="37.2" transform="matrix(0.0137, 0.0, 0.0, 0.0137, 7.8, 14.65)" width="208.15" xlink:href="#font__sans_g0"/>
        <use fill="#00ff00" height="37.2" transform="matrix(0.0137, 0.0, 0.0, 0.0137, 15.6, 14.65)" width="208.15" xlink:href="#font__sans_r0"/>
        <use fill="#00ff00" height="37.2" transform="matrix(0.0137, 0.0, 0.0, 0.0137, 20.25, 14.65)" width="208.15" xlink:href="#font__sans_a0"/>
        <use fill="#00ff00" height="37.2" transform="matrix(0.0137, 0.0, 0.0, 0.0137, 28.05, 14.65)" width="208.15" xlink:href="#font__sans_d0"/>
        <use fill="#00ff00" height="37.2" transform="matrix(0.0137, 0.0, 0.0, 0.0137, 35.85, 14.65)" width="208.15" xlink:href="#font__sans_e0"/>
      </g>
      <g transform="matrix(1.0, 0.0, 0.0, 1.0, -2.0, -2.0)">
        <use fill="#00ff00" height="37.2" transform="matrix(0.0137, 0.0, 0.0, 0.0137, 57.65, 14.65)" width="208.15" xlink:href="#font__sans_o0"/>
      </g>
      <g transform="matrix(1.0, 0.0, 0.0, 1.0, -2.0, -2.0)">
        <use fill="#00ff00" height="37.2" transform="matrix(0.0137, 0.0, 0.0, 0.0137, 77.9, 14.65)" width="208.15" xlink:href="#font__sans_e0"/>
        <use fill="#00ff00" height="37.2" transform="matrix(0.0137, 0.0, 0.0, 0.0137, 85.7, 14.65)" width="208.15" xlink:href="#font__sans_e0"/>
        <use fill="#00ff00" height="37.2" transform="matrix(0.0137, 0.0, 0.0, 0.0137, 93.5, 14.65)" width="208.15" xlink:href="#font__sans_l0"/>
      </g>
    </g>
    <g id="font__sans_p0">
      <path d="M149.0 -262.5 Q149.0 -365.0 193.5 -418.5 237.5 -472.5 295.0 -472.5 353.0 -472.5 395.0 -422.0 436.5 -371.5 436.5 -270.0 436.5 -163.5 394.0 -112.5 351.0 -62.0 291.0 -62.0 232.0 -62.0 190.5 -111.0 149.0 -160.0 149.0 -262.5 M67.5 203.5 L157.5 203.5 157.5 -55.0 Q180.5 -26.0 216.5 -7.0 252.0 12.0 297.0 12.0 358.5 12.0 414.5 -22.5 470.0 -57.5 499.5 -122.5 528.5 -188.0 528.5 -269.5 528.5 -345.5 502.0 -409.0 475.5 -473.0 423.5 -508.0 371.5 -543.0 303.5 -543.0 251.5 -543.0 215.0 -522.5 178.5 -502.5 149.5 -462.0 L149.5 -531.0 67.5 -531.0 67.5 203.5" fill-rule="evenodd" stroke="none"/>
    </g>
    <g id="font__sans_g0">
      <path d="M125.5 -275.0 Q125.5 -371.0 167.5 -419.5 209.5 -468.5 269.5 -468.5 330.5 -468.5 374.0 -419.0 417.0 -369.5 417.0 -272.0 417.0 -170.0 375.0 -122.0 333.0 -74.5 271.0 -74.5 208.5 -74.5 167.0 -122.5 125.5 -170.5 125.5 -275.0 M51.0 44.0 Q49.0 130.0 107.5 173.0 166.0 215.5 261.0 215.5 341.0 215.5 396.0 185.5 450.5 155.5 476.0 104.0 501.0 52.0 501.0 -72.0 L501.0 -531.0 418.0 -531.0 418.0 -467.0 Q357.0 -543.0 263.0 -543.0 192.5 -543.0 140.5 -508.0 88.0 -473.0 60.5 -408.5 33.0 -344.5 33.0 -268.5 33.0 -158.0 93.0 -79.0 153.0 0.0 262.5 0.0 350.5 0.0 409.5 -69.5 410.0 18.5 403.0 46.0 391.0 91.0 357.0 116.0 323.0 141.0 260.5 141.0 202.5 141.0 169.0 116.0 144.0 97.5 138.5 57.0 L51.0 44.0" fill-rule="evenodd" stroke="none"/>
    </g>
    <g id="font__sans_d0">
      <path d="M127.5 -265.0 Q127.5 -370.5 168.0 -419.5 208.0 -468.5 268.0 -468.5 329.5 -468.5 371.5 -417.5 413.5 -366.5 413.5 -257.5 413.5 -158.5 372.5 -110.0 331.0 -62.0 272.0 -62.0 213.5 -62.0 170.5 -112.5 127.5 -163.0 127.5 -265.0 M412.0 0.0 L495.5 0.0 495.5 -733.0 406.0 -733.0 406.0 -470.0 Q382.5 -502.5 345.0 -522.5 307.5 -543.0 259.5 -543.0 194.0 -543.0 141.0 -508.5 88.0 -474.0 61.5 -409.0 35.0 -344.5 35.0 -265.0 35.0 -183.5 64.5 -120.5 93.5 -58.0 147.0 -23.0 200.0 12.0 263.5 12.0 361.5 12.0 412.0 -67.0 L412.0 0.0" fill-rule="evenodd" stroke="none"/>
    </g>
    <g id="font__sans_o0">
      <path d="M126.5 -265.5 Q126.5 -367.5 171.0 -418.0 215.5 -468.5 283.0 -468.5 349.5 -468.5 394.5 -417.5 439.0 -367.0 439.0 -268.5 439.0 -164.0 394.5 -113.0 350.0 -62.0 283.0 -62.0 215.5 -62.0 171.0 -112.5 126.5 -163.5 126.5 -265.5 M34.0 -265.5 Q34.0 -131.0 103.0 -59.5 171.5 12.0 283.0 12.0 352.5 12.0 411.5 -20.5 470.0 -53.0 501.0 -111.5 531.5 -170.5 531.5 -273.0 531.5 -399.5 462.0 -471.0 392.5 -543.0 283.0 -543.0 184.5 -543.0 116.0 -484.0 34.0 -413.0 34.0 -265.5" fill-rule="evenodd" stroke="none"/>
    </g>
    <g id="text6" transform="matrix(1.0, 0.0, 0.0, 1.0, 2.0, 2.0)">
      <g transform="matrix(1.0, 0.0, 0.0, 1.0, -2.0, -2.0)">
        <use fill="#00ff00" height="37.2" transform="matrix(0.0137, 0.0, 0.0, 0.0137, 0.0, 14.65)" width="63.6" xlink:href="#font__sans_o0"/>
        <use fill="#00ff00" height="37.2" transform="matrix(0.0137, 0.0, 0.0, 0.0137, 7.8, 14.65)" width="63.6" xlink:href="#font__sans_s0"/>
        <use fill="#00ff00" height="37.2" transform="matrix(0.0137, 0.0, 0.0, 0.0137, 14.8, 14.65)" width="63.6" xlink:href="#font__sans_t0"/>
      </g>
    </g>
    <g id="text9" transform="matrix(1.0, 0.0, 0.0, 1.0, 2.0, 2.0)">
      <g transform="matrix(1.0, 0.0, 0.0, 1.0, -2.0, -2.0)">
        <use fill="#00ff00" height="37.2" transform="matrix(0.0137, 0.0, 0.0, 0.0137, 0.0, 14.65)" width="148.4" xlink:href="#font__sans_p0"/>
        <use fill="#00ff00" height="37.2" transform="matrix(0.0137, 0.0, 0.0, 0.0137, 7.8, 14.65)" width="148.4" xlink:href="#font__sans_g0"/>
        <use fill="#00ff00" height="37.2" transform="matrix(0.0137, 0.0, 0.0, 0.0137, 15.6, 14.65)" width="148.4" xlink:href="#font__sans_r0"/>
        <use fill="#00ff00" height="37.2" transform="matrix(0.0137, 0.0, 0.0, 0.0137, 20.25, 14.65)" width="148.4" xlink:href="#font__sans_a0"/>
        <use fill="#00ff00" height="37.2" transform="matrix(0.0137, 0.0, 0.0, 0.0137, 28.05, 14.65)" width="148.4" xlink:href="#font__sans_d0"/>
        <use fill="#00ff00" height="37.2" transform="matrix(0.0137, 0.0, 0.0, 0.0137, 35.85, 14.65)" width="148.4" xlink:href="#font__sans_e0"/>
      </g>
      <g transform="matrix(1.0, 0.0, 0.0, 1.0, -2.0, -2.0)">
        <use fill="#00ff00" height="37.2" transform="matrix(0.0137, 0.0, 0.0, 0.0137, 57.65, 14.65)" width="148.4" xlink:href="#font__sans_n0"/>
        <use fill="#00ff00" height="37.2" transform="matrix(0.0137, 0.0, 0.0, 0.0137, 65.45, 14.65)" width="148.4" xlink:href="#font__sans_o0"/>
        <use fill="#00ff00" height="37.2" transform="matrix(0.0137, 0.0, 0.0, 0.0137, 73.25, 14.65)" width="148.4" xlink:href="#font__sans_r0"/>
        <use fill="#00ff00" height="37.2" transform="matrix(0.0137, 0.0, 0.0, 0.0137, 77.9, 14.65)" width="148.4" xlink:href="#font__sans_m0"/>
        <use fill="#00ff00" height="37.2" transform="matrix(0.0137, 0.0, 0.0, 0.0137, 89.55, 14.65)" width="148.4" xlink:href="#font__sans_a0"/>
        <use fill="#00ff00" height="37.2" transform="matrix(0.0137, 0.0, 0.0, 0.0137, 97.35, 14.65)" width="148.4" xlink:href="#font__sans_t0"/>
        <use fill="#00ff00" height="37.2" transform="matrix(0.0137, 0.0, 0.0, 0.0137, 101.25, 14.65)" width="148.4" xlink:href="#font__sans_i0"/>
        <use fill="#00ff00" height="37.2" transform="matrix(0.0137, 0.0, 0.0, 0.0137, 104.35, 14.65)" width="148.4" xlink:href="#font__sans_o0"/>
        <use fill="#00ff00" height="37.2" transform="matrix(0.0137, 0.0, 0.0, 0.0137, 112.15, 14.65)" width="148.4" xlink:href="#font__sans_n0"/>
      </g>
    </g>
    <g id="font__sans_m0">
      <path d="M67.5 0.0 L157.5 0.0 157.5 -275.5 Q157.5 -348.0 172.0 -386.5 186.5 -425.0 219.0 -445.0 251.0 -465.0 289.0 -465.0 339.0 -465.0 361.0 -435.0 383.0 -405.0 383.0 -345.0 L383.0 0.0 473.0 0.0 473.0 -308.5 Q473.0 -390.5 510.0 -427.5 547.0 -465.0 603.0 -465.0 634.0 -465.0 657.0 -450.5 680.0 -436.0 689.0 -412.0 697.5 -388.5 697.5 -334.5 L697.5 0.0 787.0 0.0 787.0 -364.5 Q787.0 -455.5 744.5 -499.0 702.0 -543.0 623.0 -543.0 522.0 -543.0 459.0 -450.0 443.5 -494.0 406.0 -518.5 368.0 -543.0 309.0 -543.0 256.0 -543.0 214.5 -519.0 173.0 -495.5 148.0 -456.5 L148.0 -531.0 67.5 -531.0 67.5 0.0" fill-rule="evenodd" stroke="none"/>
    </g>
    <g id="font__sans_i0">
      <path d="M68.0 0.0 L158.0 0.0 158.0 -531.0 68.0 -531.0 68.0 0.0 M68.0 -629.5 L158.0 -629.5 158.0 -733.0 68.0 -733.0 68.0 -629.5" fill-rule="evenodd" stroke="none"/>
    </g>
    <g id="sprite3" transform="matrix(1.0, 0.0, 0.0, 1.0, 87.0, 89.0)">
      <use data-characterId="1673" height="98.0" transform="matrix(1.0, 0.0, 0.0, 1.0, -48.65, -48.9)" width="98.0" xlink:href="#shape3"/>
      <use data-characterId="1674" height="16.35" transform="matrix(1.0, 0.0, 0.0, 1.0018, -45.9, -73.1937)" width="17.25" xlink:href="#text11"/>
      <use data-characterId="1675" height="16.55" transform="matrix(1.0, 0.0, 0.0, 1.0018, 37.75, -73.394)" width="18.6" xlink:href="#text12"/>
      <use data-characterId="1676" height="16.75" transform="matrix(1.0, 0.0, 0.0, 1.0018, -43.8, 56.606)" width="18.15" xlink:href="#text13"/>
      <use data-characterId="1677" height="16.35" transform="matrix(1.0, 0.0, 0.0, 1.0018, 36.4, 56.8063)" width="18.95" xlink:href="#text14"/>
    </g>
    <g id="shape3" transform="matrix(1.0, 0.0, 0.0, 1.0, 48.65, 48.9)">
      <path d="M31.4 -40.9 Q31.65 -43.6 33.4 -45.65 L33.95 -46.3 Q36.6 -48.9 40.35 -48.9 44.1 -48.9 46.7 -46.3 L47.3 -45.65 Q49.35 -43.2 49.35 -39.9 49.35 -36.15 46.7 -33.55 44.1 -30.9 40.35 -30.9 36.6 -30.9 33.95 -33.55 31.35 -36.15 31.35 -39.9 L31.4 -40.9 M39.35 31.15 L40.35 31.1 Q44.1 31.1 46.7 33.7 49.35 36.35 49.35 40.1 49.35 43.85 46.7 46.45 44.1 49.1 40.35 49.1 36.6 49.1 33.95 46.45 31.7 44.2 31.4 41.1 L31.35 40.1 Q31.35 36.35 33.95 33.7 36.25 31.45 39.35 31.15 M-30.65 40.2 L-30.65 40.3 Q-30.7 43.9 -33.3 46.45 -35.9 49.1 -39.65 49.1 -43.4 49.1 -46.05 46.45 -48.65 43.85 -48.65 40.1 -48.65 36.35 -46.05 33.7 -43.75 31.45 -40.6 31.15 L-39.65 31.1 Q-35.9 31.1 -33.3 33.7 -30.65 36.35 -30.65 40.1 L-30.65 40.2 M-39.65 -30.9 Q-43.4 -30.9 -46.05 -33.55 -48.65 -36.15 -48.65 -39.9 -48.65 -43.2 -46.6 -45.65 L-46.05 -46.3 Q-43.4 -48.9 -39.65 -48.9 -35.9 -48.9 -33.3 -46.3 L-32.7 -45.65 Q-30.95 -43.6 -30.7 -40.9 L-30.65 -39.9 Q-30.65 -36.15 -33.3 -33.55 -35.2 -31.6 -37.7 -31.1 L-39.65 -30.9" fill="#990000" fill-rule="evenodd" stroke="none"/>
      <path d="M31.4 -40.9 L31.35 -39.9 Q31.35 -36.15 33.95 -33.55 36.6 -30.9 40.35 -30.9 L26.4 -14.95 Q24.45 -18.25 21.6 -21.1 18.15 -24.55 14.2 -26.6 L14.25 -26.7 31.4 -40.9 M26.15 15.95 L39.35 31.15 Q36.25 31.45 33.95 33.7 31.35 36.35 31.35 40.1 L31.4 41.1 Q21.95 34.15 13.5 27.2 15.9 26.0 18.2 24.3 L21.6 21.35 Q24.15 18.75 26.0 15.9 L26.15 15.95 M-13.5 26.85 L-30.65 40.2 -30.65 40.1 Q-30.65 36.35 -33.3 33.7 -35.9 31.1 -39.65 31.1 L-40.6 31.15 -26.65 14.1 Q-23.75 18.45 -20.85 21.35 L-17.45 24.3 -13.5 26.85 M-25.7 -14.95 L-39.65 -30.9 -37.7 -31.1 Q-35.2 -31.6 -33.3 -33.55 -30.65 -36.15 -30.65 -39.9 L-30.7 -40.9 -13.7 -26.8 -13.5 -26.65 -13.5 -26.6 Q-17.45 -24.55 -20.85 -21.1 -22.95 -19.05 -24.5 -16.8 L-25.7 -14.95" fill="#cccccc" fill-rule="evenodd" stroke="none"/>
      <path d="M26.4 -14.95 L26.4 -14.9 Q30.35 -8.25 30.35 0.1 30.35 8.85 26.0 15.85 L26.15 15.95 26.0 15.9 Q24.15 18.75 21.6 21.35 L18.2 24.3 Q15.9 26.0 13.5 27.2 L13.45 27.25 Q7.45 30.1 0.35 30.1 -7.25 30.1 -13.5 26.85 L-4.25 9.0 -13.5 26.85 -17.45 24.3 -20.85 21.35 Q-23.75 18.45 -26.65 14.1 -29.65 8.45 -29.65 0.1 -29.65 -8.25 -25.7 -14.9 L-25.7 -14.95 -24.5 -16.8 Q-22.95 -19.05 -20.85 -21.1 -17.45 -24.55 -13.5 -26.6 -7.25 -29.9 0.35 -29.9 7.95 -29.9 14.2 -26.65 L14.25 -26.7 14.2 -26.6 Q18.15 -24.55 21.6 -21.1 24.45 -18.25 26.4 -14.95 M14.2 -26.65 L14.2 -26.6 4.95 -8.75 14.2 -26.6 14.2 -26.65 M8.8 -5.25 L7.4 -6.95 Q6.25 -8.1 4.95 -8.75 2.85 -9.9 0.35 -9.85 -2.35 -9.9 -4.5 -8.65 -5.7 -8.0 -6.75 -6.95 -7.8 -5.9 -8.45 -4.65 -9.65 -2.5 -9.65 0.15 -9.65 2.4 -8.75 4.35 L-26.65 14.1 -8.75 4.35 Q-8.05 5.85 -6.75 7.15 L-4.25 9.0 Q-2.2 10.1 0.35 10.15 2.55 10.1 4.45 9.25 6.05 8.5 7.4 7.15 L8.7 5.6 Q10.35 3.2 10.35 0.15 10.35 -2.9 8.8 -5.25 L26.4 -14.9 8.8 -5.25 M26.0 15.9 L8.7 5.6 26.0 15.9 M13.45 27.25 L4.45 9.25 13.45 27.25 M-25.7 -14.9 L-8.45 -4.65 -25.7 -14.9 M15.35 0.1 L25.35 5.1 25.35 -4.9 15.35 0.1 M-13.5 -26.6 L-4.5 -8.65 -13.5 -26.6 M-24.6 5.1 L-24.5 5.05 -14.6 0.1 -24.6 -4.9 -24.6 5.1" fill="#999999" fill-rule="evenodd" stroke="none"/>
      <path d="M2.45 -2.05 Q1.65 -2.9 0.35 -2.9 -0.9 -2.9 -1.8 -2.05 -2.65 -1.15 -2.65 0.1 -2.65 1.4 -1.8 2.2 -0.9 3.1 0.35 3.1 1.65 3.1 2.45 2.2 3.35 1.4 3.35 0.1 3.35 -1.15 2.45 -2.05 3.35 -1.15 3.35 0.1 3.35 1.4 2.45 2.2 1.65 3.1 0.35 3.1 -0.9 3.1 -1.8 2.2 -2.65 1.4 -2.65 0.1 -2.65 -1.15 -1.8 -2.05 -0.9 -2.9 0.35 -2.9 1.65 -2.9 2.45 -2.05 M-4.5 -8.65 Q-2.35 -9.9 0.35 -9.85 2.85 -9.9 4.95 -8.75 6.25 -8.1 7.4 -6.95 L8.8 -5.25 Q10.35 -2.9 10.35 0.15 10.35 3.2 8.7 5.6 L7.4 7.15 Q6.05 8.5 4.45 9.25 2.55 10.1 0.35 10.15 -2.2 10.1 -4.25 9.0 L-6.75 7.15 Q-8.05 5.85 -8.75 4.35 -9.65 2.4 -9.65 0.15 -9.65 -2.5 -8.45 -4.65 -7.8 -5.9 -6.75 -6.95 -5.7 -8.0 -4.5 -8.65" fill="#0000ff" fill-rule="evenodd" stroke="none"/>
      <path d="M15.35 0.1 L25.35 -4.9 25.35 5.1 15.35 0.1 M-24.6 5.1 L-24.6 -4.9 -14.6 0.1 -24.5 5.05 -24.6 5.1" fill="#ffff99" fill-rule="evenodd" stroke="none"/>
      <path d="M40.35 -30.9 L26.4 -14.95 26.4 -14.9 Q30.35 -8.25 30.35 0.1 30.35 8.85 26.0 15.85 L26.15 15.95 M31.4 41.1 Q21.95 34.15 13.5 27.2 L13.45 27.25 Q7.45 30.1 0.35 30.1 -7.25 30.1 -13.5 26.85 L-30.65 40.2 M-40.6 31.15 L-26.65 14.1 Q-29.65 8.45 -29.65 0.1 -29.65 -8.25 -25.7 -14.9 L-25.7 -14.95 -39.65 -30.9 M-30.7 -40.9 L-13.7 -26.8 M-13.5 -26.6 Q-7.25 -29.9 0.35 -29.9 7.95 -29.9 14.2 -26.65 L14.25 -26.7 31.4 -40.9 M4.95 -8.75 L14.2 -26.6 14.2 -26.65 M14.2 -26.6 Q18.15 -24.55 21.6 -21.1 24.45 -18.25 26.4 -14.95 M8.8 -5.25 L26.4 -14.9 M26.0 15.9 Q24.15 18.75 21.6 21.35 L18.2 24.3 Q15.9 26.0 13.5 27.2 M8.7 5.6 L26.0 15.9 M4.45 9.25 L13.45 27.25 M-4.25 9.0 L-13.5 26.85 -17.45 24.3 -20.85 21.35 Q-23.75 18.45 -26.65 14.1 L-8.75 4.35 M-8.45 -4.65 L-25.7 -14.9 M15.35 0.1 L25.35 -4.9 25.35 5.1 15.35 0.1 M-13.5 -26.6 Q-17.45 -24.55 -20.85 -21.1 -22.95 -19.05 -24.5 -16.8 L-25.7 -14.95 M-4.5 -8.65 L-13.5 -26.6 M-24.6 5.1 L-24.6 -4.9 -14.6 0.1 -24.5 5.05 -24.6 5.1" fill="none" stroke="#666666" stroke-linecap="round" stroke-linejoin="round" stroke-width="2.0"/>
      <path d="M-4.5 -8.65 Q-2.35 -9.9 0.35 -9.85 2.85 -9.9 4.95 -8.75 6.25 -8.1 7.4 -6.95 L8.8 -5.25 Q10.35 -2.9 10.35 0.15 10.35 3.2 8.7 5.6 L7.4 7.15 Q6.05 8.5 4.45 9.25 2.55 10.1 0.35 10.15 -2.2 10.1 -4.25 9.0 L-6.75 7.15 Q-8.05 5.85 -8.75 4.35 -9.65 2.4 -9.65 0.15 -9.65 -2.5 -8.45 -4.65 -7.8 -5.9 -6.75 -6.95 -5.7 -8.0 -4.5 -8.65" fill="none" stroke="#cccccc" stroke-linecap="round" stroke-linejoin="round" stroke-width="2.0"/>
      <path d="M2.45 -2.05 Q3.35 -1.15 3.35 0.1 3.35 1.4 2.45 2.2 1.65 3.1 0.35 3.1 -0.9 3.1 -1.8 2.2 -2.65 1.4 -2.65 0.1 -2.65 -1.15 -1.8 -2.05 -0.9 -2.9 0.35 -2.9 1.65 -2.9 2.45 -2.05 Z" fill="none" stroke="#00ff00" stroke-linecap="round" stroke-linejoin="round" stroke-width="2.0"/>
    </g>
    <g id="text11" transform="matrix(1.0, 0.0, 0.0, 1.0, -1.95, -3.45)">
      <g transform="matrix(1.0, 0.0, 0.0, 1.0, 0.0, 0.0)">
        <use fill="#00ff00" height="16.35" transform="matrix(0.0195, 0.0, 0.0, 0.0195, 0.0, 19.0)" width="17.25" xlink:href="#font_Trebuchet_MS_10"/>
      </g>
    </g>
    <g id="font_Trebuchet_MS_10">
      <path d="M249.0 0.0 L349.0 0.0 349.0 -735.5 319.0 -735.5 Q284.0 -690.5 220.5 -640.5 156.5 -590.5 100.0 -562.0 L100.0 -468.5 249.0 -561.5 249.0 0.0" fill-rule="evenodd" stroke="none"/>
    </g>
    <g id="text12" transform="matrix(1.0, 0.0, 0.0, 1.0, -0.6, -3.25)">
      <g transform="matrix(1.0, 0.0, 0.0, 1.0, 0.0, 0.0)">
        <use fill="#00ff00" height="16.55" transform="matrix(0.0195, 0.0, 0.0, 0.0195, 0.0, 19.0)" width="18.6" xlink:href="#font_Trebuchet_MS_20"/>
      </g>
    </g>
    <g id="font_Trebuchet_MS_20">
      <path d="M34.5 0.0 L484.5 0.0 484.5 -90.0 197.5 -90.0 362.0 -351.0 Q441.0 -476.5 441.0 -559.0 441.0 -648.0 381.5 -696.5 322.0 -745.5 216.5 -745.5 146.0 -745.5 96.5 -716.5 46.5 -687.5 29.5 -638.5 L94.0 -585.5 Q110.0 -618.0 145.5 -639.0 181.0 -660.5 221.5 -660.5 336.0 -660.5 336.0 -559.0 336.0 -482.0 264.0 -371.5 149.5 -195.5 34.5 -20.0 L34.5 0.0" fill-rule="evenodd" stroke="none"/>
    </g>
    <g id="text13" transform="matrix(1.0, 0.0, 0.0, 1.0, -1.05, -3.25)">
      <g transform="matrix(1.0, 0.0, 0.0, 1.0, 0.0, 0.0)">
        <use fill="#00ff00" height="16.75" transform="matrix(0.0195, 0.0, 0.0, 0.0195, 0.0, 19.0)" width="18.15" xlink:href="#font_Trebuchet_MS_30"/>
      </g>
    </g>
    <g id="font_Trebuchet_MS_30">
      <path d="M54.5 -52.0 Q82.0 -26.5 129.0 -8.0 176.0 10.0 225.0 10.0 341.5 10.0 406.0 -45.5 470.5 -101.0 470.5 -203.0 470.5 -273.0 433.5 -322.0 396.0 -371.5 333.0 -392.0 378.5 -408.0 412.5 -455.0 446.0 -502.0 446.0 -563.0 446.0 -643.0 385.5 -694.0 325.0 -745.5 229.0 -745.5 120.0 -745.5 73.5 -685.0 L118.0 -617.0 Q156.5 -660.5 221.5 -660.5 341.0 -660.5 341.0 -543.5 341.0 -431.5 214.0 -431.5 L209.5 -431.5 209.5 -350.5 217.5 -350.5 Q284.5 -350.5 325.0 -311.5 365.5 -273.0 365.5 -211.0 365.5 -75.0 226.5 -75.0 151.5 -75.0 102.5 -129.0 L54.5 -52.0" fill-rule="evenodd" stroke="none"/>
    </g>
    <g id="text14" transform="matrix(1.0, 0.0, 0.0, 1.0, -0.25, -3.45)">
      <g transform="matrix(1.0, 0.0, 0.0, 1.0, 0.0, 0.0)">
        <use fill="#00ff00" height="16.35" transform="matrix(0.0195, 0.0, 0.0, 0.0195, 0.0, 19.0)" width="18.95" xlink:href="#font_Trebuchet_MS_40"/>
      </g>
    </g>
    <g id="font_Trebuchet_MS_40">
      <path d="M346.0 -536.0 L346.0 -276.5 131.0 -276.5 Q238.5 -406.0 346.0 -536.0 M441.0 -199.5 L515.0 -199.5 515.0 -276.5 441.0 -276.5 441.0 -735.5 406.0 -735.5 12.5 -256.5 12.5 -199.5 346.0 -199.5 346.0 0.0 441.0 0.0 441.0 -199.5" fill-rule="evenodd" stroke="none"/>
    </g>
  </defs>
</svg>
