<?xml version="1.0" encoding="UTF-8" standalone="no"?>
<svg xmlns:xlink="http://www.w3.org/1999/xlink" height="524.0px" width="934.6px" xmlns="http://www.w3.org/2000/svg">
  <g transform="matrix(1.0, 0.0, 0.0, 1.0, 101.0, 423.0)">
    <use data-characterId="1325" height="365.7" transform="matrix(1.0277, 0.0, 0.0, 1.0, 45.4762, -423.0)" width="702.0" xlink:href="#shape0"/>
    <use data-characterId="1250" height="19.6" transform="matrix(1.0277, 0.0, 0.0, 1.0, 219.9718, -89.35)" width="20.15" xlink:href="#shape1"/>
    <use data-characterId="738" height="550.0" transform="matrix(1.0279, 0.0, 0.0, 0.0038, 47.0428, -390.5532)" width="700.0" xlink:href="#shape2"/>
    <use data-characterId="738" height="550.0" transform="matrix(1.0279, 0.0, 0.0, 0.0038, 47.0428, -389.5532)" width="700.0" xlink:href="#shape2"/>
    <use data-characterId="1250" height="19.6" transform="matrix(1.0277, 0.0, 0.0, 1.0, 55.5218, -89.35)" width="20.15" xlink:href="#shape1"/>
    <use data-characterId="1250" height="19.6" transform="matrix(1.0277, 0.0, 0.0, 1.0, 732.8718, -89.35)" width="20.15" xlink:href="#shape1"/>
    <use data-characterId="1250" height="19.6" transform="matrix(1.0277, 0.0, 0.0, 1.0, 568.4718, -89.35)" width="20.15" xlink:href="#shape1"/>
    <use data-characterId="1249" height="202.0" transform="matrix(1.0, 0.0, 0.0, 1.0, -101.0, -101.0)" width="202.0" xlink:href="#shape3"/>
    <use data-characterId="1250" height="19.6" transform="matrix(1.0, 0.0, 0.0, 1.0, 69.8, 70.05)" width="20.15" xlink:href="#shape1"/>
    <use data-characterId="738" height="550.0" transform="matrix(0.2858, 0.0, 0.0, 0.0038, -100.013, -76.1032)" width="700.0" xlink:href="#shape2"/>
    <use data-characterId="738" height="550.0" transform="matrix(0.2858, 0.0, 0.0, 0.0038, -100.013, -75.1032)" width="700.0" xlink:href="#shape2"/>
    <use data-characterId="1250" height="19.6" transform="matrix(1.0, 0.0, 0.0, 1.0, -90.2, 70.05)" width="20.15" xlink:href="#shape1"/>
    <use data-characterId="1304" height="38.75" id="cancel_button" transform="matrix(1.0, 0.0, 0.0, 1.0, 719.0, -422.75)" width="114.6" xlink:href="#button0"/>
    <use data-characterId="1309" data-characterName="sc346_fla.login_m_name_54" height="61.0" id="mov_name" transform="matrix(1.0, 0.0, 0.0, 1.0, 68.65, -397.15)" width="401.8" xlink:href="#sprite0"/>
    <use data-characterId="1329" data-characterName="sc346_fla.login_m_email_56" height="61.0" id="mov_password" transform="matrix(1.0, 0.0, 0.0, 1.0, 68.7, -330.0)" width="401.8" xlink:href="#sprite1"/>
    <use data-characterId="1330" height="96.0" transform="matrix(1.0, 0.0, 0.0, 1.0, 90.95, -371.15)" width="368.45" xlink:href="#shape7"/>
    <use data-characterId="1331" height="142.8" transform="matrix(1.0, 0.0, 0.0, 1.0, 475.05, -380.25)" width="284.8" xlink:href="#text2"/>
    <use data-characterId="1318" height="47.3" transform="matrix(1.0, 0.0, 0.0, 1.0, -56.8, 41.05)" width="113.55" xlink:href="#text3"/>
    <use data-characterId="1319" height="47.3" transform="matrix(1.0, 0.0, 0.0, 1.0, -57.8, 40.05)" width="113.55" xlink:href="#text4"/>
    <use data-characterId="1322" height="115.45" transform="matrix(1.0, 0.0, 0.0, 1.0, -56.5, -84.65)" width="115.55" xlink:href="#shape8"/>
    <use data-characterId="1321" height="119.95" transform="matrix(1.0, 0.0, 0.0, 1.0, -58.75, -86.9)" width="120.0" xlink:href="#shape9"/>
    <use data-characterId="1305" height="122.0" transform="matrix(0.8889, 0.0, 0.0, 0.5002, 68.6584, -187.3621)" width="452.0" xlink:href="#shape6"/>
    <use data-characterId="1332" height="32.35" transform="matrix(1.0004, 0.0, 0.0, 1.0016, 80.8497, -186.0506)" width="49.75" xlink:href="#text5"/>
    <use data-characterId="1310" height="29.0" transform="matrix(1.0, 0.0, 0.0, 1.0, 90.9, -160.75)" width="368.45" xlink:href="#shape10"/>
    <use data-characterId="1305" height="122.0" transform="matrix(0.8889, 0.0, 0.0, 0.5002, 67.4584, -257.4621)" width="452.0" xlink:href="#shape6"/>
    <use data-characterId="1333" height="32.55" transform="matrix(1.0004, 0.0, 0.0, 1.0016, 79.1995, -256.3509)" width="140.95" xlink:href="#text6"/>
    <use data-characterId="1310" height="29.0" transform="matrix(1.0, 0.0, 0.0, 1.0, 89.7, -230.85)" width="368.45" xlink:href="#shape10"/>
    <use data-characterId="1334" height="39.4" id="UserName" transform="matrix(1.0, 0.0, 0.0, 1.0, 92.0, -368.1)" width="406.1" xlink:href="#text7"/>
    <use data-characterId="1336" height="39.6" id="password1" transform="matrix(1.0, 0.0, 0.0, 1.0, 91.05, -303.05)" width="416.7" xlink:href="#text8"/>
    <use data-characterId="1337" height="39.6" id="password2" transform="matrix(1.0, 0.0, 0.0, 1.0, 87.9, -227.75)" width="403.45" xlink:href="#text9"/>
    <use data-characterId="1338" height="39.4" id="UserEmail" transform="matrix(1.0, 0.0, 0.0, 1.0, 91.55, -157.5)" width="406.1" xlink:href="#text10"/>
    <use data-characterId="1316" height="55.5" id="submitButton" transform="matrix(1.0, 0.0, 0.0, 1.0, 534.55, -142.0)" width="151.0" xlink:href="#button1"/>
  </g>
  <defs>
    <g id="shape0" transform="matrix(1.0, 0.0, 0.0, 1.0, 351.3, 101.0)">
      <path d="M344.4 -91.25 Q349.7 -82.5 349.7 -70.1 L349.7 233.9 Q349.7 246.25 344.4 255.0 339.1 263.7 331.55 263.7 L-332.15 263.7 Q-339.7 263.7 -345.0 255.0 -350.3 246.25 -350.3 233.9 L-350.3 -70.1 Q-350.3 -82.5 -345.0 -91.25 -339.7 -100.0 -332.15 -100.0 L331.55 -100.0 Q339.1 -100.0 344.4 -91.25" fill="url(#gradient0)" fill-rule="evenodd" stroke="none"/>
      <path d="M344.4 -91.25 Q339.1 -100.0 331.55 -100.0 L-332.15 -100.0 Q-339.7 -100.0 -345.0 -91.25 -350.3 -82.5 -350.3 -70.1 L-350.3 233.9 Q-350.3 246.25 -345.0 255.0 -339.7 263.7 -332.15 263.7 L331.55 263.7 Q339.1 263.7 344.4 255.0 349.7 246.25 349.7 233.9 L349.7 -70.1 Q349.7 -82.5 344.4 -91.25 Z" fill="none" stroke="#000000" stroke-linecap="butt" stroke-linejoin="miter-clip" stroke-miterlimit="3.0" stroke-width="2.0"/>
    </g>
    <linearGradient gradientTransform="matrix(0.0, 0.2092, -0.4272, 0.0, -0.3, 77.2)" gradientUnits="userSpaceOnUse" id="gradient0" spreadMethod="pad" x1="-819.2" x2="819.2">
      <stop offset="0.0" stop-color="#cccccc"/>
      <stop offset="0.058823529411764705" stop-color="#ffffff"/>
      <stop offset="0.12549019607843137" stop-color="#cccccc"/>
      <stop offset="0.4117647058823529" stop-color="#666666"/>
      <stop offset="0.8470588235294118" stop-color="#333333"/>
      <stop offset="0.9254901960784314" stop-color="#666666"/>
      <stop offset="1.0" stop-color="#333333"/>
    </linearGradient>
    <g id="shape1" transform="matrix(1.0, 0.0, 0.0, 1.0, 10.05, 9.8)">
      <path d="M3.05 -7.55 Q5.3 -5.35 5.3 -2.15 5.3 1.0 3.05 3.25 0.8 5.5 -2.35 5.5 -5.5 5.5 -7.8 3.25 -10.05 1.0 -10.05 -2.15 -10.05 -5.35 -7.8 -7.55 -5.5 -9.8 -2.35 -9.8 0.8 -9.8 3.05 -7.55" fill="#7a7a7a" fill-rule="evenodd" stroke="none"/>
      <path d="M2.45 -5.5 Q5.6 -5.5 7.85 -3.25 10.1 -1.0 10.1 2.15 10.1 5.3 7.85 7.55 5.6 9.8 2.45 9.8 -0.7 9.8 -2.95 7.55 -5.2 5.3 -5.2 2.15 -5.2 -1.0 -2.95 -3.25 -0.7 -5.5 2.45 -5.5" fill="#cccccc" fill-rule="evenodd" stroke="none"/>
      <path d="M-5.45 -5.2 Q-3.25 -7.5 -0.05 -7.5 3.1 -7.5 5.35 -5.2 7.55 -2.95 7.55 0.2 7.55 3.35 5.35 5.6 3.1 7.85 -0.05 7.85 -3.25 7.85 -5.45 5.6 -7.7 3.35 -7.7 0.2 -7.7 -2.95 -5.45 -5.2" fill="#000000" fill-rule="evenodd" stroke="none"/>
      <path d="M0.0 -5.0 Q2.15 -5.0 3.65 -3.45 5.2 -1.95 5.2 0.2 5.2 2.35 3.65 3.85 2.15 5.35 0.0 5.35 -2.15 5.35 -3.65 3.85 -5.15 2.35 -5.15 0.2 -5.15 -1.95 -3.65 -3.45 -2.15 -5.0 0.0 -5.0" fill="#656565" fill-rule="evenodd" stroke="none"/>
      <path d="M2.7 -3.25 Q3.95 -2.0 3.95 -0.2 3.95 1.6 2.7 2.85 1.4 4.15 -0.4 4.15 -2.2 4.15 -3.45 2.85 -4.75 1.6 -4.75 -0.2 -4.75 -2.0 -3.45 -3.25 -2.2 -4.55 -0.4 -4.55 1.4 -4.55 2.7 -3.25" fill="#8e8e8e" fill-rule="evenodd" stroke="none"/>
      <path d="M-2.65 -1.0 Q-3.1 -1.0 -3.4 -1.3 L-3.7 -2.05 -3.4 -2.75 Q-3.0 -2.9 -2.65 -3.1 -2.25 -3.1 -1.95 -2.75 -1.65 -2.5 -1.65 -2.05 -1.65 -1.65 -1.95 -1.3 -2.25 -1.0 -2.65 -1.0" fill="#cccccc" fill-rule="evenodd" stroke="none"/>
      <path d="M1.8 1.2 Q1.55 1.2 1.4 1.05 L1.25 0.6 Q1.25 0.35 1.4 0.2 1.55 0.0 1.8 0.0 L2.2 0.2 2.4 0.6 2.2 1.05 1.8 1.2" fill="#cccccc" fill-rule="evenodd" stroke="none"/>
      <path d="M4.6 -2.7 L0.8 0.25 3.05 4.3 -0.45 0.95 -4.55 3.0 -1.0 -0.2 -2.55 -4.65 0.2 -0.9 4.6 -2.7" fill="#000000" fill-rule="evenodd" stroke="none"/>
    </g>
    <g id="shape2" transform="matrix(1.0, 0.0, 0.0, 1.0, 350.0, 275.0)">
      <path d="M350.0 -275.0 L350.0 275.0 -350.0 275.0 -350.0 -275.0 350.0 -275.0" fill="#656565" fill-rule="evenodd" stroke="none"/>
    </g>
    <g id="shape3" transform="matrix(1.0, 0.0, 0.0, 1.0, 101.0, 101.0)">
      <path d="M95.0 -95.0 Q99.95 -90.0 100.0 -82.9 L100.0 82.95 Q99.95 90.0 95.0 95.0 90.0 100.0 82.9 100.0 L-82.95 100.0 Q-90.05 100.0 -95.05 95.0 -100.05 90.0 -100.0 82.95 L-100.0 -82.9 Q-100.05 -90.0 -95.05 -95.0 -90.05 -100.0 -82.95 -100.0 L82.9 -100.0 Q90.0 -100.0 95.0 -95.0" fill="url(#gradient1)" fill-rule="evenodd" stroke="none"/>
      <path d="M95.0 -95.0 Q90.0 -100.0 82.9 -100.0 L-82.95 -100.0 Q-90.05 -100.0 -95.05 -95.0 -100.05 -90.0 -100.0 -82.9 L-100.0 82.95 Q-100.05 90.0 -95.05 95.0 -90.05 100.0 -82.95 100.0 L82.9 100.0 Q90.0 100.0 95.0 95.0 99.95 90.0 100.0 82.95 L100.0 -82.9 Q99.95 -90.0 95.0 -95.0 Z" fill="none" stroke="#000000" stroke-linecap="butt" stroke-linejoin="miter-clip" stroke-miterlimit="3.0" stroke-width="2.0"/>
    </g>
    <linearGradient gradientTransform="matrix(0.0, 0.1221, -0.1221, 0.0, 0.0, 0.0)" gradientUnits="userSpaceOnUse" id="gradient1" spreadMethod="pad" x1="-819.2" x2="819.2">
      <stop offset="0.0" stop-color="#cccccc"/>
      <stop offset="0.058823529411764705" stop-color="#ffffff"/>
      <stop offset="0.12549019607843137" stop-color="#cccccc"/>
      <stop offset="0.4117647058823529" stop-color="#666666"/>
      <stop offset="0.8470588235294118" stop-color="#333333"/>
      <stop offset="0.9254901960784314" stop-color="#666666"/>
      <stop offset="1.0" stop-color="#333333"/>
    </linearGradient>
    <g id="button0" transform="matrix(1.0, 0.0, 0.0, 1.0, 13.5, 25.25)">
      <use data-characterId="1278" height="27.0" transform="matrix(1.0, 0.0, 0.0, 1.0, -13.5, -13.5)" width="27.0" xlink:href="#shape4"/>
      <use data-characterId="1300" height="25.0" transform="matrix(0.5655, 0.5655, -0.0852, 0.0852, -6.004, -8.1337)" width="25.0" xlink:href="#shape5"/>
      <use data-characterId="1300" height="25.0" transform="matrix(0.5655, -0.5655, 0.0852, 0.0852, -8.1337, 6.004)" width="25.0" xlink:href="#shape5"/>
    </g>
    <g id="shape4" transform="matrix(1.0, 0.0, 0.0, 1.0, 13.5, 13.5)">
      <path d="M0.0 -12.5 Q5.2 -12.55 8.85 -8.85 12.5 -5.2 12.5 0.0 12.5 5.15 8.85 8.85 5.2 12.5 0.0 12.5 -5.2 12.5 -8.85 8.85 -12.5 5.15 -12.5 0.0 -12.5 -5.2 -8.85 -8.85 -5.2 -12.55 0.0 -12.5" fill="#ff9900" fill-rule="evenodd" stroke="none"/>
      <path d="M0.0 -12.5 Q-5.2 -12.55 -8.85 -8.85 -12.5 -5.2 -12.5 0.0 -12.5 5.15 -8.85 8.85 -5.2 12.5 0.0 12.5 5.2 12.5 8.85 8.85 12.5 5.15 12.5 0.0 12.5 -5.2 8.85 -8.85 5.2 -12.55 0.0 -12.5 Z" fill="none" stroke="#000000" stroke-linecap="butt" stroke-linejoin="miter-clip" stroke-miterlimit="3.0" stroke-width="2.0"/>
    </g>
    <g id="shape5" transform="matrix(1.0, 0.0, 0.0, 1.0, 12.5, 12.5)">
      <path d="M-12.5 -12.5 L12.5 -12.5 12.5 12.5 -12.5 12.5 -12.5 -12.5" fill="#000000" fill-rule="evenodd" stroke="none"/>
    </g>
    <g id="sprite0" transform="matrix(1.0, 0.0, 0.0, 1.0, 225.9, 60.5)">
      <use data-characterId="1305" height="122.0" transform="matrix(0.8889, 0.0, 0.0, 0.5002, -225.8916, -60.5121)" width="452.0" xlink:href="#shape6"/>
      <use data-characterId="1306" height="32.35" transform="matrix(1.0004, 0.0, 0.0, 1.0016, -213.7003, -59.2006)" width="68.45" xlink:href="#text0"/>
    </g>
    <g id="shape6" transform="matrix(1.0, 0.0, 0.0, 1.0, 226.0, 61.0)">
      <path d="M221.9 -57.1 Q224.95 -54.2 225.0 -50.0 L225.0 49.95 Q224.95 54.1 221.9 57.0 218.9 59.95 214.6 60.0 L-214.65 60.0 Q-218.95 59.95 -222.0 57.0 -225.05 54.1 -225.0 49.95 L-225.0 -50.0 Q-225.05 -54.2 -222.0 -57.1 -218.95 -60.05 -214.65 -60.0 L214.6 -60.0 Q218.9 -60.05 221.9 -57.1" fill="#ffffff" fill-rule="evenodd" stroke="none"/>
      <path d="M221.9 -57.1 Q218.9 -60.05 214.6 -60.0 L-214.65 -60.0 Q-218.95 -60.05 -222.0 -57.1 -225.05 -54.2 -225.0 -50.0 L-225.0 49.95 Q-225.05 54.1 -222.0 57.0 -218.95 59.95 -214.65 60.0 L214.6 60.0 Q218.9 59.95 221.9 57.0 224.95 54.1 225.0 49.95 L225.0 -50.0 Q224.95 -54.2 221.9 -57.1 Z" fill="none" stroke="#000000" stroke-linecap="butt" stroke-linejoin="miter-clip" stroke-miterlimit="3.0" stroke-width="2.0"/>
    </g>
    <g id="text0" transform="matrix(1.0, 0.0, 0.0, 1.0, 0.75, 0.35)">
      <g transform="matrix(1.0, 0.0, 0.0, 1.0, -2.0, -1.4)">
        <use fill="#999999" height="32.35" transform="matrix(0.0156, 0.0, 0.0, 0.0156, 0.0, 15.0)" width="68.45" xlink:href="#font_Arial_U0"/>
        <use fill="#999999" height="32.35" transform="matrix(0.0156, 0.0, 0.0, 0.0156, 11.55, 15.0)" width="68.45" xlink:href="#font_Arial_s0"/>
        <use fill="#999999" height="32.35" transform="matrix(0.0156, 0.0, 0.0, 0.0156, 19.55, 15.0)" width="68.45" xlink:href="#font_Arial_e0"/>
        <use fill="#999999" height="32.35" transform="matrix(0.0156, 0.0, 0.0, 0.0156, 28.45, 15.0)" width="68.45" xlink:href="#font_Arial_r0"/>
        <use fill="#999999" height="32.35" transform="matrix(0.0156, 0.0, 0.0, 0.0156, 38.25, 15.0)" width="68.45" xlink:href="#font_Arial_I0"/>
        <use fill="#999999" height="32.35" transform="matrix(0.0156, 0.0, 0.0, 0.0156, 42.7, 15.0)" width="68.45" xlink:href="#font_Arial_D0"/>
        <use fill="#999999" height="32.35" transform="matrix(0.0156, 0.0, 0.0, 0.0156, 54.25, 15.0)" width="68.45" xlink:href="#font_Arial_:0"/>
      </g>
    </g>
    <g id="font_Arial_U0">
      <path d="M560.0 -733.0 L560.0 -310.0 Q560.0 -172.0 514.5 -123.5 469.0 -75.0 362.0 -75.0 299.5 -75.0 256.5 -99.5 213.0 -124.0 195.5 -169.0 177.5 -214.5 177.5 -310.0 L177.5 -733.0 80.5 -733.0 80.5 -309.5 Q80.5 -193.0 108.5 -125.5 136.5 -58.5 202.0 -23.0 267.5 12.5 370.5 12.5 476.5 12.5 542.0 -28.0 607.0 -69.0 632.0 -134.0 657.0 -199.0 657.0 -309.5 L657.0 -733.0 560.0 -733.0" fill-rule="evenodd" stroke="none"/>
    </g>
    <g id="font_Arial_s0">
      <path d="M31.5 -158.5 Q46.5 -74.0 101.0 -31.0 155.0 12.0 258.5 12.0 321.0 12.0 370.5 -9.5 420.0 -31.5 446.5 -71.0 472.5 -111.0 472.5 -156.0 472.5 -202.0 451.0 -233.0 429.5 -264.0 392.0 -280.0 354.0 -296.5 258.5 -322.0 192.5 -340.0 179.0 -345.0 155.5 -354.5 144.5 -369.0 133.5 -383.0 133.5 -400.5 133.5 -428.0 160.0 -448.5 186.5 -469.0 248.5 -469.0 301.0 -469.0 330.0 -446.0 358.5 -423.0 364.5 -382.0 L452.5 -394.0 Q444.0 -445.5 421.5 -476.0 399.0 -507.0 352.0 -525.0 304.5 -543.0 242.0 -543.0 200.5 -543.0 164.5 -532.0 128.0 -521.5 107.0 -506.0 79.0 -486.0 63.0 -455.5 46.5 -425.5 46.5 -390.0 46.5 -351.0 66.5 -318.5 86.0 -286.5 124.5 -268.0 162.5 -250.0 261.5 -225.0 335.0 -206.5 353.5 -194.5 380.0 -177.0 380.0 -146.5 380.0 -112.5 350.0 -87.0 320.0 -62.0 258.0 -62.0 196.5 -62.0 162.5 -90.5 128.0 -119.0 120.5 -172.5 L31.5 -158.5" fill-rule="evenodd" stroke="none"/>
    </g>
    <g id="font_Arial_e0">
      <path d="M135.5 -316.5 Q140.0 -386.0 182.5 -427.5 224.5 -469.0 286.5 -469.0 355.0 -469.0 398.0 -417.0 426.0 -383.5 432.0 -316.5 L135.5 -316.5 M431.0 -171.0 Q410.5 -114.0 375.5 -88.0 340.5 -62.0 291.0 -62.0 224.5 -62.0 180.0 -108.5 135.5 -155.0 130.5 -242.5 L526.5 -242.5 Q527.0 -258.5 527.0 -266.5 527.0 -398.0 459.5 -470.5 392.0 -543.0 285.5 -543.0 175.5 -543.0 106.5 -469.0 37.5 -395.0 37.5 -261.0 37.5 -131.5 106.0 -59.5 174.0 12.0 290.5 12.0 383.0 12.0 442.5 -33.0 502.0 -78.0 524.0 -159.5 L431.0 -171.0" fill-rule="evenodd" stroke="none"/>
    </g>
    <g id="font_Arial_r0">
      <path d="M66.5 0.0 L156.5 0.0 156.5 -278.0 Q156.5 -335.0 171.5 -383.0 181.5 -414.5 205.0 -432.0 228.5 -450.0 258.0 -450.0 291.0 -450.0 324.0 -430.5 L355.0 -514.0 Q308.0 -543.0 262.5 -543.0 231.0 -543.0 205.0 -525.0 178.5 -507.0 147.5 -450.5 L147.5 -531.0 66.5 -531.0 66.5 0.0" fill-rule="evenodd" stroke="none"/>
    </g>
    <g id="font_Arial_I0">
      <path d="M95.5 0.0 L192.5 0.0 192.5 -733.0 95.5 -733.0 95.5 0.0" fill-rule="evenodd" stroke="none"/>
    </g>
    <g id="font_Arial_D0">
      <path d="M176.0 -86.5 L176.0 -646.5 330.0 -646.5 Q416.5 -646.5 455.5 -631.5 509.5 -610.5 547.5 -548.5 585.0 -487.0 585.0 -372.0 585.0 -289.0 566.0 -230.5 546.5 -172.5 512.0 -138.0 487.5 -113.5 446.5 -100.0 405.0 -86.5 332.5 -86.5 L176.0 -86.5 M79.0 0.0 L343.5 0.0 Q410.0 0.0 461.5 -12.5 512.5 -25.0 549.0 -49.0 585.0 -73.5 615.5 -115.5 646.0 -158.0 665.5 -222.5 685.0 -287.0 685.0 -370.5 685.0 -468.5 656.5 -544.5 627.5 -621.0 569.5 -670.0 525.0 -708.0 462.0 -722.5 417.0 -733.0 331.5 -733.0 L79.0 -733.0 79.0 0.0" fill-rule="evenodd" stroke="none"/>
    </g>
    <g id="font_Arial_:0">
      <path d="M92.5 0.0 L195.0 0.0 195.0 -102.5 92.5 -102.5 92.5 0.0 M92.5 -428.5 L195.0 -428.5 195.0 -531.0 92.5 -531.0 92.5 -428.5" fill-rule="evenodd" stroke="none"/>
    </g>
    <g id="sprite1" transform="matrix(1.0, 0.0, 0.0, 1.0, 225.9, 60.5)">
      <use data-characterId="1305" height="122.0" transform="matrix(0.8889, 0.0, 0.0, 0.5002, -225.8916, -60.5121)" width="452.0" xlink:href="#shape6"/>
      <use data-characterId="1326" height="32.35" transform="matrix(1.0004, 0.0, 0.0, 1.0016, -213.7003, -59.2006)" width="80.0" xlink:href="#text1"/>
    </g>
    <g id="text1" transform="matrix(1.0, 0.0, 0.0, 1.0, 0.75, 0.35)">
      <g transform="matrix(1.0, 0.0, 0.0, 1.0, -2.0, -1.4)">
        <use fill="#999999" height="32.35" transform="matrix(0.0156, 0.0, 0.0, 0.0156, 0.0, 15.0)" width="80.0" xlink:href="#font_Arial_P0"/>
        <use fill="#999999" height="32.35" transform="matrix(0.0156, 0.0, 0.0, 0.0156, 10.65, 15.0)" width="80.0" xlink:href="#font_Arial_a0"/>
        <use fill="#999999" height="32.35" transform="matrix(0.0156, 0.0, 0.0, 0.0156, 19.55, 15.0)" width="80.0" xlink:href="#font_Arial_s0"/>
        <use fill="#999999" height="32.35" transform="matrix(0.0156, 0.0, 0.0, 0.0156, 27.55, 15.0)" width="80.0" xlink:href="#font_Arial_s0"/>
        <use fill="#999999" height="32.35" transform="matrix(0.0156, 0.0, 0.0, 0.0156, 35.55, 15.0)" width="80.0" xlink:href="#font_Arial_w0"/>
        <use fill="#999999" height="32.35" transform="matrix(0.0156, 0.0, 0.0, 0.0156, 47.1, 15.0)" width="80.0" xlink:href="#font_Arial_o0"/>
        <use fill="#999999" height="32.35" transform="matrix(0.0156, 0.0, 0.0, 0.0156, 56.0, 15.0)" width="80.0" xlink:href="#font_Arial_r0"/>
        <use fill="#999999" height="32.35" transform="matrix(0.0156, 0.0, 0.0, 0.0156, 61.35, 15.0)" width="80.0" xlink:href="#font_Arial_d0"/>
      </g>
    </g>
    <g id="font_Arial_P0">
      <path d="M176.0 -384.5 L176.0 -646.5 363.5 -646.5 Q429.5 -646.5 454.0 -640.0 492.0 -629.5 515.5 -596.5 538.5 -564.0 538.5 -518.0 538.5 -454.5 499.0 -419.5 459.5 -384.5 365.5 -384.5 L176.0 -384.5 M79.0 0.0 L176.0 0.0 176.0 -298.0 364.0 -298.0 Q519.5 -298.0 579.0 -362.5 638.5 -427.5 638.5 -521.0 638.5 -575.5 616.5 -621.0 594.0 -666.5 557.5 -691.5 521.0 -717.0 467.0 -726.0 428.5 -733.0 355.5 -733.0 L79.0 -733.0 79.0 0.0" fill-rule="evenodd" stroke="none"/>
    </g>
    <g id="font_Arial_a0">
      <path d="M406.5 -266.5 L406.5 -233.5 Q406.5 -174.0 392.0 -143.5 373.0 -104.0 332.5 -81.0 292.0 -58.5 240.0 -58.5 187.5 -58.5 160.5 -82.5 133.0 -106.5 133.0 -142.5 133.0 -166.0 145.5 -185.0 158.0 -204.5 181.0 -214.5 204.0 -224.5 259.5 -232.5 357.5 -246.5 406.5 -266.5 M414.0 -65.5 Q418.0 -28.0 432.0 0.0 L526.0 0.0 Q509.0 -30.5 503.5 -63.5 497.5 -97.0 497.5 -222.5 L497.5 -342.5 Q497.5 -402.5 493.0 -425.5 485.0 -462.5 465.0 -486.5 445.0 -511.0 402.5 -527.0 360.0 -543.0 292.0 -543.0 223.5 -543.0 171.5 -524.0 119.5 -505.5 92.0 -470.5 64.5 -436.0 52.5 -379.5 L140.5 -367.5 Q155.0 -424.0 185.5 -446.0 215.5 -468.5 279.0 -468.5 347.0 -468.5 381.5 -438.0 407.0 -415.5 407.0 -360.5 407.0 -355.5 406.5 -337.0 355.0 -319.0 246.0 -306.0 192.5 -299.5 166.0 -292.5 130.0 -282.5 101.5 -263.0 72.5 -243.5 55.0 -211.0 37.0 -179.0 37.0 -140.0 37.0 -73.5 84.0 -30.5 131.0 12.0 218.5 12.0 271.5 12.0 318.0 -5.5 364.0 -23.0 414.0 -65.5" fill-rule="evenodd" stroke="none"/>
    </g>
    <g id="font_Arial_w0">
      <path d="M165.5 0.0 L259.5 0.0 367.0 -408.5 387.5 -318.0 472.0 0.0 565.5 0.0 731.5 -531.0 644.0 -531.0 553.0 -224.0 522.5 -121.5 496.0 -223.0 416.5 -531.0 324.0 -531.0 239.5 -220.0 Q214.0 -119.0 212.0 -110.5 L180.5 -224.5 96.0 -531.0 3.0 -531.0 165.5 0.0" fill-rule="evenodd" stroke="none"/>
    </g>
    <g id="font_Arial_o0">
      <path d="M126.5 -265.5 Q126.5 -367.5 171.0 -418.0 215.5 -468.5 283.0 -468.5 349.5 -468.5 394.5 -417.5 439.0 -367.0 439.0 -268.5 439.0 -164.0 394.5 -113.0 350.0 -62.0 283.0 -62.0 215.5 -62.0 171.0 -112.5 126.5 -163.5 126.5 -265.5 M34.0 -265.5 Q34.0 -131.0 103.0 -59.5 171.5 12.0 283.0 12.0 352.5 12.0 411.5 -20.5 470.0 -53.0 501.0 -111.5 531.5 -170.5 531.5 -273.0 531.5 -399.5 462.0 -471.0 392.5 -543.0 283.0 -543.0 184.5 -543.0 116.0 -484.0 34.0 -413.0 34.0 -265.5" fill-rule="evenodd" stroke="none"/>
    </g>
    <g id="font_Arial_d0">
      <path d="M127.5 -265.0 Q127.5 -370.5 168.0 -419.5 208.0 -468.5 268.0 -468.5 329.5 -468.5 371.5 -417.5 413.5 -366.5 413.5 -257.5 413.5 -158.5 372.5 -110.0 331.0 -62.0 272.0 -62.0 213.5 -62.0 170.5 -112.5 127.5 -163.0 127.5 -265.0 M412.0 0.0 L495.5 0.0 495.5 -733.0 406.0 -733.0 406.0 -470.0 Q382.5 -502.5 345.0 -522.5 307.5 -543.0 259.5 -543.0 194.0 -543.0 141.0 -508.5 88.0 -474.0 61.5 -409.0 35.0 -344.5 35.0 -265.0 35.0 -183.5 64.5 -120.5 93.5 -58.0 147.0 -23.0 200.0 12.0 263.5 12.0 361.5 12.0 412.0 -67.0 L412.0 0.0" fill-rule="evenodd" stroke="none"/>
    </g>
    <g id="shape7" transform="matrix(1.0, 0.0, 0.0, 1.0, -90.95, 371.15)">
      <path d="M91.45 -370.65 L458.9 -370.65 458.9 -342.65 91.45 -342.65 91.45 -370.65 Z" fill="none" stroke="#999999" stroke-linecap="butt" stroke-linejoin="miter-clip" stroke-miterlimit="3.0" stroke-width="1.0"/>
      <path d="M91.45 -303.65 L458.9 -303.65 458.9 -275.65 91.45 -275.65 91.45 -303.65 Z" fill="none" stroke="#999999" stroke-linecap="butt" stroke-linejoin="miter-clip" stroke-miterlimit="3.0" stroke-width="1.0"/>
    </g>
    <g id="text2" transform="matrix(1.0, 0.0, 0.0, 1.0, 1.95, 1.25)">
      <g transform="matrix(1.0, 0.0, 0.0, 1.0, -2.0, -1.7)">
        <use fill="#ffffff" height="142.8" transform="matrix(0.0127, 0.0, 0.0, 0.0127, 3.6, 12.0)" width="284.8" xlink:href="#font_Arial_I0"/>
        <use fill="#ffffff" height="142.8" transform="matrix(0.0127, 0.0, 0.0, 0.0127, 7.2, 12.0)" width="284.8" xlink:href="#font_Arial_n0"/>
        <use fill="#ffffff" height="142.8" transform="matrix(0.0127, 0.0, 0.0, 0.0127, 14.45, 12.0)" width="284.8" xlink:href="#font_Arial_p0"/>
        <use fill="#ffffff" height="142.8" transform="matrix(0.0127, 0.0, 0.0, 0.0127, 21.7, 12.0)" width="284.8" xlink:href="#font_Arial_u0"/>
        <use fill="#ffffff" height="142.8" transform="matrix(0.0127, 0.0, 0.0, 0.0127, 28.95, 12.0)" width="284.8" xlink:href="#font_Arial_t0"/>
        <use fill="#ffffff" height="142.8" transform="matrix(0.0127, 0.0, 0.0, 0.0127, 36.15, 12.0)" width="284.8" xlink:href="#font_Arial_y0"/>
        <use fill="#ffffff" height="142.8" transform="matrix(0.0127, 0.0, 0.0, 0.0127, 42.65, 12.0)" width="284.8" xlink:href="#font_Arial_o0"/>
        <use fill="#ffffff" height="142.8" transform="matrix(0.0127, 0.0, 0.0, 0.0127, 49.9, 12.0)" width="284.8" xlink:href="#font_Arial_u0"/>
        <use fill="#ffffff" height="142.8" transform="matrix(0.0127, 0.0, 0.0, 0.0127, 57.15, 12.0)" width="284.8" xlink:href="#font_Arial_r0"/>
        <use fill="#ffffff" height="142.8" transform="matrix(0.0127, 0.0, 0.0, 0.0127, 65.1, 12.0)" width="284.8" xlink:href="#font_Arial_d0"/>
        <use fill="#ffffff" height="142.8" transform="matrix(0.0127, 0.0, 0.0, 0.0127, 72.35, 12.0)" width="284.8" xlink:href="#font_Arial_e0"/>
        <use fill="#ffffff" height="142.8" transform="matrix(0.0127, 0.0, 0.0, 0.0127, 79.6, 12.0)" width="284.8" xlink:href="#font_Arial_s0"/>
        <use fill="#ffffff" height="142.8" transform="matrix(0.0127, 0.0, 0.0, 0.0127, 86.1, 12.0)" width="284.8" xlink:href="#font_Arial_i0"/>
        <use fill="#ffffff" height="142.8" transform="matrix(0.0127, 0.0, 0.0, 0.0127, 89.0, 12.0)" width="284.8" xlink:href="#font_Arial_r0"/>
        <use fill="#ffffff" height="142.8" transform="matrix(0.0127, 0.0, 0.0, 0.0127, 93.35, 12.0)" width="284.8" xlink:href="#font_Arial_e0"/>
        <use fill="#ffffff" height="142.8" transform="matrix(0.0127, 0.0, 0.0, 0.0127, 100.6, 12.0)" width="284.8" xlink:href="#font_Arial_d0"/>
        <use fill="#ffffff" height="142.8" transform="matrix(0.0127, 0.0, 0.0, 0.0127, 111.45, 12.0)" width="284.8" xlink:href="#font_Arial_N0"/>
        <use fill="#ffffff" height="142.8" transform="matrix(0.0127, 0.0, 0.0, 0.0127, 120.85, 12.0)" width="284.8" xlink:href="#font_Arial_a0"/>
        <use fill="#ffffff" height="142.8" transform="matrix(0.0127, 0.0, 0.0, 0.0127, 128.1, 12.0)" width="284.8" xlink:href="#font_Arial_m0"/>
        <use fill="#ffffff" height="142.8" transform="matrix(0.0127, 0.0, 0.0, 0.0127, 138.95, 12.0)" width="284.8" xlink:href="#font_Arial_e0"/>
        <use fill="#ffffff" height="142.8" transform="matrix(0.0127, 0.0, 0.0, 0.0127, 149.8, 12.0)" width="284.8" xlink:href="#font_Arial_a0"/>
        <use fill="#ffffff" height="142.8" transform="matrix(0.0127, 0.0, 0.0, 0.0127, 157.05, 12.0)" width="284.8" xlink:href="#font_Arial_n0"/>
        <use fill="#ffffff" height="142.8" transform="matrix(0.0127, 0.0, 0.0, 0.0127, 164.3, 12.0)" width="284.8" xlink:href="#font_Arial_d0"/>
        <use fill="#ffffff" height="142.8" transform="matrix(0.0127, 0.0, 0.0, 0.0127, 175.15, 12.0)" width="284.8" xlink:href="#font_Arial_a0"/>
        <use fill="#ffffff" height="142.8" transform="matrix(0.0127, 0.0, 0.0, 0.0127, 186.0, 12.0)" width="284.8" xlink:href="#font_Arial_P0"/>
        <use fill="#ffffff" height="142.8" transform="matrix(0.0127, 0.0, 0.0, 0.0127, 194.65, 12.0)" width="284.8" xlink:href="#font_Arial_a0"/>
        <use fill="#ffffff" height="142.8" transform="matrix(0.0127, 0.0, 0.0, 0.0127, 201.9, 12.0)" width="284.8" xlink:href="#font_Arial_s0"/>
        <use fill="#ffffff" height="142.8" transform="matrix(0.0127, 0.0, 0.0, 0.0127, 208.4, 12.0)" width="284.8" xlink:href="#font_Arial_s0"/>
        <use fill="#ffffff" height="142.8" transform="matrix(0.0127, 0.0, 0.0, 0.0127, 214.9, 12.0)" width="284.8" xlink:href="#font_Arial_w0"/>
        <use fill="#ffffff" height="142.8" transform="matrix(0.0127, 0.0, 0.0, 0.0127, 224.3, 12.0)" width="284.8" xlink:href="#font_Arial_o0"/>
        <use fill="#ffffff" height="142.8" transform="matrix(0.0127, 0.0, 0.0, 0.0127, 231.55, 12.0)" width="284.8" xlink:href="#font_Arial_r0"/>
        <use fill="#ffffff" height="142.8" transform="matrix(0.0127, 0.0, 0.0, 0.0127, 235.9, 12.0)" width="284.8" xlink:href="#font_Arial_d0"/>
        <use fill="#ffffff" height="142.8" transform="matrix(0.0127, 0.0, 0.0, 0.0127, 246.75, 12.0)" width="284.8" xlink:href="#font_Arial_t0"/>
        <use fill="#ffffff" height="142.8" transform="matrix(0.0127, 0.0, 0.0, 0.0127, 250.35, 12.0)" width="284.8" xlink:href="#font_Arial_h0"/>
        <use fill="#ffffff" height="142.8" transform="matrix(0.0127, 0.0, 0.0, 0.0127, 257.6, 12.0)" width="284.8" xlink:href="#font_Arial_e0"/>
        <use fill="#ffffff" height="142.8" transform="matrix(0.0127, 0.0, 0.0, 0.0127, 264.85, 12.0)" width="284.8" xlink:href="#font_Arial_n0"/>
      </g>
      <g transform="matrix(1.0, 0.0, 0.0, 1.0, -2.0, -1.7)">
        <use fill="#ffffff" height="142.8" transform="matrix(0.0127, 0.0, 0.0, 0.0127, 0.0, 26.0)" width="284.8" xlink:href="#font_Arial_p0"/>
        <use fill="#ffffff" height="142.8" transform="matrix(0.0127, 0.0, 0.0, 0.0127, 7.25, 26.0)" width="284.8" xlink:href="#font_Arial_r0"/>
        <use fill="#ffffff" height="142.8" transform="matrix(0.0127, 0.0, 0.0, 0.0127, 11.6, 26.0)" width="284.8" xlink:href="#font_Arial_e0"/>
        <use fill="#ffffff" height="142.8" transform="matrix(0.0127, 0.0, 0.0, 0.0127, 18.85, 26.0)" width="284.8" xlink:href="#font_Arial_s0"/>
        <use fill="#ffffff" height="142.8" transform="matrix(0.0127, 0.0, 0.0, 0.0127, 25.35, 26.0)" width="284.8" xlink:href="#font_Arial_s0"/>
        <use fill="#ffffff" height="142.8" transform="matrix(0.0127, 0.0, 0.0, 0.0127, 35.45, 26.0)" width="284.8" xlink:href="#font_Arial_E0"/>
        <use fill="#ffffff" height="142.8" transform="matrix(0.0127, 0.0, 0.0, 0.0127, 44.1, 26.0)" width="284.8" xlink:href="#font_Arial_n0"/>
        <use fill="#ffffff" height="142.8" transform="matrix(0.0127, 0.0, 0.0, 0.0127, 51.35, 26.0)" width="284.8" xlink:href="#font_Arial_t0"/>
        <use fill="#ffffff" height="142.8" transform="matrix(0.0127, 0.0, 0.0, 0.0127, 54.95, 26.0)" width="284.8" xlink:href="#font_Arial_e0"/>
        <use fill="#ffffff" height="142.8" transform="matrix(0.0127, 0.0, 0.0, 0.0127, 62.2, 26.0)" width="284.8" xlink:href="#font_Arial_r0"/>
        <use fill="#ffffff" height="142.8" transform="matrix(0.0127, 0.0, 0.0, 0.0127, 70.15, 26.0)" width="284.8" xlink:href="#font_Arial_t0"/>
        <use fill="#ffffff" height="142.8" transform="matrix(0.0127, 0.0, 0.0, 0.0127, 73.75, 26.0)" width="284.8" xlink:href="#font_Arial_o0"/>
        <use fill="#ffffff" height="142.8" transform="matrix(0.0127, 0.0, 0.0, 0.0127, 84.6, 26.0)" width="284.8" xlink:href="#font_Arial_c0"/>
        <use fill="#ffffff" height="142.8" transform="matrix(0.0127, 0.0, 0.0, 0.0127, 91.1, 26.0)" width="284.8" xlink:href="#font_Arial_r0"/>
        <use fill="#ffffff" height="142.8" transform="matrix(0.0127, 0.0, 0.0, 0.0127, 95.45, 26.0)" width="284.8" xlink:href="#font_Arial_e0"/>
        <use fill="#ffffff" height="142.8" transform="matrix(0.0127, 0.0, 0.0, 0.0127, 102.7, 26.0)" width="284.8" xlink:href="#font_Arial_a0"/>
        <use fill="#ffffff" height="142.8" transform="matrix(0.0127, 0.0, 0.0, 0.0127, 109.95, 26.0)" width="284.8" xlink:href="#font_Arial_t0"/>
        <use fill="#ffffff" height="142.8" transform="matrix(0.0127, 0.0, 0.0, 0.0127, 113.55, 26.0)" width="284.8" xlink:href="#font_Arial_e0"/>
        <use fill="#ffffff" height="142.8" transform="matrix(0.0127, 0.0, 0.0, 0.0127, 124.4, 26.0)" width="284.8" xlink:href="#font_Arial_a0"/>
        <use fill="#ffffff" height="142.8" transform="matrix(0.0127, 0.0, 0.0, 0.0127, 131.65, 26.0)" width="284.8" xlink:href="#font_Arial_n0"/>
        <use fill="#ffffff" height="142.8" transform="matrix(0.0127, 0.0, 0.0, 0.0127, 142.5, 26.0)" width="284.8" xlink:href="#font_Arial_a0"/>
        <use fill="#ffffff" height="142.8" transform="matrix(0.0127, 0.0, 0.0, 0.0127, 149.75, 26.0)" width="284.8" xlink:href="#font_Arial_c0"/>
        <use fill="#ffffff" height="142.8" transform="matrix(0.0127, 0.0, 0.0, 0.0127, 156.25, 26.0)" width="284.8" xlink:href="#font_Arial_c0"/>
        <use fill="#ffffff" height="142.8" transform="matrix(0.0127, 0.0, 0.0, 0.0127, 162.75, 26.0)" width="284.8" xlink:href="#font_Arial_o0"/>
        <use fill="#ffffff" height="142.8" transform="matrix(0.0127, 0.0, 0.0, 0.0127, 170.0, 26.0)" width="284.8" xlink:href="#font_Arial_u0"/>
        <use fill="#ffffff" height="142.8" transform="matrix(0.0127, 0.0, 0.0, 0.0127, 177.25, 26.0)" width="284.8" xlink:href="#font_Arial_n0"/>
        <use fill="#ffffff" height="142.8" transform="matrix(0.0127, 0.0, 0.0, 0.0127, 184.5, 26.0)" width="284.8" xlink:href="#font_Arial_t0"/>
      </g>
      <g transform="matrix(1.0, 0.0, 0.0, 1.0, -2.0, -1.7)">
        <use fill="#ffffff" height="142.8" transform="matrix(0.0127, 0.0, 0.0, 0.0127, 0.0, 41.0)" width="284.8" xlink:href="#font_Arial_U0"/>
        <use fill="#ffffff" height="142.8" transform="matrix(0.0127, 0.0, 0.0, 0.0127, 9.4, 41.0)" width="284.8" xlink:href="#font_Arial_s0"/>
        <use fill="#ffffff" height="142.8" transform="matrix(0.0127, 0.0, 0.0, 0.0127, 15.9, 41.0)" width="284.8" xlink:href="#font_Arial_e0"/>
        <use fill="#ffffff" height="142.8" transform="matrix(0.0127, 0.0, 0.0, 0.0127, 26.75, 41.0)" width="284.8" xlink:href="#font_Arial_o0"/>
        <use fill="#ffffff" height="142.8" transform="matrix(0.0127, 0.0, 0.0, 0.0127, 34.0, 41.0)" width="284.8" xlink:href="#font_Arial_n0"/>
        <use fill="#ffffff" height="142.8" transform="matrix(0.0127, 0.0, 0.0, 0.0127, 41.25, 41.0)" width="284.8" xlink:href="#font_Arial_l0"/>
        <use fill="#ffffff" height="142.8" transform="matrix(0.0127, 0.0, 0.0, 0.0127, 44.15, 41.0)" width="284.8" xlink:href="#font_Arial_y0"/>
        <use fill="#ffffff" height="142.8" transform="matrix(0.0127, 0.0, 0.0, 0.0127, 54.25, 41.0)" width="284.8" xlink:href="#font_Arial_30"/>
        <use fill="#ffffff" height="142.8" transform="matrix(0.0127, 0.0, 0.0, 0.0127, 65.1, 41.0)" width="284.8" xlink:href="#font_Arial_-0"/>
        <use fill="#ffffff" height="142.8" transform="matrix(0.0127, 0.0, 0.0, 0.0127, 73.05, 41.0)" width="284.8" xlink:href="#font_Arial_10"/>
        <use fill="#ffffff" height="142.8" transform="matrix(0.0127, 0.0, 0.0, 0.0127, 80.3, 41.0)" width="284.8" xlink:href="#font_Arial_10"/>
        <use fill="#ffffff" height="142.8" transform="matrix(0.0127, 0.0, 0.0, 0.0127, 91.15, 41.0)" width="284.8" xlink:href="#font_Arial_c0"/>
        <use fill="#ffffff" height="142.8" transform="matrix(0.0127, 0.0, 0.0, 0.0127, 97.65, 41.0)" width="284.8" xlink:href="#font_Arial_h0"/>
        <use fill="#ffffff" height="142.8" transform="matrix(0.0127, 0.0, 0.0, 0.0127, 104.9, 41.0)" width="284.8" xlink:href="#font_Arial_a0"/>
        <use fill="#ffffff" height="142.8" transform="matrix(0.0127, 0.0, 0.0, 0.0127, 112.15, 41.0)" width="284.8" xlink:href="#font_Arial_r0"/>
        <use fill="#ffffff" height="142.8" transform="matrix(0.0127, 0.0, 0.0, 0.0127, 116.5, 41.0)" width="284.8" xlink:href="#font_Arial_a0"/>
        <use fill="#ffffff" height="142.8" transform="matrix(0.0127, 0.0, 0.0, 0.0127, 123.75, 41.0)" width="284.8" xlink:href="#font_Arial_c0"/>
        <use fill="#ffffff" height="142.8" transform="matrix(0.0127, 0.0, 0.0, 0.0127, 130.25, 41.0)" width="284.8" xlink:href="#font_Arial_t0"/>
        <use fill="#ffffff" height="142.8" transform="matrix(0.0127, 0.0, 0.0, 0.0127, 133.85, 41.0)" width="284.8" xlink:href="#font_Arial_e0"/>
        <use fill="#ffffff" height="142.8" transform="matrix(0.0127, 0.0, 0.0, 0.0127, 141.1, 41.0)" width="284.8" xlink:href="#font_Arial_r0"/>
        <use fill="#ffffff" height="142.8" transform="matrix(0.0127, 0.0, 0.0, 0.0127, 145.45, 41.0)" width="284.8" xlink:href="#font_Arial_s0"/>
        <use fill="#ffffff" height="142.8" transform="matrix(0.0127, 0.0, 0.0, 0.0127, 151.95, 41.0)" width="284.8" xlink:href="#font_Arial_.0"/>
        <use fill="#ffffff" height="142.8" transform="matrix(0.0127, 0.0, 0.0, 0.0127, 159.15, 41.0)" width="284.8" xlink:href="#font_Arial__1"/>
        <use fill="#ffffff" height="142.8" transform="matrix(0.0127, 0.0, 0.0, 0.0127, 163.5, 41.0)" width="284.8" xlink:href="#font_Arial_00"/>
        <use fill="#ffffff" height="142.8" transform="matrix(0.0127, 0.0, 0.0, 0.0127, 170.75, 41.0)" width="284.8" xlink:href="#font_Arial_-0"/>
        <use fill="#ffffff" height="142.8" transform="matrix(0.0127, 0.0, 0.0, 0.0127, 175.1, 41.0)" width="284.8" xlink:href="#font_Arial_90"/>
        <use fill="#ffffff" height="142.8" transform="matrix(0.0127, 0.0, 0.0, 0.0127, 185.95, 41.0)" width="284.8" xlink:href="#font_Arial_a0"/>
        <use fill="#ffffff" height="142.8" transform="matrix(0.0127, 0.0, 0.0, 0.0127, 193.2, 41.0)" width="284.8" xlink:href="#font_Arial_-0"/>
        <use fill="#ffffff" height="142.8" transform="matrix(0.0127, 0.0, 0.0, 0.0127, 197.55, 41.0)" width="284.8" xlink:href="#font_Arial_Z0"/>
        <use fill="#ffffff" height="142.8" transform="matrix(0.0127, 0.0, 0.0, 0.0127, 205.5, 41.0)" width="284.8" xlink:href="#font_Arial__2"/>
      </g>
      <g transform="matrix(1.0, 0.0, 0.0, 1.0, -2.0, -1.7)">
        <use fill="#ffffff" height="142.8" transform="matrix(0.0127, 0.0, 0.0, 0.0127, 0.0, 55.0)" width="284.8" xlink:href="#font_Arial_-0"/>
        <use fill="#ffffff" height="142.8" transform="matrix(0.0127, 0.0, 0.0, 0.0127, 7.95, 55.0)" width="284.8" xlink:href="#font_Arial_N0"/>
        <use fill="#ffffff" height="142.8" transform="matrix(0.0127, 0.0, 0.0, 0.0127, 17.35, 55.0)" width="284.8" xlink:href="#font_Arial_o0"/>
        <use fill="#ffffff" height="142.8" transform="matrix(0.0127, 0.0, 0.0, 0.0127, 24.6, 55.0)" width="284.8" xlink:href="#font_Arial_t0"/>
        <use fill="#ffffff" height="142.8" transform="matrix(0.0127, 0.0, 0.0, 0.0127, 31.8, 55.0)" width="284.8" xlink:href="#font_Arial_c0"/>
        <use fill="#ffffff" height="142.8" transform="matrix(0.0127, 0.0, 0.0, 0.0127, 38.3, 55.0)" width="284.8" xlink:href="#font_Arial_a0"/>
        <use fill="#ffffff" height="142.8" transform="matrix(0.0127, 0.0, 0.0, 0.0127, 45.55, 55.0)" width="284.8" xlink:href="#font_Arial_s0"/>
        <use fill="#ffffff" height="142.8" transform="matrix(0.0127, 0.0, 0.0, 0.0127, 52.05, 55.0)" width="284.8" xlink:href="#font_Arial_e0"/>
        <use fill="#ffffff" height="142.8" transform="matrix(0.0127, 0.0, 0.0, 0.0127, 62.9, 55.0)" width="284.8" xlink:href="#font_Arial_s0"/>
        <use fill="#ffffff" height="142.8" transform="matrix(0.0127, 0.0, 0.0, 0.0127, 69.4, 55.0)" width="284.8" xlink:href="#font_Arial_e0"/>
        <use fill="#ffffff" height="142.8" transform="matrix(0.0127, 0.0, 0.0, 0.0127, 76.65, 55.0)" width="284.8" xlink:href="#font_Arial_n0"/>
        <use fill="#ffffff" height="142.8" transform="matrix(0.0127, 0.0, 0.0, 0.0127, 83.9, 55.0)" width="284.8" xlink:href="#font_Arial_s0"/>
        <use fill="#ffffff" height="142.8" transform="matrix(0.0127, 0.0, 0.0, 0.0127, 90.4, 55.0)" width="284.8" xlink:href="#font_Arial_i0"/>
        <use fill="#ffffff" height="142.8" transform="matrix(0.0127, 0.0, 0.0, 0.0127, 93.3, 55.0)" width="284.8" xlink:href="#font_Arial_t0"/>
        <use fill="#ffffff" height="142.8" transform="matrix(0.0127, 0.0, 0.0, 0.0127, 96.9, 55.0)" width="284.8" xlink:href="#font_Arial_i0"/>
        <use fill="#ffffff" height="142.8" transform="matrix(0.0127, 0.0, 0.0, 0.0127, 99.8, 55.0)" width="284.8" xlink:href="#font_Arial_v0"/>
        <use fill="#ffffff" height="142.8" transform="matrix(0.0127, 0.0, 0.0, 0.0127, 106.3, 55.0)" width="284.8" xlink:href="#font_Arial_e0"/>
        <use fill="#ffffff" height="142.8" transform="matrix(0.0127, 0.0, 0.0, 0.0127, 113.55, 55.0)" width="284.8" xlink:href="#font_Arial_.0"/>
      </g>
      <g transform="matrix(1.0, 0.0, 0.0, 1.0, -2.0, -1.7)">
        <use fill="#ffffff" height="142.8" transform="matrix(0.0127, 0.0, 0.0, 0.0127, 0.0, 70.0)" width="284.8" xlink:href="#font_Arial_Y0"/>
        <use fill="#ffffff" height="142.8" transform="matrix(0.0127, 0.0, 0.0, 0.0127, 8.65, 70.0)" width="284.8" xlink:href="#font_Arial_o0"/>
        <use fill="#ffffff" height="142.8" transform="matrix(0.0127, 0.0, 0.0, 0.0127, 15.9, 70.0)" width="284.8" xlink:href="#font_Arial_u0"/>
        <use fill="#ffffff" height="142.8" transform="matrix(0.0127, 0.0, 0.0, 0.0127, 26.75, 70.0)" width="284.8" xlink:href="#font_Arial_c0"/>
        <use fill="#ffffff" height="142.8" transform="matrix(0.0127, 0.0, 0.0, 0.0127, 33.25, 70.0)" width="284.8" xlink:href="#font_Arial_a0"/>
        <use fill="#ffffff" height="142.8" transform="matrix(0.0127, 0.0, 0.0, 0.0127, 40.5, 70.0)" width="284.8" xlink:href="#font_Arial_n0"/>
        <use fill="#ffffff" height="142.8" transform="matrix(0.0127, 0.0, 0.0, 0.0127, 51.35, 70.0)" width="284.8" xlink:href="#font_Arial_a0"/>
        <use fill="#ffffff" height="142.8" transform="matrix(0.0127, 0.0, 0.0, 0.0127, 58.6, 70.0)" width="284.8" xlink:href="#font_Arial_d0"/>
        <use fill="#ffffff" height="142.8" transform="matrix(0.0127, 0.0, 0.0, 0.0127, 65.85, 70.0)" width="284.8" xlink:href="#font_Arial_d0"/>
        <use fill="#ffffff" height="142.8" transform="matrix(0.0127, 0.0, 0.0, 0.0127, 76.7, 70.0)" width="284.8" xlink:href="#font_Arial_a0"/>
        <use fill="#ffffff" height="142.8" transform="matrix(0.0127, 0.0, 0.0, 0.0127, 83.95, 70.0)" width="284.8" xlink:href="#font_Arial_n0"/>
        <use fill="#ffffff" height="142.8" transform="matrix(0.0127, 0.0, 0.0, 0.0127, 94.8, 70.0)" width="284.8" xlink:href="#font_Arial_e0"/>
        <use fill="#ffffff" height="142.8" transform="matrix(0.0127, 0.0, 0.0, 0.0127, 102.05, 70.0)" width="284.8" xlink:href="#font_Arial_m0"/>
        <use fill="#ffffff" height="142.8" transform="matrix(0.0127, 0.0, 0.0, 0.0127, 112.9, 70.0)" width="284.8" xlink:href="#font_Arial_a0"/>
        <use fill="#ffffff" height="142.8" transform="matrix(0.0127, 0.0, 0.0, 0.0127, 120.15, 70.0)" width="284.8" xlink:href="#font_Arial_i0"/>
        <use fill="#ffffff" height="142.8" transform="matrix(0.0127, 0.0, 0.0, 0.0127, 123.05, 70.0)" width="284.8" xlink:href="#font_Arial_l0"/>
        <use fill="#ffffff" height="142.8" transform="matrix(0.0127, 0.0, 0.0, 0.0127, 129.55, 70.0)" width="284.8" xlink:href="#font_Arial__1"/>
        <use fill="#ffffff" height="142.8" transform="matrix(0.0127, 0.0, 0.0, 0.0127, 133.9, 70.0)" width="284.8" xlink:href="#font_Arial_f0"/>
        <use fill="#ffffff" height="142.8" transform="matrix(0.0127, 0.0, 0.0, 0.0127, 137.5, 70.0)" width="284.8" xlink:href="#font_Arial_o0"/>
        <use fill="#ffffff" height="142.8" transform="matrix(0.0127, 0.0, 0.0, 0.0127, 144.75, 70.0)" width="284.8" xlink:href="#font_Arial_r0"/>
        <use fill="#ffffff" height="142.8" transform="matrix(0.0127, 0.0, 0.0, 0.0127, 152.7, 70.0)" width="284.8" xlink:href="#font_Arial_p0"/>
        <use fill="#ffffff" height="142.8" transform="matrix(0.0127, 0.0, 0.0, 0.0127, 159.95, 70.0)" width="284.8" xlink:href="#font_Arial_a0"/>
        <use fill="#ffffff" height="142.8" transform="matrix(0.0127, 0.0, 0.0, 0.0127, 167.2, 70.0)" width="284.8" xlink:href="#font_Arial_s0"/>
        <use fill="#ffffff" height="142.8" transform="matrix(0.0127, 0.0, 0.0, 0.0127, 173.7, 70.0)" width="284.8" xlink:href="#font_Arial_s0"/>
        <use fill="#ffffff" height="142.8" transform="matrix(0.0127, 0.0, 0.0, 0.0127, 180.2, 70.0)" width="284.8" xlink:href="#font_Arial_w0"/>
        <use fill="#ffffff" height="142.8" transform="matrix(0.0127, 0.0, 0.0, 0.0127, 189.6, 70.0)" width="284.8" xlink:href="#font_Arial_o0"/>
        <use fill="#ffffff" height="142.8" transform="matrix(0.0127, 0.0, 0.0, 0.0127, 196.85, 70.0)" width="284.8" xlink:href="#font_Arial_r0"/>
        <use fill="#ffffff" height="142.8" transform="matrix(0.0127, 0.0, 0.0, 0.0127, 201.2, 70.0)" width="284.8" xlink:href="#font_Arial_d0"/>
        <use fill="#ffffff" height="142.8" transform="matrix(0.0127, 0.0, 0.0, 0.0127, 212.05, 70.0)" width="284.8" xlink:href="#font_Arial_r0"/>
        <use fill="#ffffff" height="142.8" transform="matrix(0.0127, 0.0, 0.0, 0.0127, 216.4, 70.0)" width="284.8" xlink:href="#font_Arial_e0"/>
        <use fill="#ffffff" height="142.8" transform="matrix(0.0127, 0.0, 0.0, 0.0127, 223.65, 70.0)" width="284.8" xlink:href="#font_Arial_t0"/>
        <use fill="#ffffff" height="142.8" transform="matrix(0.0127, 0.0, 0.0, 0.0127, 227.25, 70.0)" width="284.8" xlink:href="#font_Arial_r0"/>
        <use fill="#ffffff" height="142.8" transform="matrix(0.0127, 0.0, 0.0, 0.0127, 231.6, 70.0)" width="284.8" xlink:href="#font_Arial_i0"/>
        <use fill="#ffffff" height="142.8" transform="matrix(0.0127, 0.0, 0.0, 0.0127, 234.5, 70.0)" width="284.8" xlink:href="#font_Arial_e0"/>
        <use fill="#ffffff" height="142.8" transform="matrix(0.0127, 0.0, 0.0, 0.0127, 241.75, 70.0)" width="284.8" xlink:href="#font_Arial_v0"/>
        <use fill="#ffffff" height="142.8" transform="matrix(0.0127, 0.0, 0.0, 0.0127, 248.25, 70.0)" width="284.8" xlink:href="#font_Arial_a0"/>
        <use fill="#ffffff" height="142.8" transform="matrix(0.0127, 0.0, 0.0, 0.0127, 255.5, 70.0)" width="284.8" xlink:href="#font_Arial_l0"/>
        <use fill="#ffffff" height="142.8" transform="matrix(0.0127, 0.0, 0.0, 0.0127, 258.4, 70.0)" width="284.8" xlink:href="#font_Arial__2"/>
      </g>
      <g transform="matrix(1.0, 0.0, 0.0, 1.0, -2.0, -1.7)">
        <use fill="#ffffff" height="142.8" transform="matrix(0.0127, 0.0, 0.0, 0.0127, 0.0, 84.0)" width="284.8" xlink:href="#font_Arial_a0"/>
        <use fill="#ffffff" height="142.8" transform="matrix(0.0127, 0.0, 0.0, 0.0127, 7.25, 84.0)" width="284.8" xlink:href="#font_Arial_n0"/>
        <use fill="#ffffff" height="142.8" transform="matrix(0.0127, 0.0, 0.0, 0.0127, 14.5, 84.0)" width="284.8" xlink:href="#font_Arial_d0"/>
        <use fill="#ffffff" height="142.8" transform="matrix(0.0127, 0.0, 0.0, 0.0127, 25.35, 84.0)" width="284.8" xlink:href="#font_Arial_c0"/>
        <use fill="#ffffff" height="142.8" transform="matrix(0.0127, 0.0, 0.0, 0.0127, 31.85, 84.0)" width="284.8" xlink:href="#font_Arial_h0"/>
        <use fill="#ffffff" height="142.8" transform="matrix(0.0127, 0.0, 0.0, 0.0127, 39.1, 84.0)" width="284.8" xlink:href="#font_Arial_a0"/>
        <use fill="#ffffff" height="142.8" transform="matrix(0.0127, 0.0, 0.0, 0.0127, 46.35, 84.0)" width="284.8" xlink:href="#font_Arial_n0"/>
        <use fill="#ffffff" height="142.8" transform="matrix(0.0127, 0.0, 0.0, 0.0127, 53.6, 84.0)" width="284.8" xlink:href="#font_Arial_g0"/>
        <use fill="#ffffff" height="142.8" transform="matrix(0.0127, 0.0, 0.0, 0.0127, 60.85, 84.0)" width="284.8" xlink:href="#font_Arial_e0"/>
        <use fill="#ffffff" height="142.8" transform="matrix(0.0127, 0.0, 0.0, 0.0127, 71.7, 84.0)" width="284.8" xlink:href="#font_Arial_y0"/>
        <use fill="#ffffff" height="142.8" transform="matrix(0.0127, 0.0, 0.0, 0.0127, 78.2, 84.0)" width="284.8" xlink:href="#font_Arial_o0"/>
        <use fill="#ffffff" height="142.8" transform="matrix(0.0127, 0.0, 0.0, 0.0127, 85.45, 84.0)" width="284.8" xlink:href="#font_Arial_u0"/>
        <use fill="#ffffff" height="142.8" transform="matrix(0.0127, 0.0, 0.0, 0.0127, 92.7, 84.0)" width="284.8" xlink:href="#font_Arial_r0"/>
        <use fill="#ffffff" height="142.8" transform="matrix(0.0127, 0.0, 0.0, 0.0127, 100.65, 84.0)" width="284.8" xlink:href="#font_Arial_p0"/>
        <use fill="#ffffff" height="142.8" transform="matrix(0.0127, 0.0, 0.0, 0.0127, 107.9, 84.0)" width="284.8" xlink:href="#font_Arial_a0"/>
        <use fill="#ffffff" height="142.8" transform="matrix(0.0127, 0.0, 0.0, 0.0127, 115.15, 84.0)" width="284.8" xlink:href="#font_Arial_s0"/>
        <use fill="#ffffff" height="142.8" transform="matrix(0.0127, 0.0, 0.0, 0.0127, 121.65, 84.0)" width="284.8" xlink:href="#font_Arial_s0"/>
        <use fill="#ffffff" height="142.8" transform="matrix(0.0127, 0.0, 0.0, 0.0127, 128.15, 84.0)" width="284.8" xlink:href="#font_Arial_w0"/>
        <use fill="#ffffff" height="142.8" transform="matrix(0.0127, 0.0, 0.0, 0.0127, 137.55, 84.0)" width="284.8" xlink:href="#font_Arial_o0"/>
        <use fill="#ffffff" height="142.8" transform="matrix(0.0127, 0.0, 0.0, 0.0127, 144.8, 84.0)" width="284.8" xlink:href="#font_Arial_r0"/>
        <use fill="#ffffff" height="142.8" transform="matrix(0.0127, 0.0, 0.0, 0.0127, 149.15, 84.0)" width="284.8" xlink:href="#font_Arial_d0"/>
        <use fill="#ffffff" height="142.8" transform="matrix(0.0127, 0.0, 0.0, 0.0127, 160.0, 84.0)" width="284.8" xlink:href="#font_Arial_i0"/>
        <use fill="#ffffff" height="142.8" transform="matrix(0.0127, 0.0, 0.0, 0.0127, 162.9, 84.0)" width="284.8" xlink:href="#font_Arial_n0"/>
        <use fill="#ffffff" height="142.8" transform="matrix(0.0127, 0.0, 0.0, 0.0127, 173.75, 84.0)" width="284.8" xlink:href="#font_Arial_t0"/>
        <use fill="#ffffff" height="142.8" transform="matrix(0.0127, 0.0, 0.0, 0.0127, 177.35, 84.0)" width="284.8" xlink:href="#font_Arial_h0"/>
        <use fill="#ffffff" height="142.8" transform="matrix(0.0127, 0.0, 0.0, 0.0127, 184.6, 84.0)" width="284.8" xlink:href="#font_Arial_e0"/>
        <use fill="#ffffff" height="142.8" transform="matrix(0.0127, 0.0, 0.0, 0.0127, 195.45, 84.0)" width="284.8" xlink:href="#font_Arial_g0"/>
        <use fill="#ffffff" height="142.8" transform="matrix(0.0127, 0.0, 0.0, 0.0127, 202.7, 84.0)" width="284.8" xlink:href="#font_Arial_a0"/>
        <use fill="#ffffff" height="142.8" transform="matrix(0.0127, 0.0, 0.0, 0.0127, 209.95, 84.0)" width="284.8" xlink:href="#font_Arial_m0"/>
        <use fill="#ffffff" height="142.8" transform="matrix(0.0127, 0.0, 0.0, 0.0127, 220.8, 84.0)" width="284.8" xlink:href="#font_Arial_e0"/>
        <use fill="#ffffff" height="142.8" transform="matrix(0.0127, 0.0, 0.0, 0.0127, 231.65, 84.0)" width="284.8" xlink:href="#font_Arial_i0"/>
        <use fill="#ffffff" height="142.8" transform="matrix(0.0127, 0.0, 0.0, 0.0127, 234.55, 84.0)" width="284.8" xlink:href="#font_Arial_n0"/>
        <use fill="#ffffff" height="142.8" transform="matrix(0.0127, 0.0, 0.0, 0.0127, 245.4, 84.0)" width="284.8" xlink:href="#font_Arial_t0"/>
        <use fill="#ffffff" height="142.8" transform="matrix(0.0127, 0.0, 0.0, 0.0127, 249.0, 84.0)" width="284.8" xlink:href="#font_Arial_h0"/>
        <use fill="#ffffff" height="142.8" transform="matrix(0.0127, 0.0, 0.0, 0.0127, 256.25, 84.0)" width="284.8" xlink:href="#font_Arial_e0"/>
      </g>
      <g transform="matrix(1.0, 0.0, 0.0, 1.0, -2.0, -1.7)">
        <use fill="#ffffff" height="142.8" transform="matrix(0.0127, 0.0, 0.0, 0.0127, 0.0, 99.0)" width="284.8" xlink:href="#font_Arial_p0"/>
        <use fill="#ffffff" height="142.8" transform="matrix(0.0127, 0.0, 0.0, 0.0127, 7.25, 99.0)" width="284.8" xlink:href="#font_Arial_r0"/>
        <use fill="#ffffff" height="142.8" transform="matrix(0.0127, 0.0, 0.0, 0.0127, 11.6, 99.0)" width="284.8" xlink:href="#font_Arial_e0"/>
        <use fill="#ffffff" height="142.8" transform="matrix(0.0127, 0.0, 0.0, 0.0127, 18.85, 99.0)" width="284.8" xlink:href="#font_Arial_f0"/>
        <use fill="#ffffff" height="142.8" transform="matrix(0.0127, 0.0, 0.0, 0.0127, 22.45, 99.0)" width="284.8" xlink:href="#font_Arial_e0"/>
        <use fill="#ffffff" height="142.8" transform="matrix(0.0127, 0.0, 0.0, 0.0127, 29.7, 99.0)" width="284.8" xlink:href="#font_Arial_r0"/>
        <use fill="#ffffff" height="142.8" transform="matrix(0.0127, 0.0, 0.0, 0.0127, 34.05, 99.0)" width="284.8" xlink:href="#font_Arial_e0"/>
        <use fill="#ffffff" height="142.8" transform="matrix(0.0127, 0.0, 0.0, 0.0127, 41.3, 99.0)" width="284.8" xlink:href="#font_Arial_n0"/>
        <use fill="#ffffff" height="142.8" transform="matrix(0.0127, 0.0, 0.0, 0.0127, 48.55, 99.0)" width="284.8" xlink:href="#font_Arial_c0"/>
        <use fill="#ffffff" height="142.8" transform="matrix(0.0127, 0.0, 0.0, 0.0127, 55.05, 99.0)" width="284.8" xlink:href="#font_Arial_e0"/>
        <use fill="#ffffff" height="142.8" transform="matrix(0.0127, 0.0, 0.0, 0.0127, 62.3, 99.0)" width="284.8" xlink:href="#font_Arial_s0"/>
        <use fill="#ffffff" height="142.8" transform="matrix(0.0127, 0.0, 0.0, 0.0127, 72.4, 99.0)" width="284.8" xlink:href="#font_Arial_s0"/>
        <use fill="#ffffff" height="142.8" transform="matrix(0.0127, 0.0, 0.0, 0.0127, 78.9, 99.0)" width="284.8" xlink:href="#font_Arial_c0"/>
        <use fill="#ffffff" height="142.8" transform="matrix(0.0127, 0.0, 0.0, 0.0127, 85.4, 99.0)" width="284.8" xlink:href="#font_Arial_r0"/>
        <use fill="#ffffff" height="142.8" transform="matrix(0.0127, 0.0, 0.0, 0.0127, 89.75, 99.0)" width="284.8" xlink:href="#font_Arial_e0"/>
        <use fill="#ffffff" height="142.8" transform="matrix(0.0127, 0.0, 0.0, 0.0127, 97.0, 99.0)" width="284.8" xlink:href="#font_Arial_e0"/>
        <use fill="#ffffff" height="142.8" transform="matrix(0.0127, 0.0, 0.0, 0.0127, 104.25, 99.0)" width="284.8" xlink:href="#font_Arial_n0"/>
        <use fill="#ffffff" height="142.8" transform="matrix(0.0127, 0.0, 0.0, 0.0127, 111.5, 99.0)" width="284.8" xlink:href="#font_Arial_.0"/>
      </g>
      <g transform="matrix(1.0, 0.0, 0.0, 1.0, -2.0, -1.7)">
        <use fill="#ffffff" height="142.8" transform="matrix(0.0127, 0.0, 0.0, 0.0127, 0.0, 113.0)" width="284.8" xlink:href="#font_Arial_E0"/>
        <use fill="#ffffff" height="142.8" transform="matrix(0.0127, 0.0, 0.0, 0.0127, 8.65, 113.0)" width="284.8" xlink:href="#font_Arial_m0"/>
        <use fill="#ffffff" height="142.8" transform="matrix(0.0127, 0.0, 0.0, 0.0127, 19.5, 113.0)" width="284.8" xlink:href="#font_Arial_a0"/>
        <use fill="#ffffff" height="142.8" transform="matrix(0.0127, 0.0, 0.0, 0.0127, 26.75, 113.0)" width="284.8" xlink:href="#font_Arial_i0"/>
        <use fill="#ffffff" height="142.8" transform="matrix(0.0127, 0.0, 0.0, 0.0127, 29.65, 113.0)" width="284.8" xlink:href="#font_Arial_l0"/>
        <use fill="#ffffff" height="142.8" transform="matrix(0.0127, 0.0, 0.0, 0.0127, 36.15, 113.0)" width="284.8" xlink:href="#font_Arial_i0"/>
        <use fill="#ffffff" height="142.8" transform="matrix(0.0127, 0.0, 0.0, 0.0127, 39.05, 113.0)" width="284.8" xlink:href="#font_Arial_s0"/>
        <use fill="#ffffff" height="142.8" transform="matrix(0.0127, 0.0, 0.0, 0.0127, 49.15, 113.0)" width="284.8" xlink:href="#font_Arial_o0"/>
        <use fill="#ffffff" height="142.8" transform="matrix(0.0127, 0.0, 0.0, 0.0127, 56.4, 113.0)" width="284.8" xlink:href="#font_Arial_p0"/>
        <use fill="#ffffff" height="142.8" transform="matrix(0.0127, 0.0, 0.0, 0.0127, 63.65, 113.0)" width="284.8" xlink:href="#font_Arial_t0"/>
        <use fill="#ffffff" height="142.8" transform="matrix(0.0127, 0.0, 0.0, 0.0127, 67.25, 113.0)" width="284.8" xlink:href="#font_Arial_i0"/>
        <use fill="#ffffff" height="142.8" transform="matrix(0.0127, 0.0, 0.0, 0.0127, 70.15, 113.0)" width="284.8" xlink:href="#font_Arial_o0"/>
        <use fill="#ffffff" height="142.8" transform="matrix(0.0127, 0.0, 0.0, 0.0127, 77.4, 113.0)" width="284.8" xlink:href="#font_Arial_n0"/>
        <use fill="#ffffff" height="142.8" transform="matrix(0.0127, 0.0, 0.0, 0.0127, 84.65, 113.0)" width="284.8" xlink:href="#font_Arial_a0"/>
        <use fill="#ffffff" height="142.8" transform="matrix(0.0127, 0.0, 0.0, 0.0127, 91.9, 113.0)" width="284.8" xlink:href="#font_Arial_l0"/>
        <use fill="#ffffff" height="142.8" transform="matrix(0.0127, 0.0, 0.0, 0.0127, 94.8, 113.0)" width="284.8" xlink:href="#font_Arial_.0"/>
      </g>
      <g transform="matrix(1.0, 0.0, 0.0, 1.0, -2.0, -1.7)">
        <use fill="#ffffff" height="142.8" transform="matrix(0.0127, 0.0, 0.0, 0.0127, 0.0, 128.0)" width="284.8" xlink:href="#font_Arial_Y0"/>
        <use fill="#ffffff" height="142.8" transform="matrix(0.0127, 0.0, 0.0, 0.0127, 8.65, 128.0)" width="284.8" xlink:href="#font_Arial_o0"/>
        <use fill="#ffffff" height="142.8" transform="matrix(0.0127, 0.0, 0.0, 0.0127, 15.9, 128.0)" width="284.8" xlink:href="#font_Arial_u0"/>
        <use fill="#ffffff" height="142.8" transform="matrix(0.0127, 0.0, 0.0, 0.0127, 26.75, 128.0)" width="284.8" xlink:href="#font_Arial_w0"/>
        <use fill="#ffffff" height="142.8" transform="matrix(0.0127, 0.0, 0.0, 0.0127, 36.15, 128.0)" width="284.8" xlink:href="#font_Arial_i0"/>
        <use fill="#ffffff" height="142.8" transform="matrix(0.0127, 0.0, 0.0, 0.0127, 39.05, 128.0)" width="284.8" xlink:href="#font_Arial_l0"/>
        <use fill="#ffffff" height="142.8" transform="matrix(0.0127, 0.0, 0.0, 0.0127, 41.95, 128.0)" width="284.8" xlink:href="#font_Arial_l0"/>
        <use fill="#ffffff" height="142.8" transform="matrix(0.0127, 0.0, 0.0, 0.0127, 48.45, 128.0)" width="284.8" xlink:href="#font_Arial_l0"/>
        <use fill="#ffffff" height="142.8" transform="matrix(0.0127, 0.0, 0.0, 0.0127, 51.35, 128.0)" width="284.8" xlink:href="#font_Arial_o0"/>
        <use fill="#ffffff" height="142.8" transform="matrix(0.0127, 0.0, 0.0, 0.0127, 58.6, 128.0)" width="284.8" xlink:href="#font_Arial_g0"/>
        <use fill="#ffffff" height="142.8" transform="matrix(0.0127, 0.0, 0.0, 0.0127, 69.45, 128.0)" width="284.8" xlink:href="#font_Arial_i0"/>
        <use fill="#ffffff" height="142.8" transform="matrix(0.0127, 0.0, 0.0, 0.0127, 72.35, 128.0)" width="284.8" xlink:href="#font_Arial_n0"/>
        <use fill="#ffffff" height="142.8" transform="matrix(0.0127, 0.0, 0.0, 0.0127, 83.2, 128.0)" width="284.8" xlink:href="#font_Arial_o0"/>
        <use fill="#ffffff" height="142.8" transform="matrix(0.0127, 0.0, 0.0, 0.0127, 90.45, 128.0)" width="284.8" xlink:href="#font_Arial_n0"/>
        <use fill="#ffffff" height="142.8" transform="matrix(0.0127, 0.0, 0.0, 0.0127, 97.7, 128.0)" width="284.8" xlink:href="#font_Arial_c0"/>
        <use fill="#ffffff" height="142.8" transform="matrix(0.0127, 0.0, 0.0, 0.0127, 104.2, 128.0)" width="284.8" xlink:href="#font_Arial_e0"/>
        <use fill="#ffffff" height="142.8" transform="matrix(0.0127, 0.0, 0.0, 0.0127, 115.05, 128.0)" width="284.8" xlink:href="#font_Arial_y0"/>
        <use fill="#ffffff" height="142.8" transform="matrix(0.0127, 0.0, 0.0, 0.0127, 121.55, 128.0)" width="284.8" xlink:href="#font_Arial_o0"/>
        <use fill="#ffffff" height="142.8" transform="matrix(0.0127, 0.0, 0.0, 0.0127, 128.8, 128.0)" width="284.8" xlink:href="#font_Arial_u0"/>
        <use fill="#ffffff" height="142.8" transform="matrix(0.0127, 0.0, 0.0, 0.0127, 136.05, 128.0)" width="284.8" xlink:href="#font_Arial_r0"/>
        <use fill="#ffffff" height="142.8" transform="matrix(0.0127, 0.0, 0.0, 0.0127, 144.0, 128.0)" width="284.8" xlink:href="#font_Arial_a0"/>
        <use fill="#ffffff" height="142.8" transform="matrix(0.0127, 0.0, 0.0, 0.0127, 151.25, 128.0)" width="284.8" xlink:href="#font_Arial_c0"/>
        <use fill="#ffffff" height="142.8" transform="matrix(0.0127, 0.0, 0.0, 0.0127, 157.75, 128.0)" width="284.8" xlink:href="#font_Arial_c0"/>
        <use fill="#ffffff" height="142.8" transform="matrix(0.0127, 0.0, 0.0, 0.0127, 164.25, 128.0)" width="284.8" xlink:href="#font_Arial_o0"/>
        <use fill="#ffffff" height="142.8" transform="matrix(0.0127, 0.0, 0.0, 0.0127, 171.5, 128.0)" width="284.8" xlink:href="#font_Arial_u0"/>
        <use fill="#ffffff" height="142.8" transform="matrix(0.0127, 0.0, 0.0, 0.0127, 178.75, 128.0)" width="284.8" xlink:href="#font_Arial_n0"/>
        <use fill="#ffffff" height="142.8" transform="matrix(0.0127, 0.0, 0.0, 0.0127, 186.0, 128.0)" width="284.8" xlink:href="#font_Arial_t0"/>
        <use fill="#ffffff" height="142.8" transform="matrix(0.0127, 0.0, 0.0, 0.0127, 193.2, 128.0)" width="284.8" xlink:href="#font_Arial_i0"/>
        <use fill="#ffffff" height="142.8" transform="matrix(0.0127, 0.0, 0.0, 0.0127, 196.1, 128.0)" width="284.8" xlink:href="#font_Arial_s0"/>
        <use fill="#ffffff" height="142.8" transform="matrix(0.0127, 0.0, 0.0, 0.0127, 206.2, 128.0)" width="284.8" xlink:href="#font_Arial_c0"/>
        <use fill="#ffffff" height="142.8" transform="matrix(0.0127, 0.0, 0.0, 0.0127, 212.7, 128.0)" width="284.8" xlink:href="#font_Arial_r0"/>
        <use fill="#ffffff" height="142.8" transform="matrix(0.0127, 0.0, 0.0, 0.0127, 217.05, 128.0)" width="284.8" xlink:href="#font_Arial_e0"/>
        <use fill="#ffffff" height="142.8" transform="matrix(0.0127, 0.0, 0.0, 0.0127, 224.3, 128.0)" width="284.8" xlink:href="#font_Arial_a0"/>
        <use fill="#ffffff" height="142.8" transform="matrix(0.0127, 0.0, 0.0, 0.0127, 231.55, 128.0)" width="284.8" xlink:href="#font_Arial_t0"/>
        <use fill="#ffffff" height="142.8" transform="matrix(0.0127, 0.0, 0.0, 0.0127, 235.15, 128.0)" width="284.8" xlink:href="#font_Arial_e0"/>
        <use fill="#ffffff" height="142.8" transform="matrix(0.0127, 0.0, 0.0, 0.0127, 242.4, 128.0)" width="284.8" xlink:href="#font_Arial_d0"/>
        <use fill="#ffffff" height="142.8" transform="matrix(0.0127, 0.0, 0.0, 0.0127, 249.65, 128.0)" width="284.8" xlink:href="#font_Arial_.0"/>
      </g>
    </g>
    <g id="font_Arial_n0">
      <path d="M67.5 0.0 L157.5 0.0 157.5 -290.0 Q157.5 -392.0 199.5 -428.5 241.0 -465.0 298.5 -465.0 334.5 -465.0 361.5 -448.5 388.0 -432.5 398.5 -405.0 409.0 -378.0 409.0 -323.0 L409.0 0.0 499.0 0.0 499.0 -326.5 Q499.0 -389.0 494.0 -414.0 486.0 -452.5 466.0 -480.5 446.0 -508.5 406.0 -525.5 365.5 -543.0 317.5 -543.0 207.0 -543.0 148.5 -455.5 L148.5 -531.0 67.5 -531.0 67.5 0.0" fill-rule="evenodd" stroke="none"/>
    </g>
    <g id="font_Arial_p0">
      <path d="M149.0 -262.5 Q149.0 -365.0 193.5 -418.5 237.5 -472.5 295.0 -472.5 353.0 -472.5 395.0 -422.0 436.5 -371.5 436.5 -270.0 436.5 -163.5 394.0 -112.5 351.0 -62.0 291.0 -62.0 232.0 -62.0 190.5 -111.0 149.0 -160.0 149.0 -262.5 M67.5 203.5 L157.5 203.5 157.5 -55.0 Q180.5 -26.0 216.5 -7.0 252.0 12.0 297.0 12.0 358.5 12.0 414.5 -22.5 470.0 -57.5 499.5 -122.5 528.5 -188.0 528.5 -269.5 528.5 -345.5 502.0 -409.0 475.5 -473.0 423.5 -508.0 371.5 -543.0 303.5 -543.0 251.5 -543.0 215.0 -522.5 178.5 -502.5 149.5 -462.0 L149.5 -531.0 67.5 -531.0 67.5 203.5" fill-rule="evenodd" stroke="none"/>
    </g>
    <g id="font_Arial_u0">
      <path d="M415.5 0.0 L496.0 0.0 496.0 -531.0 406.0 -531.0 406.0 -246.5 Q406.0 -178.5 391.5 -142.5 376.5 -107.0 341.0 -86.0 305.5 -65.5 265.0 -65.5 224.5 -65.5 197.0 -85.5 169.5 -106.0 161.0 -141.5 155.5 -166.0 155.5 -236.5 L155.5 -531.0 65.5 -531.0 65.5 -202.0 Q65.5 -144.5 71.0 -118.0 79.0 -78.5 99.0 -51.0 118.5 -24.0 159.5 -6.0 200.0 12.0 247.0 12.0 353.5 12.0 415.5 -78.0 L415.5 0.0" fill-rule="evenodd" stroke="none"/>
    </g>
    <g id="font_Arial_t0">
      <path d="M264.0 -80.5 Q239.5 -77.0 224.5 -77.0 204.5 -77.0 194.0 -83.5 183.0 -90.0 178.5 -101.0 173.5 -112.0 173.5 -150.5 L173.5 -461.0 264.0 -461.0 264.0 -531.0 173.5 -531.0 173.5 -716.5 84.0 -662.5 84.0 -531.0 18.0 -531.0 18.0 -461.0 84.0 -461.0 84.0 -155.5 Q84.0 -74.5 95.0 -49.0 106.0 -24.0 133.0 -8.5 160.0 7.0 209.0 7.0 239.0 7.0 277.0 -1.0 L264.0 -80.5" fill-rule="evenodd" stroke="none"/>
    </g>
    <g id="font_Arial_y0">
      <path d="M63.5 204.5 Q95.5 215.5 121.5 215.5 164.5 215.5 195.5 195.0 226.5 174.0 250.5 129.5 268.5 96.5 301.0 9.0 L503.0 -531.0 413.0 -531.0 299.5 -221.5 Q278.0 -162.5 262.5 -100.5 245.5 -165.0 224.0 -223.5 L113.5 -531.0 16.5 -531.0 218.0 1.0 Q212.5 15.5 210.0 23.0 191.0 76.5 182.5 90.0 171.0 108.0 153.0 118.0 135.0 128.0 105.0 128.0 83.0 128.0 53.5 120.0 L63.5 204.5" fill-rule="evenodd" stroke="none"/>
    </g>
    <g id="font_Arial_i0">
      <path d="M68.0 0.0 L158.0 0.0 158.0 -531.0 68.0 -531.0 68.0 0.0 M68.0 -629.5 L158.0 -629.5 158.0 -733.0 68.0 -733.0 68.0 -629.5" fill-rule="evenodd" stroke="none"/>
    </g>
    <g id="font_Arial_N0">
      <path d="M78.0 0.0 L171.0 0.0 171.0 -576.0 556.0 0.0 655.5 0.0 655.5 -733.0 562.5 -733.0 562.5 -157.5 177.5 -733.0 78.0 -733.0 78.0 0.0" fill-rule="evenodd" stroke="none"/>
    </g>
    <g id="font_Arial_m0">
      <path d="M67.5 0.0 L157.5 0.0 157.5 -275.5 Q157.5 -348.0 172.0 -386.5 186.5 -425.0 219.0 -445.0 251.0 -465.0 289.0 -465.0 339.0 -465.0 361.0 -435.0 383.0 -405.0 383.0 -345.0 L383.0 0.0 473.0 0.0 473.0 -308.5 Q473.0 -390.5 510.0 -427.5 547.0 -465.0 603.0 -465.0 634.0 -465.0 657.0 -450.5 680.0 -436.0 689.0 -412.0 697.5 -388.5 697.5 -334.5 L697.5 0.0 787.0 0.0 787.0 -364.5 Q787.0 -455.5 744.5 -499.0 702.0 -543.0 623.0 -543.0 522.0 -543.0 459.0 -450.0 443.5 -494.0 406.0 -518.5 368.0 -543.0 309.0 -543.0 256.0 -543.0 214.5 -519.0 173.0 -495.5 148.0 -456.5 L148.0 -531.0 67.5 -531.0 67.5 0.0" fill-rule="evenodd" stroke="none"/>
    </g>
    <g id="font_Arial_h0">
      <path d="M67.5 0.0 L157.5 0.0 157.5 -290.5 Q157.5 -353.0 172.5 -388.5 187.5 -424.0 223.0 -444.5 258.0 -465.5 298.0 -465.5 351.5 -465.5 381.0 -434.5 410.0 -404.0 410.0 -336.5 L410.0 0.0 500.0 0.0 500.0 -336.5 Q500.0 -414.5 481.5 -455.5 462.5 -496.5 419.0 -519.5 375.5 -543.0 316.5 -543.0 220.5 -543.0 157.5 -470.0 L157.5 -733.0 67.5 -733.0 67.5 0.0" fill-rule="evenodd" stroke="none"/>
    </g>
    <g id="font_Arial_E0">
      <path d="M81.0 0.0 L628.0 0.0 628.0 -86.5 178.0 -86.5 178.0 -336.0 583.5 -336.0 583.5 -422.0 178.0 -422.0 178.0 -646.5 611.0 -646.5 611.0 -733.0 81.0 -733.0 81.0 0.0" fill-rule="evenodd" stroke="none"/>
    </g>
    <g id="font_Arial_c0">
      <path d="M414.0 -194.5 Q404.5 -127.0 369.0 -94.5 333.5 -62.0 280.5 -62.0 214.5 -62.0 173.5 -110.5 132.5 -159.0 132.5 -266.0 132.5 -371.5 175.0 -420.0 217.5 -469.0 285.5 -469.0 330.5 -469.0 362.5 -442.0 394.0 -415.0 406.5 -361.5 L494.0 -375.0 Q478.5 -455.5 423.5 -499.0 368.5 -543.0 282.0 -543.0 213.5 -543.0 155.5 -510.5 97.0 -478.5 68.5 -414.0 40.0 -349.5 40.0 -263.5 40.0 -130.5 106.5 -59.0 172.5 12.0 281.5 12.0 368.5 12.0 428.5 -39.5 488.0 -91.5 502.5 -183.0 L414.0 -194.5" fill-rule="evenodd" stroke="none"/>
    </g>
    <g id="font_Arial_l0">
      <path d="M65.5 0.0 L155.5 0.0 155.5 -733.0 65.5 -733.0 65.5 0.0" fill-rule="evenodd" stroke="none"/>
    </g>
    <g id="font_Arial_30">
      <path d="M43.0 -193.5 Q52.0 -102.0 116.0 -44.5 179.5 13.0 276.0 13.0 383.0 13.0 453.0 -53.5 523.0 -120.5 523.0 -216.5 523.0 -287.5 487.0 -334.5 451.0 -382.0 386.0 -397.0 436.0 -420.0 461.5 -459.0 487.0 -498.0 487.0 -545.5 487.0 -595.5 460.5 -640.0 433.5 -684.5 383.0 -710.0 332.5 -736.0 272.5 -736.0 185.5 -736.0 127.0 -686.0 68.5 -636.5 52.0 -546.0 L142.0 -530.0 Q152.0 -596.0 187.0 -629.0 222.0 -662.0 274.5 -662.0 327.5 -662.0 361.0 -629.5 394.5 -597.0 394.5 -547.5 394.5 -485.0 348.5 -455.0 302.5 -425.0 245.0 -425.0 239.5 -425.0 230.5 -426.0 L220.5 -347.0 Q258.5 -357.0 284.0 -357.0 346.5 -357.0 387.0 -316.5 427.5 -276.5 427.5 -214.5 427.5 -149.5 384.0 -105.5 340.0 -61.5 276.5 -61.5 223.0 -61.5 186.0 -95.0 148.5 -129.0 133.0 -205.5 L43.0 -193.5" fill-rule="evenodd" stroke="none"/>
    </g>
    <g id="font_Arial_-0">
      <path d="M32.5 -220.0 L309.0 -220.0 309.0 -310.5 32.5 -310.5 32.5 -220.0" fill-rule="evenodd" stroke="none"/>
    </g>
    <g id="font_Arial_10">
      <path d="M381.5 0.0 L381.5 -736.0 323.5 -736.0 Q300.0 -688.5 243.5 -638.0 187.0 -587.5 111.5 -552.0 L111.5 -465.0 Q153.5 -480.5 206.5 -511.5 259.0 -542.5 291.5 -573.5 L291.5 0.0 381.5 0.0" fill-rule="evenodd" stroke="none"/>
    </g>
    <g id="font_Arial_.0">
      <path d="M93.0 0.0 L195.5 0.0 195.5 -102.5 93.0 -102.5 93.0 0.0" fill-rule="evenodd" stroke="none"/>
    </g>
    <g id="font_Arial__1">
      <path d="M239.5 215.5 L304.0 215.5 Q154.5 -24.5 154.5 -265.0 154.5 -359.5 176.0 -453.0 193.5 -528.0 224.0 -597.0 243.5 -641.5 304.0 -745.5 L239.5 -745.5 Q145.5 -620.0 100.5 -493.5 62.0 -384.5 62.0 -265.5 62.0 -130.5 113.5 -4.5 165.0 121.5 239.5 215.5" fill-rule="evenodd" stroke="none"/>
    </g>
    <g id="font_Arial_00">
      <path d="M135.0 -361.5 Q135.0 -542.0 181.5 -609.0 218.5 -661.5 280.5 -661.5 343.5 -661.5 386.0 -602.0 428.0 -542.5 428.0 -361.5 428.0 -181.5 386.0 -121.5 343.5 -61.5 281.5 -61.5 219.5 -61.5 177.5 -121.0 135.0 -181.0 135.0 -361.5 M42.5 -361.5 Q42.5 -155.0 115.0 -63.5 175.5 12.5 281.5 12.5 362.0 12.5 415.0 -30.5 467.5 -74.0 494.0 -153.0 520.5 -232.5 520.5 -361.5 520.5 -470.5 504.0 -534.5 487.5 -599.0 458.5 -643.5 429.5 -688.5 385.0 -712.0 340.5 -736.0 281.5 -736.0 201.5 -736.0 149.0 -693.0 96.0 -650.0 69.5 -570.5 42.5 -491.5 42.5 -361.5" fill-rule="evenodd" stroke="none"/>
    </g>
    <g id="font_Arial_90">
      <path d="M424.5 -493.0 Q424.5 -415.5 384.5 -371.5 344.0 -328.0 281.5 -328.0 219.5 -328.0 177.5 -371.5 135.0 -415.5 135.0 -485.5 135.0 -563.5 179.5 -612.5 224.0 -661.5 284.0 -661.5 342.0 -661.5 383.5 -616.0 424.5 -570.5 424.5 -493.0 M56.0 -169.5 Q67.0 -83.0 121.5 -35.0 176.0 12.5 262.0 12.5 343.0 12.5 403.5 -31.0 463.5 -74.5 494.0 -157.5 524.5 -241.0 524.5 -381.5 524.5 -516.5 494.0 -587.5 463.0 -659.0 404.0 -697.5 344.5 -736.0 273.0 -736.0 174.0 -736.0 108.5 -668.0 42.5 -600.0 42.5 -488.5 42.5 -380.5 105.5 -314.5 168.5 -248.5 259.5 -248.5 314.0 -248.5 361.0 -275.0 407.5 -302.0 434.5 -345.0 435.0 -333.0 435.0 -327.0 435.0 -271.0 421.5 -217.0 408.0 -163.0 388.0 -131.0 368.0 -99.5 337.0 -80.5 305.5 -61.5 264.0 -61.5 215.5 -61.5 184.5 -89.0 153.5 -116.5 142.5 -177.5 L56.0 -169.5" fill-rule="evenodd" stroke="none"/>
    </g>
    <g id="font_Arial_Z0">
      <path d="M20.5 0.0 L600.0 0.0 600.0 -86.5 132.0 -86.5 176.5 -138.0 588.0 -646.5 588.0 -733.0 63.0 -733.0 63.0 -646.5 472.0 -646.5 Q436.0 -609.5 396.0 -559.5 L20.5 -90.0 20.5 0.0" fill-rule="evenodd" stroke="none"/>
    </g>
    <g id="font_Arial__2">
      <path d="M126.5 215.5 Q200.5 121.5 252.5 -4.5 304.0 -130.5 304.0 -265.5 304.0 -384.5 265.5 -493.5 220.5 -620.0 126.5 -745.5 L62.0 -745.5 Q123.0 -640.5 142.5 -595.5 173.0 -526.5 190.0 -451.5 211.5 -359.0 211.5 -265.0 211.5 -24.5 62.0 215.5 L126.5 215.5" fill-rule="evenodd" stroke="none"/>
    </g>
    <g id="font_Arial_v0">
      <path d="M215.0 0.0 L299.0 0.0 500.0 -531.0 407.5 -531.0 289.5 -207.0 Q268.0 -148.0 256.0 -106.0 240.5 -161.5 222.0 -213.0 L108.0 -531.0 13.0 -531.0 215.0 0.0" fill-rule="evenodd" stroke="none"/>
    </g>
    <g id="font_Arial_Y0">
      <path d="M285.5 0.0 L382.5 0.0 382.5 -310.5 675.0 -733.0 562.0 -733.0 420.0 -517.5 Q373.0 -445.5 340.0 -388.0 305.5 -450.0 265.5 -512.0 L121.0 -733.0 3.0 -733.0 285.5 -310.5 285.5 0.0" fill-rule="evenodd" stroke="none"/>
    </g>
    <g id="font_Arial_f0">
      <path d="M89.0 0.0 L178.5 0.0 178.5 -461.0 282.0 -461.0 282.0 -531.0 178.5 -531.0 178.5 -580.0 Q178.5 -628.0 195.5 -645.5 212.5 -663.0 253.5 -663.0 278.5 -663.0 306.5 -658.0 L320.0 -736.5 Q274.0 -745.5 236.0 -745.5 177.0 -745.5 144.5 -723.5 111.5 -702.0 98.5 -667.0 89.0 -641.0 89.0 -587.5 L89.0 -531.0 9.5 -531.0 9.5 -461.0 89.0 -461.0 89.0 0.0" fill-rule="evenodd" stroke="none"/>
    </g>
    <g id="font_Arial_g0">
      <path d="M125.5 -275.0 Q125.5 -371.0 167.5 -419.5 209.5 -468.5 269.5 -468.5 330.5 -468.5 374.0 -419.0 417.0 -369.5 417.0 -272.0 417.0 -170.0 375.0 -122.0 333.0 -74.5 271.0 -74.5 208.5 -74.5 167.0 -122.5 125.5 -170.5 125.5 -275.0 M51.0 44.0 Q49.0 130.0 107.5 173.0 166.0 215.5 261.0 215.5 341.0 215.5 396.0 185.5 450.5 155.5 476.0 104.0 501.0 52.0 501.0 -72.0 L501.0 -531.0 418.0 -531.0 418.0 -467.0 Q357.0 -543.0 263.0 -543.0 192.5 -543.0 140.5 -508.0 88.0 -473.0 60.5 -408.5 33.0 -344.5 33.0 -268.5 33.0 -158.0 93.0 -79.0 153.0 0.0 262.5 0.0 350.5 0.0 409.5 -69.5 410.0 18.5 403.0 46.0 391.0 91.0 357.0 116.0 323.0 141.0 260.5 141.0 202.5 141.0 169.0 116.0 144.0 97.5 138.5 57.0 L51.0 44.0" fill-rule="evenodd" stroke="none"/>
    </g>
    <g id="text3" transform="matrix(1.0, 0.0, 0.0, 1.0, 0.9, -0.7)">
      <g transform="matrix(1.0, 0.0, 0.0, 1.0, -2.0, -1.6)">
        <use fill="#999999" height="47.3" transform="matrix(0.0234, 0.0, 0.0, 0.0234, 0.0, 22.0)" width="113.55" xlink:href="#font_Arial_S0"/>
        <use fill="#999999" height="47.3" transform="matrix(0.0234, 0.0, 0.0, 0.0234, 16.0, 22.0)" width="113.55" xlink:href="#font_Arial_I0"/>
        <use fill="#999999" height="47.3" transform="matrix(0.0234, 0.0, 0.0, 0.0234, 22.65, 22.0)" width="113.55" xlink:href="#font_Arial_G0"/>
        <use fill="#999999" height="47.3" transform="matrix(0.0234, 0.0, 0.0, 0.0234, 41.3, 22.0)" width="113.55" xlink:href="#font_Arial_N0"/>
        <use fill="#999999" height="47.3" transform="matrix(0.0234, 0.0, 0.0, 0.0234, 65.3, 22.0)" width="113.55" xlink:href="#font_Arial_U0"/>
        <use fill="#999999" height="47.3" transform="matrix(0.0234, 0.0, 0.0, 0.0234, 82.65, 22.0)" width="113.55" xlink:href="#font_Arial_P0"/>
      </g>
    </g>
    <g id="font_Arial_S0">
      <path d="M46.0 -235.5 Q48.0 -162.0 86.5 -103.5 124.5 -45.5 192.0 -16.5 259.0 12.5 358.5 12.5 437.0 12.5 500.0 -16.0 562.5 -45.0 596.0 -96.5 629.5 -148.5 629.5 -207.0 629.5 -266.0 599.0 -311.0 568.5 -356.5 504.5 -386.0 460.5 -406.0 342.5 -432.5 224.0 -459.5 196.0 -485.0 167.5 -510.5 167.5 -550.0 167.5 -595.5 208.0 -627.5 248.0 -660.0 336.0 -660.0 420.5 -660.0 464.0 -624.5 507.0 -589.0 514.5 -519.5 L607.5 -526.5 Q605.0 -591.0 571.5 -642.0 538.0 -693.0 476.0 -719.0 413.5 -745.5 332.0 -745.5 258.0 -745.5 197.5 -720.5 137.0 -695.5 105.5 -647.0 74.0 -599.0 74.0 -543.5 74.0 -493.0 100.0 -452.0 125.5 -411.5 178.0 -384.0 218.5 -362.5 319.5 -338.0 420.5 -314.0 450.0 -302.5 496.0 -285.0 516.0 -259.0 536.0 -233.5 536.0 -199.0 536.0 -165.0 515.5 -136.0 494.5 -107.5 452.0 -91.0 409.5 -74.5 354.0 -74.5 291.5 -74.5 241.5 -96.0 191.5 -118.0 168.0 -153.0 144.0 -188.5 137.5 -243.5 L46.0 -235.5" fill-rule="evenodd" stroke="none"/>
    </g>
    <g id="font_Arial_G0">
      <path d="M422.0 -287.5 L637.5 -287.5 637.5 -151.0 Q606.5 -123.5 546.5 -99.0 486.5 -75.0 423.5 -75.0 351.0 -75.0 286.5 -107.0 222.0 -139.0 188.5 -205.0 154.5 -271.0 154.5 -369.0 154.5 -448.5 182.5 -516.5 199.0 -556.0 229.0 -589.0 258.5 -622.0 307.0 -642.0 355.5 -662.5 422.0 -662.5 477.5 -662.5 523.0 -643.0 568.5 -624.0 593.0 -592.0 617.5 -560.0 634.0 -504.0 L721.5 -528.0 Q702.5 -602.0 666.0 -648.0 629.5 -694.0 565.5 -719.5 501.0 -745.5 421.5 -745.5 312.0 -745.5 228.0 -700.5 144.0 -655.5 99.5 -562.5 54.5 -470.0 54.5 -363.0 54.5 -255.0 99.5 -167.5 144.5 -80.0 233.0 -33.5 321.0 12.5 429.0 12.5 509.0 12.5 585.0 -16.0 661.0 -45.0 732.5 -102.0 L732.5 -374.0 422.0 -373.5 422.0 -287.5" fill-rule="evenodd" stroke="none"/>
    </g>
    <g id="text4" transform="matrix(1.0, 0.0, 0.0, 1.0, 0.9, -0.7)">
      <g transform="matrix(1.0, 0.0, 0.0, 1.0, -2.0, -1.6)">
        <use fill="#000000" height="47.3" transform="matrix(0.0234, 0.0, 0.0, 0.0234, 0.0, 22.0)" width="113.55" xlink:href="#font_Arial_S0"/>
        <use fill="#000000" height="47.3" transform="matrix(0.0234, 0.0, 0.0, 0.0234, 16.0, 22.0)" width="113.55" xlink:href="#font_Arial_I0"/>
        <use fill="#000000" height="47.3" transform="matrix(0.0234, 0.0, 0.0, 0.0234, 22.65, 22.0)" width="113.55" xlink:href="#font_Arial_G0"/>
        <use fill="#000000" height="47.3" transform="matrix(0.0234, 0.0, 0.0, 0.0234, 41.3, 22.0)" width="113.55" xlink:href="#font_Arial_N0"/>
        <use fill="#000000" height="47.3" transform="matrix(0.0234, 0.0, 0.0, 0.0234, 65.3, 22.0)" width="113.55" xlink:href="#font_Arial_U0"/>
        <use fill="#000000" height="47.3" transform="matrix(0.0234, 0.0, 0.0, 0.0234, 82.65, 22.0)" width="113.55" xlink:href="#font_Arial_P0"/>
      </g>
    </g>
    <g id="shape8" transform="matrix(1.0, 0.0, 0.0, 1.0, 57.75, 57.75)">
      <path d="M-48.9 30.75 Q-54.45 22.3 -56.45 12.45 -55.2 18.0 -52.8 23.35 -51.1 27.2 -48.9 30.75" fill="#ce8f00" fill-rule="evenodd" stroke="none"/>
      <path d="M-9.65 -41.35 Q-9.25 -36.8 -7.6 -32.55 -7.1 -31.25 -6.3 -30.3 -1.3 -24.6 6.55 -23.95 L17.75 -22.5 7.05 -21.5 Q2.1 -21.1 -1.8 -18.0 -3.3 -16.8 -4.15 -15.1 -6.85 -9.6 -5.25 -3.5 L-4.15 3.8 -7.05 -3.3 Q-8.5 -6.95 -10.7 -10.05 -13.4 -13.75 -17.6 -15.8 -25.1 -19.55 -33.5 -19.7 L-38.15 -20.0 -33.45 -21.15 Q-28.55 -22.25 -23.95 -24.25 -12.9 -29.0 -11.35 -41.0 L-10.55 -45.6 -10.4 -46.65 -10.2 -45.65 -9.65 -41.35" fill="#ffffff" fill-rule="evenodd" stroke="none"/>
      <path d="M1.25 -45.65 L1.55 -45.8 Q8.9 -50.1 15.35 -55.7 L19.15 -54.5 17.05 -51.95 13.7 -47.55 10.55 -42.8 9.55 -40.9 Q5.35 -32.85 6.55 -23.95 -1.3 -24.6 -6.3 -30.3 -7.1 -31.25 -7.6 -32.55 -9.25 -36.8 -9.65 -41.35 -4.2 -42.65 1.25 -45.65 M28.9 1.3 L37.15 7.45 27.95 3.75 25.8 2.85 19.5 0.45 Q14.1 -1.55 10.6 -2.35 2.45 -4.35 -5.25 -3.5 -6.85 -9.6 -4.15 -15.1 -3.3 -16.8 -1.8 -18.0 2.1 -21.1 7.05 -21.5 8.6 -15.6 13.2 -10.75 15.9 -7.9 21.85 -3.6 L26.8 -0.15 28.9 1.3 M-33.85 9.05 L-41.1 15.1 -51.9 24.7 -51.5 24.0 Q-44.25 12.25 -38.25 0.0 L-37.75 -1.3 Q-34.0 -10.45 -33.5 -19.7 -25.1 -19.55 -17.6 -15.8 -13.4 -13.75 -10.7 -10.05 -8.5 -6.95 -7.05 -3.3 L-8.95 -2.95 Q-22.8 0.1 -33.85 9.05 M-34.35 -29.7 L-35.2 -32.95 Q-36.1 -35.8 -37.45 -38.65 L-39.35 -42.2 -36.25 -44.95 -34.5 -46.3 -34.15 -46.55 -33.95 -46.65 Q-29.0 -43.4 -24.7 -41.9 L-22.4 -41.25 Q-18.4 -40.25 -14.4 -40.6 L-11.35 -41.0 Q-12.9 -29.0 -23.95 -24.25 -28.55 -22.25 -33.45 -21.15 L-33.45 -21.85 Q-33.5 -25.75 -34.35 -29.7" fill="#00ccff" fill-rule="evenodd" stroke="none"/>
      <path d="M1.25 -45.65 Q-4.2 -42.65 -9.65 -41.35 L-10.2 -45.65 -4.45 -46.05 1.25 -45.65 M6.55 -23.95 Q5.35 -32.85 9.55 -40.9 L10.55 -42.8 Q15.95 -40.25 20.55 -35.65 30.9 -25.3 30.9 -10.7 30.9 -4.3 28.9 1.3 L26.8 -0.15 Q29.25 -8.4 28.0 -9.9 26.65 -11.45 21.85 -3.6 15.9 -7.9 13.2 -10.75 8.6 -15.6 7.05 -21.5 L17.75 -22.5 6.55 -23.95 M27.95 3.75 Q25.35 9.45 20.55 14.3 10.15 24.7 -4.45 24.7 -19.1 24.7 -29.45 14.3 -31.95 11.8 -33.85 9.05 -22.8 0.1 -8.95 -2.95 L-7.05 -3.3 -4.15 3.8 -5.25 -3.5 Q2.45 -4.35 10.6 -2.35 14.1 -1.55 19.5 0.45 L16.65 4.95 Q20.3 7.5 18.2 11.35 17.3 13.0 15.45 13.4 12.55 13.75 10.75 11.45 0.45 19.75 -13.1 19.5 L-20.0 18.9 Q-6.2 26.05 8.45 20.05 14.85 17.45 19.8 12.45 23.9 8.3 25.8 2.85 L27.95 3.75 M-38.25 0.0 Q-39.85 -5.05 -39.85 -10.7 -39.85 -21.35 -34.35 -29.7 -33.5 -25.75 -33.45 -21.85 L-33.45 -21.15 -38.15 -20.0 -33.5 -19.7 Q-34.0 -10.45 -37.75 -1.3 L-38.25 0.0 M-22.4 -41.25 Q-16.95 -44.55 -10.55 -45.6 L-11.35 -41.0 -14.4 -40.6 Q-18.4 -40.25 -22.4 -41.25" fill="#0099ff" fill-rule="evenodd" stroke="none"/>
      <path d="M9.35 -57.05 Q23.7 -54.8 35.15 -45.8 L32.75 -47.55 30.7 -24.3 27.35 -30.9 31.0 -48.75 Q25.45 -52.3 19.15 -54.5 L9.35 -57.05 M0.3 -57.75 L1.25 -57.75 0.45 -48.05 -1.55 -48.2 0.3 -57.75 M13.7 -47.55 L17.05 -51.95 16.25 -42.15 13.0 -44.1 13.7 -47.55 M48.35 -31.7 Q53.85 -23.6 56.1 -14.1 54.45 -20.35 51.45 -26.3 L47.75 -0.7 43.2 -1.25 51.35 -26.45 48.35 -31.7 M-17.25 -55.1 L-17.65 -46.0 -21.2 -44.5 -19.8 -54.3 Q-27.5 -51.5 -33.95 -46.65 L-34.15 -46.55 -34.5 -46.3 -36.25 -44.95 Q-24.25 -54.9 -9.1 -57.1 -13.25 -56.4 -17.25 -55.1 M-41.85 -6.45 L-41.5 -3.8 -42.2 -3.95 -41.85 -6.45 M-48.35 -31.6 L-47.8 -4.0 Q-53.15 -3.5 -57.75 -0.6 -57.6 -19.6 -46.55 -34.15 L-48.35 -31.6 M-35.2 -32.4 Q-37.75 -28.95 -39.3 -25.1 L-37.45 -38.65 Q-36.1 -35.8 -35.2 -32.95 L-35.2 -32.4 M-22.0 22.7 L-20.5 23.45 -21.75 53.45 -21.05 53.75 -15.55 25.35 Q-10.85 26.8 -5.9 26.9 L-8.4 57.1 -7.4 57.25 -5.9 49.95 -5.15 53.0 Q-4.45 55.5 -2.8 57.65 L0.0 57.7 Q-22.85 57.75 -39.35 42.2 L-34.5 40.3 -34.3 46.35 -33.2 39.55 -32.3 39.0 Q-23.65 33.0 -22.0 22.7 M-4.35 42.0 L-1.25 26.8 Q5.05 26.3 10.6 23.9 L9.7 34.5 8.3 34.45 Q2.4 34.4 -1.75 38.6 -3.35 40.2 -4.35 42.0 M16.85 20.4 L19.0 18.75 Q18.7 20.6 18.7 22.6 18.7 30.55 23.5 36.9 L25.25 39.05 24.1 52.4 26.2 51.45 29.15 42.35 Q32.05 44.3 35.6 45.4 L37.65 43.75 Q24.1 55.6 6.4 57.4 L7.75 57.2 Q14.95 56.2 21.8 53.45 22.65 51.05 22.65 48.7 22.65 42.8 18.45 38.6 16.3 36.45 13.75 35.45 L16.85 20.4 M57.8 0.0 Q57.75 18.8 47.2 33.3 L50.85 27.4 Q56.75 16.5 57.6 4.15 L56.65 3.4 57.8 -0.05 57.8 0.0" fill="#0066cc" fill-rule="evenodd" stroke="none"/>
    </g>
    <g id="shape9" transform="matrix(1.0, 0.0, 0.0, 1.0, 60.0, 60.0)">
      <path d="M0.3 -57.75 L-1.55 -48.2 0.45 -48.05 1.25 -57.75 0.3 -57.75 M15.35 -55.7 Q8.9 -50.1 1.55 -45.8 L1.25 -45.65 -4.45 -46.05 -10.2 -45.65 -10.4 -46.65 -10.55 -45.6 Q-16.95 -44.55 -22.4 -41.25 L-24.7 -41.9 Q-29.0 -43.4 -33.95 -46.65 -27.5 -51.5 -19.8 -54.3 L-21.2 -44.5 -17.65 -46.0 -17.25 -55.1 Q-13.25 -56.4 -9.1 -57.1 -24.25 -54.9 -36.25 -44.95 L-39.35 -42.2 -37.45 -38.65 -39.3 -25.1 Q-37.75 -28.95 -35.2 -32.4 L-35.2 -32.95 -34.35 -29.7 Q-39.85 -21.35 -39.85 -10.7 -39.85 -5.05 -38.25 0.0 -44.25 12.25 -51.5 24.0 L-51.9 24.7 -41.1 15.1 -33.85 9.05 Q-31.95 11.8 -29.45 14.3 -19.1 24.7 -4.45 24.7 10.15 24.7 20.55 14.3 25.35 9.45 27.95 3.75 L37.15 7.45 28.9 1.3 Q30.9 -4.3 30.9 -10.7 30.9 -25.3 20.55 -35.65 15.95 -40.25 10.55 -42.8 L13.7 -47.55 13.0 -44.1 16.25 -42.15 17.05 -51.95 19.15 -54.5 Q25.45 -52.3 31.0 -48.75 L27.35 -30.9 30.7 -24.3 32.75 -47.55 35.15 -45.8 Q23.7 -54.8 9.35 -57.05 L15.35 -55.7 M51.35 -31.1 Q53.85 -25.9 56.0 -20.45 61.65 -6.2 59.3 9.1 57.3 22.35 49.8 33.5 41.55 45.65 28.6 52.7 13.75 60.7 -3.05 59.9 -16.65 59.25 -28.55 52.7 -41.45 45.6 -49.7 33.5 -58.15 21.05 -59.7 6.1 -61.4 -10.8 -54.0 -25.95 -46.85 -40.65 -33.45 -49.65 -19.65 -59.05 -3.05 -59.95 13.65 -60.75 28.5 -52.65 42.85 -44.9 51.35 -31.1 M56.1 -14.1 Q53.85 -23.6 48.35 -31.7 L51.35 -26.45 43.2 -1.25 47.75 -0.7 51.45 -26.3 Q54.45 -20.35 56.1 -14.1 M28.0 -9.9 Q29.25 -8.4 26.8 -0.15 L21.85 -3.6 Q26.65 -11.45 28.0 -9.9 M57.8 0.0 L57.8 -0.05 56.65 3.4 57.6 4.15 Q56.75 16.5 50.85 27.4 L47.2 33.3 Q57.75 18.8 57.8 0.0 M19.0 18.75 L16.85 20.4 13.75 35.45 Q16.3 36.45 18.45 38.6 22.65 42.8 22.65 48.7 22.65 51.05 21.8 53.45 14.95 56.2 7.75 57.2 L6.4 57.4 Q24.1 55.6 37.65 43.75 L35.6 45.4 Q32.05 44.3 29.15 42.35 L26.2 51.45 24.1 52.4 25.25 39.05 23.5 36.9 Q18.7 30.55 18.7 22.6 18.7 20.6 19.0 18.75 M8.3 34.45 L9.7 34.5 10.6 23.9 Q5.05 26.3 -1.25 26.8 L-4.35 42.0 Q-3.35 40.2 -1.75 38.6 2.4 34.4 8.3 34.45 M10.75 11.45 Q12.55 13.75 15.45 13.4 17.3 13.0 18.2 11.35 20.3 7.5 16.65 4.95 L19.5 0.45 25.8 2.85 Q23.9 8.3 19.8 12.45 14.85 17.45 8.45 20.05 -6.2 26.05 -20.0 18.9 L-13.1 19.5 Q0.45 19.75 10.75 11.45 M-41.85 -6.45 L-42.2 -3.95 -41.5 -3.8 -41.85 -6.45 M-47.8 -4.0 L-48.35 -31.6 -46.55 -34.15 Q-57.6 -19.6 -57.75 -0.6 -53.15 -3.5 -47.8 -4.0 M-22.0 22.7 Q-23.65 33.0 -32.3 39.0 L-33.2 39.55 -34.3 46.35 -34.5 40.3 -39.35 42.2 Q-22.85 57.75 0.0 57.7 L-2.8 57.65 Q-4.45 55.5 -5.15 53.0 L-5.9 49.95 -7.4 57.25 -8.4 57.1 -5.9 26.9 Q-10.85 26.8 -15.55 25.35 L-21.05 53.75 -21.75 53.45 -20.5 23.45 -22.0 22.7 M-56.45 12.45 Q-54.45 22.3 -48.9 30.75 -51.1 27.2 -52.8 23.35 -55.2 18.0 -56.45 12.45" fill="#000000" fill-rule="evenodd" stroke="none"/>
    </g>
    <g id="text5" transform="matrix(1.0, 0.0, 0.0, 1.0, 0.75, 0.35)">
      <g transform="matrix(1.0, 0.0, 0.0, 1.0, -2.0, -1.4)">
        <use fill="#999999" height="32.35" transform="matrix(0.0156, 0.0, 0.0, 0.0156, 0.0, 15.0)" width="49.75" xlink:href="#font_Arial_E0"/>
        <use fill="#999999" height="32.35" transform="matrix(0.0156, 0.0, 0.0, 0.0156, 10.65, 15.0)" width="49.75" xlink:href="#font_Arial_m0"/>
        <use fill="#999999" height="32.35" transform="matrix(0.0156, 0.0, 0.0, 0.0156, 24.0, 15.0)" width="49.75" xlink:href="#font_Arial_a0"/>
        <use fill="#999999" height="32.35" transform="matrix(0.0156, 0.0, 0.0, 0.0156, 32.9, 15.0)" width="49.75" xlink:href="#font_Arial_i0"/>
        <use fill="#999999" height="32.35" transform="matrix(0.0156, 0.0, 0.0, 0.0156, 36.45, 15.0)" width="49.75" xlink:href="#font_Arial_l0"/>
      </g>
    </g>
    <g id="shape10" transform="matrix(1.0, 0.0, 0.0, 1.0, -90.95, 301.15)">
      <path d="M91.45 -300.65 L458.9 -300.65 458.9 -272.65 91.45 -272.65 91.45 -300.65 Z" fill="none" stroke="#999999" stroke-linecap="butt" stroke-linejoin="miter-clip" stroke-miterlimit="3.0" stroke-width="1.0"/>
    </g>
    <g id="text6" transform="matrix(1.0, 0.0, 0.0, 1.0, 1.2, 0.55)">
      <g transform="matrix(1.0, 0.0, 0.0, 1.0, -2.0, -1.4)">
        <use fill="#999999" height="32.55" transform="matrix(0.0156, 0.0, 0.0, 0.0156, 0.0, 15.0)" width="140.95" xlink:href="#font_Arial_C0"/>
        <use fill="#999999" height="32.55" transform="matrix(0.0156, 0.0, 0.0, 0.0156, 11.55, 15.0)" width="140.95" xlink:href="#font_Arial_o0"/>
        <use fill="#999999" height="32.55" transform="matrix(0.0156, 0.0, 0.0, 0.0156, 20.45, 15.0)" width="140.95" xlink:href="#font_Arial_n0"/>
        <use fill="#999999" height="32.55" transform="matrix(0.0156, 0.0, 0.0, 0.0156, 29.35, 15.0)" width="140.95" xlink:href="#font_Arial_f0"/>
        <use fill="#999999" height="32.55" transform="matrix(0.0156, 0.0, 0.0, 0.0156, 33.8, 15.0)" width="140.95" xlink:href="#font_Arial_i0"/>
        <use fill="#999999" height="32.55" transform="matrix(0.0156, 0.0, 0.0, 0.0156, 37.35, 15.0)" width="140.95" xlink:href="#font_Arial_r0"/>
        <use fill="#999999" height="32.55" transform="matrix(0.0156, 0.0, 0.0, 0.0156, 42.7, 15.0)" width="140.95" xlink:href="#font_Arial_m0"/>
        <use fill="#999999" height="32.55" transform="matrix(0.0156, 0.0, 0.0, 0.0156, 60.5, 15.0)" width="140.95" xlink:href="#font_Arial_P0"/>
        <use fill="#999999" height="32.55" transform="matrix(0.0156, 0.0, 0.0, 0.0156, 71.15, 15.0)" width="140.95" xlink:href="#font_Arial_a0"/>
        <use fill="#999999" height="32.55" transform="matrix(0.0156, 0.0, 0.0, 0.0156, 80.05, 15.0)" width="140.95" xlink:href="#font_Arial_s0"/>
        <use fill="#999999" height="32.55" transform="matrix(0.0156, 0.0, 0.0, 0.0156, 88.05, 15.0)" width="140.95" xlink:href="#font_Arial_s0"/>
        <use fill="#999999" height="32.55" transform="matrix(0.0156, 0.0, 0.0, 0.0156, 96.05, 15.0)" width="140.95" xlink:href="#font_Arial_w0"/>
        <use fill="#999999" height="32.55" transform="matrix(0.0156, 0.0, 0.0, 0.0156, 107.6, 15.0)" width="140.95" xlink:href="#font_Arial_o0"/>
        <use fill="#999999" height="32.55" transform="matrix(0.0156, 0.0, 0.0, 0.0156, 116.5, 15.0)" width="140.95" xlink:href="#font_Arial_r0"/>
        <use fill="#999999" height="32.55" transform="matrix(0.0156, 0.0, 0.0, 0.0156, 121.85, 15.0)" width="140.95" xlink:href="#font_Arial_d0"/>
      </g>
    </g>
    <g id="font_Arial_C0">
      <path d="M602.0 -257.0 Q582.0 -164.5 525.5 -117.5 469.0 -70.5 387.5 -70.5 320.5 -70.5 263.0 -105.0 205.5 -139.5 178.5 -209.0 151.0 -279.0 151.0 -372.5 151.0 -445.0 174.0 -513.0 197.0 -581.5 254.0 -622.0 310.5 -662.5 395.0 -662.5 468.5 -662.5 517.0 -626.0 565.5 -589.5 591.0 -509.5 L686.5 -532.0 Q657.0 -633.5 582.0 -689.5 507.0 -745.5 397.0 -745.5 300.0 -745.5 219.5 -701.0 138.5 -657.0 95.0 -571.5 51.0 -486.5 51.0 -372.0 51.0 -267.0 90.0 -175.5 128.5 -84.0 203.0 -35.5 277.0 12.5 395.5 12.5 510.0 12.5 589.5 -50.0 668.5 -113.0 699.0 -232.5 L602.0 -257.0" fill-rule="evenodd" stroke="none"/>
    </g>
    <g id="button1" transform="matrix(1.0, 0.0, 0.0, 1.0, 75.5, 18.0)">
      <use data-characterId="1314" height="36.0" transform="matrix(1.0, 0.0, 0.0, 1.0, -75.5, -18.0)" width="151.0" xlink:href="#shape11"/>
      <use data-characterId="1315" height="49.15" transform="matrix(1.0, 0.0, 0.0, 1.0, -49.2, -11.65)" width="109.95" xlink:href="#text11"/>
    </g>
    <g id="shape11" transform="matrix(1.0, 0.0, 0.0, 1.0, 75.5, 18.0)">
      <path d="M69.7 -12.45 Q75.0 -7.25 75.0 -0.05 75.0 7.2 69.7 12.35 64.45 17.5 57.0 17.5 L-57.0 17.5 Q-64.45 17.5 -69.75 12.35 -75.0 7.2 -75.0 -0.05 -75.0 -7.25 -69.75 -12.45 -64.45 -17.5 -57.0 -17.5 L57.0 -17.5 Q64.45 -17.5 69.7 -12.45" fill="url(#gradient2)" fill-rule="evenodd" stroke="none"/>
      <path d="M69.7 -12.45 Q64.45 -17.5 57.0 -17.5 L-57.0 -17.5 Q-64.45 -17.5 -69.75 -12.45 -75.0 -7.25 -75.0 -0.05 -75.0 7.2 -69.75 12.35 -64.45 17.5 -57.0 17.5 L57.0 17.5 Q64.45 17.5 69.7 12.35 75.0 7.2 75.0 -0.05 75.0 -7.25 69.7 -12.45 Z" fill="none" stroke="#000000" stroke-linecap="butt" stroke-linejoin="miter-clip" stroke-miterlimit="3.0" stroke-width="1.0"/>
    </g>
    <radialGradient cx="0" cy="0" gradientTransform="matrix(0.0923, 0.0, 0.0, 0.0923, 0.0, 0.0)" gradientUnits="userSpaceOnUse" id="gradient2" r="819.2" spreadMethod="pad">
      <stop offset="0.0" stop-color="#34c9ed"/>
      <stop offset="1.0" stop-color="#838ffc"/>
    </radialGradient>
    <g id="text11" transform="matrix(1.0, 0.0, 0.0, 1.0, 0.9, -0.95)">
      <g transform="matrix(1.0, 0.0, 0.0, 1.0, -2.0, -1.5)">
        <use fill="#000000" height="49.15" transform="matrix(0.0244, 0.0, 0.0, 0.0244, 0.0, 23.0)" width="109.95" xlink:href="#font_Arial_S0"/>
        <use fill="#000000" height="49.15" transform="matrix(0.0244, 0.0, 0.0, 0.0244, 16.65, 23.0)" width="109.95" xlink:href="#font_Arial_U0"/>
        <use fill="#000000" height="49.15" transform="matrix(0.0244, 0.0, 0.0, 0.0244, 34.7, 23.0)" width="109.95" xlink:href="#font_Arial_B0"/>
        <use fill="#000000" height="49.15" transform="matrix(0.0244, 0.0, 0.0, 0.0244, 51.35, 23.0)" width="109.95" xlink:href="#font_Arial_M0"/>
        <use fill="#000000" height="49.15" transform="matrix(0.0244, 0.0, 0.0, 0.0244, 72.2, 23.0)" width="109.95" xlink:href="#font_Arial_I0"/>
        <use fill="#000000" height="49.15" transform="matrix(0.0244, 0.0, 0.0, 0.0244, 79.15, 23.0)" width="109.95" xlink:href="#font_Arial_T0"/>
      </g>
    </g>
    <g id="font_Arial_B0">
      <path d="M172.0 -86.5 L172.0 -338.5 341.5 -338.5 Q411.5 -338.5 449.0 -326.0 486.0 -314.0 507.0 -283.5 528.0 -253.5 528.0 -212.5 528.0 -177.5 513.5 -150.5 499.0 -124.0 476.5 -110.0 454.0 -96.0 420.5 -90.0 401.5 -86.5 354.5 -86.5 L172.0 -86.5 M172.0 -425.0 L172.0 -646.5 318.5 -646.5 Q397.5 -646.5 430.0 -636.0 462.5 -626.0 480.0 -598.0 497.5 -570.5 497.5 -534.0 497.5 -495.5 479.0 -470.0 460.0 -444.5 423.0 -433.5 395.0 -425.0 330.5 -425.0 L172.0 -425.0 M75.0 0.0 L354.5 0.0 Q424.5 0.0 473.0 -12.0 521.0 -24.5 553.0 -48.5 585.0 -72.5 607.0 -116.5 628.5 -161.0 628.5 -212.5 628.5 -276.5 593.0 -323.5 557.0 -370.5 490.5 -390.0 542.0 -415.5 567.5 -457.0 593.0 -498.5 593.0 -545.5 593.0 -596.0 564.5 -642.0 535.5 -688.5 485.0 -710.5 434.0 -733.0 350.0 -733.0 L75.0 -733.0 75.0 0.0" fill-rule="evenodd" stroke="none"/>
    </g>
    <g id="font_Arial_M0">
      <path d="M76.0 0.0 L169.5 0.0 169.5 -624.0 381.5 0.0 469.0 0.0 682.0 -613.5 682.0 0.0 775.5 0.0 775.5 -733.0 645.0 -733.0 469.5 -223.0 Q443.0 -145.5 430.5 -105.5 419.5 -141.5 395.5 -214.0 L222.0 -733.0 76.0 -733.0 76.0 0.0" fill-rule="evenodd" stroke="none"/>
    </g>
    <g id="font_Arial_T0">
      <path d="M265.5 0.0 L362.5 0.0 362.5 -646.5 605.0 -646.5 605.0 -733.0 24.0 -733.0 24.0 -646.5 265.5 -646.5 265.5 0.0" fill-rule="evenodd" stroke="none"/>
    </g>
  </defs>
</svg>
