<?xml version="1.0" encoding="UTF-8" standalone="no"?>
<svg xmlns:xlink="http://www.w3.org/1999/xlink" height="6.0px" width="90.5px" xmlns="http://www.w3.org/2000/svg">
  <g transform="matrix(1.0, 0.0, 0.0, 1.0, 45.65, 3.0)">
    <use data-characterId="1390" height="6.0" transform="matrix(1.0, 0.0, 0.0, 1.0, -3.5, -3.0)" width="7.0" xlink:href="#shape0"/>
  </g>
  <defs>
    <g id="shape0" transform="matrix(1.0, 0.0, 0.0, 1.0, 3.5, 3.0)">
      <path d="M2.45 -2.15 Q3.5 -1.25 3.5 0.0 3.5 1.25 2.45 2.1 1.45 3.0 0.0 3.0 -1.45 3.0 -2.5 2.1 -3.5 1.25 -3.5 0.0 -3.5 -1.25 -2.5 -2.15 -1.45 -3.0 0.0 -3.0 1.45 -3.0 2.45 -2.15" fill="#009900" fill-rule="evenodd" stroke="none"/>
    </g>
  </defs>
</svg>
