<?xml version="1.0" encoding="UTF-8" standalone="no"?>
<svg xmlns:xlink="http://www.w3.org/1999/xlink" height="6.0px" width="90.5px" xmlns="http://www.w3.org/2000/svg">
  <g transform="matrix(1.0, 0.0, 0.0, 1.0, 45.65, 3.0)">
    <use data-characterId="1390" height="6.0" transform="matrix(1.0, 0.0, 0.0, 1.0, -3.5, -3.0)" width="7.0" xlink:href="#shape0"/>
    <use data-characterId="1391" height="6.0" transform="matrix(1.0, 0.0, 0.0, 1.0, -18.4, -3.0)" width="35.5" xlink:href="#shape1"/>
  </g>
  <defs>
    <g id="shape0" transform="matrix(1.0, 0.0, 0.0, 1.0, 3.5, 3.0)">
      <path d="M2.45 -2.15 Q3.5 -1.25 3.5 0.0 3.5 1.25 2.45 2.1 1.45 3.0 0.0 3.0 -1.45 3.0 -2.5 2.1 -3.5 1.25 -3.5 0.0 -3.5 -1.25 -2.5 -2.15 -1.45 -3.0 0.0 -3.0 1.45 -3.0 2.45 -2.15" fill="#009900" fill-rule="evenodd" stroke="none"/>
    </g>
    <g id="shape1" transform="matrix(1.0, 0.0, 0.0, 1.0, 18.4, 3.0)">
      <path d="M13.6 -3.0 Q15.05 -3.0 16.05 -2.15 17.1 -1.25 17.1 0.0 17.1 1.25 16.05 2.1 15.05 3.0 13.6 3.0 12.15 3.0 11.1 2.1 10.1 1.25 10.1 0.0 10.1 -1.25 11.1 -2.15 12.15 -3.0 13.6 -3.0 M-14.9 -3.0 Q-13.45 -3.0 -12.45 -2.15 -11.4 -1.25 -11.4 0.0 -11.4 1.25 -12.45 2.1 -13.45 3.0 -14.9 3.0 -16.35 3.0 -17.4 2.1 -18.4 1.25 -18.4 0.0 -18.4 -1.25 -17.4 -2.15 -16.35 -3.0 -14.9 -3.0" fill="#009900" fill-rule="evenodd" stroke="none"/>
    </g>
  </defs>
</svg>
