<?xml version="1.0" encoding="UTF-8" standalone="no"?>
<svg xmlns:xlink="http://www.w3.org/1999/xlink" height="2.0px" width="2.0px" xmlns="http://www.w3.org/2000/svg">
  <g transform="matrix(1.0, 0.0, 0.0, 1.0, 0.5, 0.5)">
    <use data-characterId="696" height="2.0" transform="matrix(1.0, 0.0, 0.0, 1.0, -0.5, -0.5)" width="2.0" xlink:href="#shape0"/>
  </g>
  <defs>
    <g id="shape0" transform="matrix(1.0, 0.0, 0.0, 1.0, 0.5, 0.5)">
      <path d="M0.85 0.15 L1.0 0.5 0.85 0.85 0.5 1.0 0.15 0.85 0.0 0.5 0.15 0.15 Q0.3 0.0 0.5 0.0 0.7 0.0 0.85 0.15" fill="#ccffff" fill-rule="evenodd" stroke="none"/>
      <path d="M0.85 0.15 L1.0 0.5 0.85 0.85 0.5 1.0 0.15 0.85 0.0 0.5 0.15 0.15 Q0.3 0.0 0.5 0.0 0.7 0.0 0.85 0.15 Z" fill="none" stroke="#ccffff" stroke-linecap="round" stroke-linejoin="round" stroke-width="1.0"/>
    </g>
  </defs>
</svg>
