<?xml version="1.0" encoding="UTF-8" standalone="no"?>
<svg xmlns:xlink="http://www.w3.org/1999/xlink" height="59.85px" width="49.85px" xmlns="http://www.w3.org/2000/svg">
  <g transform="matrix(1.0, 0.0, 0.0, 1.0, 24.95, 28.6)">
    <use data-characterId="202" height="57.1" transform="matrix(1.0, 0.0, 0.0, 1.0, -24.95, -28.6)" width="49.85" xlink:href="#shape0"/>
    <use data-characterId="192" data-characterName="sc346_fla.regcapshipengine_180" height="6.25" transform="matrix(0.75, 0.0, 0.0, 0.7567, 6.625, 26.5419)" width="9.0" xlink:href="#sprite0"/>
    <use data-characterId="192" data-characterName="sc346_fla.regcapshipengine_180" height="6.25" transform="matrix(0.75, 0.0, 0.0, 0.7567, 1.375, 26.5419)" width="9.0" xlink:href="#sprite0"/>
    <use data-characterId="192" data-characterName="sc346_fla.regcapshipengine_180" height="6.25" transform="matrix(0.75, 0.0, 0.0, 0.7567, -12.825, 26.4919)" width="9.0" xlink:href="#sprite0"/>
    <use data-characterId="192" data-characterName="sc346_fla.regcapshipengine_180" height="6.25" transform="matrix(0.75, 0.0, 0.0, 0.7567, -7.425, 26.4919)" width="9.0" xlink:href="#sprite0"/>
  </g>
  <defs>
    <g id="shape0" transform="matrix(1.0, 0.0, 0.0, 1.0, 24.95, 28.6)">
      <path d="M7.1 -28.0 L4.8 -25.45 -4.8 -25.45 -7.15 -28.0 7.1 -28.0 M-18.8 -15.45 L-20.6 -13.9 -20.7 -18.65 -18.8 -18.65 -18.8 -15.45 M-17.8 -4.15 L-12.7 -4.15 -10.15 -4.15 -10.15 5.65 -17.8 5.65 -17.8 1.0 -17.8 -4.15 M12.65 -4.15 L17.75 -4.15 17.75 1.0 17.75 5.65 10.1 5.65 10.1 -4.15 12.65 -4.15 M20.6 -13.9 L18.75 -15.45 18.8 -18.65 20.65 -18.65 20.6 -13.9 M18.15 -4.95 Q16.35 -4.95 15.1 -6.1 13.85 -7.25 13.85 -8.9 13.85 -10.55 15.1 -11.7 16.35 -12.85 18.15 -12.85 19.9 -12.85 21.15 -11.7 22.4 -10.55 22.4 -8.9 22.4 -7.25 21.15 -6.1 19.9 -4.95 18.15 -4.95 M-20.95 -11.9 Q-19.7 -13.05 -17.95 -13.0 -16.2 -13.05 -14.9 -11.9 -13.65 -10.75 -13.65 -9.1 -13.65 -7.45 -14.9 -6.3 -16.2 -5.15 -17.95 -5.15 -19.7 -5.15 -20.95 -6.3 -22.2 -7.45 -22.2 -9.1 -22.2 -10.75 -20.95 -11.9 M-15.1 9.75 Q-13.85 10.9 -13.85 12.55 -13.85 14.2 -15.1 15.35 -16.35 16.5 -18.1 16.5 -19.9 16.5 -21.15 15.35 -22.4 14.2 -22.4 12.55 -22.4 10.9 -21.15 9.75 -19.9 8.6 -18.1 8.65 -16.35 8.6 -15.1 9.75 M22.85 12.55 Q22.85 14.2 21.6 15.35 20.35 16.5 18.6 16.5 16.85 16.5 15.6 15.35 14.3 14.2 14.35 12.55 14.3 10.9 15.6 9.75 16.85 8.6 18.6 8.65 20.35 8.6 21.6 9.75 22.85 10.9 22.85 12.55" fill="#666666" fill-rule="evenodd" stroke="none"/>
      <path d="M-12.7 -4.15 L-12.7 -13.4 -10.75 -12.25 -8.85 -11.05 -8.85 16.1 8.8 16.1 8.8 -11.05 8.85 -10.95 8.85 -11.05 10.7 -12.25 12.65 -13.4 12.65 -4.15 10.1 -4.15 10.1 5.65 17.75 5.65 18.9 7.85 12.65 7.85 12.65 16.3 10.95 20.05 10.9 20.05 8.8 16.1 10.9 20.05 10.95 20.05 10.95 24.1 10.05 22.55 3.65 22.0 2.75 24.2 3.65 22.0 10.05 22.55 10.95 24.1 10.95 20.05 24.0 16.3 21.45 21.45 11.0 24.15 13.25 27.8 1.3 27.8 2.75 24.2 -2.4 24.2 -0.85 28.0 -12.8 28.0 -10.45 24.2 -11.0 24.2 -21.45 21.45 -24.0 16.3 -11.0 20.05 -12.7 16.3 -12.7 7.85 -18.95 7.85 -17.8 5.65 -10.15 5.65 -10.15 -4.15 -12.7 -4.15 M-11.0 20.05 L-11.0 24.2 -11.0 20.05 -8.85 16.1 -11.0 20.05 10.9 20.05 -11.0 20.05 M-2.4 24.2 L-3.2 22.2 -9.55 22.75 -10.45 24.2 -9.55 22.75 -3.2 22.2 -2.4 24.2 M10.95 24.1 L10.95 24.2 11.0 24.15 10.95 24.1" fill="#333333" fill-rule="evenodd" stroke="none"/>
      <path d="M-12.7 -13.4 L-8.35 -16.35 -3.95 -19.3 -7.35 -15.8 -6.4 -15.2 -7.35 -15.8 -3.95 -19.3 -6.4 -15.2 -8.85 -11.05 -10.75 -12.25 -12.7 -13.4 M3.95 -19.25 L8.25 -16.35 12.65 -13.4 10.7 -12.25 7.35 -15.75 10.7 -12.25 8.85 -11.05 8.8 -11.05 8.8 16.1 -8.85 16.1 -8.85 -11.05 -0.05 -11.05 8.8 -11.05 6.35 -15.1 3.95 -19.25 7.35 -15.75 3.95 -19.25 M8.25 -16.35 L7.35 -15.75 8.25 -16.35 M7.35 -15.75 L6.35 -15.1 7.35 -15.75 M-8.35 -16.35 L-7.35 -15.8 -10.75 -12.25 -7.35 -15.8 -8.35 -16.35" fill="#000099" fill-rule="evenodd" stroke="none"/>
      <path d="M18.9 7.85 L17.75 5.65 20.85 5.35 23.95 5.1 18.9 7.85 M-17.8 5.65 L-18.95 7.85 -24.0 5.1 -20.9 5.35 -17.8 5.65" fill="#000066" fill-rule="evenodd" stroke="none"/>
      <path d="M-24.0 -2.6 L-20.9 -3.4 -17.8 -4.15 -17.8 1.0 -17.8 5.65 -20.9 5.35 -24.0 5.1 -24.0 1.0 -20.9 1.0 -20.9 5.35 -20.9 1.0 -24.0 1.0 -24.0 -2.6 M-3.95 -19.3 L0.0 -19.3 3.95 -19.25 6.35 -15.1 0.0 -15.15 -0.05 -11.05 0.0 -15.15 6.35 -15.1 8.8 -11.05 -0.05 -11.05 -8.85 -11.05 -6.4 -15.2 0.0 -15.15 0.0 -19.3 0.0 -15.15 -6.4 -15.2 -3.95 -19.3 M17.75 -4.15 L20.85 -3.4 23.95 -2.6 24.0 -2.6 24.0 1.0 24.0 5.1 23.95 5.1 20.85 5.35 20.85 1.0 24.0 1.0 20.85 1.0 20.85 5.35 17.75 5.65 17.75 1.0 20.85 1.0 20.85 -3.4 20.85 1.0 17.75 1.0 17.75 -4.15 M-17.8 1.0 L-20.9 1.0 -20.9 -3.4 -20.9 1.0 -17.8 1.0" fill="#0000cc" fill-rule="evenodd" stroke="none"/>
      <path d="M18.8 -18.65 L17.9 -18.65 18.4 -23.4 21.05 -23.4 21.55 -18.65 20.65 -18.65 18.8 -18.65 M-20.7 -18.65 L-21.6 -18.65 -21.1 -23.4 -18.4 -23.4 -17.9 -18.65 -18.8 -18.65 -20.7 -18.65" fill="#990000" fill-rule="evenodd" stroke="none"/>
      <path d="M-7.15 -28.0 L-4.8 -25.45 4.8 -25.45 7.1 -28.0 Q14.6 -24.25 14.0 -17.55 L16.1 -16.85 18.75 -15.45 20.6 -13.9 Q21.8 -12.7 22.65 -11.05 23.5 -9.4 24.0 -7.3 L24.0 -2.6 23.95 -2.6 20.85 -3.4 17.75 -4.15 12.65 -4.15 12.65 -13.4 8.25 -16.35 3.95 -19.25 0.0 -19.3 -3.95 -19.3 -8.35 -16.35 -12.7 -13.4 -12.7 -4.15 -17.8 -4.15 -20.9 -3.4 -24.0 -2.6 -24.0 -7.3 Q-23.55 -9.4 -22.65 -11.05 -21.85 -12.7 -20.6 -13.9 L-18.8 -15.45 Q-17.6 -16.25 -16.1 -16.85 L-14.0 -17.55 Q-14.3 -23.1 -7.15 -28.0 M10.95 20.05 L12.65 16.3 12.65 7.85 18.9 7.85 23.95 5.1 24.0 5.1 24.0 16.3 10.95 20.05 M18.15 -4.95 Q19.9 -4.95 21.15 -6.1 22.4 -7.25 22.4 -8.9 22.4 -10.55 21.15 -11.7 19.9 -12.85 18.15 -12.85 16.35 -12.85 15.1 -11.7 13.85 -10.55 13.85 -8.9 13.85 -7.25 15.1 -6.1 16.35 -4.95 18.15 -4.95 M-20.95 -11.9 Q-22.2 -10.75 -22.2 -9.1 -22.2 -7.45 -20.95 -6.3 -19.7 -5.15 -17.95 -5.15 -16.2 -5.15 -14.9 -6.3 -13.65 -7.45 -13.65 -9.1 -13.65 -10.75 -14.9 -11.9 -16.2 -13.05 -17.95 -13.0 -19.7 -13.05 -20.95 -11.9 M-15.1 9.75 Q-16.35 8.6 -18.1 8.65 -19.9 8.6 -21.15 9.75 -22.4 10.9 -22.4 12.55 -22.4 14.2 -21.15 15.35 -19.9 16.5 -18.1 16.5 -16.35 16.5 -15.1 15.35 -13.85 14.2 -13.85 12.55 -13.85 10.9 -15.1 9.75 M-18.95 7.85 L-12.7 7.85 -12.7 16.3 -11.0 20.05 -24.0 16.3 -24.0 5.1 -18.95 7.85 M22.85 12.55 Q22.85 10.9 21.6 9.75 20.35 8.6 18.6 8.65 16.85 8.6 15.6 9.75 14.3 10.9 14.35 12.55 14.3 14.2 15.6 15.35 16.85 16.5 18.6 16.5 20.35 16.5 21.6 15.35 22.85 14.2 22.85 12.55" fill="#006699" fill-rule="evenodd" stroke="none"/>
      <path d="M24.0 -2.6 L24.0 -7.3 Q23.5 -9.4 22.65 -11.05 21.8 -12.7 20.6 -13.9 L18.75 -15.45 16.1 -16.85 14.0 -17.55 Q14.6 -24.25 7.1 -28.0 M18.8 -18.65 L17.9 -18.65 18.4 -23.4 21.05 -23.4 21.55 -18.65 20.65 -18.65 20.6 -13.9 M18.75 -15.45 L18.8 -18.65 20.65 -18.65 M-6.4 -15.2 L0.0 -15.15 0.0 -19.3 M17.75 5.65 L10.1 5.65 M18.15 -4.95 Q19.9 -4.95 21.15 -6.1 22.4 -7.25 22.4 -8.9 22.4 -10.55 21.15 -11.7 19.9 -12.85 18.15 -12.85 16.35 -12.85 15.1 -11.7 13.85 -10.55 13.85 -8.9 13.85 -7.25 15.1 -6.1 16.35 -4.95 18.15 -4.95 M-20.7 -18.65 L-21.6 -18.65 -21.1 -23.4 -18.4 -23.4 -17.9 -18.65 -18.8 -18.65 -18.8 -15.45 M-20.6 -13.9 L-20.7 -18.65 -18.8 -18.65 M-20.95 -11.9 Q-19.7 -13.05 -17.95 -13.0 -16.2 -13.05 -14.9 -11.9 -13.65 -10.75 -13.65 -9.1 -13.65 -7.45 -14.9 -6.3 -16.2 -5.15 -17.95 -5.15 -19.7 -5.15 -20.95 -6.3 -22.2 -7.45 -22.2 -9.1 -22.2 -10.75 -20.95 -11.9 M-3.95 -19.3 L-7.35 -15.8 -6.4 -15.2 -3.95 -19.3 M-10.75 -12.25 L-7.35 -15.8 -8.35 -16.35 M-10.15 -4.15 L-12.7 -4.15 M-0.05 -11.05 L-8.85 -11.05 -8.85 16.1 8.8 16.1 M-8.85 -11.05 L-6.4 -15.2 M-8.85 -11.05 L-10.75 -12.25 -12.7 -13.4 M-17.8 -4.15 L-17.8 1.0 -17.8 5.65 -10.15 5.65 M-15.1 9.75 Q-13.85 10.9 -13.85 12.55 -13.85 14.2 -15.1 15.35 -16.35 16.5 -18.1 16.5 -19.9 16.5 -21.15 15.35 -22.4 14.2 -22.4 12.55 -22.4 10.9 -21.15 9.75 -19.9 8.6 -18.1 8.65 -16.35 8.6 -15.1 9.75 M-12.7 7.85 L-12.7 16.3 -11.0 20.05 -8.85 16.1 M-11.0 24.2 L-11.0 20.05 -24.0 16.3 -21.45 21.45 -11.0 24.2 -10.45 24.2 -9.55 22.75 -3.2 22.2 -2.4 24.2 2.75 24.2 3.65 22.0 10.05 22.55 10.95 24.1 10.95 20.05 24.0 16.3 24.0 5.1 24.0 1.0 20.85 1.0 20.85 5.35 23.95 5.1 M-24.0 5.1 L-20.9 5.35 -20.9 1.0 -24.0 1.0 -24.0 5.1 -24.0 16.3 M-2.4 24.2 L-0.85 28.0 -12.8 28.0 -10.45 24.2 M-20.9 -3.4 L-20.9 1.0 -17.8 1.0 M-20.9 5.35 L-17.8 5.65 M24.0 -2.6 L24.0 1.0 M24.0 16.3 L21.45 21.45 11.0 24.15 13.25 27.8 1.3 27.8 2.75 24.2 M22.85 12.55 Q22.85 10.9 21.6 9.75 20.35 8.6 18.6 8.65 16.85 8.6 15.6 9.75 14.3 10.9 14.35 12.55 14.3 14.2 15.6 15.35 16.85 16.5 18.6 16.5 20.35 16.5 21.6 15.35 22.85 14.2 22.85 12.55 M17.75 1.0 L17.75 5.65 20.85 5.35 M10.95 24.1 L11.0 24.15 10.95 24.2 10.95 24.1 M17.75 1.0 L20.85 1.0 20.85 -3.4 M17.75 -4.15 L17.75 1.0 M10.9 20.05 L-11.0 20.05 M-24.0 1.0 L-24.0 -2.6" fill="none" stroke="#000000" stroke-linecap="butt" stroke-linejoin="miter-clip" stroke-miterlimit="3.0" stroke-width="1.0"/>
      <path d="M-7.15 -28.0 L-4.8 -25.45 4.8 -25.45 7.1 -28.0 -7.15 -28.0 Q-14.3 -23.1 -14.0 -17.55 L-16.1 -16.85 Q-17.6 -16.25 -18.8 -15.45 L-20.6 -13.9 Q-21.85 -12.7 -22.65 -11.05 -23.55 -9.4 -24.0 -7.3 L-24.0 -2.6 -20.9 -3.4 -17.8 -4.15 -12.7 -4.15 -12.7 -13.4 -8.35 -16.35 -3.95 -19.3 0.0 -19.3 3.95 -19.25 M10.1 -4.15 L12.65 -4.15" fill="none" stroke="#000000" stroke-linecap="butt" stroke-linejoin="miter-clip" stroke-miterlimit="3.0" stroke-width="1.0"/>
      <path d="M3.95 -19.25 L8.25 -16.35 12.65 -13.4 12.65 -4.15 M3.95 -19.25 L7.35 -15.75 8.25 -16.35 M3.95 -19.25 L6.35 -15.1 7.35 -15.75 10.7 -12.25 12.65 -13.4 M6.35 -15.1 L0.0 -15.15 -0.05 -11.05 8.8 -11.05 6.35 -15.1 M8.8 -11.05 L8.85 -10.95 8.85 -11.05 8.8 -11.05 8.8 16.1 10.9 20.05 10.95 20.05 12.65 16.3 12.65 7.85 M10.7 -12.25 L8.85 -11.05" fill="none" stroke="#000000" stroke-linecap="round" stroke-linejoin="miter-clip" stroke-miterlimit="3.0" stroke-width="1.0"/>
      <path d="M12.65 -4.15 L17.75 -4.15 20.85 -3.4 23.95 -2.6" fill="none" stroke="#000000" stroke-linecap="round" stroke-linejoin="miter-clip" stroke-miterlimit="3.0" stroke-width="1.0"/>
    </g>
    <g id="sprite0" transform="matrix(1.0, 0.0, 0.0, 1.0, 4.5, 1.2)">
      <use data-characterId="185" height="1.0" transform="matrix(1.0, 0.0, 0.0, 1.0, -3.5, -0.5)" width="7.0" xlink:href="#shape1"/>
    </g>
    <g id="shape1" transform="matrix(1.0, 0.0, 0.0, 1.0, 3.5, 0.5)">
      <path d="M-3.0 0.0 L3.0 0.0" fill="none" stroke="#666666" stroke-linecap="butt" stroke-linejoin="miter-clip" stroke-miterlimit="3.0" stroke-width="1.0"/>
    </g>
  </defs>
</svg>
