<?xml version="1.0" encoding="UTF-8" standalone="no"?>
<svg xmlns:xlink="http://www.w3.org/1999/xlink" height="61.0px" width="401.8px" xmlns="http://www.w3.org/2000/svg">
  <g transform="matrix(1.0, 0.0, 0.0, 1.0, 225.9, 60.5)">
    <use data-characterId="1242" height="122.0" transform="matrix(0.8889, 0.0, 0.0, 0.5002, -225.8916, -60.513)" width="452.0" xlink:href="#button0"/>
    <use data-characterId="1243" height="13.65" transform="matrix(1.0004, 0.0, 0.0, 1.0016, -211.6995, -56.7968)" width="67.45" xlink:href="#text0"/>
  </g>
  <defs>
    <g id="button0" transform="matrix(1.0, 0.0, 0.0, 1.0, 226.0, 61.0)">
      <use data-characterId="1240" height="122.0" transform="matrix(1.0, 0.0, 0.0, 1.0, -226.0, -61.0)" width="452.0" xlink:href="#shape0"/>
    </g>
    <g id="shape0" transform="matrix(1.0, 0.0, 0.0, 1.0, 226.0, 61.0)">
      <path d="M221.9 -57.1 Q224.95 -54.2 225.0 -50.0 L225.0 49.95 Q224.95 54.1 221.9 57.0 218.9 59.95 214.6 60.0 L-214.65 60.0 Q-218.95 59.95 -222.0 57.0 -225.05 54.1 -225.0 49.95 L-225.0 -50.0 Q-225.05 -54.2 -222.0 -57.1 -218.95 -60.05 -214.65 -60.0 L214.6 -60.0 Q218.9 -60.05 221.9 -57.1" fill="#00ff00" fill-rule="evenodd" stroke="none"/>
      <path d="M221.9 -57.1 Q218.9 -60.05 214.6 -60.0 L-214.65 -60.0 Q-218.95 -60.05 -222.0 -57.1 -225.05 -54.2 -225.0 -50.0 L-225.0 49.95 Q-225.05 54.1 -222.0 57.0 -218.95 59.95 -214.65 60.0 L214.6 60.0 Q218.9 59.95 221.9 57.0 224.95 54.1 225.0 49.95 L225.0 -50.0 Q224.95 -54.2 221.9 -57.1 Z" fill="none" stroke="#000000" stroke-linecap="round" stroke-linejoin="round" stroke-width="2.0"/>
    </g>
    <g id="text0" transform="matrix(1.0, 0.0, 0.0, 1.0, -1.25, -2.05)">
      <g transform="matrix(1.0, 0.0, 0.0, 1.0, 0.0, 0.0)">
        <use fill="#009900" height="13.65" transform="matrix(0.0156, 0.0, 0.0, 0.0156, 0.0, 15.0)" width="67.45" xlink:href="#font_Arial_U0"/>
        <use fill="#009900" height="13.65" transform="matrix(0.0156, 0.0, 0.0, 0.0156, 11.55, 15.0)" width="67.45" xlink:href="#font_Arial_s0"/>
        <use fill="#009900" height="13.65" transform="matrix(0.0156, 0.0, 0.0, 0.0156, 19.55, 15.0)" width="67.45" xlink:href="#font_Arial_e0"/>
        <use fill="#009900" height="13.65" transform="matrix(0.0156, 0.0, 0.0, 0.0156, 28.45, 15.0)" width="67.45" xlink:href="#font_Arial_r0"/>
        <use fill="#009900" height="13.65" transform="matrix(0.0156, 0.0, 0.0, 0.0156, 38.25, 15.0)" width="67.45" xlink:href="#font_Arial_I0"/>
        <use fill="#009900" height="13.65" transform="matrix(0.0156, 0.0, 0.0, 0.0156, 42.7, 15.0)" width="67.45" xlink:href="#font_Arial_D0"/>
        <use fill="#009900" height="13.65" transform="matrix(0.0156, 0.0, 0.0, 0.0156, 54.25, 15.0)" width="67.45" xlink:href="#font_Arial_:0"/>
      </g>
    </g>
    <g id="font_Arial_U0">
      <path d="M560.0 -733.0 L560.0 -310.0 Q560.0 -172.0 514.5 -123.5 469.0 -75.0 362.0 -75.0 299.5 -75.0 256.5 -99.5 213.0 -124.0 195.5 -169.0 177.5 -214.5 177.5 -310.0 L177.5 -733.0 80.5 -733.0 80.5 -309.5 Q80.5 -193.0 108.5 -125.5 136.5 -58.5 202.0 -23.0 267.5 12.5 370.5 12.5 476.5 12.5 542.0 -28.0 607.0 -69.0 632.0 -134.0 657.0 -199.0 657.0 -309.5 L657.0 -733.0 560.0 -733.0" fill-rule="evenodd" stroke="none"/>
    </g>
    <g id="font_Arial_s0">
      <path d="M31.5 -158.5 L31.5 -158.5 Q46.5 -74.0 101.0 -31.0 155.0 12.0 258.5 12.0 321.0 12.0 370.5 -9.5 420.0 -31.5 446.5 -71.0 472.5 -111.0 472.5 -156.0 472.5 -202.0 451.0 -233.0 429.5 -264.0 392.0 -280.0 354.0 -296.5 258.5 -322.0 192.5 -340.0 179.0 -345.0 155.5 -354.5 144.5 -369.0 133.5 -383.0 133.5 -400.5 133.5 -428.0 160.0 -448.5 186.5 -469.0 248.5 -469.0 301.0 -469.0 330.0 -446.0 358.5 -423.0 364.5 -382.0 L452.5 -394.0 Q444.0 -445.5 421.5 -476.0 399.0 -507.0 352.0 -525.0 304.5 -543.0 242.0 -543.0 200.5 -543.0 164.5 -532.0 128.0 -521.5 107.0 -506.0 79.0 -486.0 63.0 -455.5 46.5 -425.5 46.5 -390.0 46.5 -351.0 66.5 -318.5 86.0 -286.5 124.5 -268.0 162.5 -250.0 261.5 -225.0 335.0 -206.5 353.5 -194.5 380.0 -177.0 380.0 -146.5 380.0 -112.5 350.0 -87.0 320.0 -62.0 258.0 -62.0 196.5 -62.0 162.5 -90.5 128.0 -119.0 120.5 -172.5 L31.5 -158.5" fill-rule="evenodd" stroke="none"/>
    </g>
    <g id="font_Arial_e0">
      <path d="M135.5 -316.5 L135.5 -316.5 Q140.0 -386.0 182.5 -427.5 224.5 -469.0 286.5 -469.0 355.0 -469.0 398.0 -417.0 426.0 -383.5 432.0 -316.5 L135.5 -316.5 M431.0 -171.0 L431.0 -171.0 Q410.5 -114.0 375.5 -88.0 340.5 -62.0 291.0 -62.0 224.5 -62.0 180.0 -108.5 135.5 -155.0 130.5 -242.5 L526.5 -242.5 Q527.0 -258.5 527.0 -266.5 527.0 -398.0 459.5 -470.5 392.0 -543.0 285.5 -543.0 175.5 -543.0 106.5 -469.0 37.5 -395.0 37.5 -261.0 37.5 -131.5 106.0 -59.5 174.0 12.0 290.5 12.0 383.0 12.0 442.5 -33.0 502.0 -78.0 524.0 -159.5 L431.0 -171.0" fill-rule="evenodd" stroke="none"/>
    </g>
    <g id="font_Arial_r0">
      <path d="M66.5 0.0 L156.5 0.0 156.5 -278.0 Q156.5 -335.0 171.5 -383.0 181.5 -414.5 205.0 -432.0 228.5 -450.0 258.0 -450.0 291.0 -450.0 324.0 -430.5 L355.0 -514.0 Q308.0 -543.0 262.5 -543.0 231.0 -543.0 205.0 -525.0 178.5 -507.0 147.5 -450.5 L147.5 -531.0 66.5 -531.0 66.5 0.0" fill-rule="evenodd" stroke="none"/>
    </g>
    <g id="font_Arial_I0">
      <path d="M95.5 0.0 L192.5 0.0 192.5 -733.0 95.5 -733.0 95.5 0.0" fill-rule="evenodd" stroke="none"/>
    </g>
    <g id="font_Arial_D0">
      <path d="M176.0 -86.5 L176.0 -646.5 330.0 -646.5 Q416.5 -646.5 455.5 -631.5 509.5 -610.5 547.5 -548.5 585.0 -487.0 585.0 -372.0 585.0 -289.0 566.0 -230.5 546.5 -172.5 512.0 -138.0 487.5 -113.5 446.5 -100.0 405.0 -86.5 332.5 -86.5 L176.0 -86.5 M79.0 0.0 L343.5 0.0 Q410.0 0.0 461.5 -12.5 512.5 -25.0 549.0 -49.0 585.0 -73.5 615.5 -115.5 646.0 -158.0 665.5 -222.5 685.0 -287.0 685.0 -370.5 685.0 -468.5 656.5 -544.5 627.5 -621.0 569.5 -670.0 525.0 -708.0 462.0 -722.5 417.0 -733.0 331.5 -733.0 L79.0 -733.0 79.0 0.0" fill-rule="evenodd" stroke="none"/>
    </g>
    <g id="font_Arial_:0">
      <path d="M92.5 0.0 L195.0 0.0 195.0 -102.5 92.5 -102.5 92.5 0.0 M92.5 -428.5 L195.0 -428.5 195.0 -531.0 92.5 -531.0 92.5 -428.5" fill-rule="evenodd" stroke="none"/>
    </g>
  </defs>
</svg>
