<?xml version="1.0" encoding="UTF-8" standalone="no"?>
<svg xmlns:xlink="http://www.w3.org/1999/xlink" height="61.0px" width="401.8px" xmlns="http://www.w3.org/2000/svg">
  <g transform="matrix(1.0, 0.0, 0.0, 1.0, 225.9, 60.5)">
    <use data-characterId="1305" height="122.0" transform="matrix(0.8889, 0.0, 0.0, 0.5002, -225.8916, -60.5121)" width="452.0" xlink:href="#shape0"/>
    <use data-characterId="1326" height="32.35" transform="matrix(1.0004, 0.0, 0.0, 1.0016, -213.7003, -59.2006)" width="80.0" xlink:href="#text0"/>
  </g>
  <defs>
    <g id="shape0" transform="matrix(1.0, 0.0, 0.0, 1.0, 226.0, 61.0)">
      <path d="M221.9 -57.1 Q224.95 -54.2 225.0 -50.0 L225.0 49.95 Q224.95 54.1 221.9 57.0 218.9 59.95 214.6 60.0 L-214.65 60.0 Q-218.95 59.95 -222.0 57.0 -225.05 54.1 -225.0 49.95 L-225.0 -50.0 Q-225.05 -54.2 -222.0 -57.1 -218.95 -60.05 -214.65 -60.0 L214.6 -60.0 Q218.9 -60.05 221.9 -57.1" fill="#ffffff" fill-rule="evenodd" stroke="none"/>
      <path d="M221.9 -57.1 Q218.9 -60.05 214.6 -60.0 L-214.65 -60.0 Q-218.95 -60.05 -222.0 -57.1 -225.05 -54.2 -225.0 -50.0 L-225.0 49.95 Q-225.05 54.1 -222.0 57.0 -218.95 59.95 -214.65 60.0 L214.6 60.0 Q218.9 59.95 221.9 57.0 224.95 54.1 225.0 49.95 L225.0 -50.0 Q224.95 -54.2 221.9 -57.1 Z" fill="none" stroke="#000000" stroke-linecap="butt" stroke-linejoin="miter-clip" stroke-miterlimit="3.0" stroke-width="2.0"/>
    </g>
    <g id="text0" transform="matrix(1.0, 0.0, 0.0, 1.0, 0.75, 0.35)">
      <g transform="matrix(1.0, 0.0, 0.0, 1.0, -2.0, -1.4)">
        <use fill="#999999" height="32.35" transform="matrix(0.0156, 0.0, 0.0, 0.0156, 0.0, 15.0)" width="80.0" xlink:href="#font_Arial_P0"/>
        <use fill="#999999" height="32.35" transform="matrix(0.0156, 0.0, 0.0, 0.0156, 10.65, 15.0)" width="80.0" xlink:href="#font_Arial_a0"/>
        <use fill="#999999" height="32.35" transform="matrix(0.0156, 0.0, 0.0, 0.0156, 19.55, 15.0)" width="80.0" xlink:href="#font_Arial_s0"/>
        <use fill="#999999" height="32.35" transform="matrix(0.0156, 0.0, 0.0, 0.0156, 27.55, 15.0)" width="80.0" xlink:href="#font_Arial_s0"/>
        <use fill="#999999" height="32.35" transform="matrix(0.0156, 0.0, 0.0, 0.0156, 35.55, 15.0)" width="80.0" xlink:href="#font_Arial_w0"/>
        <use fill="#999999" height="32.35" transform="matrix(0.0156, 0.0, 0.0, 0.0156, 47.1, 15.0)" width="80.0" xlink:href="#font_Arial_o0"/>
        <use fill="#999999" height="32.35" transform="matrix(0.0156, 0.0, 0.0, 0.0156, 56.0, 15.0)" width="80.0" xlink:href="#font_Arial_r0"/>
        <use fill="#999999" height="32.35" transform="matrix(0.0156, 0.0, 0.0, 0.0156, 61.35, 15.0)" width="80.0" xlink:href="#font_Arial_d0"/>
      </g>
    </g>
    <g id="font_Arial_P0">
      <path d="M176.0 -384.5 L176.0 -646.5 363.5 -646.5 Q429.5 -646.5 454.0 -640.0 492.0 -629.5 515.5 -596.5 538.5 -564.0 538.5 -518.0 538.5 -454.5 499.0 -419.5 459.5 -384.5 365.5 -384.5 L176.0 -384.5 M79.0 0.0 L176.0 0.0 176.0 -298.0 364.0 -298.0 Q519.5 -298.0 579.0 -362.5 638.5 -427.5 638.5 -521.0 638.5 -575.5 616.5 -621.0 594.0 -666.5 557.5 -691.5 521.0 -717.0 467.0 -726.0 428.5 -733.0 355.5 -733.0 L79.0 -733.0 79.0 0.0" fill-rule="evenodd" stroke="none"/>
    </g>
    <g id="font_Arial_a0">
      <path d="M406.5 -266.5 L406.5 -233.5 Q406.5 -174.0 392.0 -143.5 373.0 -104.0 332.5 -81.0 292.0 -58.5 240.0 -58.5 187.5 -58.5 160.5 -82.5 133.0 -106.5 133.0 -142.5 133.0 -166.0 145.5 -185.0 158.0 -204.5 181.0 -214.5 204.0 -224.5 259.5 -232.5 357.5 -246.5 406.5 -266.5 M414.0 -65.5 Q418.0 -28.0 432.0 0.0 L526.0 0.0 Q509.0 -30.5 503.5 -63.5 497.5 -97.0 497.5 -222.5 L497.5 -342.5 Q497.5 -402.5 493.0 -425.5 485.0 -462.5 465.0 -486.5 445.0 -511.0 402.5 -527.0 360.0 -543.0 292.0 -543.0 223.5 -543.0 171.5 -524.0 119.5 -505.5 92.0 -470.5 64.5 -436.0 52.5 -379.5 L140.5 -367.5 Q155.0 -424.0 185.5 -446.0 215.5 -468.5 279.0 -468.5 347.0 -468.5 381.5 -438.0 407.0 -415.5 407.0 -360.5 407.0 -355.5 406.5 -337.0 355.0 -319.0 246.0 -306.0 192.5 -299.5 166.0 -292.5 130.0 -282.5 101.5 -263.0 72.5 -243.5 55.0 -211.0 37.0 -179.0 37.0 -140.0 37.0 -73.5 84.0 -30.5 131.0 12.0 218.5 12.0 271.5 12.0 318.0 -5.5 364.0 -23.0 414.0 -65.5" fill-rule="evenodd" stroke="none"/>
    </g>
    <g id="font_Arial_s0">
      <path d="M31.5 -158.5 Q46.5 -74.0 101.0 -31.0 155.0 12.0 258.5 12.0 321.0 12.0 370.5 -9.5 420.0 -31.5 446.5 -71.0 472.5 -111.0 472.5 -156.0 472.5 -202.0 451.0 -233.0 429.5 -264.0 392.0 -280.0 354.0 -296.5 258.5 -322.0 192.5 -340.0 179.0 -345.0 155.5 -354.5 144.5 -369.0 133.5 -383.0 133.5 -400.5 133.5 -428.0 160.0 -448.5 186.5 -469.0 248.5 -469.0 301.0 -469.0 330.0 -446.0 358.5 -423.0 364.5 -382.0 L452.5 -394.0 Q444.0 -445.5 421.5 -476.0 399.0 -507.0 352.0 -525.0 304.5 -543.0 242.0 -543.0 200.5 -543.0 164.5 -532.0 128.0 -521.5 107.0 -506.0 79.0 -486.0 63.0 -455.5 46.5 -425.5 46.5 -390.0 46.5 -351.0 66.5 -318.5 86.0 -286.5 124.5 -268.0 162.5 -250.0 261.5 -225.0 335.0 -206.5 353.5 -194.5 380.0 -177.0 380.0 -146.5 380.0 -112.5 350.0 -87.0 320.0 -62.0 258.0 -62.0 196.5 -62.0 162.5 -90.5 128.0 -119.0 120.5 -172.5 L31.5 -158.5" fill-rule="evenodd" stroke="none"/>
    </g>
    <g id="font_Arial_w0">
      <path d="M165.5 0.0 L259.5 0.0 367.0 -408.5 387.5 -318.0 472.0 0.0 565.5 0.0 731.5 -531.0 644.0 -531.0 553.0 -224.0 522.5 -121.5 496.0 -223.0 416.5 -531.0 324.0 -531.0 239.5 -220.0 Q214.0 -119.0 212.0 -110.5 L180.5 -224.5 96.0 -531.0 3.0 -531.0 165.5 0.0" fill-rule="evenodd" stroke="none"/>
    </g>
    <g id="font_Arial_o0">
      <path d="M126.5 -265.5 Q126.5 -367.5 171.0 -418.0 215.5 -468.5 283.0 -468.5 349.5 -468.5 394.5 -417.5 439.0 -367.0 439.0 -268.5 439.0 -164.0 394.5 -113.0 350.0 -62.0 283.0 -62.0 215.5 -62.0 171.0 -112.5 126.5 -163.5 126.5 -265.5 M34.0 -265.5 Q34.0 -131.0 103.0 -59.5 171.5 12.0 283.0 12.0 352.5 12.0 411.5 -20.5 470.0 -53.0 501.0 -111.5 531.5 -170.5 531.5 -273.0 531.5 -399.5 462.0 -471.0 392.5 -543.0 283.0 -543.0 184.5 -543.0 116.0 -484.0 34.0 -413.0 34.0 -265.5" fill-rule="evenodd" stroke="none"/>
    </g>
    <g id="font_Arial_r0">
      <path d="M66.5 0.0 L156.5 0.0 156.5 -278.0 Q156.5 -335.0 171.5 -383.0 181.5 -414.5 205.0 -432.0 228.5 -450.0 258.0 -450.0 291.0 -450.0 324.0 -430.5 L355.0 -514.0 Q308.0 -543.0 262.5 -543.0 231.0 -543.0 205.0 -525.0 178.5 -507.0 147.5 -450.5 L147.5 -531.0 66.5 -531.0 66.5 0.0" fill-rule="evenodd" stroke="none"/>
    </g>
    <g id="font_Arial_d0">
      <path d="M127.5 -265.0 Q127.5 -370.5 168.0 -419.5 208.0 -468.5 268.0 -468.5 329.5 -468.5 371.5 -417.5 413.5 -366.5 413.5 -257.5 413.5 -158.5 372.5 -110.0 331.0 -62.0 272.0 -62.0 213.5 -62.0 170.5 -112.5 127.5 -163.0 127.5 -265.0 M412.0 0.0 L495.5 0.0 495.5 -733.0 406.0 -733.0 406.0 -470.0 Q382.5 -502.5 345.0 -522.5 307.5 -543.0 259.5 -543.0 194.0 -543.0 141.0 -508.5 88.0 -474.0 61.5 -409.0 35.0 -344.5 35.0 -265.0 35.0 -183.5 64.5 -120.5 93.5 -58.0 147.0 -23.0 200.0 12.0 263.5 12.0 361.5 12.0 412.0 -67.0 L412.0 0.0" fill-rule="evenodd" stroke="none"/>
    </g>
  </defs>
</svg>
