<?xml version="1.0" encoding="UTF-8" standalone="no"?>
<svg xmlns:xlink="http://www.w3.org/1999/xlink" height="16.5px" width="21.0px" xmlns="http://www.w3.org/2000/svg">
  <g transform="matrix(1.0, 0.0, 0.0, 1.0, 0.35, 1.0)">
    <use data-characterId="1229" height="16.0" transform="matrix(1.0, 0.0, 0.0, 1.0, -0.35, -0.5)" width="21.0" xlink:href="#shape0"/>
    <use data-characterId="1233" height="14.0" transform="matrix(1.0, 0.0, 0.0, 1.0, 0.0, -1.0)" width="19.4" xlink:href="#text0"/>
  </g>
  <defs>
    <g id="shape0" transform="matrix(1.0, 0.0, 0.0, 1.0, 0.35, 0.5)">
      <path d="M20.15 0.0 L20.15 15.0 0.15 15.0 0.15 0.0 20.15 0.0" fill="#ffff33" fill-rule="evenodd" stroke="none"/>
      <path d="M20.15 0.0 L20.15 15.0 0.15 15.0 0.15 0.0 20.15 0.0 Z" fill="none" stroke="#cccccc" stroke-linecap="round" stroke-linejoin="round" stroke-width="1.0"/>
    </g>
    <g id="text0" transform="matrix(1.0, 0.0, 0.0, 1.0, 2.0, 2.0)">
      <g transform="matrix(1.0, 0.0, 0.0, 1.0, -2.0, -2.0)">
        <use fill="#000000" height="14.0" transform="matrix(0.0078, 0.0, 0.0, 0.0078, 9.7, 9.0)" width="19.4" xlink:href="#font_Trebuchet_MS_10"/>
        <use fill="#000000" height="14.0" transform="matrix(0.0078, 0.0, 0.0, 0.0078, 9.7, 9.0)" width="19.4" xlink:href="#font_Trebuchet_MS__0"/>
        <use fill="#000000" height="14.0" transform="matrix(0.0078, 0.0, 0.0, 0.0078, 9.7, 9.0)" width="19.4" xlink:href="#font_Trebuchet_MS_20"/>
      </g>
    </g>
    <g id="font_Trebuchet_MS_10">
      <path d="M249.0 0.0 L349.0 0.0 349.0 -735.5 319.0 -735.5 Q284.0 -690.5 220.5 -640.5 156.5 -590.5 100.0 -562.0 L100.0 -468.5 249.0 -561.5 249.0 0.0" fill-rule="evenodd" stroke="none"/>
    </g>
    <g id="font_Trebuchet_MS__0">
      <path d="M175.0 0.0 Q307.5 -367.5 439.5 -735.5 L360.0 -735.5 Q227.5 -367.5 94.5 0.0 L175.0 0.0" fill-rule="evenodd" stroke="none"/>
    </g>
    <g id="font_Trebuchet_MS_20">
      <path d="M34.5 0.0 L484.5 0.0 484.5 -90.0 197.5 -90.0 362.0 -351.0 Q441.0 -476.5 441.0 -559.0 441.0 -648.0 381.5 -696.5 322.0 -745.5 216.5 -745.5 146.0 -745.5 96.5 -716.5 46.5 -687.5 29.5 -638.5 L94.0 -585.5 Q110.0 -618.0 145.5 -639.0 181.0 -660.5 221.5 -660.5 336.0 -660.5 336.0 -559.0 336.0 -482.0 264.0 -371.5 149.5 -195.5 34.5 -20.0 L34.5 0.0" fill-rule="evenodd" stroke="none"/>
    </g>
  </defs>
</svg>
