<?xml version="1.0" encoding="UTF-8" standalone="no"?>
<svg xmlns:xlink="http://www.w3.org/1999/xlink" height="59.25px" width="103.0px" xmlns="http://www.w3.org/2000/svg">
  <g transform="matrix(1.0, 0.0, 0.0, 1.0, 45.95, 16.55)">
    <use data-characterId="686" height="29.0" id="label" transform="matrix(1.0, 0.0, 0.0, 1.0, -45.95, 13.7)" width="103.0" xlink:href="#text0"/>
    <use data-characterId="687" height="30.8" transform="matrix(1.0, 0.0, 0.0, 1.0, -16.0, -16.55)" width="30.8" xlink:href="#shape0"/>
  </g>
  <defs>
    <g id="text0" transform="matrix(1.0, 0.0, 0.0, 1.0, 4.0, 2.0)">
      <g transform="matrix(1.0, 0.0, 0.0, 1.0, -4.0, -2.0)">
        <use fill="#ffff00" height="29.0" transform="matrix(0.0098, 0.0, 0.0, 0.0098, 28.0, 9.4)" width="103.0" xlink:href="#font_Trebuchet_MS_b0"/>
        <use fill="#ffff00" height="29.0" transform="matrix(0.0098, 0.0, 0.0, 0.0098, 33.8, 9.4)" width="103.0" xlink:href="#font_Trebuchet_MS_a0"/>
        <use fill="#ffff00" height="29.0" transform="matrix(0.0098, 0.0, 0.0, 0.0098, 39.15, 9.4)" width="103.0" xlink:href="#font_Trebuchet_MS_s0"/>
        <use fill="#ffff00" height="29.0" transform="matrix(0.0098, 0.0, 0.0, 0.0098, 43.45, 9.4)" width="103.0" xlink:href="#font_Trebuchet_MS_e0"/>
      </g>
      <g transform="matrix(1.0, 0.0, 0.0, 1.0, -4.0, -2.0)">
        <use fill="#ffff00" height="29.0" transform="matrix(0.0098, 0.0, 0.0, 0.0098, 52.2, 9.4)" width="103.0" xlink:href="#font_Trebuchet_MS_l0"/>
        <use fill="#ffff00" height="29.0" transform="matrix(0.0098, 0.0, 0.0, 0.0098, 55.15, 9.4)" width="103.0" xlink:href="#font_Trebuchet_MS_a0"/>
        <use fill="#ffff00" height="29.0" transform="matrix(0.0098, 0.0, 0.0, 0.0098, 60.5, 9.4)" width="103.0" xlink:href="#font_Trebuchet_MS_b0"/>
        <use fill="#ffff00" height="29.0" transform="matrix(0.0098, 0.0, 0.0, 0.0098, 66.3, 9.4)" width="103.0" xlink:href="#font_Trebuchet_MS_e0"/>
        <use fill="#ffff00" height="29.0" transform="matrix(0.0098, 0.0, 0.0, 0.0098, 72.05, 9.4)" width="103.0" xlink:href="#font_Trebuchet_MS_l0"/>
      </g>
    </g>
    <g id="font_Trebuchet_MS_b0">
      <path d="M182.5 -408.0 Q211.5 -439.5 267.0 -439.5 423.0 -439.5 423.0 -276.5 423.0 -182.0 385.5 -139.0 347.5 -96.0 257.0 -96.0 210.0 -96.0 182.5 -128.5 L182.5 -408.0 M156.0 -29.5 Q209.5 10.0 284.0 10.0 408.0 10.0 480.5 -68.0 553.0 -146.5 553.0 -281.0 553.0 -397.0 481.0 -471.0 409.0 -545.5 291.5 -545.5 232.5 -545.5 182.5 -515.0 L182.5 -765.0 57.5 -735.0 57.5 10.0 128.0 10.0 156.0 -29.5" fill-rule="evenodd" stroke="none"/>
    </g>
    <g id="font_Trebuchet_MS_a0">
      <path d="M353.5 -252.0 L353.5 -202.0 Q353.5 -89.5 241.0 -89.5 157.5 -89.5 157.5 -161.5 157.5 -258.5 305.5 -258.5 321.5 -258.5 353.5 -252.0 M365.5 -53.5 Q373.0 -30.0 394.5 -10.0 416.0 10.0 443.0 10.0 467.5 10.0 486.5 4.0 505.5 -2.5 521.0 -29.5 478.0 -57.0 478.0 -164.0 L478.0 -278.5 Q478.0 -434.0 421.0 -489.5 364.0 -545.5 241.5 -545.5 152.5 -545.5 88.0 -514.5 L115.0 -417.5 Q162.5 -441.0 233.0 -441.0 352.5 -441.0 352.5 -346.5 322.5 -354.0 300.5 -354.0 172.0 -354.0 102.5 -301.5 32.5 -249.0 32.5 -156.0 32.5 -76.5 82.0 -33.0 131.5 10.0 218.0 10.0 264.0 10.0 306.5 -7.5 348.5 -25.5 365.5 -53.5" fill-rule="evenodd" stroke="none"/>
    </g>
    <g id="font_Trebuchet_MS_s0">
      <path d="M34.5 -34.5 Q85.0 -7.5 117.5 1.5 149.5 10.0 203.0 10.0 298.0 10.0 353.5 -32.5 408.5 -75.5 408.5 -150.0 408.5 -206.0 377.5 -245.5 346.5 -285.0 276.0 -312.5 205.5 -340.5 184.0 -357.0 162.5 -373.5 162.5 -394.0 162.5 -446.0 228.0 -446.0 301.0 -446.0 342.0 -411.0 L378.0 -508.0 Q304.5 -545.5 221.0 -545.5 138.5 -545.5 85.5 -506.5 32.5 -468.0 32.5 -398.5 32.5 -295.0 171.0 -237.5 234.5 -211.0 256.5 -191.5 278.5 -172.0 278.5 -141.5 278.5 -89.5 205.5 -89.5 135.0 -89.5 79.0 -134.0 L34.5 -34.5" fill-rule="evenodd" stroke="none"/>
    </g>
    <g id="font_Trebuchet_MS_e0">
      <path d="M167.5 -323.5 Q193.5 -441.0 300.5 -441.0 417.5 -441.0 430.5 -323.5 L167.5 -323.5 M545.5 -229.5 Q556.0 -276.0 556.0 -299.0 556.0 -406.5 485.5 -476.0 415.0 -545.5 298.5 -545.5 189.0 -545.5 111.0 -467.0 32.5 -388.5 32.5 -262.0 32.5 -133.5 104.0 -61.5 175.0 10.0 297.5 10.0 428.5 10.0 494.5 -43.5 L446.0 -139.0 Q401.5 -94.5 316.0 -94.5 247.5 -94.5 207.0 -130.0 166.5 -165.5 163.0 -229.5 L545.5 -229.5" fill-rule="evenodd" stroke="none"/>
    </g>
    <g id="font_Trebuchet_MS_l0">
      <path d="M89.0 -735.0 L89.0 -108.0 Q89.0 10.0 174.0 10.0 244.0 10.0 273.0 -45.0 214.0 -64.0 214.0 -163.0 L214.0 -765.0 89.0 -735.0" fill-rule="evenodd" stroke="none"/>
    </g>
    <g id="shape0" transform="matrix(1.0, 0.0, 0.0, 1.0, 16.0, 16.55)">
      <path d="M10.3 -12.05 Q14.8 -7.55 14.8 -1.15 14.8 5.25 10.3 9.75 6.85 13.2 2.3 14.0 L-0.6 14.25 -3.5 14.0 Q-8.05 13.2 -11.5 9.75 -16.0 5.25 -16.0 -1.15 -16.0 -3.75 -15.25 -6.0 -14.2 -9.35 -11.5 -12.05 -7.0 -16.55 -0.6 -16.55 L0.0 -16.55 Q6.0 -16.35 10.3 -12.05" fill="#ffff00" fill-opacity="0.14901961" fill-rule="evenodd" stroke="none"/>
    </g>
  </defs>
</svg>
