<?xml version="1.0" encoding="UTF-8" standalone="no"?>
<svg xmlns:xlink="http://www.w3.org/1999/xlink" height="36.75px" width="304.35px" xmlns="http://www.w3.org/2000/svg">
  <g transform="matrix(1.0, 0.0, 0.0, 1.0, 0.5, 0.5)">
    <use data-characterId="28" height="31.0" transform="matrix(1.0, 0.0, 0.0, 1.0, -0.5, -0.5)" width="301.0" xlink:href="#shape0"/>
    <use data-characterId="33" height="31.4" id="actionButton" transform="matrix(1.0, 0.0, 0.0, 1.0, 183.45, 4.85)" width="120.4" xlink:href="#sprite0"/>
    <use data-characterId="34" height="29.1" id="respawnMessage" transform="matrix(1.0, 0.0, 0.0, 1.0, 1.55, 6.35)" width="198.6" xlink:href="#text1"/>
  </g>
  <defs>
    <g id="shape0" transform="matrix(1.0, 0.0, 0.0, 1.0, 0.5, 0.5)">
      <path d="M300.0 30.0 L0.0 30.0 0.0 0.0 300.0 0.0 300.0 30.0" fill="#000099" fill-opacity="0.24705882" fill-rule="evenodd" stroke="none"/>
      <path d="M300.0 30.0 L0.0 30.0 0.0 0.0 300.0 0.0 300.0 30.0 Z" fill="none" stroke="#003366" stroke-linecap="butt" stroke-linejoin="miter-clip" stroke-miterlimit="3.0" stroke-width="1.0"/>
    </g>
    <g id="sprite0" transform="matrix(1.0, 0.0, 0.0, 1.0, 0.5, 1.25)">
      <use data-characterId="29" height="19.05" transform="matrix(1.0, 0.0, 0.0, 1.0, -0.5, -0.5)" width="115.5" xlink:href="#shape1"/>
      <use data-characterId="31" height="31.4" id="actionlabel" transform="matrix(1.0, 0.0, 0.0, 1.0, 1.5, -1.25)" width="118.4" xlink:href="#text0"/>
    </g>
    <g id="shape1" transform="matrix(1.0, 0.0, 0.0, 1.0, 0.5, 0.5)">
      <path d="M112.2 0.0 Q114.5 0.0 114.5 2.3 L114.5 15.75 Q114.5 18.05 112.2 18.05 L2.3 18.05 Q0.0 18.05 0.0 15.75 L0.0 2.3 Q0.0 0.0 2.3 0.0 L112.2 0.0" fill="#0066cc" fill-rule="evenodd" stroke="none"/>
      <path d="M112.2 0.0 L2.3 0.0 Q0.0 0.0 0.0 2.3 L0.0 15.75 Q0.0 18.05 2.3 18.05 L112.2 18.05 Q114.5 18.05 114.5 15.75 L114.5 2.3 Q114.5 0.0 112.2 0.0 Z" fill="none" stroke="#000000" stroke-linecap="butt" stroke-linejoin="miter-clip" stroke-miterlimit="3.0" stroke-width="1.0"/>
    </g>
    <g id="text0" transform="matrix(1.0, 0.0, 0.0, 1.0, 4.0, 2.0)">
      <g transform="matrix(1.0, 0.0, 0.0, 1.0, -4.0, -2.0)">
        <use fill="#ffff99" height="31.4" transform="matrix(0.0117, 0.0, 0.0, 0.0117, 40.5, 10.85)" width="118.4" xlink:href="#font_Arial_A0"/>
        <use fill="#ffff99" height="31.4" transform="matrix(0.0117, 0.0, 0.0, 0.0117, 49.15, 10.85)" width="118.4" xlink:href="#font_Arial_c0"/>
        <use fill="#ffff99" height="31.4" transform="matrix(0.0117, 0.0, 0.0, 0.0117, 55.85, 10.85)" width="118.4" xlink:href="#font_Arial_t0"/>
        <use fill="#ffff99" height="31.4" transform="matrix(0.0117, 0.0, 0.0, 0.0117, 59.85, 10.85)" width="118.4" xlink:href="#font_Arial_i0"/>
        <use fill="#ffff99" height="31.4" transform="matrix(0.0117, 0.0, 0.0, 0.0117, 63.2, 10.85)" width="118.4" xlink:href="#font_Arial_o0"/>
        <use fill="#ffff99" height="31.4" transform="matrix(0.0117, 0.0, 0.0, 0.0117, 70.55, 10.85)" width="118.4" xlink:href="#font_Arial_n0"/>
      </g>
    </g>
    <g id="font_Arial_A0">
      <path d="M463.0 -290.0 L263.0 -290.0 362.0 -562.0 463.0 -290.0 M735.5 0.0 L442.0 -733.0 285.5 -733.0 0.0 0.0 157.0 0.0 217.5 -166.5 510.5 -166.5 574.5 0.0 735.5 0.0" fill-rule="evenodd" stroke="none"/>
    </g>
    <g id="font_Arial_c0">
      <path d="M536.5 -374.0 Q511.5 -459.5 454.5 -501.0 397.0 -543.0 300.0 -543.0 181.5 -543.0 112.0 -469.5 42.5 -396.5 42.5 -265.0 42.5 -135.0 112.0 -61.5 181.0 12.0 297.5 12.0 400.0 12.0 461.0 -36.5 522.0 -85.0 543.5 -180.0 L405.5 -203.5 Q395.0 -148.0 369.5 -125.0 344.0 -102.5 304.0 -102.5 250.5 -102.5 219.0 -141.5 187.0 -180.5 187.0 -275.0 187.0 -360.0 218.5 -396.0 249.5 -432.5 302.0 -432.5 341.5 -432.5 366.5 -411.5 391.0 -390.5 398.0 -349.0 L536.5 -374.0" fill-rule="evenodd" stroke="none"/>
    </g>
    <g id="font_Arial_t0">
      <path d="M317.0 -531.0 L221.0 -531.0 221.0 -718.5 80.0 -636.5 80.0 -531.0 15.5 -531.0 15.5 -419.0 80.0 -419.0 80.0 -187.5 Q80.0 -113.0 84.5 -88.5 90.0 -54.0 104.5 -33.5 118.5 -13.5 149.0 -0.5 179.5 12.0 217.5 12.0 279.5 12.0 328.5 -9.0 L316.5 -118.0 Q279.5 -104.5 260.0 -104.5 246.0 -104.5 236.5 -111.5 226.5 -118.5 224.0 -129.0 221.0 -140.0 221.0 -205.0 L221.0 -419.0 317.0 -419.0 317.0 -531.0" fill-rule="evenodd" stroke="none"/>
    </g>
    <g id="font_Arial_i0">
      <path d="M73.5 0.0 L214.0 0.0 214.0 -531.0 73.5 -531.0 73.5 0.0 M73.5 -603.0 L214.0 -603.0 214.0 -733.0 73.5 -733.0 73.5 -603.0" fill-rule="evenodd" stroke="none"/>
    </g>
    <g id="font_Arial_o0">
      <path d="M185.0 -265.5 Q185.0 -344.5 222.5 -386.5 260.0 -428.5 315.0 -428.5 370.0 -428.5 407.5 -386.5 444.5 -344.5 444.5 -266.5 444.5 -186.5 407.5 -144.5 370.0 -102.5 315.0 -102.5 260.0 -102.5 222.5 -144.5 185.0 -186.5 185.0 -265.5 M41.0 -273.0 Q41.0 -181.5 75.5 -117.5 110.0 -54.0 176.5 -21.0 242.5 12.0 315.5 12.0 433.5 12.0 511.5 -67.0 589.0 -146.5 589.0 -267.0 589.0 -386.5 512.0 -464.5 435.0 -543.0 314.5 -543.0 236.5 -543.0 173.5 -508.5 110.0 -474.0 75.5 -408.5 41.0 -343.0 41.0 -273.0" fill-rule="evenodd" stroke="none"/>
    </g>
    <g id="font_Arial_n0">
      <path d="M556.5 0.0 L556.5 -330.0 Q556.5 -391.5 549.0 -424.5 541.0 -457.5 521.5 -483.5 501.5 -509.5 463.0 -526.0 424.5 -543.0 378.0 -543.0 272.5 -543.0 203.0 -453.0 L203.0 -531.0 72.5 -531.0 72.5 0.0 213.0 0.0 213.0 -240.5 Q213.0 -329.5 224.0 -362.5 234.5 -395.5 263.5 -415.5 292.5 -435.5 329.0 -435.5 357.5 -435.5 378.0 -421.5 398.0 -407.5 407.0 -382.0 416.0 -357.0 416.0 -271.0 L416.0 0.0 556.5 0.0" fill-rule="evenodd" stroke="none"/>
    </g>
    <g id="text1" transform="matrix(1.0, 0.0, 0.0, 1.0, 4.0, 2.0)">
      <g transform="matrix(1.0, 0.0, 0.0, 1.0, -4.0, -2.0)">
        <use fill="#ffff99" height="29.1" transform="matrix(0.0107, 0.0, 0.0, 0.0107, 52.0, 9.95)" width="198.6" xlink:href="#font_Arial_L0"/>
        <use fill="#ffff99" height="29.1" transform="matrix(0.0107, 0.0, 0.0, 0.0107, 58.7, 9.95)" width="198.6" xlink:href="#font_Arial_a0"/>
        <use fill="#ffff99" height="29.1" transform="matrix(0.0107, 0.0, 0.0, 0.0107, 64.8, 9.95)" width="198.6" xlink:href="#font_Arial_s0"/>
        <use fill="#ffff99" height="29.1" transform="matrix(0.0107, 0.0, 0.0, 0.0107, 70.9, 9.95)" width="198.6" xlink:href="#font_Arial_t0"/>
      </g>
      <g transform="matrix(1.0, 0.0, 0.0, 1.0, -4.0, -2.0)">
        <use fill="#ffff99" height="29.1" transform="matrix(0.0107, 0.0, 0.0, 0.0107, 77.6, 9.95)" width="198.6" xlink:href="#font_Arial_D0"/>
        <use fill="#ffff99" height="29.1" transform="matrix(0.0107, 0.0, 0.0, 0.0107, 85.55, 9.95)" width="198.6" xlink:href="#font_Arial_o0"/>
        <use fill="#ffff99" height="29.1" transform="matrix(0.0107, 0.0, 0.0, 0.0107, 92.25, 9.95)" width="198.6" xlink:href="#font_Arial_c0"/>
        <use fill="#ffff99" height="29.1" transform="matrix(0.0107, 0.0, 0.0, 0.0107, 98.35, 9.95)" width="198.6" xlink:href="#font_Arial_k0"/>
        <use fill="#ffff99" height="29.1" transform="matrix(0.0107, 0.0, 0.0, 0.0107, 104.45, 9.95)" width="198.6" xlink:href="#font_Arial_e0"/>
        <use fill="#ffff99" height="29.1" transform="matrix(0.0107, 0.0, 0.0, 0.0107, 110.55, 9.95)" width="198.6" xlink:href="#font_Arial_d0"/>
      </g>
      <g transform="matrix(1.0, 0.0, 0.0, 1.0, -4.0, -2.0)">
        <use fill="#ffff99" height="29.1" transform="matrix(0.0107, 0.0, 0.0, 0.0107, 120.3, 9.95)" width="198.6" xlink:href="#font_Arial_B0"/>
        <use fill="#ffff99" height="29.1" transform="matrix(0.0107, 0.0, 0.0, 0.0107, 128.25, 9.95)" width="198.6" xlink:href="#font_Arial_a0"/>
        <use fill="#ffff99" height="29.1" transform="matrix(0.0107, 0.0, 0.0, 0.0107, 134.35, 9.95)" width="198.6" xlink:href="#font_Arial_s0"/>
        <use fill="#ffff99" height="29.1" transform="matrix(0.0107, 0.0, 0.0, 0.0107, 140.45, 9.95)" width="198.6" xlink:href="#font_Arial_e0"/>
      </g>
    </g>
    <g id="font_Arial_L0">
      <path d="M78.5 0.0 L594.5 0.0 594.5 -123.5 226.5 -123.5 226.5 -727.0 78.5 -727.0 78.5 0.0" fill-rule="evenodd" stroke="none"/>
    </g>
    <g id="font_Arial_a0">
      <path d="M366.5 -255.0 L366.5 -227.0 Q366.5 -176.5 361.0 -158.5 353.0 -131.0 327.5 -112.0 293.0 -87.0 255.0 -87.0 221.0 -87.0 199.0 -108.5 177.0 -130.0 177.0 -159.5 177.0 -189.5 204.5 -209.0 222.5 -221.0 281.0 -233.5 339.5 -246.0 366.5 -255.0 M178.5 -369.0 Q191.5 -406.0 212.5 -420.5 233.5 -435.5 271.0 -435.5 326.5 -435.5 346.5 -418.0 366.5 -401.0 366.5 -360.5 L366.5 -346.5 Q328.5 -330.5 230.0 -312.0 157.0 -298.0 118.5 -279.0 79.5 -260.5 58.0 -225.0 36.5 -190.0 36.5 -145.0 36.5 -77.0 84.0 -32.5 131.0 12.0 213.0 12.0 259.5 12.0 300.5 -5.5 341.5 -23.0 377.5 -58.0 379.0 -54.0 382.5 -41.5 390.5 -14.0 396.0 0.0 L535.0 0.0 Q516.5 -38.0 510.0 -71.0 503.0 -104.5 503.0 -174.5 L504.5 -338.5 Q504.5 -430.0 486.0 -464.0 467.0 -498.5 421.0 -520.5 375.0 -543.0 281.0 -543.0 177.5 -543.0 125.0 -506.0 72.5 -469.0 51.0 -392.0 L178.5 -369.0" fill-rule="evenodd" stroke="none"/>
    </g>
    <g id="font_Arial_s0">
      <path d="M24.0 -151.5 Q43.5 -76.0 107.0 -32.0 170.0 12.0 278.5 12.0 398.0 12.0 459.0 -40.5 520.0 -93.0 520.0 -166.0 520.0 -233.0 476.0 -270.5 431.5 -307.5 319.5 -333.0 207.0 -358.5 188.0 -372.5 174.0 -383.0 174.0 -398.0 174.0 -415.5 190.0 -426.5 214.0 -442.0 269.5 -442.0 313.5 -442.0 337.5 -425.5 361.0 -409.0 369.5 -378.0 L502.0 -402.5 Q482.0 -472.0 429.0 -507.5 376.0 -543.0 267.0 -543.0 152.5 -543.0 98.0 -496.0 43.5 -449.0 43.5 -380.0 43.5 -303.5 106.5 -260.5 152.0 -229.5 322.0 -192.0 358.5 -183.5 369.0 -173.5 379.0 -163.0 379.0 -147.0 379.0 -123.5 360.5 -109.5 333.0 -89.5 278.5 -89.5 229.0 -89.5 201.5 -110.5 174.0 -132.0 165.0 -173.0 L24.0 -151.5" fill-rule="evenodd" stroke="none"/>
    </g>
    <g id="font_Arial_D0">
      <path d="M222.0 -609.0 L288.5 -609.0 Q379.0 -609.0 410.0 -602.0 451.5 -593.0 478.5 -567.5 505.5 -542.0 520.5 -496.5 535.5 -451.0 535.5 -366.0 535.5 -281.0 520.5 -231.5 505.5 -182.5 482.0 -161.0 458.0 -139.5 422.0 -130.5 394.5 -123.5 332.5 -123.5 L222.0 -123.5 222.0 -609.0 M74.0 -733.0 L74.0 0.0 352.5 0.0 Q434.5 0.0 483.5 -15.5 549.0 -36.5 587.5 -74.0 638.5 -123.5 666.0 -203.5 688.5 -269.0 688.5 -359.5 688.5 -462.5 664.5 -532.5 640.5 -603.0 594.5 -651.5 548.5 -700.0 484.0 -719.0 436.0 -733.0 344.5 -733.0 L74.0 -733.0" fill-rule="evenodd" stroke="none"/>
    </g>
    <g id="font_Arial_k0">
      <path d="M68.5 0.0 L209.0 0.0 209.0 -170.0 274.5 -238.5 408.0 0.0 559.5 0.0 365.0 -337.0 546.5 -531.0 373.5 -531.0 209.0 -344.0 209.0 -733.0 68.5 -733.0 68.5 0.0" fill-rule="evenodd" stroke="none"/>
    </g>
    <g id="font_Arial_e0">
      <path d="M389.0 -311.0 L179.0 -311.0 Q178.5 -368.5 208.5 -402.0 238.5 -435.5 284.5 -435.5 327.5 -435.5 357.5 -403.5 387.5 -372.0 389.0 -311.0 M381.0 -169.0 Q369.5 -129.0 347.0 -111.0 324.5 -93.0 291.5 -93.0 243.0 -93.0 210.5 -127.5 178.0 -162.5 176.5 -225.0 L528.5 -225.0 Q531.5 -386.5 463.0 -464.5 394.5 -543.0 276.0 -543.0 170.5 -543.0 101.5 -468.0 32.5 -393.5 32.5 -261.5 32.5 -151.0 85.0 -78.5 151.5 12.0 290.0 12.0 377.5 12.0 436.0 -28.0 494.0 -68.5 521.0 -145.5 L381.0 -169.0" fill-rule="evenodd" stroke="none"/>
    </g>
    <g id="font_Arial_d0">
      <path d="M185.5 -277.0 Q185.5 -356.0 219.5 -395.5 253.0 -435.5 303.0 -435.5 354.5 -435.5 387.5 -395.0 420.5 -355.0 420.5 -263.5 420.5 -181.5 386.5 -140.0 352.5 -99.0 304.0 -99.0 243.0 -99.0 209.0 -154.0 185.5 -192.0 185.5 -277.0 M560.5 0.0 L560.5 -733.0 420.0 -733.0 420.0 -469.0 Q355.0 -543.0 266.0 -543.0 169.0 -543.0 105.5 -472.5 42.0 -402.5 42.0 -267.5 42.0 -135.5 107.5 -61.5 172.5 12.0 264.0 12.0 309.0 12.0 353.5 -10.0 397.5 -32.5 430.0 -78.0 L430.0 0.0 560.5 0.0" fill-rule="evenodd" stroke="none"/>
    </g>
    <g id="font_Arial_B0">
      <path d="M223.0 -319.5 L342.5 -319.5 Q443.5 -319.5 474.0 -309.0 504.0 -298.5 520.0 -275.5 536.0 -252.5 536.0 -219.5 536.0 -180.5 515.5 -157.0 494.5 -134.0 461.5 -128.0 440.0 -123.5 360.0 -123.5 L223.0 -123.5 223.0 -319.5 M223.0 -611.0 L308.0 -611.0 Q412.5 -611.0 434.5 -608.5 471.5 -604.0 490.5 -582.5 509.0 -561.5 509.0 -527.5 509.0 -492.0 487.5 -470.0 465.5 -448.5 427.5 -444.0 406.5 -441.5 320.0 -441.5 L223.0 -441.5 223.0 -611.0 M75.0 -733.0 L75.0 0.0 324.5 0.0 Q466.0 -1.0 503.0 -5.0 562.0 -11.5 602.5 -39.5 642.5 -68.0 666.0 -115.0 689.0 -162.5 689.0 -212.5 689.0 -276.0 653.0 -323.0 617.0 -370.0 550.0 -389.5 597.5 -411.0 625.5 -454.0 653.0 -497.0 653.0 -548.5 653.0 -596.0 630.5 -634.0 608.0 -672.5 574.5 -695.5 540.5 -718.5 498.0 -725.5 455.0 -733.0 368.0 -733.0 L75.0 -733.0" fill-rule="evenodd" stroke="none"/>
    </g>
  </defs>
</svg>
