<?xml version="1.0" encoding="UTF-8" standalone="no"?>
<svg xmlns:xlink="http://www.w3.org/1999/xlink" height="300.2px" width="300.1px" xmlns="http://www.w3.org/2000/svg">
  <g transform="matrix(1.0, 0.0, 0.0, 1.0, 150.05, 150.15)">
    <use data-characterId="715" height="300.2" transform="matrix(1.0, 0.0, 0.0, 1.0, -150.05, -150.15)" width="300.1" xlink:href="#shape0"/>
  </g>
  <defs>
    <g id="shape0" transform="matrix(1.0, 0.0, 0.0, 1.0, 150.05, 150.15)">
      <path d="M0.75 -134.6 L10.1 -118.15 18.3 -150.1 41.45 -3.65 59.75 3.95 70.85 -27.35 71.65 -29.6 81.45 14.75 117.0 29.4 117.0 4.1 113.05 4.1 113.05 -18.65 128.5 -18.65 128.5 4.1 125.15 4.1 125.15 32.7 138.8 38.35 144.75 72.85 150.0 103.6 81.4 86.2 59.3 150.0 39.3 61.85 39.9 60.25 38.8 60.3 M10.1 -118.15 L0.75 -82.05 0.75 -17.1 24.15 47.95 0.75 75.75 0.75 29.4 0.75 -17.1 M125.15 32.7 L125.15 33.95 M144.75 72.85 L89.3 50.5 90.8 57.3 91.05 58.3 81.4 86.2 M117.0 29.4 L125.15 32.7 M125.15 4.1 L117.0 4.1 M81.45 14.75 L89.3 50.5 M59.75 3.95 L47.85 37.35 39.9 60.25 65.2 58.75 70.85 -27.35 M24.15 47.95 L0.75 29.4 M21.25 112.9 L19.8 112.9 0.75 112.9 0.75 137.65 10.1 137.65 21.25 116.0 44.65 91.25 M59.3 150.0 L65.2 58.75 90.8 57.3 M41.45 -3.65 L47.85 37.35 M-0.7 -134.55 L-10.1 -118.05 -0.7 -81.95 M-10.1 -118.05 L-18.25 -149.95 -41.4 -3.55 -47.85 37.35 -39.85 60.25 -38.75 60.3 M-128.45 -18.55 L-128.45 4.15 -125.1 4.15 -117.0 4.15 -113.05 4.15 -113.05 -18.55 -128.45 -18.55 M-71.6 -29.55 L-81.4 14.75 -89.25 50.5 -90.8 57.3 -65.2 58.75 -70.8 -27.3 -71.6 -29.55 M-0.7 -17.0 L-24.15 47.95 -0.7 29.4 M-41.4 -3.55 L-59.7 4.0 -47.85 37.35 M-39.85 60.25 L-65.2 58.75 -59.25 150.0 -39.25 61.85 -39.85 60.25 M-0.7 75.75 L-24.15 47.95 M-125.1 4.15 L-125.1 32.7 -117.0 29.4 -117.0 4.15 M-81.4 14.75 L-117.0 29.4 M-125.1 33.95 L-125.1 32.7 -138.8 38.35 -144.7 72.85 -89.25 50.5 M-144.7 72.85 L-150.0 103.6 -81.35 86.2 -91.0 58.3 -90.8 57.3 M-44.6 91.25 L-21.2 116.0 -10.1 137.65 -0.7 137.65 M-21.2 112.9 L-0.7 112.9 M-81.35 86.2 L-59.25 150.0 M-59.7 4.0 L-70.8 -27.3" fill="none" stroke="#cccccc" stroke-linecap="round" stroke-linejoin="round" stroke-width="0.1"/>
      <path d="M19.8 112.9 L-0.7 75.75 -21.2 112.9" fill="none" stroke="#cccccc" stroke-linecap="round" stroke-linejoin="round" stroke-width="0.1"/>
      <path d="M15.4 -78.95 L18.3 -29.45 M-15.35 -78.85 L-18.25 -29.4" fill="none" stroke="#cccccc" stroke-linecap="round" stroke-linejoin="round" stroke-width="5.0"/>
      <path d="M31.0 70.0 L21.0 85.0 M-31.0 70.05 L-21.0 85.05" fill="none" stroke="#cccccc" stroke-linecap="round" stroke-linejoin="round" stroke-width="5.0"/>
    </g>
  </defs>
</svg>
