<?xml version="1.0" encoding="UTF-8" standalone="no"?>
<svg xmlns:xlink="http://www.w3.org/1999/xlink" height="441.2px" width="1337.7px" xmlns="http://www.w3.org/2000/svg">
  <g transform="matrix(1.0, 0.0, 0.0, 1.0, 765.7, 319.5)">
    <use data-characterId="1252" height="79.95" transform="matrix(1.0, 0.0, 0.0, 0.9995, -129.4, -38.6178)" width="264.0" xlink:href="#sprite0"/>
    <use data-characterId="1253" height="205.4" id="topten" transform="matrix(1.0, 0.0, 0.0, 1.0, -395.0, -83.7)" width="212.0" xlink:href="#text4"/>
  </g>
  <defs>
    <g id="sprite0" transform="matrix(1.0, 0.0, 0.0, 1.0, 240.4, 58.65)">
      <use data-characterId="1248" height="17.5" transform="matrix(1.0, 0.0, 0.0, 1.0, -240.4, -58.65)" width="76.0" xlink:href="#text0"/>
      <use data-characterId="1249" height="32.75" transform="matrix(1.0, 0.0, 0.0, 1.0, -187.95, -11.45)" width="211.55" xlink:href="#text1"/>
      <use data-characterId="1250" height="32.75" transform="matrix(1.0, 0.0, 0.0, 1.0, -188.95, -12.45)" width="211.55" xlink:href="#text2"/>
      <use data-characterId="1251" height="32.75" transform="matrix(1.0, 0.0, 0.0, 1.0, -189.95, -13.45)" width="211.55" xlink:href="#text3"/>
    </g>
    <g id="text0" transform="matrix(1.0, 0.0, 0.0, 1.0, -18.9, -4.45)">
      <g transform="matrix(1.0, 0.0, 0.0, 1.0, 17.65, 0.0)">
        <use fill="#ffffff" height="17.5" transform="matrix(0.0176, 0.0, 0.0, 0.0176, 0.0, 20.0)" width="76.0" xlink:href="#font_Comic_Sans_MS_W0"/>
        <use fill="#ffffff" height="17.5" transform="matrix(0.0176, 0.0, 0.0, 0.0176, 15.15, 20.0)" width="76.0" xlink:href="#font_Comic_Sans_MS_e0"/>
        <use fill="#ffffff" height="17.5" transform="matrix(0.0176, 0.0, 0.0, 0.0176, 21.4, 20.0)" width="76.0" xlink:href="#font_Comic_Sans_MS_l0"/>
        <use fill="#ffffff" height="17.5" transform="matrix(0.0176, 0.0, 0.0, 0.0176, 22.8, 20.0)" width="76.0" xlink:href="#font_Comic_Sans_MS_c0"/>
        <use fill="#ffffff" height="17.5" transform="matrix(0.0176, 0.0, 0.0, 0.0176, 28.5, 20.0)" width="76.0" xlink:href="#font_Comic_Sans_MS_o0"/>
        <use fill="#ffffff" height="17.5" transform="matrix(0.0176, 0.0, 0.0, 0.0176, 34.35, 20.0)" width="76.0" xlink:href="#font_Comic_Sans_MS_m0"/>
        <use fill="#ffffff" height="17.5" transform="matrix(0.0176, 0.0, 0.0, 0.0176, 44.8, 20.0)" width="76.0" xlink:href="#font_Comic_Sans_MS_e0"/>
        <use fill="#ffffff" height="17.5" transform="matrix(0.0176, 0.0, 0.0, 0.0176, 52.9, 20.0)" width="76.0" xlink:href="#font_Comic_Sans_MS_T0"/>
        <use fill="#ffffff" height="17.5" transform="matrix(0.0176, 0.0, 0.0, 0.0176, 61.6, 20.0)" width="76.0" xlink:href="#font_Comic_Sans_MS_o0"/>
        <use fill="#ffffff" height="17.5" transform="matrix(0.0176, 0.0, 0.0, 0.0176, 67.45, 20.0)" width="76.0" xlink:href="#font_Comic_Sans_MS_:0"/>
      </g>
    </g>
    <g id="font_Comic_Sans_MS_W0">
      <path d="M711.5 48.0 Q747.5 48.0 765.5 14.5 815.5 -99.0 836.0 -158.5 910.5 -339.0 984.5 -519.5 998.5 -564.0 1012.0 -608.5 L1032.0 -662.5 Q1048.0 -704.0 1048.0 -712.5 1048.0 -762.5 997.5 -762.5 968.5 -762.5 950.5 -735.0 929.5 -702.5 915.0 -644.0 895.5 -564.5 890.0 -549.5 789.5 -275.0 722.5 -114.0 L679.5 -310.5 Q655.5 -425.5 645.5 -507.5 627.0 -669.5 609.0 -712.5 594.5 -748.0 559.5 -748.0 517.0 -748.0 472.0 -637.5 455.0 -595.5 422.5 -487.0 369.5 -309.0 316.0 -185.0 292.0 -295.5 267.5 -406.0 238.0 -533.5 208.5 -624.0 181.0 -709.5 172.0 -727.5 154.5 -763.0 122.0 -763.0 69.5 -763.0 69.5 -716.5 69.5 -707.5 73.0 -696.5 151.5 -465.0 184.0 -341.0 211.5 -218.5 238.5 -96.0 L254.0 -32.5 Q254.0 28.0 321.5 28.0 344.5 28.0 362.5 14.5 382.5 0.0 382.5 -22.5 382.5 -33.5 376.5 -45.0 394.0 -120.0 453.0 -252.5 504.0 -367.0 548.5 -532.0 557.0 -450.5 582.5 -316.0 616.0 -138.5 622.0 -100.5 628.0 -62.5 651.0 -2.0 651.0 20.0 671.0 35.0 688.5 48.0 711.5 48.0" fill-rule="evenodd" stroke="none"/>
    </g>
    <g id="font_Comic_Sans_MS_e0">
      <path d="M289.5 -432.5 Q367.0 -432.5 410.0 -392.5 371.5 -360.0 281.0 -316.0 L127.5 -243.0 Q147.5 -338.0 188.0 -385.0 228.5 -432.5 289.5 -432.5 M303.0 23.0 Q375.5 23.0 452.0 -11.0 541.5 -51.0 541.5 -106.5 541.5 -124.0 528.0 -137.0 514.0 -150.5 496.5 -150.5 477.0 -150.5 460.0 -123.5 443.0 -97.0 384.0 -80.5 337.5 -67.5 303.0 -67.5 247.5 -67.5 206.0 -88.5 164.0 -109.5 136.0 -151.0 231.5 -196.0 327.0 -241.5 408.0 -279.5 433.0 -297.5 489.5 -338.5 489.5 -388.5 489.5 -460.0 425.0 -494.5 372.5 -522.5 289.5 -522.5 175.0 -522.5 106.5 -426.5 43.5 -338.5 43.5 -208.5 43.5 -96.0 120.0 -33.5 190.0 23.0 303.0 23.0" fill-rule="evenodd" stroke="none"/>
    </g>
    <g id="font_Comic_Sans_MS_l0">
      <path d="M196.5 -393.0 Q196.5 -472.0 199.0 -573.5 201.5 -675.5 201.5 -754.5 201.5 -804.5 152.0 -804.5 103.0 -804.5 103.0 -754.5 103.0 -675.5 100.5 -573.5 98.0 -472.0 98.0 -393.0 98.0 -332.5 92.5 -211.0 87.0 -90.0 87.0 -29.5 87.0 21.5 136.0 21.5 180.0 21.5 185.0 -28.5 189.0 -105.0 189.0 -144.5 193.0 -268.5 196.5 -393.0" fill-rule="evenodd" stroke="none"/>
    </g>
    <g id="font_Comic_Sans_MS_c0">
      <path d="M295.5 31.5 Q340.0 31.5 407.5 1.5 484.5 -32.5 484.5 -69.0 484.5 -88.0 471.0 -102.5 457.5 -117.5 439.0 -117.5 432.5 -117.5 417.5 -109.5 L359.5 -78.5 Q325.5 -62.5 295.5 -62.5 229.5 -62.5 187.5 -98.0 142.5 -136.0 142.5 -202.0 142.5 -263.0 188.0 -346.5 238.0 -437.5 289.0 -437.5 356.0 -437.5 385.5 -414.0 L406.5 -396.5 Q417.0 -388.0 431.5 -388.0 450.0 -388.0 462.5 -402.5 475.0 -417.5 475.0 -436.5 475.0 -479.0 398.5 -508.5 338.0 -531.5 289.0 -531.5 195.0 -531.5 120.0 -411.5 52.5 -303.5 52.5 -202.0 52.5 -95.5 124.5 -30.5 193.0 31.5 295.5 31.5" fill-rule="evenodd" stroke="none"/>
    </g>
    <g id="font_Comic_Sans_MS_o0">
      <path d="M287.0 -417.0 Q398.5 -416.5 391.5 -223.0 389.0 -151.5 346.5 -109.5 309.0 -71.5 257.0 -71.5 212.5 -71.5 179.5 -105.0 140.0 -145.5 140.0 -218.0 140.0 -290.5 172.5 -347.0 213.5 -417.5 287.0 -417.0 M257.0 29.5 Q362.5 29.5 426.5 -59.5 483.0 -138.0 484.5 -249.0 486.0 -353.0 445.0 -427.0 393.5 -518.5 293.5 -518.5 168.5 -518.5 98.5 -417.0 38.5 -331.0 41.5 -218.0 45.0 -101.5 112.5 -32.5 173.0 29.5 257.0 29.5" fill-rule="evenodd" stroke="none"/>
    </g>
    <g id="font_Comic_Sans_MS_m0">
      <path d="M704.5 41.5 Q726.0 41.5 741.0 27.5 756.0 13.5 754.5 -6.5 732.5 -207.0 718.5 -293.0 704.0 -415.5 698.0 -433.5 667.5 -523.5 584.0 -523.5 535.0 -523.5 497.0 -505.0 459.0 -487.0 431.5 -450.5 402.0 -528.5 323.5 -528.5 288.0 -528.5 237.5 -485.0 187.0 -442.0 161.0 -388.5 L160.0 -441.0 Q160.0 -451.5 162.5 -471.5 165.0 -491.5 165.0 -501.0 165.0 -521.0 149.0 -538.0 132.5 -555.0 113.0 -555.0 62.0 -555.0 62.0 -441.5 62.0 -414.5 67.0 -361.5 71.5 -308.5 71.5 -282.0 71.5 -252.0 66.0 -192.5 60.5 -133.0 60.5 -103.0 60.5 25.5 117.0 25.5 137.5 25.5 153.0 11.5 168.0 -2.5 168.0 -23.0 168.0 -35.0 163.5 -62.0 158.5 -89.0 158.5 -104.0 158.5 -132.0 164.0 -190.5 169.5 -249.0 169.5 -279.0 187.0 -298.5 195.0 -310.5 L254.0 -376.5 Q290.0 -412.5 325.0 -428.5 340.0 -399.0 340.0 -346.0 340.0 -285.5 352.5 -167.0 364.5 -49.0 364.5 11.5 364.5 33.5 378.5 48.0 392.0 62.0 413.5 62.0 435.0 62.0 449.0 48.0 462.5 33.5 462.5 11.5 462.5 -40.0 453.0 -119.0 L438.0 -252.5 Q435.0 -299.5 435.5 -346.5 450.5 -364.0 498.5 -393.0 549.0 -424.5 567.5 -424.5 587.5 -424.5 604.5 -379.5 616.5 -346.5 621.5 -312.0 L638.5 -157.0 Q647.5 -57.0 656.5 -2.0 663.5 41.5 704.5 41.5" fill-rule="evenodd" stroke="none"/>
    </g>
    <g id="font_Comic_Sans_MS_T0">
      <path d="M681.0 -631.5 Q702.5 -631.5 717.0 -646.0 731.5 -661.0 731.5 -682.5 731.5 -704.5 717.0 -719.0 702.5 -734.0 681.0 -734.0 642.5 -734.0 567.0 -739.5 491.0 -745.0 452.5 -745.0 422.5 -745.0 361.5 -743.5 300.5 -742.5 270.5 -742.5 239.5 -742.5 189.5 -748.5 127.0 -756.5 109.5 -757.5 86.0 -759.0 71.0 -741.5 58.0 -726.0 58.0 -705.5 58.0 -666.5 98.5 -656.0 161.0 -640.0 270.5 -640.0 293.5 -640.0 316.0 -640.5 317.5 -579.5 329.5 -439.5 341.0 -310.0 341.0 -238.5 341.0 -213.5 344.5 -164.5 347.5 -115.5 347.5 -91.0 347.5 -83.5 345.0 -68.5 342.5 -53.5 342.5 -46.0 342.5 -24.0 358.5 -10.0 374.5 4.0 394.5 4.0 424.0 4.0 438.0 -29.0 449.0 -53.5 449.0 -87.5 449.0 -105.5 445.5 -141.0 442.0 -176.5 442.0 -194.0 442.0 -274.0 431.0 -418.5 419.0 -573.5 417.5 -642.5 L453.0 -642.5 Q492.0 -643.0 567.0 -637.5 644.0 -631.5 681.0 -631.5" fill-rule="evenodd" stroke="none"/>
    </g>
    <g id="font_Comic_Sans_MS_:0">
      <path d="M198.5 -478.0 Q198.5 -564.5 143.5 -564.5 121.5 -564.5 106.5 -550.5 91.5 -536.5 91.5 -515.0 91.5 -508.5 94.0 -496.0 96.0 -484.0 96.0 -478.0 96.0 -455.5 110.5 -441.0 125.0 -426.5 147.5 -426.5 170.0 -426.5 184.5 -441.0 198.5 -455.5 198.5 -478.0 M207.0 -113.0 Q207.0 -217.0 151.0 -217.0 129.5 -217.0 114.0 -203.0 98.0 -189.0 98.0 -168.0 98.0 -159.0 101.5 -140.5 104.5 -122.5 104.5 -113.0 104.5 -90.5 119.0 -76.0 133.0 -61.5 155.5 -61.5 178.0 -61.5 192.5 -76.0 207.0 -90.5 207.0 -113.0" fill-rule="evenodd" stroke="none"/>
    </g>
    <g id="text1" transform="matrix(1.0, 0.0, 0.0, 1.0, 61.1, -9.55)">
      <g transform="matrix(1.0, 0.0, 0.0, 1.0, -63.5, 0.0)">
        <use fill="#00ccff" height="32.75" transform="matrix(0.0342, 0.0, 0.0, 0.0342, 0.0, 39.0)" width="211.55" xlink:href="#font_Comic_Sans_MS_S0"/>
        <use fill="#00ccff" height="32.75" transform="matrix(0.0342, 0.0, 0.0, 0.0342, 20.0, 39.0)" width="211.55" xlink:href="#font_Comic_Sans_MS_t0"/>
        <use fill="#00ccff" height="32.75" transform="matrix(0.0342, 0.0, 0.0, 0.0342, 32.25, 39.0)" width="211.55" xlink:href="#font_Comic_Sans_MS_e0"/>
        <use fill="#00ccff" height="32.75" transform="matrix(0.0342, 0.0, 0.0, 0.0342, 47.15, 39.0)" width="211.55" xlink:href="#font_Comic_Sans_MS_l0"/>
        <use fill="#00ccff" height="32.75" transform="matrix(0.0342, 0.0, 0.0, 0.0342, 52.5, 39.0)" width="211.55" xlink:href="#font_Comic_Sans_MS_l0"/>
        <use fill="#00ccff" height="32.75" transform="matrix(0.0342, 0.0, 0.0, 0.0342, 57.85, 39.0)" width="211.55" xlink:href="#font_Comic_Sans_MS_a0"/>
        <use fill="#00ccff" height="32.75" transform="matrix(0.0342, 0.0, 0.0, 0.0342, 71.5, 39.0)" width="211.55" xlink:href="#font_Comic_Sans_MS_r0"/>
        <use fill="#00ccff" height="32.75" transform="matrix(0.0342, 0.0, 0.0, 0.0342, 90.25, 39.0)" width="211.55" xlink:href="#font_Comic_Sans_MS_C0"/>
        <use fill="#00ccff" height="32.75" transform="matrix(0.0342, 0.0, 0.0, 0.0342, 107.1, 39.0)" width="211.55" xlink:href="#font_Comic_Sans_MS_o0"/>
        <use fill="#00ccff" height="32.75" transform="matrix(0.0342, 0.0, 0.0, 0.0342, 121.25, 39.0)" width="211.55" xlink:href="#font_Comic_Sans_MS_n0"/>
        <use fill="#00ccff" height="32.75" transform="matrix(0.0342, 0.0, 0.0, 0.0342, 135.3, 39.0)" width="211.55" xlink:href="#font_Comic_Sans_MS_f0"/>
        <use fill="#00ccff" height="32.75" transform="matrix(0.0342, 0.0, 0.0, 0.0342, 148.85, 39.0)" width="211.55" xlink:href="#font_Comic_Sans_MS_l0"/>
        <use fill="#00ccff" height="32.75" transform="matrix(0.0342, 0.0, 0.0, 0.0342, 154.2, 39.0)" width="211.55" xlink:href="#font_Comic_Sans_MS_i0"/>
        <use fill="#00ccff" height="32.75" transform="matrix(0.0342, 0.0, 0.0, 0.0342, 159.75, 39.0)" width="211.55" xlink:href="#font_Comic_Sans_MS_c0"/>
        <use fill="#00ccff" height="32.75" transform="matrix(0.0342, 0.0, 0.0, 0.0342, 173.5, 39.0)" width="211.55" xlink:href="#font_Comic_Sans_MS_t0"/>
        <use fill="#00ccff" height="32.75" transform="matrix(0.0342, 0.0, 0.0, 0.0342, 185.75, 39.0)" width="211.55" xlink:href="#font_Comic_Sans_MS_s0"/>
      </g>
    </g>
    <g id="font_Comic_Sans_MS_S0">
      <path d="M67.0 -124.5 Q68.5 -49.5 161.5 -6.5 237.5 28.5 329.0 28.5 455.0 28.5 550.5 -33.0 660.5 -104.0 660.5 -223.0 660.5 -306.5 601.5 -364.5 537.0 -428.0 422.5 -436.5 343.5 -442.0 316.0 -448.5 242.0 -465.5 242.0 -507.0 242.0 -562.0 298.0 -600.5 352.5 -638.0 430.5 -639.0 458.0 -639.5 508.0 -628.5 558.0 -618.0 578.0 -618.0 623.0 -618.0 623.0 -662.0 623.0 -695.5 542.0 -717.0 481.0 -733.5 432.5 -733.5 329.5 -733.5 233.0 -664.0 132.0 -590.5 132.0 -501.5 132.0 -426.0 203.0 -385.5 258.5 -354.0 337.5 -351.0 426.5 -348.5 487.0 -317.0 558.5 -280.5 558.5 -217.5 558.5 -141.0 473.5 -98.0 407.0 -64.5 329.5 -64.5 248.5 -64.5 206.0 -92.5 186.0 -106.0 160.5 -144.0 142.0 -172.0 117.5 -172.0 96.0 -172.0 81.5 -158.5 66.5 -145.5 67.0 -124.5" fill-rule="evenodd" stroke="none"/>
    </g>
    <g id="font_Comic_Sans_MS_t0">
      <path d="M404.0 -426.0 Q425.5 -426.0 439.5 -440.0 453.0 -454.5 453.0 -476.5 453.0 -513.5 422.5 -523.5 406.5 -528.5 354.5 -528.5 345.5 -528.5 283.5 -520.5 284.0 -536.0 284.0 -551.5 L285.0 -580.5 Q285.0 -606.5 283.5 -625.0 276.0 -698.5 231.0 -698.5 210.0 -698.5 195.5 -684.5 181.0 -671.0 181.0 -650.0 181.0 -631.0 183.5 -588.0 185.5 -545.5 185.5 -520.0 L80.5 -528.5 Q59.5 -528.5 46.0 -514.0 32.5 -499.5 32.5 -477.5 32.5 -434.0 77.0 -428.0 151.5 -421.0 188.0 -419.5 L198.0 -127.5 Q198.0 -108.5 196.5 -70.5 195.0 -32.5 195.0 -13.5 195.0 6.0 210.0 19.0 224.5 32.0 244.5 32.0 299.0 32.0 297.0 -77.5 297.0 -90.0 296.5 -103.0 296.5 -114.0 296.0 -125.0 291.5 -272.5 286.5 -420.5 343.0 -428.0 354.5 -428.0 L379.5 -427.0 404.0 -426.0" fill-rule="evenodd" stroke="none"/>
    </g>
    <g id="font_Comic_Sans_MS_a0">
      <path d="M356.0 -314.5 Q356.0 -248.5 372.0 -116.0 339.5 -87.5 321.5 -78.0 288.0 -60.5 240.0 -60.5 182.0 -60.5 153.0 -101.5 124.0 -142.5 124.0 -224.5 124.0 -307.0 180.5 -370.0 236.5 -433.5 314.0 -433.5 322.0 -433.5 335.5 -429.0 348.5 -424.5 367.0 -415.0 361.5 -386.5 359.0 -361.0 356.0 -336.0 356.0 -314.5 M460.0 33.0 Q478.5 33.0 492.5 20.0 506.5 7.0 506.5 -13.0 L503.5 -21.5 Q495.5 -39.0 492.0 -48.0 465.5 -114.0 460.5 -136.0 451.5 -172.0 452.0 -234.0 452.5 -302.0 455.5 -345.5 458.0 -389.0 463.0 -408.0 473.0 -418.5 473.0 -432.0 473.0 -471.5 405.0 -499.5 351.0 -522.0 307.5 -522.0 192.0 -522.0 109.0 -436.0 25.5 -350.0 25.5 -229.0 25.5 -101.0 76.0 -39.0 129.5 27.0 246.5 27.0 271.0 27.0 307.5 14.0 344.0 0.5 392.0 -25.5 403.0 -9.5 425.5 11.0 450.5 33.0 460.0 33.0" fill-rule="evenodd" stroke="none"/>
    </g>
    <g id="font_Comic_Sans_MS_r0">
      <path d="M458.5 -369.5 Q459.0 -378.5 459.0 -404.5 459.0 -466.0 439.0 -496.5 419.0 -527.0 378.5 -527.0 261.5 -527.0 165.5 -434.5 165.0 -517.5 116.0 -517.5 72.0 -517.5 72.0 -467.0 72.0 -450.5 71.0 -417.5 69.5 -384.5 69.5 -368.0 L69.5 -17.0 Q69.5 33.5 113.5 33.5 163.0 33.5 163.0 -17.0 L162.0 -291.0 Q191.5 -356.5 236.0 -389.0 283.5 -424.0 362.5 -433.5 363.5 -412.5 364.0 -391.5 365.5 -366.0 365.5 -356.5 365.5 -307.0 408.5 -307.0 455.0 -307.0 458.5 -369.5" fill-rule="evenodd" stroke="none"/>
    </g>
    <g id="font_Comic_Sans_MS_C0">
      <path d="M552.0 -561.0 Q577.0 -561.0 590.5 -580.5 601.5 -596.0 601.5 -616.5 601.5 -675.5 593.5 -716.0 584.5 -761.5 550.0 -761.5 522.0 -761.5 504.5 -736.0 489.5 -741.0 470.0 -743.0 450.5 -745.5 426.0 -745.5 305.5 -745.5 187.0 -597.0 45.0 -419.0 45.0 -249.5 45.0 -144.5 114.0 -67.5 185.5 12.0 289.0 12.0 424.0 12.0 556.0 -105.0 575.0 -122.0 575.0 -144.5 575.0 -164.5 560.5 -180.5 546.0 -197.0 524.5 -197.0 510.0 -197.0 481.5 -176.0 421.5 -132.0 392.5 -117.0 340.5 -90.5 289.0 -90.5 229.0 -90.5 186.5 -138.5 145.0 -185.0 145.0 -249.5 145.0 -383.0 265.0 -532.0 353.5 -643.0 426.0 -643.0 467.5 -643.0 478.0 -637.5 490.0 -630.5 504.0 -598.5 520.0 -561.0 552.0 -561.0" fill-rule="evenodd" stroke="none"/>
    </g>
    <g id="font_Comic_Sans_MS_n0">
      <path d="M453.0 35.5 Q474.5 35.5 489.0 22.0 503.0 8.0 503.0 -14.0 503.0 -55.0 492.5 -120.5 481.5 -186.5 481.5 -228.0 482.0 -251.0 482.0 -274.5 L482.0 -325.0 Q480.0 -417.0 458.5 -464.0 427.0 -534.5 347.0 -534.5 258.5 -534.5 174.5 -422.5 174.0 -451.5 173.0 -481.0 168.5 -546.0 122.5 -546.0 101.5 -546.0 87.5 -532.0 73.0 -518.5 73.0 -497.0 73.0 -481.0 75.0 -449.5 76.5 -418.0 76.5 -402.0 76.5 -350.5 69.5 -259.0 62.0 -168.0 62.0 -116.5 62.0 -101.5 65.5 -71.5 68.5 -41.5 68.5 -26.5 68.5 -4.0 82.0 10.0 95.5 24.0 117.5 24.0 139.0 24.0 153.0 10.0 166.5 -4.0 166.5 -26.5 166.5 -41.5 163.5 -71.5 160.5 -101.5 160.5 -116.5 160.5 -140.0 163.5 -165.0 167.0 -194.5 168.0 -214.0 194.0 -306.5 240.0 -367.0 291.0 -433.5 347.0 -433.5 387.0 -433.5 387.0 -325.5 387.0 -311.5 385.5 -278.0 383.5 -244.5 383.5 -230.5 383.5 -179.5 390.5 -121.0 L404.5 -11.5 Q410.0 35.5 453.0 35.5" fill-rule="evenodd" stroke="none"/>
    </g>
    <g id="font_Comic_Sans_MS_f0">
      <path d="M405.5 -703.0 Q470.5 -703.0 470.5 -751.0 470.5 -799.5 399.0 -799.5 288.5 -799.5 236.5 -736.0 193.5 -683.5 180.5 -572.5 174.5 -524.5 173.0 -496.5 L125.0 -495.0 Q37.5 -492.5 37.5 -443.0 37.5 -394.5 88.0 -394.5 104.5 -394.5 167.0 -399.5 L167.0 -254.5 Q168.0 -186.0 168.5 -118.0 168.5 -41.5 158.0 23.5 157.0 29.5 157.0 33.5 157.0 53.5 171.5 67.0 186.0 80.0 206.5 80.0 244.5 80.0 253.0 40.0 264.0 -13.0 264.0 -108.0 264.0 -138.5 262.0 -200.5 260.0 -262.5 260.0 -293.5 L264.0 -407.5 Q356.5 -415.0 379.5 -414.0 402.0 -413.5 419.0 -416.5 458.0 -423.5 458.0 -460.0 458.0 -510.0 378.5 -510.0 353.5 -510.0 268.5 -504.0 269.5 -519.5 270.0 -535.0 284.5 -703.0 405.5 -703.0" fill-rule="evenodd" stroke="none"/>
    </g>
    <g id="font_Comic_Sans_MS_i0">
      <path d="M187.5 -227.0 Q187.5 -274.0 192.5 -344.0 197.5 -414.5 197.5 -461.5 197.5 -484.0 184.0 -498.0 170.0 -512.0 148.5 -512.0 127.0 -512.0 113.5 -498.0 99.5 -484.0 99.5 -461.5 99.5 -414.5 94.5 -344.0 89.5 -274.0 89.5 -227.0 89.5 -197.0 91.5 -137.0 93.0 -77.5 93.0 -47.5 93.0 -25.5 107.0 -11.5 120.5 2.5 142.0 2.5 164.0 2.5 177.5 -11.5 191.0 -25.5 191.0 -47.5 191.0 -77.5 189.5 -137.0 187.5 -197.0 187.5 -227.0 M165.0 -633.0 Q189.0 -633.0 206.5 -650.0 223.5 -667.0 223.5 -691.0 223.5 -715.0 206.5 -732.0 189.0 -749.0 165.0 -749.0 141.0 -749.0 123.5 -732.0 106.0 -715.0 106.0 -691.0 106.0 -667.0 123.5 -650.0 141.0 -633.0 165.0 -633.0" fill-rule="evenodd" stroke="none"/>
    </g>
    <g id="font_Comic_Sans_MS_s0">
      <path d="M407.0 -385.0 Q428.5 -385.0 442.5 -399.0 456.0 -413.0 456.0 -435.5 456.0 -450.0 450.0 -478.0 443.5 -506.0 443.5 -520.5 443.5 -543.0 430.0 -557.0 416.0 -571.0 394.5 -571.0 370.5 -571.0 350.0 -562.0 321.5 -549.0 255.5 -530.0 189.5 -511.5 159.5 -498.0 61.0 -453.5 61.0 -349.0 61.0 -292.5 101.5 -264.5 129.5 -245.0 196.0 -230.5 222.0 -224.5 248.0 -219.0 343.0 -195.0 343.0 -127.0 343.0 -95.5 296.5 -81.0 264.5 -71.0 222.5 -71.0 199.5 -71.0 166.0 -77.0 124.0 -84.5 112.0 -96.0 87.5 -120.0 72.0 -120.0 52.0 -120.0 36.5 -105.0 20.5 -90.0 20.5 -70.0 20.5 -20.0 97.5 8.0 157.0 30.0 222.5 30.0 312.0 30.0 370.5 -4.0 441.0 -45.5 441.0 -127.0 441.0 -226.5 359.5 -279.0 303.5 -315.0 188.5 -335.5 174.0 -338.0 159.0 -343.5 159.5 -390.5 240.0 -422.5 318.0 -448.0 355.5 -457.5 361.0 -416.5 368.5 -403.5 379.5 -385.0 407.0 -385.0" fill-rule="evenodd" stroke="none"/>
    </g>
    <g id="text2" transform="matrix(1.0, 0.0, 0.0, 1.0, 61.1, -9.55)">
      <g transform="matrix(1.0, 0.0, 0.0, 1.0, -63.5, 0.0)">
        <use fill="#0099ff" height="32.75" transform="matrix(0.0342, 0.0, 0.0, 0.0342, 0.0, 39.0)" width="211.55" xlink:href="#font_Comic_Sans_MS_S0"/>
        <use fill="#0099ff" height="32.75" transform="matrix(0.0342, 0.0, 0.0, 0.0342, 20.0, 39.0)" width="211.55" xlink:href="#font_Comic_Sans_MS_t0"/>
        <use fill="#0099ff" height="32.75" transform="matrix(0.0342, 0.0, 0.0, 0.0342, 32.25, 39.0)" width="211.55" xlink:href="#font_Comic_Sans_MS_e0"/>
        <use fill="#0099ff" height="32.75" transform="matrix(0.0342, 0.0, 0.0, 0.0342, 47.15, 39.0)" width="211.55" xlink:href="#font_Comic_Sans_MS_l0"/>
        <use fill="#0099ff" height="32.75" transform="matrix(0.0342, 0.0, 0.0, 0.0342, 52.5, 39.0)" width="211.55" xlink:href="#font_Comic_Sans_MS_l0"/>
        <use fill="#0099ff" height="32.75" transform="matrix(0.0342, 0.0, 0.0, 0.0342, 57.85, 39.0)" width="211.55" xlink:href="#font_Comic_Sans_MS_a0"/>
        <use fill="#0099ff" height="32.75" transform="matrix(0.0342, 0.0, 0.0, 0.0342, 71.5, 39.0)" width="211.55" xlink:href="#font_Comic_Sans_MS_r0"/>
        <use fill="#0099ff" height="32.75" transform="matrix(0.0342, 0.0, 0.0, 0.0342, 90.25, 39.0)" width="211.55" xlink:href="#font_Comic_Sans_MS_C0"/>
        <use fill="#0099ff" height="32.75" transform="matrix(0.0342, 0.0, 0.0, 0.0342, 107.1, 39.0)" width="211.55" xlink:href="#font_Comic_Sans_MS_o0"/>
        <use fill="#0099ff" height="32.75" transform="matrix(0.0342, 0.0, 0.0, 0.0342, 121.25, 39.0)" width="211.55" xlink:href="#font_Comic_Sans_MS_n0"/>
        <use fill="#0099ff" height="32.75" transform="matrix(0.0342, 0.0, 0.0, 0.0342, 135.3, 39.0)" width="211.55" xlink:href="#font_Comic_Sans_MS_f0"/>
        <use fill="#0099ff" height="32.75" transform="matrix(0.0342, 0.0, 0.0, 0.0342, 148.85, 39.0)" width="211.55" xlink:href="#font_Comic_Sans_MS_l0"/>
        <use fill="#0099ff" height="32.75" transform="matrix(0.0342, 0.0, 0.0, 0.0342, 154.2, 39.0)" width="211.55" xlink:href="#font_Comic_Sans_MS_i0"/>
        <use fill="#0099ff" height="32.75" transform="matrix(0.0342, 0.0, 0.0, 0.0342, 159.75, 39.0)" width="211.55" xlink:href="#font_Comic_Sans_MS_c0"/>
        <use fill="#0099ff" height="32.75" transform="matrix(0.0342, 0.0, 0.0, 0.0342, 173.5, 39.0)" width="211.55" xlink:href="#font_Comic_Sans_MS_t0"/>
        <use fill="#0099ff" height="32.75" transform="matrix(0.0342, 0.0, 0.0, 0.0342, 185.75, 39.0)" width="211.55" xlink:href="#font_Comic_Sans_MS_s0"/>
      </g>
    </g>
    <g id="text3" transform="matrix(1.0, 0.0, 0.0, 1.0, 61.1, -9.55)">
      <g transform="matrix(1.0, 0.0, 0.0, 1.0, -63.5, 0.0)">
        <use fill="#0033ff" height="32.75" transform="matrix(0.0342, 0.0, 0.0, 0.0342, 0.0, 39.0)" width="211.55" xlink:href="#font_Comic_Sans_MS_S0"/>
        <use fill="#0033ff" height="32.75" transform="matrix(0.0342, 0.0, 0.0, 0.0342, 20.0, 39.0)" width="211.55" xlink:href="#font_Comic_Sans_MS_t0"/>
        <use fill="#0033ff" height="32.75" transform="matrix(0.0342, 0.0, 0.0, 0.0342, 32.25, 39.0)" width="211.55" xlink:href="#font_Comic_Sans_MS_e0"/>
        <use fill="#0033ff" height="32.75" transform="matrix(0.0342, 0.0, 0.0, 0.0342, 47.15, 39.0)" width="211.55" xlink:href="#font_Comic_Sans_MS_l0"/>
        <use fill="#0033ff" height="32.75" transform="matrix(0.0342, 0.0, 0.0, 0.0342, 52.5, 39.0)" width="211.55" xlink:href="#font_Comic_Sans_MS_l0"/>
        <use fill="#0033ff" height="32.75" transform="matrix(0.0342, 0.0, 0.0, 0.0342, 57.85, 39.0)" width="211.55" xlink:href="#font_Comic_Sans_MS_a0"/>
        <use fill="#0033ff" height="32.75" transform="matrix(0.0342, 0.0, 0.0, 0.0342, 71.5, 39.0)" width="211.55" xlink:href="#font_Comic_Sans_MS_r0"/>
        <use fill="#0033ff" height="32.75" transform="matrix(0.0342, 0.0, 0.0, 0.0342, 90.25, 39.0)" width="211.55" xlink:href="#font_Comic_Sans_MS_C0"/>
        <use fill="#0033ff" height="32.75" transform="matrix(0.0342, 0.0, 0.0, 0.0342, 107.1, 39.0)" width="211.55" xlink:href="#font_Comic_Sans_MS_o0"/>
        <use fill="#0033ff" height="32.75" transform="matrix(0.0342, 0.0, 0.0, 0.0342, 121.25, 39.0)" width="211.55" xlink:href="#font_Comic_Sans_MS_n0"/>
        <use fill="#0033ff" height="32.75" transform="matrix(0.0342, 0.0, 0.0, 0.0342, 135.3, 39.0)" width="211.55" xlink:href="#font_Comic_Sans_MS_f0"/>
        <use fill="#0033ff" height="32.75" transform="matrix(0.0342, 0.0, 0.0, 0.0342, 148.85, 39.0)" width="211.55" xlink:href="#font_Comic_Sans_MS_l0"/>
        <use fill="#0033ff" height="32.75" transform="matrix(0.0342, 0.0, 0.0, 0.0342, 154.2, 39.0)" width="211.55" xlink:href="#font_Comic_Sans_MS_i0"/>
        <use fill="#0033ff" height="32.75" transform="matrix(0.0342, 0.0, 0.0, 0.0342, 159.75, 39.0)" width="211.55" xlink:href="#font_Comic_Sans_MS_c0"/>
        <use fill="#0033ff" height="32.75" transform="matrix(0.0342, 0.0, 0.0, 0.0342, 173.5, 39.0)" width="211.55" xlink:href="#font_Comic_Sans_MS_t0"/>
        <use fill="#0033ff" height="32.75" transform="matrix(0.0342, 0.0, 0.0, 0.0342, 185.75, 39.0)" width="211.55" xlink:href="#font_Comic_Sans_MS_s0"/>
      </g>
    </g>
    <g id="text4" transform="matrix(1.0, 0.0, 0.0, 1.0, 2.0, 2.0)">
      <g transform="matrix(1.0, 0.0, 0.0, 1.0, -2.0, -2.0)">
        <use fill="#00ccff" height="205.4" transform="matrix(0.0117, 0.0, 0.0, 0.0117, 0.0, 12.75)" width="212.0" xlink:href="#font_Arial_T0"/>
        <use fill="#00ccff" height="205.4" transform="matrix(0.0117, 0.0, 0.0, 0.0117, 7.35, 12.75)" width="212.0" xlink:href="#font_Arial_O0"/>
        <use fill="#00ccff" height="205.4" transform="matrix(0.0117, 0.0, 0.0, 0.0117, 16.7, 12.75)" width="212.0" xlink:href="#font_Arial_P0"/>
      </g>
      <g transform="matrix(1.0, 0.0, 0.0, 1.0, -2.0, -2.0)">
        <use fill="#00ccff" height="205.4" transform="matrix(0.0117, 0.0, 0.0, 0.0117, 28.05, 12.75)" width="212.0" xlink:href="#font_Arial_T0"/>
        <use fill="#00ccff" height="205.4" transform="matrix(0.0117, 0.0, 0.0, 0.0117, 35.4, 12.75)" width="212.0" xlink:href="#font_Arial_E0"/>
        <use fill="#00ccff" height="205.4" transform="matrix(0.0117, 0.0, 0.0, 0.0117, 43.4, 12.75)" width="212.0" xlink:href="#font_Arial_N0"/>
      </g>
      <g transform="matrix(1.0, 0.0, 0.0, 1.0, -2.0, -2.0)">
        <use fill="#00ccff" height="205.4" transform="matrix(0.0117, 0.0, 0.0, 0.0117, 55.4, 12.75)" width="212.0" xlink:href="#font_Arial_S0"/>
        <use fill="#00ccff" height="205.4" transform="matrix(0.0117, 0.0, 0.0, 0.0117, 63.4, 12.75)" width="212.0" xlink:href="#font_Arial_C0"/>
        <use fill="#00ccff" height="205.4" transform="matrix(0.0117, 0.0, 0.0, 0.0117, 72.05, 12.75)" width="212.0" xlink:href="#font_Arial_O0"/>
        <use fill="#00ccff" height="205.4" transform="matrix(0.0117, 0.0, 0.0, 0.0117, 81.4, 12.75)" width="212.0" xlink:href="#font_Arial_R0"/>
        <use fill="#00ccff" height="205.4" transform="matrix(0.0117, 0.0, 0.0, 0.0117, 90.05, 12.75)" width="212.0" xlink:href="#font_Arial_E0"/>
        <use fill="#00ccff" height="205.4" transform="matrix(0.0117, 0.0, 0.0, 0.0117, 98.05, 12.75)" width="212.0" xlink:href="#font_Arial_S0"/>
        <use fill="#00ccff" height="205.4" transform="matrix(0.0117, 0.0, 0.0, 0.0117, 106.05, 12.75)" width="212.0" xlink:href="#font_Arial__1"/>
        <use fill="#00ccff" height="205.4" transform="matrix(0.0117, 0.0, 0.0, 0.0117, 109.4, 12.75)" width="212.0" xlink:href="#font_Arial__1"/>
        <use fill="#00ccff" height="205.4" transform="matrix(0.0117, 0.0, 0.0, 0.0117, 112.75, 12.75)" width="212.0" xlink:href="#font_Arial__1"/>
        <use fill="#00ccff" height="205.4" transform="matrix(0.0117, 0.0, 0.0, 0.0117, 116.1, 12.75)" width="212.0" xlink:href="#font_Arial__1"/>
      </g>
    </g>
    <g id="font_Arial_T0">
      <path d="M265.5 0.0 L362.5 0.0 362.5 -646.5 605.0 -646.5 605.0 -733.0 24.0 -733.0 24.0 -646.5 265.5 -646.5 265.5 0.0" fill-rule="evenodd" stroke="none"/>
    </g>
    <g id="font_Arial_O0">
      <path d="M149.5 -355.5 Q149.5 -521.0 224.0 -591.5 298.0 -662.5 401.0 -662.5 473.5 -662.5 532.0 -625.5 590.0 -589.0 620.5 -522.0 650.5 -455.5 650.5 -366.0 650.5 -224.5 580.0 -147.5 509.0 -70.5 399.5 -70.5 292.0 -70.5 221.0 -146.5 149.5 -223.0 149.5 -355.5 M49.5 -357.0 Q49.5 -260.5 91.5 -174.0 133.5 -87.5 215.0 -37.5 296.5 12.5 400.0 12.5 495.5 12.5 578.0 -32.5 660.5 -78.0 705.5 -166.0 750.5 -254.0 750.5 -365.5 750.5 -475.5 708.0 -562.0 665.0 -649.0 583.5 -697.5 502.0 -746.0 400.5 -746.0 245.5 -746.0 147.5 -642.5 49.5 -539.5 49.5 -357.0" fill-rule="evenodd" stroke="none"/>
    </g>
    <g id="font_Arial_P0">
      <path d="M176.0 -384.5 L176.0 -646.5 363.5 -646.5 Q429.5 -646.5 454.0 -640.0 492.0 -629.5 515.5 -596.5 538.5 -564.0 538.5 -518.0 538.5 -454.5 499.0 -419.5 459.5 -384.5 365.5 -384.5 L176.0 -384.5 M79.0 0.0 L176.0 0.0 176.0 -298.0 364.0 -298.0 Q519.5 -298.0 579.0 -362.5 638.5 -427.5 638.5 -521.0 638.5 -575.5 616.5 -621.0 594.0 -666.5 557.5 -691.5 521.0 -717.0 467.0 -726.0 428.5 -733.0 355.5 -733.0 L79.0 -733.0 79.0 0.0" fill-rule="evenodd" stroke="none"/>
    </g>
    <g id="font_Arial_E0">
      <path d="M81.0 0.0 L628.0 0.0 628.0 -86.5 178.0 -86.5 178.0 -336.0 583.5 -336.0 583.5 -422.0 178.0 -422.0 178.0 -646.5 611.0 -646.5 611.0 -733.0 81.0 -733.0 81.0 0.0" fill-rule="evenodd" stroke="none"/>
    </g>
    <g id="font_Arial_N0">
      <path d="M78.0 0.0 L171.0 0.0 171.0 -576.0 556.0 0.0 655.5 0.0 655.5 -733.0 562.5 -733.0 562.5 -157.5 Q370.0 -445.0 177.5 -733.0 L78.0 -733.0 78.0 0.0" fill-rule="evenodd" stroke="none"/>
    </g>
    <g id="font_Arial_S0">
      <path d="M46.0 -235.5 Q48.0 -162.0 86.5 -103.5 124.5 -45.5 192.0 -16.5 259.0 12.5 358.5 12.5 437.0 12.5 500.0 -16.0 562.5 -45.0 596.0 -96.5 629.5 -148.5 629.5 -207.0 629.5 -266.0 599.0 -311.0 568.5 -356.5 504.5 -386.0 460.5 -406.0 342.5 -432.5 224.0 -459.5 196.0 -485.0 167.5 -510.5 167.5 -550.0 167.5 -595.5 208.0 -627.5 248.0 -660.0 336.0 -660.0 420.5 -660.0 464.0 -624.5 507.0 -589.0 514.5 -519.5 L607.5 -526.5 Q605.0 -591.0 571.5 -642.0 538.0 -693.0 476.0 -719.0 413.5 -745.5 332.0 -745.5 258.0 -745.5 197.5 -720.5 137.0 -695.5 105.5 -647.0 74.0 -599.0 74.0 -543.5 74.0 -493.0 100.0 -452.0 125.5 -411.5 178.0 -384.0 218.5 -362.5 319.5 -338.0 420.5 -314.0 450.0 -302.5 496.0 -285.0 516.0 -259.0 536.0 -233.5 536.0 -199.0 536.0 -165.0 515.5 -136.0 494.5 -107.5 452.0 -91.0 409.5 -74.5 354.0 -74.5 291.5 -74.5 241.5 -96.0 191.5 -118.0 168.0 -153.0 144.0 -188.5 137.5 -243.5 L46.0 -235.5" fill-rule="evenodd" stroke="none"/>
    </g>
    <g id="font_Arial_C0">
      <path d="M602.0 -257.0 Q582.0 -164.5 525.5 -117.5 469.0 -70.5 387.5 -70.5 320.5 -70.5 263.0 -105.0 205.5 -139.5 178.5 -209.0 151.0 -279.0 151.0 -372.5 151.0 -445.0 174.0 -513.0 197.0 -581.5 254.0 -622.0 310.5 -662.5 395.0 -662.5 468.5 -662.5 517.0 -626.0 565.5 -589.5 591.0 -509.5 639.0 -520.5 686.5 -532.0 657.0 -633.5 582.0 -689.5 507.0 -745.5 397.0 -745.5 300.0 -745.5 219.5 -701.0 138.5 -657.0 95.0 -571.5 51.0 -486.5 51.0 -372.0 51.0 -267.0 90.0 -175.5 128.5 -84.0 203.0 -35.5 277.0 12.5 395.5 12.5 510.0 12.5 589.5 -50.0 668.5 -113.0 699.0 -232.5 650.5 -244.5 602.0 -257.0" fill-rule="evenodd" stroke="none"/>
    </g>
    <g id="font_Arial_R0">
      <path d="M177.5 -409.5 L177.5 -652.0 409.5 -652.0 Q491.0 -652.0 529.0 -618.5 566.5 -585.0 566.5 -533.0 566.5 -497.5 547.0 -467.0 527.5 -437.0 490.0 -423.0 452.5 -409.5 386.0 -409.5 L177.5 -409.5 M80.5 0.0 L177.5 0.0 177.5 -325.5 290.0 -325.5 Q327.5 -325.5 344.0 -322.0 366.5 -316.5 388.5 -302.5 410.0 -288.5 437.5 -253.5 465.0 -218.5 507.5 -152.5 L604.5 0.0 726.5 0.0 599.0 -199.5 Q561.0 -258.0 518.5 -297.0 498.5 -315.0 460.0 -333.5 565.5 -348.0 616.0 -401.5 666.5 -455.0 666.5 -533.0 666.5 -593.5 636.0 -643.5 605.5 -693.5 554.5 -713.0 503.5 -733.0 405.5 -733.0 L80.5 -733.0 80.5 0.0" fill-rule="evenodd" stroke="none"/>
    </g>
    <g id="font_Arial__1">
      <path d="M92.0 0.0 L195.5 0.0 195.5 -102.5 92.0 -102.5 92.0 0.0 M115.5 -182.0 L173.5 -182.0 199.5 -570.5 199.5 -733.0 88.0 -733.0 88.0 -570.5 Q102.0 -376.0 115.5 -182.0" fill-rule="evenodd" stroke="none"/>
    </g>
  </defs>
</svg>
