<?xml version="1.0" encoding="UTF-8" standalone="no"?>
<svg xmlns:xlink="http://www.w3.org/1999/xlink" height="441.2px" width="1337.7px" xmlns="http://www.w3.org/2000/svg">
  <g transform="matrix(1.0, 0.0, 0.0, 1.0, 765.7, 319.5)">
    <use data-characterId="1264" height="121.0" transform="matrix(1.0, 0.0, 0.0, 1.0, -200.45, -224.25)" width="401.0" xlink:href="#shape0"/>
  </g>
  <defs>
    <g id="shape0" transform="matrix(1.0, 0.0, 0.0, 1.0, 200.45, 224.25)">
      <path d="M200.05 -103.75 L-199.95 -103.75 -199.95 -223.75 200.05 -223.75 200.05 -103.75 Z" fill="none" stroke="#cccccc" stroke-linecap="round" stroke-linejoin="round" stroke-width="1.0"/>
    </g>
  </defs>
</svg>
