<?xml version="1.0" encoding="UTF-8" standalone="no"?>
<svg xmlns:xlink="http://www.w3.org/1999/xlink" height="168.0px" width="168.0px" xmlns="http://www.w3.org/2000/svg">
  <g transform="matrix(1.0, 0.0, 0.0, 1.0, 84.0, 84.0)">
    <use data-characterId="419" height="143.0" transform="matrix(1.0, 0.0, 0.0, 1.0, -74.0, -80.0)" width="149.0" xlink:href="#shape0"/>
    <use data-characterId="420" height="15.4" id="baseiddisp" transform="matrix(1.0, 0.0, 0.0, 1.0, -60.4, 55.3)" width="126.85" xlink:href="#text0"/>
    <use data-characterId="424" data-characterName="sc313_fla.squadbasetype2shield_262" height="168.0" id="shieldimage" transform="matrix(1.0, 0.0, 0.0, 1.0, -84.0, -84.0)" width="168.0" xlink:href="#sprite0"/>
  </g>
  <defs>
    <g id="shape0" transform="matrix(1.0, 0.0, 0.0, 1.0, 74.0, 80.0)">
      <path d="M11.9 -56.15 L10.9 -55.1 Q6.8 -51.0 1.0 -51.0 -4.8 -51.0 -8.9 -55.1 -10.3 -56.5 -11.25 -58.15 -13.0 -61.2 -13.0 -65.0 -13.0 -68.9 -11.15 -72.0 L-8.9 -74.9 Q-4.8 -79.0 1.0 -79.0 6.8 -79.0 10.9 -74.9 12.25 -73.55 13.2 -72.0 15.0 -68.9 15.0 -65.0 15.0 -59.95 11.9 -56.15 M-48.05 37.35 Q-44.25 34.0 -39.0 34.0 -33.2 34.0 -29.1 38.1 -25.0 42.2 -25.0 48.0 -25.0 51.8 -26.75 54.9 -27.7 56.5 -29.1 57.9 -33.2 62.0 -39.0 62.0 -44.8 62.0 -48.9 57.9 -53.0 53.8 -53.0 48.0 -53.0 42.2 -48.9 38.1 L-48.05 37.35" fill="#dd0000" fill-rule="evenodd" stroke="none"/>
      <path d="M-11.25 -58.15 Q-10.3 -56.5 -8.9 -55.1 -4.8 -51.0 1.0 -51.0 6.8 -51.0 10.9 -55.1 L11.9 -56.15 15.55 -48.45 Q9.75 -47.35 5.4 -42.95 3.95 -41.5 2.85 -39.9 L2.25 -39.95 0.4 -40.0 0.0 -40.0 -2.3 -39.95 Q-3.5 -41.7 -5.05 -43.3 -10.5 -48.7 -17.95 -49.1 L-11.25 -58.15 M36.15 -17.55 Q39.5 -22.45 39.55 -28.8 39.5 -31.35 39.0 -33.7 L49.05 -33.7 Q46.0 -30.0 46.0 -25.0 46.0 -19.2 50.1 -15.1 53.8 -11.4 58.9 -11.05 L49.65 -3.7 47.2 -6.65 Q43.3 -10.55 38.35 -11.8 37.45 -14.8 36.15 -17.55 M47.2 34.4 Q44.35 33.0 41.0 33.0 35.2 33.0 31.1 37.1 27.0 41.2 27.0 47.0 27.0 49.7 27.9 52.05 L16.1 47.55 Q20.4 42.2 20.45 35.05 L20.45 34.85 20.45 34.55 Q23.4 32.75 26.15 30.35 L28.35 28.35 29.4 27.2 30.0 27.3 33.05 27.5 34.0 27.5 Q37.7 27.3 40.9 26.0 L47.2 34.4 M-19.55 35.35 Q-19.5 42.35 -15.2 47.55 L-26.75 54.9 Q-25.0 51.8 -25.0 48.0 -25.0 42.2 -29.1 38.1 -33.2 34.0 -39.0 34.0 -44.25 34.0 -48.05 37.35 L-42.6 25.25 Q-39.55 26.9 -36.05 27.4 L-33.0 27.6 -32.05 27.6 -29.3 27.3 -28.3 28.35 -26.0 30.5 -25.95 30.5 Q-23.15 32.95 -20.0 34.8 L-19.55 35.05 -19.55 35.35 M-60.95 -12.1 L-59.0 -12.0 Q-53.2 -12.0 -49.1 -16.1 -45.0 -20.2 -45.0 -26.0 -45.0 -30.5 -47.45 -34.0 L-38.65 -34.0 Q-39.2 -31.7 -39.2 -29.15 -39.2 -22.9 -35.9 -18.0 L-37.85 -13.35 -38.4 -11.7 Q-43.3 -10.4 -47.15 -6.55 -49.0 -4.75 -50.25 -2.65 L-60.95 -12.1" fill="#999999" fill-rule="evenodd" stroke="none"/>
      <path d="M2.85 -39.9 Q3.95 -41.5 5.4 -42.95 9.75 -47.35 15.55 -48.45 L19.55 -48.8 Q27.85 -48.8 33.7 -42.95 37.7 -38.9 39.0 -33.7 39.5 -31.35 39.55 -28.8 39.5 -22.45 36.15 -17.55 L34.8 -20.0 34.6 -20.35 Q32.05 -24.6 28.35 -28.3 L26.25 -30.25 26.25 -30.3 Q23.0 -33.1 19.45 -35.1 L19.35 -35.15 Q11.85 -39.35 2.85 -39.9 M38.35 -11.8 Q43.3 -10.55 47.2 -6.65 L49.65 -3.7 Q53.0 1.2 53.05 7.5 53.0 15.8 47.2 21.65 44.3 24.5 40.9 26.0 37.7 27.3 34.0 27.5 L33.05 27.5 30.0 27.3 29.65 27.0 Q32.45 23.9 34.5 20.55 L34.7 20.4 34.7 20.25 34.8 20.0 Q40.0 11.1 40.0 0.0 40.0 -6.25 38.35 -11.8 M20.45 35.05 Q20.4 42.2 16.1 47.55 L14.6 49.2 Q9.1 54.7 1.4 55.05 L0.45 55.05 -2.6 54.85 Q-9.0 53.95 -13.7 49.2 L-15.2 47.55 Q-19.5 42.35 -19.55 35.35 L-19.1 35.3 -13.15 37.95 Q-7.55 39.8 -1.2 40.0 L-0.95 40.0 -0.7 40.0 -0.45 40.0 -0.15 40.0 0.0 40.0 0.35 40.0 0.45 40.0 0.5 40.05 0.6 40.0 Q11.3 39.85 20.0 34.85 L20.3 34.85 20.45 35.05" fill="#0066cc" fill-rule="evenodd" stroke="none"/>
      <path d="M0.0 -40.0 L0.4 -40.0 2.25 -39.95 Q17.35 -39.2 28.25 -28.35 39.95 -16.65 40.0 -0.15 L26.35 -0.45 40.0 -0.15 40.0 0.0 Q40.0 16.55 28.25 28.25 L27.55 28.95 Q18.35 37.75 6.3 39.55 L1.25 40.0 0.6 40.0 0.45 40.0 0.35 40.0 0.0 40.0 -0.15 40.0 -0.45 40.0 -0.7 40.0 -0.95 40.0 -1.2 40.0 Q-7.55 39.8 -13.15 37.95 L-19.1 35.3 -19.55 35.05 Q-24.25 32.35 -28.35 28.25 L-28.65 27.9 -18.05 19.2 -18.55 18.55 -17.95 19.15 Q-10.9 25.8 -1.25 26.25 L0.05 26.3 0.55 26.3 1.4 26.25 Q11.4 25.8 18.6 18.55 L18.85 18.35 Q26.3 10.7 26.35 0.0 L26.35 -0.45 Q26.15 -11.05 18.6 -18.55 L18.05 -19.1 28.25 -28.35 18.05 -19.1 Q10.5 -26.25 0.05 -26.25 L0.0 -40.0 M0.55 26.3 L1.25 40.0 0.55 26.3 M18.85 18.35 L27.55 28.95 18.85 18.35 M-28.0 -28.7 L-27.95 -28.65 -28.35 -28.35 -28.0 -28.7 M-17.95 19.15 L-18.05 19.2 -17.95 19.15" fill="#0066ff" fill-rule="evenodd" stroke="none"/>
      <path d="M-2.3 -39.95 L0.0 -40.0 0.05 -26.25 Q-10.05 -26.3 -17.4 -19.65 L-27.95 -28.65 -17.4 -19.65 -18.55 -18.55 Q-26.05 -11.1 -26.25 -0.6 L-26.25 0.0 Q-26.25 10.85 -18.55 18.55 L-18.05 19.2 -28.65 27.9 -30.85 25.55 -34.8 20.0 -34.9 19.85 -34.95 19.7 -37.6 14.05 -39.95 1.9 -40.0 0.0 -40.0 -0.65 Q-39.95 -6.5 -38.4 -11.7 L-37.85 -13.35 -35.9 -18.0 -35.3 -19.1 Q-32.6 -24.05 -28.35 -28.35 L-27.95 -28.65 -28.0 -28.7 Q-23.7 -32.9 -18.75 -35.5 L-2.3 -39.95 M-26.25 -0.6 L-40.0 -0.65 -26.25 -0.6" fill="#0044bb" fill-rule="evenodd" stroke="none"/>
      <path d="M-17.4 -19.65 Q-10.05 -26.3 0.05 -26.25 10.5 -26.25 18.05 -19.1 L18.6 -18.55 Q26.15 -11.05 26.35 -0.45 L26.35 0.0 Q26.3 10.7 18.85 18.35 L18.6 18.55 Q11.4 25.8 1.4 26.25 L0.55 26.3 0.05 26.3 -1.25 26.25 Q-10.9 25.8 -17.95 19.15 L-18.55 18.55 Q-26.25 10.85 -26.25 0.0 L-26.25 -0.6 Q-26.05 -11.1 -18.55 -18.55 L-17.4 -19.65 M11.4 -5.8 Q9.05 -5.8 7.4 -4.15 5.7 -2.45 5.7 0.0 5.7 2.35 7.4 4.05 9.05 5.75 11.4 5.8 13.8 5.75 15.5 4.05 17.15 2.35 17.15 0.0 17.15 -2.45 15.5 -4.15 13.8 -5.8 11.4 -5.8 M-7.25 -4.15 Q-9.0 -5.8 -11.4 -5.75 -13.8 -5.8 -15.45 -4.15 -17.15 -2.45 -17.15 0.0 -17.15 2.35 -15.45 4.05 -13.8 5.75 -11.4 5.8 -9.0 5.75 -7.25 4.05 -5.6 2.35 -5.6 0.0 -5.6 -2.45 -7.25 -4.15" fill="#0099ff" fill-rule="evenodd" stroke="none"/>
      <path d="M58.9 -11.05 Q53.8 -11.4 50.1 -15.1 46.0 -19.2 46.0 -25.0 46.0 -30.0 49.05 -33.7 L50.1 -34.9 Q54.2 -39.0 60.0 -39.0 65.8 -39.0 69.9 -34.9 74.0 -30.8 74.0 -25.0 74.0 -19.2 69.9 -15.1 65.8 -11.0 60.0 -11.0 L58.9 -11.05 M11.4 -5.8 Q13.8 -5.8 15.5 -4.15 17.15 -2.45 17.15 0.0 17.15 2.35 15.5 4.05 13.8 5.75 11.4 5.8 9.05 5.75 7.4 4.05 5.7 2.35 5.7 0.0 5.7 -2.45 7.4 -4.15 9.05 -5.8 11.4 -5.8 M27.9 52.05 Q27.0 49.7 27.0 47.0 27.0 41.2 31.1 37.1 35.2 33.0 41.0 33.0 44.35 33.0 47.2 34.4 49.2 35.4 50.9 37.1 55.0 41.2 55.0 47.0 55.0 52.8 50.9 56.9 46.8 61.0 41.0 61.0 35.2 61.0 31.1 56.9 28.9 54.7 27.9 52.05 M-7.25 -4.15 Q-5.6 -2.45 -5.6 0.0 -5.6 2.35 -7.25 4.05 -9.0 5.75 -11.4 5.8 -13.8 5.75 -15.45 4.05 -17.15 2.35 -17.15 0.0 -17.15 -2.45 -15.45 -4.15 -13.8 -5.8 -11.4 -5.75 -9.0 -5.8 -7.25 -4.15" fill="#ff0000" fill-rule="evenodd" stroke="none"/>
      <path d="M-47.45 -34.0 Q-45.0 -30.5 -45.0 -26.0 -45.0 -20.2 -49.1 -16.1 -53.2 -12.0 -59.0 -12.0 L-60.95 -12.1 Q-65.5 -12.7 -68.9 -16.1 -73.0 -20.2 -73.0 -26.0 -73.0 -31.8 -68.9 -35.9 -64.8 -40.0 -59.0 -40.0 -53.2 -40.0 -49.1 -35.9 L-47.45 -34.0" fill="#bb0000" fill-rule="evenodd" stroke="none"/>
      <path d="M-17.95 -49.1 Q-10.5 -48.7 -5.05 -43.3 -3.5 -41.7 -2.3 -39.95 L-18.75 -35.5 Q-23.7 -32.9 -28.0 -28.7 L-28.35 -28.35 Q-32.6 -24.05 -35.3 -19.1 L-35.9 -18.0 Q-39.2 -22.9 -39.2 -29.15 -39.2 -31.7 -38.65 -34.0 -37.45 -39.25 -33.35 -43.3 -27.55 -49.15 -19.2 -49.15 L-17.95 -49.1 M-50.25 -2.65 Q-49.0 -4.75 -47.15 -6.55 -43.3 -10.4 -38.4 -11.7 -39.95 -6.5 -40.0 -0.65 L-40.0 0.0 -39.95 1.9 -37.6 14.05 -34.95 19.7 -34.9 19.85 -34.8 20.0 -30.85 25.55 -29.3 27.3 -32.05 27.6 -33.0 27.6 -36.05 27.4 Q-39.55 26.9 -42.6 25.25 -45.05 23.85 -47.15 21.75 -53.0 15.9 -53.0 7.6 -53.0 1.9 -50.25 -2.65" fill="#003399" fill-rule="evenodd" stroke="none"/>
      <path d="M-11.25 -58.15 Q-10.3 -56.5 -8.9 -55.1 -4.8 -51.0 1.0 -51.0 6.8 -51.0 10.9 -55.1 L11.9 -56.15 Q15.0 -59.95 15.0 -65.0 15.0 -68.9 13.2 -72.0 12.25 -73.55 10.9 -74.9 6.8 -79.0 1.0 -79.0 -4.8 -79.0 -8.9 -74.9 L-11.15 -72.0 Q-13.0 -68.9 -13.0 -65.0 -13.0 -61.2 -11.25 -58.15 M58.9 -11.05 Q53.8 -11.4 50.1 -15.1 46.0 -19.2 46.0 -25.0 46.0 -30.0 49.05 -33.7 L50.1 -34.9 Q54.2 -39.0 60.0 -39.0 65.8 -39.0 69.9 -34.9 74.0 -30.8 74.0 -25.0 74.0 -19.2 69.9 -15.1 65.8 -11.0 60.0 -11.0 L58.9 -11.05 M47.2 34.4 Q44.35 33.0 41.0 33.0 35.2 33.0 31.1 37.1 27.0 41.2 27.0 47.0 27.0 49.7 27.9 52.05 28.9 54.7 31.1 56.9 35.2 61.0 41.0 61.0 46.8 61.0 50.9 56.9 55.0 52.8 55.0 47.0 55.0 41.2 50.9 37.1 49.2 35.4 47.2 34.4 M-60.95 -12.1 L-59.0 -12.0 Q-53.2 -12.0 -49.1 -16.1 -45.0 -20.2 -45.0 -26.0 -45.0 -30.5 -47.45 -34.0 L-49.1 -35.9 Q-53.2 -40.0 -59.0 -40.0 -64.8 -40.0 -68.9 -35.9 -73.0 -31.8 -73.0 -26.0 -73.0 -20.2 -68.9 -16.1 -65.5 -12.7 -60.95 -12.1 M-48.05 37.35 Q-44.25 34.0 -39.0 34.0 -33.2 34.0 -29.1 38.1 -25.0 42.2 -25.0 48.0 -25.0 51.8 -26.75 54.9 -27.7 56.5 -29.1 57.9 -33.2 62.0 -39.0 62.0 -44.8 62.0 -48.9 57.9 -53.0 53.8 -53.0 48.0 -53.0 42.2 -48.9 38.1 L-48.05 37.35" fill="none" stroke="#006600" stroke-linecap="round" stroke-linejoin="round" stroke-width="2.0"/>
      <path d="M-17.95 -49.1 Q-10.5 -48.7 -5.05 -43.3 -3.5 -41.7 -2.3 -39.95 L0.0 -40.0 0.4 -40.0 2.25 -39.95 2.85 -39.9 Q3.95 -41.5 5.4 -42.95 9.75 -47.35 15.55 -48.45 L19.55 -48.8 Q27.85 -48.8 33.7 -42.95 37.7 -38.9 39.0 -33.7 39.5 -31.35 39.55 -28.8 39.5 -22.45 36.15 -17.55 37.45 -14.8 38.35 -11.8 43.3 -10.55 47.2 -6.65 L49.65 -3.7 Q53.0 1.2 53.05 7.5 53.0 15.8 47.2 21.65 44.3 24.5 40.9 26.0 37.7 27.3 34.0 27.5 L33.05 27.5 30.0 27.3 29.4 27.2 28.35 28.35 26.15 30.35 Q23.4 32.75 20.45 34.55 L20.45 34.85 20.45 35.05 Q20.4 42.2 16.1 47.55 L14.6 49.2 Q9.1 54.7 1.4 55.05 L0.45 55.05 -2.6 54.85 Q-9.0 53.95 -13.7 49.2 L-15.2 47.55 Q-19.5 42.35 -19.55 35.35 L-19.55 35.05 -19.1 35.3 -13.15 37.95 Q-7.55 39.8 -1.2 40.0 L-0.95 40.0 -0.7 40.0 -0.45 40.0 -0.15 40.0 0.0 40.0 0.35 40.0 0.45 40.0 0.5 40.05 0.6 40.0 0.45 40.0 M26.25 -30.3 L26.25 -30.25 26.25 -30.3 Q23.0 -33.1 19.45 -35.1 L19.35 -35.15 Q11.85 -39.35 2.85 -39.9 M26.25 -30.25 L28.35 -28.3 Q32.05 -24.6 34.6 -20.35 L34.8 -20.0 36.15 -17.55 M-17.4 -19.65 Q-10.05 -26.3 0.05 -26.25 L0.0 -40.0 M18.05 -19.1 L18.6 -18.55 Q26.15 -11.05 26.35 -0.45 L40.0 -0.15 Q39.95 -16.65 28.25 -28.35 L18.05 -19.1 Q10.5 -26.25 0.05 -26.25 M2.25 -39.95 Q17.35 -39.2 28.25 -28.35 M34.5 20.55 L34.7 20.4 34.7 20.25 34.5 20.55 Q32.45 23.9 29.65 27.0 L29.4 27.2 M34.7 20.25 L34.8 20.0 Q40.0 11.1 40.0 0.0 40.0 -6.25 38.35 -11.8 M-18.55 18.55 L-17.95 19.15 Q-10.9 25.8 -1.25 26.25 L0.05 26.3 0.55 26.3 1.4 26.25 Q11.4 25.8 18.6 18.55 L18.85 18.35 Q26.3 10.7 26.35 0.0 L26.35 -0.45 M20.0 34.85 L20.2 34.7 20.45 34.55 M20.0 34.85 Q11.3 39.85 0.6 40.0 L1.25 40.0 0.55 26.3 M40.0 -0.15 L40.0 0.0 Q40.0 16.55 28.25 28.25 L27.55 28.95 Q18.35 37.75 6.3 39.55 L1.25 40.0 M27.55 28.95 L18.85 18.35 M-50.25 -2.65 Q-49.0 -4.75 -47.15 -6.55 -43.3 -10.4 -38.4 -11.7 L-37.85 -13.35 -35.9 -18.0 Q-39.2 -22.9 -39.2 -29.15 -39.2 -31.7 -38.65 -34.0 -37.45 -39.25 -33.35 -43.3 -27.55 -49.15 -19.2 -49.15 L-17.95 -49.1 M-2.3 -39.95 L-18.75 -35.5 Q-23.7 -32.9 -28.0 -28.7 L-27.95 -28.65 -17.4 -19.65 -18.55 -18.55 Q-26.05 -11.1 -26.25 -0.6 L-26.25 0.0 Q-26.25 10.85 -18.55 18.55 M-18.05 19.2 L-17.95 19.15 M-28.0 -28.7 L-28.35 -28.35 Q-32.6 -24.05 -35.3 -19.1 L-35.9 -18.0 M-38.4 -11.7 Q-39.95 -6.5 -40.0 -0.65 L-26.25 -0.6 M-40.0 -0.65 L-40.0 0.0 -39.95 1.9 -37.6 14.05 -34.95 19.7 -34.9 19.85 -34.8 20.0 -30.85 25.55 -28.65 27.9 -18.05 19.2 M-28.65 27.9 L-28.35 28.25 Q-24.25 32.35 -19.55 35.05 L-20.0 34.8 Q-23.15 32.95 -25.95 30.5 L-26.0 30.5 -28.3 28.35 -29.3 27.3 -32.05 27.6 -33.0 27.6 -36.05 27.4 Q-39.55 26.9 -42.6 25.25 -45.05 23.85 -47.15 21.75 -53.0 15.9 -53.0 7.6 -53.0 1.9 -50.25 -2.65 M-30.85 25.55 L-29.3 27.3" fill="none" stroke="#000099" stroke-linecap="round" stroke-linejoin="round" stroke-width="1.0"/>
      <path d="M11.4 -5.8 Q13.8 -5.8 15.5 -4.15 17.15 -2.45 17.15 0.0 17.15 2.35 15.5 4.05 13.8 5.75 11.4 5.8 9.05 5.75 7.4 4.05 5.7 2.35 5.7 0.0 5.7 -2.45 7.4 -4.15 9.05 -5.8 11.4 -5.8 M-7.25 -4.15 Q-5.6 -2.45 -5.6 0.0 -5.6 2.35 -7.25 4.05 -9.0 5.75 -11.4 5.8 -13.8 5.75 -15.45 4.05 -17.15 2.35 -17.15 0.0 -17.15 -2.45 -15.45 -4.15 -13.8 -5.8 -11.4 -5.75 -9.0 -5.8 -7.25 -4.15" fill="none" stroke="#00ff00" stroke-linecap="round" stroke-linejoin="round" stroke-width="2.0"/>
      <path d="M-11.25 -58.15 L-17.95 -49.1 M15.55 -48.45 L11.9 -56.15 M49.65 -3.7 L58.9 -11.05 M49.05 -33.7 L39.0 -33.7 M47.2 34.4 L40.9 26.0 M16.1 47.55 L27.9 52.05 M-60.95 -12.1 L-50.25 -2.65 M-38.65 -34.0 L-47.45 -34.0 M-42.6 25.25 L-48.05 37.35 M-26.75 54.9 L-15.2 47.55" fill="none" stroke="#000099" stroke-linecap="round" stroke-linejoin="round" stroke-width="2.0"/>
    </g>
  </defs>
</svg>
