<?xml version="1.0" encoding="UTF-8" standalone="no"?>
<svg xmlns:xlink="http://www.w3.org/1999/xlink" height="66.7px" width="149.2px" xmlns="http://www.w3.org/2000/svg">
  <g transform="matrix(1.0, 0.0, 0.0, 1.0, 19.45, 32.3)">
    <use data-characterId="872" data-characterName="sc346_fla.rightmissileautoswitch_82" height="21.75" id="fireStyle" transform="matrix(0.9639, 0.0, 0.0, 0.9097, 61.4591, -17.8775)" width="41.0" xlink:href="#sprite0"/>
    <use data-characterId="1145" height="21.25" transform="matrix(1.0, 0.0, 0.0, 1.0, -1.4, -32.3)" width="99.2" xlink:href="#text1"/>
    <use data-characterId="1146" height="21.25" transform="matrix(1.0, 0.0, 0.0, 1.0, -0.85, -18.3)" width="61.5" xlink:href="#text2"/>
    <use data-characterId="1144" data-characterName="bankDisplayInfo" height="45.2" id="holderDisplay" transform="matrix(1.0, 0.0, 0.0, 1.0, -19.45, -10.8)" width="149.2" xlink:href="#sprite1"/>
  </g>
  <defs>
    <g id="sprite0" transform="matrix(1.0, 0.0, 0.0, 1.0, 21.0, 8.0)">
      <use data-characterId="868" height="15.0" transform="matrix(1.0, 0.0, 0.0, 1.0, -21.0, -8.0)" width="41.0" xlink:href="#shape0"/>
      <use data-characterId="869" height="21.1" transform="matrix(1.0, 0.0, 0.0, 1.0, -18.8, -7.35)" width="37.5" xlink:href="#text0"/>
    </g>
    <g id="shape0" transform="matrix(1.0, 0.0, 0.0, 1.0, 21.0, 8.0)">
      <path d="M19.5 6.5 L-20.5 6.5 -20.5 -7.5 19.5 -7.5 19.5 6.5" fill="#0000cc" fill-rule="evenodd" stroke="none"/>
      <path d="M19.5 6.5 L-20.5 6.5 -20.5 -7.5 19.5 -7.5 19.5 6.5 Z" fill="none" stroke="#333333" stroke-linecap="butt" stroke-linejoin="miter-clip" stroke-miterlimit="3.0" stroke-width="1.0"/>
    </g>
    <g id="text0" transform="matrix(1.0, 0.0, 0.0, 1.0, -0.4, 0.85)">
      <g transform="matrix(1.0, 0.0, 0.0, 1.0, 0.0, -1.35)">
        <use fill="#ffffff" height="21.1" transform="matrix(0.0098, 0.0, 0.0, 0.0098, 0.0, 10.0)" width="37.5" xlink:href="#font_Trebuchet_MS_S0"/>
        <use fill="#ffffff" height="21.1" transform="matrix(0.0098, 0.0, 0.0, 0.0098, 5.1, 10.0)" width="37.5" xlink:href="#font_Trebuchet_MS_I0"/>
        <use fill="#ffffff" height="21.1" transform="matrix(0.0098, 0.0, 0.0, 0.0098, 7.9, 10.0)" width="37.5" xlink:href="#font_Trebuchet_MS_N0"/>
        <use fill="#ffffff" height="21.1" transform="matrix(0.0098, 0.0, 0.0, 0.0098, 14.55, 10.0)" width="37.5" xlink:href="#font_Trebuchet_MS_G0"/>
        <use fill="#ffffff" height="21.1" transform="matrix(0.0098, 0.0, 0.0, 0.0098, 21.25, 10.0)" width="37.5" xlink:href="#font_Trebuchet_MS_L0"/>
        <use fill="#ffffff" height="21.1" transform="matrix(0.0098, 0.0, 0.0, 0.0098, 26.8, 10.0)" width="37.5" xlink:href="#font_Trebuchet_MS_E0"/>
      </g>
    </g>
    <g id="font_Trebuchet_MS_S0">
      <path d="M40.0 -40.5 Q122.5 12.5 225.0 12.5 343.0 12.5 413.5 -45.0 483.5 -102.5 483.5 -191.5 483.5 -241.0 466.5 -281.0 449.5 -321.5 417.0 -351.5 384.5 -382.0 311.0 -418.0 171.5 -486.0 171.5 -549.0 171.5 -587.0 196.5 -610.5 221.0 -634.5 266.0 -634.5 342.0 -634.5 410.5 -585.5 L450.0 -697.5 Q390.5 -745.0 263.5 -745.0 166.0 -745.0 104.0 -689.0 41.5 -633.0 41.5 -548.0 41.5 -502.5 57.5 -465.0 73.0 -427.5 102.5 -400.0 131.5 -373.0 216.0 -330.5 300.0 -288.5 327.0 -254.5 354.0 -220.5 354.0 -183.0 354.0 -103.0 239.5 -103.0 165.0 -103.0 88.0 -157.0 L40.0 -40.5" fill-rule="evenodd" stroke="none"/>
    </g>
    <g id="font_Trebuchet_MS_I0">
      <path d="M77.5 0.0 L207.5 0.0 207.5 -732.5 77.5 -732.5 77.5 0.0" fill-rule="evenodd" stroke="none"/>
    </g>
    <g id="font_Trebuchet_MS_N0">
      <path d="M555.5 10.0 L608.5 10.0 608.5 -732.5 483.5 -732.5 483.5 -290.5 137.5 -732.5 75.0 -732.5 75.0 0.5 200.0 0.5 200.0 -453.5 555.5 10.0" fill-rule="evenodd" stroke="none"/>
    </g>
    <g id="font_Trebuchet_MS_G0">
      <path d="M616.0 -673.0 Q531.5 -745.0 411.0 -745.0 241.0 -745.0 140.5 -639.0 40.0 -533.0 40.0 -363.5 40.0 -194.0 132.5 -90.5 224.5 12.5 382.0 12.5 454.5 12.5 528.0 -8.5 601.0 -30.0 647.5 -68.0 L647.5 -396.0 416.0 -396.0 416.0 -285.0 517.5 -285.0 517.5 -141.0 Q472.5 -103.0 403.0 -103.0 297.5 -103.0 236.5 -173.0 175.0 -243.0 175.0 -360.0 175.0 -483.0 237.5 -556.0 300.0 -629.5 408.0 -629.5 442.5 -629.5 490.5 -609.0 538.5 -589.0 561.5 -568.5 L616.0 -673.0" fill-rule="evenodd" stroke="none"/>
    </g>
    <g id="font_Trebuchet_MS_L0">
      <path d="M75.0 0.0 L536.0 0.0 536.0 -115.5 205.0 -115.5 205.0 -732.5 75.0 -732.5 75.0 0.0" fill-rule="evenodd" stroke="none"/>
    </g>
    <g id="font_Trebuchet_MS_E0">
      <path d="M205.0 -617.0 L542.5 -617.0 542.5 -732.5 75.0 -732.5 75.0 0.0 537.0 0.0 537.0 -115.5 205.0 -115.5 205.0 -335.0 447.0 -335.0 447.0 -445.5 205.0 -445.5 205.0 -617.0" fill-rule="evenodd" stroke="none"/>
    </g>
    <g id="text1" transform="matrix(1.0, 0.0, 0.0, 1.0, 1.9, 1.0)">
      <g transform="matrix(1.0, 0.0, 0.0, 1.0, -2.0, -1.35)">
        <use fill="#ff0000" height="21.25" transform="matrix(0.0098, 0.0, 0.0, 0.0098, 0.0, 10.0)" width="99.2" xlink:href="#font_Trebuchet_MS_M0"/>
        <use fill="#ff0000" height="21.25" transform="matrix(0.0098, 0.0, 0.0, 0.0098, 7.45, 10.0)" width="99.2" xlink:href="#font_Trebuchet_MS_i0"/>
        <use fill="#ff0000" height="21.25" transform="matrix(0.0098, 0.0, 0.0, 0.0098, 10.45, 10.0)" width="99.2" xlink:href="#font_Trebuchet_MS_s0"/>
        <use fill="#ff0000" height="21.25" transform="matrix(0.0098, 0.0, 0.0, 0.0098, 14.75, 10.0)" width="99.2" xlink:href="#font_Trebuchet_MS_s0"/>
        <use fill="#ff0000" height="21.25" transform="matrix(0.0098, 0.0, 0.0, 0.0098, 19.05, 10.0)" width="99.2" xlink:href="#font_Trebuchet_MS_i0"/>
        <use fill="#ff0000" height="21.25" transform="matrix(0.0098, 0.0, 0.0, 0.0098, 22.05, 10.0)" width="99.2" xlink:href="#font_Trebuchet_MS_l0"/>
        <use fill="#ff0000" height="21.25" transform="matrix(0.0098, 0.0, 0.0, 0.0098, 25.0, 10.0)" width="99.2" xlink:href="#font_Trebuchet_MS_e0"/>
        <use fill="#ff0000" height="21.25" transform="matrix(0.0098, 0.0, 0.0, 0.0098, 33.75, 10.0)" width="99.2" xlink:href="#font_Trebuchet_MS_B0"/>
        <use fill="#ff0000" height="21.25" transform="matrix(0.0098, 0.0, 0.0, 0.0098, 39.7, 10.0)" width="99.2" xlink:href="#font_Trebuchet_MS_a0"/>
        <use fill="#ff0000" height="21.25" transform="matrix(0.0098, 0.0, 0.0, 0.0098, 45.05, 10.0)" width="99.2" xlink:href="#font_Trebuchet_MS_n0"/>
        <use fill="#ff0000" height="21.25" transform="matrix(0.0098, 0.0, 0.0, 0.0098, 50.95, 10.0)" width="99.2" xlink:href="#font_Trebuchet_MS_k0"/>
        <use fill="#ff0000" height="21.25" transform="matrix(0.0098, 0.0, 0.0, 0.0098, 59.45, 10.0)" width="99.2" xlink:href="#font_Trebuchet_MS_C0"/>
        <use fill="#ff0000" height="21.25" transform="matrix(0.0098, 0.0, 0.0, 0.0098, 65.55, 10.0)" width="99.2" xlink:href="#font_Trebuchet_MS_o0"/>
        <use fill="#ff0000" height="21.25" transform="matrix(0.0098, 0.0, 0.0, 0.0098, 71.2, 10.0)" width="99.2" xlink:href="#font_Trebuchet_MS_n0"/>
        <use fill="#ff0000" height="21.25" transform="matrix(0.0098, 0.0, 0.0, 0.0098, 77.1, 10.0)" width="99.2" xlink:href="#font_Trebuchet_MS_t0"/>
        <use fill="#ff0000" height="21.25" transform="matrix(0.0098, 0.0, 0.0, 0.0098, 81.05, 10.0)" width="99.2" xlink:href="#font_Trebuchet_MS_r0"/>
        <use fill="#ff0000" height="21.25" transform="matrix(0.0098, 0.0, 0.0, 0.0098, 85.3, 10.0)" width="99.2" xlink:href="#font_Trebuchet_MS_o0"/>
        <use fill="#ff0000" height="21.25" transform="matrix(0.0098, 0.0, 0.0, 0.0098, 90.95, 10.0)" width="99.2" xlink:href="#font_Trebuchet_MS_l0"/>
      </g>
    </g>
    <g id="font_Trebuchet_MS_M0">
      <path d="M758.0 0.5 L608.5 -732.5 540.0 -732.5 385.0 -239.0 226.5 -732.5 157.5 -732.5 10.0 0.5 135.5 0.5 214.5 -394.5 362.0 10.0 408.5 10.0 556.0 -394.5 632.0 0.5 758.0 0.5" fill-rule="evenodd" stroke="none"/>
    </g>
    <g id="font_Trebuchet_MS_i0">
      <path d="M101.0 0.0 L227.5 0.0 227.5 -535.5 32.5 -535.5 32.5 -433.0 101.0 -433.0 101.0 0.0 M165.5 -743.0 Q135.5 -743.0 114.5 -721.5 93.0 -700.5 93.0 -670.5 93.0 -640.5 114.5 -619.0 135.5 -598.0 165.5 -598.0 195.5 -598.0 217.0 -619.0 238.0 -640.5 238.0 -670.5 238.0 -700.5 217.0 -721.5 195.5 -743.0 165.5 -743.0" fill-rule="evenodd" stroke="none"/>
    </g>
    <g id="font_Trebuchet_MS_s0">
      <path d="M34.5 -34.5 Q85.0 -7.5 117.5 1.5 149.5 10.0 203.0 10.0 298.0 10.0 353.5 -32.5 408.5 -75.5 408.5 -150.0 408.5 -206.0 377.5 -245.5 346.5 -285.0 276.0 -312.5 205.5 -340.5 184.0 -357.0 162.5 -373.5 162.5 -394.0 162.5 -446.0 228.0 -446.0 301.0 -446.0 342.0 -411.0 L378.0 -508.0 Q304.5 -545.5 221.0 -545.5 138.5 -545.5 85.5 -506.5 32.5 -468.0 32.5 -398.5 32.5 -295.0 171.0 -237.5 234.5 -211.0 256.5 -191.5 278.5 -172.0 278.5 -141.5 278.5 -89.5 205.5 -89.5 135.0 -89.5 79.0 -134.0 L34.5 -34.5" fill-rule="evenodd" stroke="none"/>
    </g>
    <g id="font_Trebuchet_MS_l0">
      <path d="M89.0 -735.0 L89.0 -108.0 Q89.0 10.0 174.0 10.0 244.0 10.0 273.0 -45.0 214.0 -64.0 214.0 -163.0 L214.0 -765.0 89.0 -735.0" fill-rule="evenodd" stroke="none"/>
    </g>
    <g id="font_Trebuchet_MS_e0">
      <path d="M167.5 -323.5 Q193.5 -441.0 300.5 -441.0 417.5 -441.0 430.5 -323.5 L167.5 -323.5 M545.5 -229.5 Q556.0 -276.0 556.0 -299.0 556.0 -406.5 485.5 -476.0 415.0 -545.5 298.5 -545.5 189.0 -545.5 111.0 -467.0 32.5 -388.5 32.5 -262.0 32.5 -133.5 104.0 -61.5 175.0 10.0 297.5 10.0 428.5 10.0 494.5 -43.5 L446.0 -139.0 Q401.5 -94.5 316.0 -94.5 247.5 -94.5 207.0 -130.0 166.5 -165.5 163.0 -229.5 L545.5 -229.5" fill-rule="evenodd" stroke="none"/>
    </g>
    <g id="font_Trebuchet_MS_B0">
      <path d="M205.0 -351.0 Q251.5 -352.5 270.5 -352.5 361.5 -352.5 398.0 -324.0 434.5 -295.5 434.5 -233.0 434.5 -164.5 395.5 -135.0 356.0 -105.5 269.0 -105.5 244.5 -105.5 205.0 -109.0 L205.0 -351.0 M205.0 -628.0 Q249.0 -630.5 279.5 -630.5 395.0 -630.5 395.0 -546.0 395.0 -450.5 268.0 -450.5 235.0 -450.5 205.0 -452.5 L205.0 -628.0 M299.0 0.0 Q418.5 0.0 494.0 -58.5 569.5 -117.5 569.5 -217.5 569.5 -366.0 433.0 -413.5 525.0 -464.0 525.0 -551.0 525.0 -641.5 461.0 -690.0 396.5 -739.0 282.5 -739.0 223.0 -739.0 75.0 -732.0 L75.0 0.0 299.0 0.0" fill-rule="evenodd" stroke="none"/>
    </g>
    <g id="font_Trebuchet_MS_a0">
      <path d="M353.5 -252.0 L353.5 -202.0 Q353.5 -89.5 241.0 -89.5 157.5 -89.5 157.5 -161.5 157.5 -258.5 305.5 -258.5 321.5 -258.5 353.5 -252.0 M365.5 -53.5 Q373.0 -30.0 394.5 -10.0 416.0 10.0 443.0 10.0 467.5 10.0 486.5 4.0 505.5 -2.5 521.0 -29.5 478.0 -57.0 478.0 -164.0 L478.0 -278.5 Q478.0 -434.0 421.0 -489.5 364.0 -545.5 241.5 -545.5 152.5 -545.5 88.0 -514.5 L115.0 -417.5 Q162.5 -441.0 233.0 -441.0 352.5 -441.0 352.5 -346.5 322.5 -354.0 300.5 -354.0 172.0 -354.0 102.5 -301.5 32.5 -249.0 32.5 -156.0 32.5 -76.5 82.0 -33.0 131.5 10.0 218.0 10.0 264.0 10.0 306.5 -7.5 348.5 -25.5 365.5 -53.5" fill-rule="evenodd" stroke="none"/>
    </g>
    <g id="font_Trebuchet_MS_n0">
      <path d="M412.0 0.0 L537.0 0.0 537.0 -328.5 Q537.0 -431.0 482.0 -488.0 426.5 -545.5 331.0 -545.5 231.5 -545.5 180.5 -485.5 L157.5 -535.5 67.5 -535.5 67.5 0.0 192.5 0.0 192.5 -387.0 Q210.0 -410.0 241.5 -425.5 272.5 -441.0 300.0 -441.0 359.5 -441.0 386.0 -409.5 412.0 -378.0 412.0 -309.5 L412.0 0.0" fill-rule="evenodd" stroke="none"/>
    </g>
    <g id="font_Trebuchet_MS_k0">
      <path d="M410.0 0.0 L558.5 0.0 340.5 -332.5 521.5 -535.5 371.0 -535.5 192.5 -330.0 192.5 -765.0 67.5 -735.0 67.5 0.0 192.5 0.0 192.5 -179.0 252.5 -242.5 410.0 0.0" fill-rule="evenodd" stroke="none"/>
    </g>
    <g id="font_Trebuchet_MS_C0">
      <path d="M577.0 -693.5 Q501.5 -745.0 375.5 -745.0 228.5 -745.0 134.5 -635.5 40.0 -526.5 40.0 -364.0 40.0 -189.5 125.0 -88.5 210.0 12.5 363.5 12.5 517.0 12.5 596.5 -72.0 L536.0 -177.0 Q477.5 -103.0 374.0 -103.0 283.5 -103.0 229.5 -172.0 175.0 -241.0 175.0 -358.5 175.0 -476.0 233.5 -552.5 292.0 -629.5 383.5 -629.5 480.0 -629.5 523.5 -586.0 L577.0 -693.5" fill-rule="evenodd" stroke="none"/>
    </g>
    <g id="font_Trebuchet_MS_o0">
      <path d="M162.5 -269.0 Q162.5 -351.5 197.0 -397.5 231.5 -443.5 290.0 -443.5 417.0 -443.5 417.0 -269.0 417.0 -184.0 383.0 -138.0 348.5 -92.0 290.0 -92.0 162.5 -92.0 162.5 -269.0 M32.5 -269.0 Q32.5 -142.5 100.5 -66.0 168.0 10.0 290.0 10.0 409.5 10.0 478.5 -65.5 547.0 -141.0 547.0 -269.0 547.0 -397.5 479.5 -471.5 412.0 -545.5 290.0 -545.5 174.0 -545.5 103.5 -468.5 32.5 -391.5 32.5 -269.0" fill-rule="evenodd" stroke="none"/>
    </g>
    <g id="font_Trebuchet_MS_t0">
      <path d="M86.5 -435.0 L86.5 -164.0 Q86.5 -80.5 129.5 -35.0 172.5 10.0 252.5 10.0 333.0 10.0 376.5 -5.0 L376.5 -120.0 Q337.5 -95.5 292.5 -95.5 247.5 -95.5 229.5 -119.0 211.5 -143.0 211.5 -200.5 L211.5 -435.0 358.5 -435.0 358.5 -535.5 211.5 -535.5 211.5 -690.5 86.5 -644.5 86.5 -535.5 24.5 -535.5 24.5 -435.0 86.5 -435.0" fill-rule="evenodd" stroke="none"/>
    </g>
    <g id="font_Trebuchet_MS_r0">
      <path d="M377.0 -419.0 L430.0 -526.0 Q396.0 -545.5 332.0 -545.5 245.0 -545.5 192.5 -486.5 L192.5 -535.5 67.5 -535.5 67.5 0.0 192.5 0.0 192.5 -305.0 Q192.5 -362.0 226.5 -401.5 260.0 -441.0 303.5 -441.0 343.5 -441.0 377.0 -419.0" fill-rule="evenodd" stroke="none"/>
    </g>
    <g id="text2" transform="matrix(1.0, 0.0, 0.0, 1.0, 0.35, 1.0)">
      <g transform="matrix(1.0, 0.0, 0.0, 1.0, -1.0, -1.35)">
        <use fill="#ff0000" height="21.25" transform="matrix(0.0098, 0.0, 0.0, 0.0098, 0.0, 10.0)" width="61.5" xlink:href="#font_Trebuchet_MS_F0"/>
        <use fill="#ff0000" height="21.25" transform="matrix(0.0098, 0.0, 0.0, 0.0098, 5.85, 10.0)" width="61.5" xlink:href="#font_Trebuchet_MS_i0"/>
        <use fill="#ff0000" height="21.25" transform="matrix(0.0098, 0.0, 0.0, 0.0098, 8.85, 10.0)" width="61.5" xlink:href="#font_Trebuchet_MS_r0"/>
        <use fill="#ff0000" height="21.25" transform="matrix(0.0098, 0.0, 0.0, 0.0098, 13.1, 10.0)" width="61.5" xlink:href="#font_Trebuchet_MS_i0"/>
        <use fill="#ff0000" height="21.25" transform="matrix(0.0098, 0.0, 0.0, 0.0098, 16.1, 10.0)" width="61.5" xlink:href="#font_Trebuchet_MS_n0"/>
        <use fill="#ff0000" height="21.25" transform="matrix(0.0098, 0.0, 0.0, 0.0098, 22.0, 10.0)" width="61.5" xlink:href="#font_Trebuchet_MS_g0"/>
        <use fill="#ff0000" height="21.25" transform="matrix(0.0098, 0.0, 0.0, 0.0098, 30.0, 10.0)" width="61.5" xlink:href="#font_Trebuchet_MS_S0"/>
        <use fill="#ff0000" height="21.25" transform="matrix(0.0098, 0.0, 0.0, 0.0098, 35.1, 10.0)" width="61.5" xlink:href="#font_Trebuchet_MS_t0"/>
        <use fill="#ff0000" height="21.25" transform="matrix(0.0098, 0.0, 0.0, 0.0098, 39.05, 10.0)" width="61.5" xlink:href="#font_Trebuchet_MS_y0"/>
        <use fill="#ff0000" height="21.25" transform="matrix(0.0098, 0.0, 0.0, 0.0098, 44.4, 10.0)" width="61.5" xlink:href="#font_Trebuchet_MS_l0"/>
        <use fill="#ff0000" height="21.25" transform="matrix(0.0098, 0.0, 0.0, 0.0098, 47.35, 10.0)" width="61.5" xlink:href="#font_Trebuchet_MS_e0"/>
        <use fill="#ff0000" height="21.25" transform="matrix(0.0098, 0.0, 0.0, 0.0098, 53.1, 10.0)" width="61.5" xlink:href="#font_Trebuchet_MS_:0"/>
      </g>
    </g>
    <g id="font_Trebuchet_MS_F0">
      <path d="M205.0 -617.0 L557.5 -617.0 557.5 -732.5 75.0 -732.5 75.0 0.0 205.0 0.0 205.0 -335.0 462.5 -335.0 462.5 -445.5 205.0 -445.5 205.0 -617.0" fill-rule="evenodd" stroke="none"/>
    </g>
    <g id="font_Trebuchet_MS_g0">
      <path d="M152.5 -347.5 Q152.5 -390.0 179.5 -417.0 206.5 -444.0 249.5 -444.0 290.5 -444.0 316.5 -416.0 342.0 -388.0 342.0 -347.5 342.0 -298.5 318.0 -270.5 294.0 -242.5 249.5 -242.5 205.0 -242.5 179.0 -271.0 152.5 -300.0 152.5 -347.5 M27.5 137.5 Q127.0 210.0 250.0 210.0 353.0 210.0 426.0 164.0 499.0 117.5 499.0 36.5 499.0 -110.0 316.5 -110.0 290.5 -110.0 254.0 -102.5 217.5 -95.0 202.0 -95.0 167.5 -95.0 167.5 -115.0 167.5 -126.5 191.0 -137.0 214.0 -148.0 217.5 -148.0 L238.0 -145.0 Q260.5 -142.5 274.0 -142.5 359.0 -142.5 415.0 -197.0 470.5 -252.0 470.5 -343.5 470.5 -407.5 439.5 -454.5 L499.0 -498.0 412.5 -576.5 363.5 -519.5 Q315.0 -546.5 243.0 -546.5 151.0 -546.5 88.0 -490.0 25.0 -434.0 25.0 -348.0 25.0 -239.0 116.5 -179.5 88.0 -167.5 66.5 -142.0 45.0 -116.5 45.0 -90.0 45.0 2.5 174.0 2.5 195.0 2.5 236.5 -2.5 278.0 -7.5 299.0 -7.5 376.5 -7.5 376.5 40.0 376.5 68.0 341.5 84.0 306.5 100.0 252.5 100.0 172.0 100.0 106.5 40.0 L27.5 137.5" fill-rule="evenodd" stroke="none"/>
    </g>
    <g id="font_Trebuchet_MS_y0">
      <path d="M304.5 86.0 L539.0 -535.5 409.5 -535.5 278.0 -165.5 132.0 -535.5 2.5 -535.5 170.0 -120.0 Q210.0 -21.0 210.0 27.0 210.0 99.5 65.5 99.5 L65.5 210.0 Q153.0 210.0 219.0 175.0 284.5 139.5 304.5 86.0" fill-rule="evenodd" stroke="none"/>
    </g>
    <g id="font_Trebuchet_MS_:0">
      <path d="M87.0 -65.5 Q87.0 -28.0 113.5 -1.5 139.5 25.0 177.0 25.0 214.5 25.0 241.0 -1.5 267.0 -28.0 267.0 -65.5 267.0 -103.0 241.0 -129.0 214.5 -155.5 177.0 -155.5 139.5 -155.5 113.5 -129.0 87.0 -103.0 87.0 -65.5 M87.0 -470.5 Q87.0 -433.0 113.5 -406.5 139.5 -380.0 177.0 -380.0 214.5 -380.0 241.0 -406.5 267.0 -433.0 267.0 -470.5 267.0 -508.0 241.0 -534.0 214.5 -560.5 177.0 -560.5 139.5 -560.5 113.5 -534.0 87.0 -508.0 87.0 -470.5" fill-rule="evenodd" stroke="none"/>
    </g>
    <g id="sprite1" transform="matrix(1.0, 0.0, 0.0, 1.0, 19.45, 10.8)">
      <use data-characterId="1142" height="21.4" id="changeButton" transform="matrix(1.0, 0.0, 0.0, 1.0007, 107.95, -0.5066)" width="21.8" xlink:href="#button0"/>
      <use data-characterId="867" data-characterName="sc346_fla.missilereadiness_85" height="49.7" id="missilereadiness" transform="matrix(0.9237, 0.0, 0.0, 0.9097, -19.4659, -10.8134)" width="65.3" xlink:href="#sprite2"/>
      <use data-characterId="1143" height="29.0" id="bankdisplay" transform="matrix(1.0, 0.0, 0.0, 1.0, 19.1, 1.35)" width="96.2" xlink:href="#text3"/>
    </g>
    <g id="button0" transform="matrix(1.0, 0.0, 0.0, 1.0, 11.75, 10.1)">
      <use data-characterId="860" height="21.4" transform="matrix(1.0, 0.0, 0.0, 1.0, -11.75, -10.1)" width="21.8" xlink:href="#shape1"/>
    </g>
    <g id="shape1" transform="matrix(1.0, 0.0, 0.0, 1.0, 11.75, 10.1)">
      <path d="M-0.85 -9.6 Q3.45 -9.6 6.5 -6.65 9.55 -3.65 9.55 0.6 9.55 4.85 6.5 7.8 3.45 10.8 -0.85 10.8 -5.15 10.8 -8.2 7.8 -11.25 4.85 -11.25 0.6 -11.25 -3.65 -8.2 -6.65 -5.15 -9.6 -0.85 -9.6 M-2.85 4.45 L1.8 0.25 -2.85 -3.95 1.8 0.25 -2.85 4.45" fill="#00cccc" fill-rule="evenodd" stroke="none"/>
      <path d="M-0.85 -9.6 Q3.45 -9.6 6.5 -6.65 9.55 -3.65 9.55 0.6 9.55 4.85 6.5 7.8 3.45 10.8 -0.85 10.8 -5.15 10.8 -8.2 7.8 -11.25 4.85 -11.25 0.6 -11.25 -3.65 -8.2 -6.65 -5.15 -9.6 -0.85 -9.6" fill="none" stroke="#333333" stroke-linecap="butt" stroke-linejoin="miter-clip" stroke-miterlimit="3.0" stroke-width="1.0"/>
      <path d="M-2.85 -3.95 L1.8 0.25 -2.85 4.45" fill="none" stroke="#000000" stroke-linecap="butt" stroke-linejoin="miter-clip" stroke-miterlimit="3.0" stroke-width="2.9000000000000004"/>
    </g>
    <g id="sprite2" transform="matrix(1.0, 0.0, 0.0, 1.0, 30.6, 22.55)">
      <clipPath id="clipPath0" transform="matrix(1.0, 0.0, 0.0, 1.0, 0.0, 0.0)">
        <path d="M9.1 -0.05 Q9.1 3.7 6.35 6.35 3.65 9.05 -0.2 9.05 -4.05 9.05 -6.8 6.35 -9.5 3.7 -9.5 -0.1 -9.5 -3.85 -6.8 -6.55 -4.05 -9.2 -0.2 -9.2 3.65 -9.2 6.35 -6.55 9.1 -3.85 9.1 -0.05" fill="#00cccc" fill-rule="evenodd" stroke="none"/>
        <path d="M9.1 -0.05 Q9.1 3.7 6.35 6.35 3.65 9.05 -0.2 9.05 -4.05 9.05 -6.8 6.35 -9.5 3.7 -9.5 -0.1 -9.5 -3.85 -6.8 -6.55 -4.05 -9.2 -0.2 -9.2 3.65 -9.2 6.35 -6.55 9.1 -3.85 9.1 -0.05 Z" fill="none" stroke="#333333" stroke-linecap="butt" stroke-linejoin="miter-clip" stroke-miterlimit="3.0" stroke-width="1.0"/>
      </clipPath>
      <g clip-path="url(#clipPath0)">
        <use data-characterId="863" height="49.7" transform="matrix(1.0, 0.0, 0.0, 1.0, -30.6, -22.55)" width="65.3" xlink:href="#shape3"/>
      </g>
    </g>
    <g id="shape3" transform="matrix(1.0, 0.0, 0.0, 1.0, 30.6, 22.55)">
      <path d="M24.8 -14.95 Q34.2 -7.85 34.2 2.3 34.2 12.4 24.8 19.5 15.4 26.65 2.05 26.65 -11.25 26.65 -20.7 19.5 -30.1 12.4 -30.1 2.25 -30.1 -7.85 -20.7 -14.95 -11.25 -22.05 2.05 -22.05 15.4 -22.05 24.8 -14.95" fill="#00cc00" fill-rule="evenodd" stroke="none"/>
      <path d="M24.8 -14.95 Q34.2 -7.85 34.2 2.3 34.2 12.4 24.8 19.5 15.4 26.65 2.05 26.65 -11.25 26.65 -20.7 19.5 -30.1 12.4 -30.1 2.25 -30.1 -7.85 -20.7 -14.95 -11.25 -22.05 2.05 -22.05 15.4 -22.05 24.8 -14.95 Z" fill="none" stroke="#d6d6d6" stroke-linecap="butt" stroke-linejoin="miter-clip" stroke-miterlimit="3.0" stroke-width="1.0"/>
    </g>
    <g id="text3" transform="matrix(1.0, 0.0, 0.0, 1.0, -1.9, 2.0)">
      <g transform="matrix(1.0, 0.0, 0.0, 1.0, 1.9, -2.0)">
        <use fill="#00ffff" height="29.0" transform="matrix(0.0098, 0.0, 0.0, 0.0098, 0.0, 9.4)" width="96.2" xlink:href="#font_Trebuchet_MS_b0"/>
        <use fill="#00ffff" height="29.0" transform="matrix(0.0098, 0.0, 0.0, 0.0098, 5.8, 9.4)" width="96.2" xlink:href="#font_Trebuchet_MS_a0"/>
        <use fill="#00ffff" height="29.0" transform="matrix(0.0098, 0.0, 0.0, 0.0098, 11.15, 9.4)" width="96.2" xlink:href="#font_Trebuchet_MS_n0"/>
        <use fill="#00ffff" height="29.0" transform="matrix(0.0098, 0.0, 0.0, 0.0098, 17.05, 9.4)" width="96.2" xlink:href="#font_Trebuchet_MS_k0"/>
        <use fill="#00ffff" height="29.0" transform="matrix(0.0098, 0.0, 0.0, 0.0098, 22.55, 9.4)" width="96.2" xlink:href="#font_Trebuchet_MS_i0"/>
        <use fill="#00ffff" height="29.0" transform="matrix(0.0098, 0.0, 0.0, 0.0098, 25.55, 9.4)" width="96.2" xlink:href="#font_Trebuchet_MS_n0"/>
        <use fill="#00ffff" height="29.0" transform="matrix(0.0098, 0.0, 0.0, 0.0098, 31.45, 9.4)" width="96.2" xlink:href="#font_Trebuchet_MS_f0"/>
        <use fill="#00ffff" height="29.0" transform="matrix(0.0098, 0.0, 0.0, 0.0098, 35.15, 9.4)" width="96.2" xlink:href="#font_Trebuchet_MS_o0"/>
      </g>
    </g>
    <g id="font_Trebuchet_MS_b0">
      <path d="M182.5 -408.0 Q211.5 -439.5 267.0 -439.5 423.0 -439.5 423.0 -276.5 423.0 -182.0 385.5 -139.0 347.5 -96.0 257.0 -96.0 210.0 -96.0 182.5 -128.5 L182.5 -408.0 M156.0 -29.5 Q209.5 10.0 284.0 10.0 408.0 10.0 480.5 -68.0 553.0 -146.5 553.0 -281.0 553.0 -397.0 481.0 -471.0 409.0 -545.5 291.5 -545.5 232.5 -545.5 182.5 -515.0 L182.5 -765.0 57.5 -735.0 57.5 10.0 128.0 10.0 156.0 -29.5" fill-rule="evenodd" stroke="none"/>
    </g>
    <g id="font_Trebuchet_MS_f0">
      <path d="M366.0 -640.5 L403.0 -735.5 Q339.0 -755.0 294.5 -755.0 208.5 -755.0 154.5 -694.5 100.0 -634.0 96.0 -535.5 L17.5 -535.5 17.5 -432.5 95.5 -432.5 95.5 0.0 220.5 0.0 220.5 -432.5 329.5 -432.5 329.5 -535.5 218.5 -535.5 Q218.0 -542.0 218.0 -548.5 218.0 -593.0 243.0 -623.5 267.5 -654.0 303.0 -654.0 325.0 -654.0 366.0 -640.5" fill-rule="evenodd" stroke="none"/>
    </g>
  </defs>
</svg>
