<?xml version="1.0" encoding="UTF-8" standalone="no"?>
<svg xmlns:xlink="http://www.w3.org/1999/xlink" height="46.0px" width="46.0px" xmlns="http://www.w3.org/2000/svg">
  <g transform="matrix(1.0, 0.0, 0.0, 1.0, 22.5, 22.5)">
    <use data-characterId="794" height="46.0" transform="matrix(1.0, 0.0, 0.0, 1.0, -22.5, -22.5)" width="46.0" xlink:href="#shape0"/>
  </g>
  <defs>
    <g id="shape0" transform="matrix(1.0, 0.0, 0.0, 1.0, 22.5, 22.5)">
      <path d="M-10.75 23.0 L-22.0 13.3 -22.0 -2.35 -7.4 -22.0 7.95 -22.0 M-10.2 23.0 L11.7 23.0 22.95 13.3 23.0 -2.35 8.35 -22.0" fill="none" stroke="#3399ff" stroke-linecap="round" stroke-linejoin="round" stroke-width="1.0"/>
    </g>
  </defs>
</svg>
