<?xml version="1.0" encoding="UTF-8" standalone="no"?>
<svg xmlns:xlink="http://www.w3.org/1999/xlink" height="5.8px" width="6.3px" xmlns="http://www.w3.org/2000/svg">
  <g transform="matrix(1.0, 0.0, 0.0, 1.0, 3.15, 2.9)">
    <use data-characterId="936" height="5.8" transform="matrix(1.0, 0.0, 0.0, 1.0, -3.15, -2.9)" width="6.3" xlink:href="#shape0"/>
  </g>
  <defs>
    <g id="shape0" transform="matrix(1.0, 0.0, 0.0, 1.0, 3.15, 2.9)">
      <path d="M2.2 -2.05 Q3.15 -1.2 3.15 0.0 3.15 1.2 2.2 2.05 1.3 2.9 0.0 2.9 -1.3 2.9 -2.25 2.05 -3.15 1.2 -3.15 0.0 -3.15 -1.2 -2.25 -2.05 -1.3 -2.9 0.0 -2.9 1.3 -2.9 2.2 -2.05" fill="#ff0000" fill-rule="evenodd" stroke="none"/>
    </g>
  </defs>
</svg>
