<?xml version="1.0" encoding="UTF-8" standalone="no"?>
<svg xmlns:xlink="http://www.w3.org/1999/xlink" height="75.9px" width="91.0px" xmlns="http://www.w3.org/2000/svg">
  <g transform="matrix(1.0, 0.0, 0.0, 1.0, -3.0, 3.3)">
    <use data-characterId="1204" height="16.5" id="missilename" transform="matrix(1.0, 0.0, 0.0, 1.0007, 3.75, 15.6987)" width="67.55" xlink:href="#text0"/>
    <use data-characterId="1205" height="16.5" id="missileqty" transform="matrix(1.0, 0.0, 0.0, 1.0007, 3.0, 35.2487)" width="63.0" xlink:href="#text1"/>
    <use data-characterId="1206" height="16.0" id="onbutton" transform="matrix(0.8, 0.0, 0.0, 0.8005, 72.1, 18.9997)" width="26.0" xlink:href="#button0"/>
    <use data-characterId="1207" height="16.0" id="offbutton" transform="matrix(0.8, 0.0, 0.0, 0.8005, 72.6, 37.6)" width="26.0" xlink:href="#button1"/>
    <use data-characterId="1208" height="16.5" id="missilebank" transform="matrix(1.0, 0.0, 0.0, 1.0007, 12.25, -3.3013)" width="74.7" xlink:href="#text2"/>
    <use data-characterId="1210" height="16.0" transform="matrix(1.0, 0.0, 0.0, 1.0007, 4.0, -2.5503)" width="11.0" xlink:href="#button2"/>
    <use data-characterId="1211" height="16.0" transform="matrix(1.0, 0.0, 0.0, 1.0007, 83.0, -2.5503)" width="11.0" xlink:href="#button3"/>
    <use data-characterId="1216" height="14.0" id="missilereadiness" transform="matrix(0.9237, 0.0, 0.0, 0.9097, 7.4828, 59.8517)" width="46.0" xlink:href="#sprite0"/>
    <use data-characterId="1220" height="15.0" transform="matrix(0.9639, 0.0, 0.0, 0.9097, 53.4591, 58.9227)" width="41.0" xlink:href="#sprite1"/>
  </g>
  <defs>
    <g id="text0" transform="matrix(1.0, 0.0, 0.0, 1.0, 2.0, 2.0)">
      <g transform="matrix(1.0, 0.0, 0.0, 1.0, -2.0, -2.0)">
        <use fill="#ff0000" height="16.5" transform="matrix(0.0098, 0.0, 0.0, 0.0098, 0.0, 12.0)" width="67.55" xlink:href="#font_Trebuchet_MS_M0"/>
        <use fill="#ff0000" height="16.5" transform="matrix(0.0098, 0.0, 0.0, 0.0098, 0.0, 12.0)" width="67.55" xlink:href="#font_Trebuchet_MS_i0"/>
        <use fill="#ff0000" height="16.5" transform="matrix(0.0098, 0.0, 0.0, 0.0098, 0.0, 12.0)" width="67.55" xlink:href="#font_Trebuchet_MS_s0"/>
        <use fill="#ff0000" height="16.5" transform="matrix(0.0098, 0.0, 0.0, 0.0098, 0.0, 12.0)" width="67.55" xlink:href="#font_Trebuchet_MS_s0"/>
        <use fill="#ff0000" height="16.5" transform="matrix(0.0098, 0.0, 0.0, 0.0098, 0.0, 12.0)" width="67.55" xlink:href="#font_Trebuchet_MS_i0"/>
        <use fill="#ff0000" height="16.5" transform="matrix(0.0098, 0.0, 0.0, 0.0098, 0.0, 12.0)" width="67.55" xlink:href="#font_Trebuchet_MS_l0"/>
        <use fill="#ff0000" height="16.5" transform="matrix(0.0098, 0.0, 0.0, 0.0098, 0.0, 12.0)" width="67.55" xlink:href="#font_Trebuchet_MS_e0"/>
        <use fill="#ff0000" height="16.5" transform="matrix(0.0098, 0.0, 0.0, 0.0098, 0.0, 12.0)" width="67.55" xlink:href="#font_Trebuchet_MS_N0"/>
        <use fill="#ff0000" height="16.5" transform="matrix(0.0098, 0.0, 0.0, 0.0098, 0.0, 12.0)" width="67.55" xlink:href="#font_Trebuchet_MS_a0"/>
        <use fill="#ff0000" height="16.5" transform="matrix(0.0098, 0.0, 0.0, 0.0098, 0.0, 12.0)" width="67.55" xlink:href="#font_Trebuchet_MS_m0"/>
        <use fill="#ff0000" height="16.5" transform="matrix(0.0098, 0.0, 0.0, 0.0098, 0.0, 12.0)" width="67.55" xlink:href="#font_Trebuchet_MS_e0"/>
      </g>
    </g>
    <g id="font_Trebuchet_MS_M0">
      <path d="M626.5 0.0 L721.5 0.0 573.0 -732.5 528.0 -732.5 367.0 -198.0 192.5 -732.5 147.0 -732.5 10.0 0.0 105.0 0.0 190.0 -470.5 354.5 10.0 379.5 10.0 539.5 -470.5 626.5 0.0" fill-rule="evenodd" stroke="none"/>
    </g>
    <g id="font_Trebuchet_MS_i0">
      <path d="M113.5 0.0 L208.5 0.0 208.5 -535.5 40.0 -535.5 40.0 -455.5 113.5 -455.5 113.5 0.0 M165.5 -738.0 Q141.0 -738.0 124.0 -721.0 107.0 -704.0 107.0 -679.5 107.0 -655.0 124.5 -637.5 141.5 -620.5 165.5 -620.5 190.0 -620.5 207.5 -637.5 224.5 -655.0 224.5 -679.5 224.5 -703.5 207.5 -720.5 190.0 -738.0 165.5 -738.0" fill-rule="evenodd" stroke="none"/>
    </g>
    <g id="font_Trebuchet_MS_s0">
      <path d="M32.5 -32.0 Q107.0 10.0 191.5 10.0 281.0 10.0 331.5 -30.5 382.0 -71.5 382.0 -143.5 382.0 -198.5 353.5 -235.0 325.0 -271.5 262.5 -300.0 L194.5 -331.0 Q136.0 -357.5 136.0 -409.0 136.0 -433.5 159.5 -449.5 182.5 -465.5 216.5 -465.5 273.5 -465.5 330.0 -420.5 L357.0 -508.5 Q268.0 -545.5 209.5 -545.5 132.0 -545.5 84.0 -508.5 36.0 -471.5 36.0 -405.5 36.0 -380.0 44.5 -357.5 52.5 -335.5 69.5 -315.5 86.0 -296.0 109.0 -280.5 131.5 -265.0 197.0 -235.0 282.0 -197.0 282.0 -144.0 282.0 -70.0 194.0 -70.0 145.5 -70.0 66.0 -122.0 49.5 -77.0 32.5 -32.0" fill-rule="evenodd" stroke="none"/>
    </g>
    <g id="font_Trebuchet_MS_l0">
      <path d="M75.0 -151.5 Q75.0 10.0 259.5 10.0 L259.5 -75.0 Q219.5 -75.0 195.0 -99.5 170.0 -124.5 170.0 -167.5 L170.0 -755.0 75.0 -755.0 75.0 -151.5" fill-rule="evenodd" stroke="none"/>
    </g>
    <g id="font_Trebuchet_MS_e0">
      <path d="M288.0 -465.5 Q356.0 -465.5 395.5 -423.5 431.5 -385.0 431.5 -327.5 L135.0 -327.5 Q140.5 -385.5 181.5 -424.5 224.5 -465.5 288.0 -465.5 M518.5 -258.5 Q526.0 -285.0 526.0 -316.5 526.0 -419.0 463.0 -481.0 398.0 -545.5 283.5 -545.5 185.0 -545.5 113.0 -474.0 32.5 -394.0 32.5 -261.5 32.5 -134.0 111.0 -58.5 181.5 10.0 282.5 10.0 352.5 10.0 409.5 -11.0 455.0 -27.0 477.0 -49.0 L437.0 -117.5 Q382.5 -70.0 301.0 -70.0 229.5 -70.0 184.0 -114.0 132.5 -164.5 132.5 -258.5 L518.5 -258.5" fill-rule="evenodd" stroke="none"/>
    </g>
    <g id="font_Trebuchet_MS_N0">
      <path d="M548.5 10.0 L578.5 10.0 578.5 -732.5 483.5 -732.5 483.5 -226.0 115.0 -732.5 75.0 -732.5 75.0 0.0 170.0 0.0 170.0 -525.5 548.5 10.0" fill-rule="evenodd" stroke="none"/>
    </g>
    <g id="font_Trebuchet_MS_a0">
      <path d="M361.0 -263.0 L361.0 -133.5 Q305.5 -65.0 233.5 -65.0 135.0 -65.0 135.0 -148.5 135.0 -199.0 180.5 -236.0 226.0 -273.0 298.0 -273.0 316.0 -273.0 361.0 -263.0 M370.0 -61.5 Q382.5 -23.5 411.5 -7.0 440.0 9.5 498.0 9.5 L498.0 -38.0 Q456.0 -61.5 456.0 -132.0 L456.0 -324.0 Q456.0 -439.5 403.5 -492.5 350.5 -545.5 234.0 -545.5 190.5 -545.5 143.0 -529.5 95.0 -514.0 68.0 -492.0 L108.0 -412.5 Q156.0 -460.5 245.0 -460.5 361.0 -460.5 361.0 -330.5 323.0 -343.5 293.0 -343.5 182.5 -343.5 111.5 -287.0 40.0 -231.0 40.0 -149.5 40.0 -81.5 86.5 -35.5 132.5 10.0 195.5 10.0 313.0 10.0 370.0 -61.5" fill-rule="evenodd" stroke="none"/>
    </g>
    <g id="font_Trebuchet_MS_m0">
      <path d="M687.5 0.0 L782.5 0.0 782.5 -358.0 Q782.5 -447.0 737.0 -496.0 691.5 -545.5 608.5 -545.5 562.5 -545.5 519.0 -525.0 475.5 -504.5 459.5 -474.0 413.5 -545.5 298.5 -545.5 216.0 -545.5 161.0 -473.5 L129.5 -535.5 67.5 -535.5 67.5 0.0 162.5 0.0 162.5 -395.0 Q176.0 -421.5 208.5 -443.5 240.5 -465.5 269.0 -465.5 318.0 -465.5 348.0 -442.5 377.5 -420.0 377.5 -380.5 L377.5 0.0 472.5 0.0 472.5 -396.0 Q483.5 -423.0 513.5 -444.0 543.5 -465.5 578.0 -465.5 687.5 -465.5 687.5 -339.0 L687.5 0.0" fill-rule="evenodd" stroke="none"/>
    </g>
    <g id="text1" transform="matrix(1.0, 0.0, 0.0, 1.0, 2.0, 2.0)">
      <g transform="matrix(1.0, 0.0, 0.0, 1.0, -2.0, -2.0)">
        <use fill="#ff0000" height="16.5" transform="matrix(0.0098, 0.0, 0.0, 0.0098, 0.0, 12.0)" width="63.0" xlink:href="#font_Trebuchet_MS_m0"/>
        <use fill="#ff0000" height="16.5" transform="matrix(0.0098, 0.0, 0.0, 0.0098, 0.0, 12.0)" width="63.0" xlink:href="#font_Trebuchet_MS_i0"/>
        <use fill="#ff0000" height="16.5" transform="matrix(0.0098, 0.0, 0.0, 0.0098, 0.0, 12.0)" width="63.0" xlink:href="#font_Trebuchet_MS_s0"/>
        <use fill="#ff0000" height="16.5" transform="matrix(0.0098, 0.0, 0.0, 0.0098, 0.0, 12.0)" width="63.0" xlink:href="#font_Trebuchet_MS_s0"/>
        <use fill="#ff0000" height="16.5" transform="matrix(0.0098, 0.0, 0.0, 0.0098, 0.0, 12.0)" width="63.0" xlink:href="#font_Trebuchet_MS_i0"/>
        <use fill="#ff0000" height="16.5" transform="matrix(0.0098, 0.0, 0.0, 0.0098, 0.0, 12.0)" width="63.0" xlink:href="#font_Trebuchet_MS_l0"/>
        <use fill="#ff0000" height="16.5" transform="matrix(0.0098, 0.0, 0.0, 0.0098, 0.0, 12.0)" width="63.0" xlink:href="#font_Trebuchet_MS_e0"/>
      </g>
      <g transform="matrix(1.0, 0.0, 0.0, 1.0, -2.0, -2.0)">
        <use fill="#ff0000" height="16.5" transform="matrix(0.0098, 0.0, 0.0, 0.0098, 0.0, 12.0)" width="63.0" xlink:href="#font_Trebuchet_MS_q0"/>
        <use fill="#ff0000" height="16.5" transform="matrix(0.0098, 0.0, 0.0, 0.0098, 0.0, 12.0)" width="63.0" xlink:href="#font_Trebuchet_MS_t0"/>
        <use fill="#ff0000" height="16.5" transform="matrix(0.0098, 0.0, 0.0, 0.0098, 0.0, 12.0)" width="63.0" xlink:href="#font_Trebuchet_MS_y0"/>
      </g>
    </g>
    <g id="font_Trebuchet_MS_q0">
      <path d="M410.5 -424.5 L410.5 -105.0 Q372.5 -70.0 304.0 -70.0 227.5 -70.0 182.5 -121.5 137.5 -173.5 137.5 -266.5 137.5 -356.5 182.5 -411.0 227.5 -465.5 308.0 -465.5 369.5 -465.5 410.5 -424.5 M410.5 210.0 L505.5 210.0 505.5 -535.5 448.0 -535.5 Q435.5 -515.0 422.5 -495.0 362.0 -545.5 292.0 -545.5 180.0 -545.5 109.0 -470.0 37.5 -395.0 37.5 -266.5 37.5 -136.5 100.0 -63.0 162.0 10.0 271.5 10.0 369.0 10.0 410.5 -31.5 L410.5 210.0" fill-rule="evenodd" stroke="none"/>
    </g>
    <g id="font_Trebuchet_MS_t0">
      <path d="M101.5 -460.5 L101.5 -156.5 Q101.5 -84.5 145.5 -37.0 189.0 10.0 252.5 10.0 323.0 10.0 382.0 -5.0 L368.0 -88.5 Q329.0 -70.0 292.5 -70.0 242.0 -70.0 219.5 -98.5 196.5 -127.0 196.5 -194.5 L196.5 -460.5 343.5 -460.5 343.5 -535.5 196.5 -535.5 196.5 -684.0 Q149.0 -665.5 101.5 -647.5 L101.5 -535.5 39.5 -535.5 39.5 -460.5 101.5 -460.5" fill-rule="evenodd" stroke="none"/>
    </g>
    <g id="font_Trebuchet_MS_y0">
      <path d="M272.0 91.0 L499.0 -535.5 402.0 -535.5 Q331.5 -328.5 260.5 -121.5 182.0 -328.5 103.0 -535.5 L6.0 -535.5 151.0 -163.0 Q175.5 -100.0 191.0 -57.0 206.5 -14.5 206.5 29.5 206.5 69.5 164.0 97.5 121.5 125.0 62.0 125.0 L62.0 210.0 Q135.0 210.0 194.5 176.0 253.5 142.0 272.0 91.0" fill-rule="evenodd" stroke="none"/>
    </g>
    <g id="button0" transform="matrix(1.0, 0.0, 0.0, 1.0, 0.5, 0.5)">
      <use data-characterId="500" height="16.0" transform="matrix(1.0, 0.0, 0.0, 1.0, -0.5, -0.5)" width="26.0" xlink:href="#shape0"/>
    </g>
    <g id="shape0" transform="matrix(1.0, 0.0, 0.0, 1.0, 0.5, 0.5)">
      <path d="M19.5 10.5 L12.5 3.5 5.5 10.5 12.5 3.5 19.5 10.5 M0.0 15.0 L0.0 0.0 25.0 0.0 25.0 15.0 0.0 15.0" fill="#ccff00" fill-rule="evenodd" stroke="none"/>
      <path d="M5.5 10.5 L12.5 3.5 19.5 10.5" fill="none" stroke="#000000" stroke-linecap="round" stroke-linejoin="round" stroke-width="1.0"/>
      <path d="M0.0 15.0 L0.0 0.0 25.0 0.0 25.0 15.0 0.0 15.0 Z" fill="none" stroke="#cccccc" stroke-linecap="round" stroke-linejoin="round" stroke-width="1.0"/>
    </g>
    <g id="button1" transform="matrix(1.0, 0.0, 0.0, 1.0, 0.0, 0.0)">
      <use data-characterId="502" height="16.0" transform="matrix(1.0, 0.0, 0.0, 1.0, 0.0, 0.0)" width="26.0" xlink:href="#shape1"/>
    </g>
    <g id="shape1" transform="matrix(1.0, 0.0, 0.0, 1.0, 0.0, 0.0)">
      <path d="M20.0 5.0 L13.0 12.0 6.0 5.0 13.0 12.0 20.0 5.0 M0.5 15.5 L0.5 0.5 25.5 0.5 25.5 15.5 0.5 15.5" fill="#ccff00" fill-rule="evenodd" stroke="none"/>
      <path d="M6.0 5.0 L13.0 12.0 20.0 5.0" fill="none" stroke="#000000" stroke-linecap="round" stroke-linejoin="round" stroke-width="1.0"/>
      <path d="M0.5 15.5 L25.5 15.5 25.5 0.5 0.5 0.5 0.5 15.5 Z" fill="none" stroke="#cccccc" stroke-linecap="round" stroke-linejoin="round" stroke-width="1.0"/>
    </g>
    <g id="text2" transform="matrix(1.0, 0.0, 0.0, 1.0, 2.0, 2.0)">
      <g transform="matrix(1.0, 0.0, 0.0, 1.0, -2.0, -2.0)">
        <use fill="#ff0000" height="16.5" transform="matrix(0.0098, 0.0, 0.0, 0.0098, 37.35, 12.0)" width="74.7" xlink:href="#font_Trebuchet_MS_M0"/>
        <use fill="#ff0000" height="16.5" transform="matrix(0.0098, 0.0, 0.0, 0.0098, 37.35, 12.0)" width="74.7" xlink:href="#font_Trebuchet_MS_i0"/>
        <use fill="#ff0000" height="16.5" transform="matrix(0.0098, 0.0, 0.0, 0.0098, 37.35, 12.0)" width="74.7" xlink:href="#font_Trebuchet_MS_s0"/>
        <use fill="#ff0000" height="16.5" transform="matrix(0.0098, 0.0, 0.0, 0.0098, 37.35, 12.0)" width="74.7" xlink:href="#font_Trebuchet_MS_s0"/>
        <use fill="#ff0000" height="16.5" transform="matrix(0.0098, 0.0, 0.0, 0.0098, 37.35, 12.0)" width="74.7" xlink:href="#font_Trebuchet_MS_i0"/>
        <use fill="#ff0000" height="16.5" transform="matrix(0.0098, 0.0, 0.0, 0.0098, 37.35, 12.0)" width="74.7" xlink:href="#font_Trebuchet_MS_l0"/>
        <use fill="#ff0000" height="16.5" transform="matrix(0.0098, 0.0, 0.0, 0.0098, 37.35, 12.0)" width="74.7" xlink:href="#font_Trebuchet_MS_e0"/>
      </g>
      <g transform="matrix(1.0, 0.0, 0.0, 1.0, -2.0, -2.0)">
        <use fill="#ff0000" height="16.5" transform="matrix(0.0098, 0.0, 0.0, 0.0098, 37.35, 12.0)" width="74.7" xlink:href="#font_Trebuchet_MS_B0"/>
        <use fill="#ff0000" height="16.5" transform="matrix(0.0098, 0.0, 0.0, 0.0098, 37.35, 12.0)" width="74.7" xlink:href="#font_Trebuchet_MS_a0"/>
        <use fill="#ff0000" height="16.5" transform="matrix(0.0098, 0.0, 0.0, 0.0098, 37.35, 12.0)" width="74.7" xlink:href="#font_Trebuchet_MS_n0"/>
        <use fill="#ff0000" height="16.5" transform="matrix(0.0098, 0.0, 0.0, 0.0098, 37.35, 12.0)" width="74.7" xlink:href="#font_Trebuchet_MS_k0"/>
      </g>
    </g>
    <g id="font_Trebuchet_MS_B0">
      <path d="M175.0 -364.5 L255.5 -367.0 Q352.0 -367.0 393.5 -333.0 434.5 -299.0 434.5 -227.5 434.5 -150.5 391.5 -115.0 348.0 -80.0 254.0 -80.0 226.5 -80.0 175.0 -85.0 L175.0 -364.5 M175.0 -652.5 Q214.5 -656.0 264.5 -656.0 395.0 -656.0 395.0 -554.5 395.0 -439.0 253.0 -439.0 206.5 -439.0 175.0 -442.0 L175.0 -652.5 M284.0 0.0 Q398.0 0.0 469.0 -57.5 539.5 -115.0 539.5 -211.5 539.5 -295.0 500.0 -343.5 460.0 -392.0 373.0 -413.0 419.0 -423.5 457.0 -465.5 495.0 -507.5 495.0 -558.5 495.0 -645.5 435.5 -692.0 376.0 -739.0 267.5 -739.0 208.5 -739.0 75.0 -732.5 L75.0 0.0 284.0 0.0" fill-rule="evenodd" stroke="none"/>
    </g>
    <g id="font_Trebuchet_MS_n0">
      <path d="M397.0 0.0 L492.0 0.0 492.0 -331.5 Q492.0 -545.5 316.0 -545.5 209.5 -545.5 162.5 -466.5 L132.5 -535.5 67.5 -535.5 67.5 0.0 162.5 0.0 162.5 -398.0 Q181.5 -426.5 217.0 -446.0 252.5 -465.5 285.0 -465.5 345.5 -465.5 371.5 -431.0 397.0 -397.0 397.0 -311.5 L397.0 0.0" fill-rule="evenodd" stroke="none"/>
    </g>
    <g id="font_Trebuchet_MS_k0">
      <path d="M413.5 0.0 L516.5 0.0 307.0 -332.0 Q393.0 -433.5 478.5 -535.5 L367.5 -535.5 162.5 -286.5 162.5 -755.0 67.5 -755.0 67.5 0.0 162.5 0.0 162.5 -182.5 245.5 -268.0 413.5 0.0" fill-rule="evenodd" stroke="none"/>
    </g>
    <g id="button2" transform="matrix(1.0, 0.0, 0.0, 1.0, 0.5, 0.5)">
      <use data-characterId="1209" height="16.0" transform="matrix(1.0, 0.0, 0.0, 1.0, -0.5, -0.5)" width="11.0" xlink:href="#shape2"/>
    </g>
    <g id="shape2" transform="matrix(1.0, 0.0, 0.0, 1.0, 0.5, 0.5)">
      <path d="M7.0 11.7 L2.3 7.5 7.0 3.3 2.3 7.5 7.0 11.7 M10.0 0.0 L10.0 15.0 0.0 15.0 0.0 0.0 10.0 0.0" fill="#ccff00" fill-rule="evenodd" stroke="none"/>
      <path d="M7.0 3.3 L2.3 7.5 7.0 11.7" fill="none" stroke="#000000" stroke-linecap="round" stroke-linejoin="round" stroke-width="1.0"/>
      <path d="M10.0 0.0 L0.0 0.0 0.0 15.0 10.0 15.0 10.0 0.0 Z" fill="none" stroke="#cccccc" stroke-linecap="round" stroke-linejoin="round" stroke-width="1.0"/>
    </g>
    <g id="button3" transform="matrix(1.0, 0.0, 0.0, 1.0, 0.45, 0.5)">
      <use data-characterId="1153" height="16.0" transform="matrix(1.0, 0.0, 0.0, 1.0, -0.45, -0.5)" width="11.0" xlink:href="#shape3"/>
    </g>
    <g id="shape3" transform="matrix(1.0, 0.0, 0.0, 1.0, 0.45, 0.5)">
      <path d="M3.05 11.7 L7.7 7.5 3.05 3.3 7.7 7.5 3.05 11.7 M10.05 0.0 L10.05 15.0 0.05 15.0 0.05 0.0 10.05 0.0" fill="#ccff00" fill-rule="evenodd" stroke="none"/>
      <path d="M3.05 3.3 L7.7 7.5 3.05 11.7" fill="none" stroke="#000000" stroke-linecap="round" stroke-linejoin="round" stroke-width="1.0"/>
      <path d="M10.05 0.0 L10.05 15.0 0.05 15.0 0.05 0.0 10.05 0.0 Z" fill="none" stroke="#cccccc" stroke-linecap="round" stroke-linejoin="round" stroke-width="1.0"/>
    </g>
    <g id="sprite0" transform="matrix(1.0, 0.0, 0.0, 1.0, 31.9, 5.0)">
      <use data-characterId="1212" height="14.0" transform="matrix(1.0, 0.0, 0.0, 1.0, -31.9, -5.0)" width="46.0" xlink:href="#shape4"/>
      <use data-characterId="1213" height="9.25" transform="matrix(1.0011, 0.0, 0.0, 1.0, -24.4429, -3.25)" width="23.2" xlink:href="#text3"/>
    </g>
    <g id="shape4" transform="matrix(1.0, 0.0, 0.0, 1.0, 31.9, 5.0)">
      <path d="M13.6 -4.5 L13.6 8.5 -31.4 8.5 -31.4 -4.5 13.6 -4.5" fill="#00ff00" fill-rule="evenodd" stroke="none"/>
      <path d="M13.6 -4.5 L13.6 8.5 -31.4 8.5 -31.4 -4.5 13.6 -4.5 Z" fill="none" stroke="#cccccc" stroke-linecap="round" stroke-linejoin="round" stroke-width="1.0"/>
    </g>
    <g id="text3" transform="matrix(1.0, 0.0, 0.0, 1.0, -6.55, -1.55)">
      <g transform="matrix(1.0, 0.0, 0.0, 1.0, 0.0, 0.0)">
        <use fill="#000000" height="9.25" transform="matrix(0.0098, 0.0, 0.0, 0.0098, 6.0, 10.0)" width="23.2" xlink:href="#font_Trebuchet_MS_R0"/>
        <use fill="#000000" height="9.25" transform="matrix(0.0098, 0.0, 0.0, 0.0098, 9.95, 10.0)" width="23.2" xlink:href="#font_Trebuchet_MS_E0"/>
        <use fill="#000000" height="9.25" transform="matrix(0.0098, 0.0, 0.0, 0.0098, 13.45, 10.0)" width="23.2" xlink:href="#font_Trebuchet_MS_A0"/>
        <use fill="#000000" height="9.25" transform="matrix(0.0098, 0.0, 0.0, 0.0098, 17.45, 10.0)" width="23.2" xlink:href="#font_Trebuchet_MS_D0"/>
        <use fill="#000000" height="9.25" transform="matrix(0.0098, 0.0, 0.0, 0.0098, 21.75, 10.0)" width="23.2" xlink:href="#font_Trebuchet_MS_Y0"/>
      </g>
    </g>
    <g id="font_Trebuchet_MS_R0">
      <path d="M180.0 -642.5 Q224.0 -647.5 239.0 -647.5 334.0 -647.5 378.0 -620.5 422.0 -593.5 422.0 -532.0 422.0 -457.5 381.0 -428.5 340.0 -399.5 250.0 -399.5 216.0 -399.5 180.0 -404.5 L180.0 -642.5 M481.5 0.0 L596.0 0.0 383.5 -337.0 Q442.0 -350.5 484.5 -405.5 527.0 -461.0 527.0 -530.0 527.0 -740.0 263.0 -740.0 L158.0 -736.0 80.0 -732.5 80.0 0.0 180.0 0.0 180.0 -319.5 Q252.5 -314.5 286.0 -314.5 L481.5 0.0" fill-rule="evenodd" stroke="none"/>
    </g>
    <g id="font_Trebuchet_MS_E0">
      <path d="M175.0 -642.5 L512.5 -642.5 512.5 -732.5 75.0 -732.5 75.0 0.0 507.0 0.0 507.0 -90.0 175.0 -90.0 175.0 -354.0 417.0 -354.0 417.0 -439.0 175.0 -439.0 175.0 -642.5" fill-rule="evenodd" stroke="none"/>
    </g>
    <g id="font_Trebuchet_MS_A0">
      <path d="M308.0 -550.5 L412.0 -228.0 194.5 -228.0 Q251.5 -389.0 308.0 -550.5 M491.0 0.0 L602.0 0.0 326.0 -742.5 299.5 -742.5 Q151.0 -371.0 2.0 0.0 L114.0 0.0 168.0 -154.5 440.5 -154.5 491.0 0.0" fill-rule="evenodd" stroke="none"/>
    </g>
    <g id="font_Trebuchet_MS_D0">
      <path d="M175.0 -642.5 Q235.5 -647.5 249.5 -647.5 483.0 -647.5 483.0 -387.5 483.0 -247.5 423.0 -168.5 363.0 -90.0 258.0 -90.0 208.5 -90.0 175.0 -95.0 L175.0 -642.5 M222.5 0.0 Q588.0 0.0 588.0 -396.0 588.0 -551.0 498.5 -644.0 409.0 -737.5 255.5 -737.5 216.0 -737.5 75.0 -732.5 L75.0 0.0 222.5 0.0" fill-rule="evenodd" stroke="none"/>
    </g>
    <g id="font_Trebuchet_MS_Y0">
      <path d="M342.5 -328.0 L577.5 -732.5 474.5 -732.5 292.0 -412.5 109.5 -732.5 6.5 -732.5 242.5 -328.0 242.5 0.0 342.5 0.0 342.5 -328.0" fill-rule="evenodd" stroke="none"/>
    </g>
    <g id="sprite1" transform="matrix(1.0, 0.0, 0.0, 1.0, 21.0, 8.0)">
      <use data-characterId="1217" height="15.0" transform="matrix(1.0, 0.0, 0.0, 1.0, -21.0, -8.0)" width="41.0" xlink:href="#shape5"/>
      <use data-characterId="1218" height="9.4" transform="matrix(1.0, 0.0, 0.0, 1.0, -14.65, -5.5)" width="23.5" xlink:href="#text4"/>
    </g>
    <g id="shape5" transform="matrix(1.0, 0.0, 0.0, 1.0, 21.0, 8.0)">
      <path d="M19.5 6.5 L-20.5 6.5 -20.5 -7.5 19.5 -7.5 19.5 6.5" fill="#888800" fill-rule="evenodd" stroke="none"/>
      <path d="M19.5 6.5 L-20.5 6.5 -20.5 -7.5 19.5 -7.5 19.5 6.5 Z" fill="none" stroke="#cccccc" stroke-linecap="round" stroke-linejoin="round" stroke-width="1.0"/>
    </g>
    <g id="text4" transform="matrix(1.0, 0.0, 0.0, 1.0, -5.35, -1.5)">
      <g transform="matrix(1.0, 0.0, 0.0, 1.0, 0.0, 0.0)">
        <use fill="#000000" height="9.4" transform="matrix(0.0098, 0.0, 0.0, 0.0098, 5.0, 10.0)" width="23.5" xlink:href="#font_Trebuchet_MS_A0"/>
        <use fill="#000000" height="9.4" transform="matrix(0.0098, 0.0, 0.0, 0.0098, 9.55, 10.0)" width="23.5" xlink:href="#font_Trebuchet_MS_U0"/>
        <use fill="#000000" height="9.4" transform="matrix(0.0098, 0.0, 0.0, 0.0098, 14.75, 10.0)" width="23.5" xlink:href="#font_Trebuchet_MS_T0"/>
        <use fill="#000000" height="9.4" transform="matrix(0.0098, 0.0, 0.0, 0.0098, 18.65, 10.0)" width="23.5" xlink:href="#font_Trebuchet_MS_O0"/>
      </g>
    </g>
    <g id="font_Trebuchet_MS_U0">
      <path d="M75.0 -732.5 L75.0 -223.5 Q75.0 -109.5 141.5 -48.5 208.0 12.5 331.0 12.5 450.5 12.5 520.0 -49.5 589.0 -112.0 589.0 -223.0 L589.0 -732.5 489.0 -732.5 489.0 -233.5 Q489.0 -161.5 446.5 -119.5 404.0 -77.5 330.0 -77.5 260.0 -77.5 217.5 -120.5 175.0 -164.0 175.0 -231.0 L175.0 -732.5 75.0 -732.5" fill-rule="evenodd" stroke="none"/>
    </g>
    <g id="font_Trebuchet_MS_T0">
      <path d="M342.0 -642.5 L585.5 -642.5 585.5 -732.5 9.0 -732.5 9.0 -642.5 242.0 -642.5 242.0 0.0 342.0 0.0 342.0 -642.5" fill-rule="evenodd" stroke="none"/>
    </g>
    <g id="font_Trebuchet_MS_O0">
      <path d="M145.0 -372.5 Q145.0 -503.5 193.5 -579.5 242.0 -655.5 335.0 -655.5 545.0 -655.5 545.0 -372.5 545.0 -232.5 491.5 -155.0 437.5 -77.5 335.0 -77.5 244.5 -77.5 195.0 -162.0 145.0 -246.5 145.0 -372.5 M40.0 -372.5 Q40.0 -203.5 118.5 -95.5 196.5 12.5 335.0 12.5 487.0 12.5 568.5 -89.5 650.0 -192.0 650.0 -372.5 650.0 -548.5 569.0 -647.0 487.5 -745.5 335.0 -745.5 199.5 -745.5 120.0 -638.5 40.0 -531.5 40.0 -372.5" fill-rule="evenodd" stroke="none"/>
    </g>
  </defs>
</svg>
