<?xml version="1.0" encoding="UTF-8" standalone="no"?>
<svg xmlns:xlink="http://www.w3.org/1999/xlink" height="39.75px" width="40.1px" xmlns="http://www.w3.org/2000/svg">
  <g transform="matrix(1.0, 0.0, 0.0, 1.0, 20.05, 20.0)">
    <use data-characterId="648" height="39.75" transform="matrix(1.0, 0.0, 0.0, 1.0, -20.05, -20.0)" width="40.1" xlink:href="#shape0"/>
  </g>
  <defs>
    <g id="shape0" transform="matrix(1.0, 0.0, 0.0, 1.0, 20.05, 20.0)">
      <path d="M-6.0 -13.25 L-2.5 -18.75 Q0.0 -20.2 2.5 -18.75 L6.0 -13.25 M-6.0 -13.0 Q-10.25 -8.75 -15.5 -7.5 -19.95 -2.5 -19.5 2.5 L-19.5 13.75 Q-14.45 17.7 -7.0 19.25 L7.0 19.25 Q14.45 17.7 19.5 13.75 L19.5 2.5 Q19.95 -2.5 15.5 -7.5 10.25 -8.75 6.0 -13.0" fill="none" stroke="#3366ff" stroke-linecap="round" stroke-linejoin="round" stroke-width="1.0"/>
    </g>
  </defs>
</svg>
