<?xml version="1.0" encoding="UTF-8" standalone="no"?>
<svg xmlns:xlink="http://www.w3.org/1999/xlink" height="704.1px" width="1399.95px" xmlns="http://www.w3.org/2000/svg">
  <g transform="matrix(1.0, 0.0, 0.0, 1.0, 682.5, -2.65)">
    <use data-characterId="1011" height="511.85" transform="matrix(1.0, 0.0, 0.0, 1.0, 5.55, 2.65)" width="711.9" xlink:href="#shape0"/>
    <use data-characterId="1012" height="15.55" transform="matrix(1.0, 0.0, 0.0, 1.0, 226.0, 14.7)" width="259.05" xlink:href="#text0"/>
    <use data-characterId="1015" data-characterName="sc313_fla.ingamehelpbuttons_8" height="19.0" id="butt1" transform="matrix(1.0, 0.0, 0.0, 1.0, 17.5, 61.55)" width="118.5" xlink:href="#sprite0"/>
    <use data-characterId="1008" height="27.0" id="minimizeButton" transform="matrix(1.0, 0.0, 0.0, 1.0, 672.95, 12.0)" width="27.0" xlink:href="#button0"/>
    <use data-characterId="1015" data-characterName="sc313_fla.ingamehelpbuttons_8" height="19.0" id="butt2" transform="matrix(1.0, 0.0, 0.0, 1.0, 17.5, 84.65)" width="118.5" xlink:href="#sprite0"/>
    <use data-characterId="1015" data-characterName="sc313_fla.ingamehelpbuttons_8" height="19.0" id="butt3" transform="matrix(1.0, 0.0, 0.0, 1.0, 17.5, 106.65)" width="118.5" xlink:href="#sprite0"/>
    <use data-characterId="1015" data-characterName="sc313_fla.ingamehelpbuttons_8" height="19.0" id="butt4" transform="matrix(1.0, 0.0, 0.0, 1.0, 17.5, 129.65)" width="118.5" xlink:href="#sprite0"/>
    <use data-characterId="1015" data-characterName="sc313_fla.ingamehelpbuttons_8" height="19.0" id="butt5" transform="matrix(1.0, 0.0, 0.0, 1.0, 17.5, 152.65)" width="118.5" xlink:href="#sprite0"/>
    <use data-characterId="1015" data-characterName="sc313_fla.ingamehelpbuttons_8" height="19.0" id="butt6" transform="matrix(1.0, 0.0, 0.0, 1.0, 17.5, 174.65)" width="118.5" xlink:href="#sprite0"/>
    <use data-characterId="1015" data-characterName="sc313_fla.ingamehelpbuttons_8" height="19.0" id="butt7" transform="matrix(1.0, 0.0, 0.0, 1.0, 17.5, 197.15)" width="118.5" xlink:href="#sprite0"/>
    <use data-characterId="1015" data-characterName="sc313_fla.ingamehelpbuttons_8" height="19.0" id="butt8" transform="matrix(1.0, 0.0, 0.0, 1.0, 17.5, 221.15)" width="118.5" xlink:href="#sprite0"/>
    <use data-characterId="1015" data-characterName="sc313_fla.ingamehelpbuttons_8" height="19.0" id="butt9" transform="matrix(1.0, 0.0, 0.0, 1.0, 17.5, 243.5)" width="118.5" xlink:href="#sprite0"/>
  </g>
  <defs>
    <g id="shape0" transform="matrix(1.0, 0.0, 0.0, 1.0, -5.55, -2.65)">
      <path d="M716.95 514.0 L6.05 514.0 6.05 3.15 716.95 3.15 716.95 514.0" fill="#000000" fill-rule="evenodd" stroke="none"/>
      <path d="M716.95 514.0 L6.05 514.0 6.05 3.15 716.95 3.15 716.95 514.0 Z" fill="none" stroke="#cccccc" stroke-linecap="round" stroke-linejoin="round" stroke-width="1.0"/>
      <path d="M711.45 508.75 L146.25 508.75 146.25 56.25 711.45 56.25 711.45 508.75 Z" fill="none" stroke="#ffff00" stroke-linecap="round" stroke-linejoin="round" stroke-width="1.0"/>
    </g>
    <g id="text0" transform="matrix(1.0, 0.0, 0.0, 1.0, -1.05, -1.7)">
      <g transform="matrix(1.0, 0.0, 0.0, 1.0, 0.0, 0.0)">
        <use fill="#ffffff" height="15.55" transform="matrix(0.0137, 0.0, 0.0, 0.0137, 0.0, 13.0)" width="259.05" xlink:href="#font_Trebuchet_MS_I0"/>
        <use fill="#ffffff" height="15.55" transform="matrix(0.0137, 0.0, 0.0, 0.0137, 3.9, 13.0)" width="259.05" xlink:href="#font_Trebuchet_MS_n0"/>
        <use fill="#ffffff" height="15.55" transform="matrix(0.0137, 0.0, 0.0, 0.0137, 16.35, 13.0)" width="259.05" xlink:href="#font_Trebuchet_MS_G0"/>
        <use fill="#ffffff" height="15.55" transform="matrix(0.0137, 0.0, 0.0, 0.0137, 25.75, 13.0)" width="259.05" xlink:href="#font_Trebuchet_MS_a0"/>
        <use fill="#ffffff" height="15.55" transform="matrix(0.0137, 0.0, 0.0, 0.0137, 33.2, 13.0)" width="259.05" xlink:href="#font_Trebuchet_MS_m0"/>
        <use fill="#ffffff" height="15.55" transform="matrix(0.0137, 0.0, 0.0, 0.0137, 45.25, 13.0)" width="259.05" xlink:href="#font_Trebuchet_MS_e0"/>
        <use fill="#ffffff" height="15.55" transform="matrix(0.0137, 0.0, 0.0, 0.0137, 57.5, 13.0)" width="259.05" xlink:href="#font_Trebuchet_MS_H0"/>
        <use fill="#ffffff" height="15.55" transform="matrix(0.0137, 0.0, 0.0, 0.0137, 67.05, 13.0)" width="259.05" xlink:href="#font_Trebuchet_MS_e0"/>
        <use fill="#ffffff" height="15.55" transform="matrix(0.0137, 0.0, 0.0, 0.0137, 75.1, 13.0)" width="259.05" xlink:href="#font_Trebuchet_MS_l0"/>
        <use fill="#ffffff" height="15.55" transform="matrix(0.0137, 0.0, 0.0, 0.0137, 79.25, 13.0)" width="259.05" xlink:href="#font_Trebuchet_MS_p0"/>
        <use fill="#ffffff" height="15.55" transform="matrix(0.0137, 0.0, 0.0, 0.0137, 91.6, 13.0)" width="259.05" xlink:href="#font_Trebuchet_MS__1"/>
        <use fill="#ffffff" height="15.55" transform="matrix(0.0137, 0.0, 0.0, 0.0137, 96.75, 13.0)" width="259.05" xlink:href="#font_Trebuchet_MS_F0"/>
        <use fill="#ffffff" height="15.55" transform="matrix(0.0137, 0.0, 0.0, 0.0137, 104.9, 13.0)" width="259.05" xlink:href="#font_Trebuchet_MS_10"/>
        <use fill="#ffffff" height="15.55" transform="matrix(0.0137, 0.0, 0.0, 0.0137, 113.1, 13.0)" width="259.05" xlink:href="#font_Trebuchet_MS_20"/>
        <use fill="#ffffff" height="15.55" transform="matrix(0.0137, 0.0, 0.0, 0.0137, 125.5, 13.0)" width="259.05" xlink:href="#font_Trebuchet_MS_T0"/>
        <use fill="#ffffff" height="15.55" transform="matrix(0.0137, 0.0, 0.0, 0.0137, 134.05, 13.0)" width="259.05" xlink:href="#font_Trebuchet_MS_o0"/>
        <use fill="#ffffff" height="15.55" transform="matrix(0.0137, 0.0, 0.0, 0.0137, 146.15, 13.0)" width="259.05" xlink:href="#font_Trebuchet_MS_O0"/>
        <use fill="#ffffff" height="15.55" transform="matrix(0.0137, 0.0, 0.0, 0.0137, 156.0, 13.0)" width="259.05" xlink:href="#font_Trebuchet_MS_p0"/>
        <use fill="#ffffff" height="15.55" transform="matrix(0.0137, 0.0, 0.0, 0.0137, 164.15, 13.0)" width="259.05" xlink:href="#font_Trebuchet_MS_e0"/>
        <use fill="#ffffff" height="15.55" transform="matrix(0.0137, 0.0, 0.0, 0.0137, 172.2, 13.0)" width="259.05" xlink:href="#font_Trebuchet_MS_n0"/>
        <use fill="#ffffff" height="15.55" transform="matrix(0.0137, 0.0, 0.0, 0.0137, 184.65, 13.0)" width="259.05" xlink:href="#font_Trebuchet_MS_A0"/>
        <use fill="#ffffff" height="15.55" transform="matrix(0.0137, 0.0, 0.0, 0.0137, 193.5, 13.0)" width="259.05" xlink:href="#font_Trebuchet_MS_n0"/>
        <use fill="#ffffff" height="15.55" transform="matrix(0.0137, 0.0, 0.0, 0.0137, 201.75, 13.0)" width="259.05" xlink:href="#font_Trebuchet_MS_d0"/>
        <use fill="#ffffff" height="15.55" transform="matrix(0.0137, 0.0, 0.0, 0.0137, 214.1, 13.0)" width="259.05" xlink:href="#font_Trebuchet_MS_C0"/>
        <use fill="#ffffff" height="15.55" transform="matrix(0.0137, 0.0, 0.0, 0.0137, 222.65, 13.0)" width="259.05" xlink:href="#font_Trebuchet_MS_l0"/>
        <use fill="#ffffff" height="15.55" transform="matrix(0.0137, 0.0, 0.0, 0.0137, 226.8, 13.0)" width="259.05" xlink:href="#font_Trebuchet_MS_o0"/>
        <use fill="#ffffff" height="15.55" transform="matrix(0.0137, 0.0, 0.0, 0.0137, 234.7, 13.0)" width="259.05" xlink:href="#font_Trebuchet_MS_s0"/>
        <use fill="#ffffff" height="15.55" transform="matrix(0.0137, 0.0, 0.0, 0.0137, 240.75, 13.0)" width="259.05" xlink:href="#font_Trebuchet_MS_e0"/>
        <use fill="#ffffff" height="15.55" transform="matrix(0.0137, 0.0, 0.0, 0.0137, 248.8, 13.0)" width="259.05" xlink:href="#font_Trebuchet_MS__2"/>
      </g>
    </g>
    <g id="font_Trebuchet_MS_I0">
      <path d="M77.5 0.0 L207.5 0.0 207.5 -732.5 77.5 -732.5 77.5 0.0" fill-rule="evenodd" stroke="none"/>
    </g>
    <g id="font_Trebuchet_MS_n0">
      <path d="M412.0 0.0 L537.0 0.0 537.0 -328.5 Q537.0 -431.0 482.0 -488.0 426.5 -545.5 331.0 -545.5 231.5 -545.5 180.5 -485.5 L157.5 -535.5 67.5 -535.5 67.5 0.0 192.5 0.0 192.5 -387.0 Q210.0 -410.0 241.5 -425.5 272.5 -441.0 300.0 -441.0 359.5 -441.0 386.0 -409.5 412.0 -378.0 412.0 -309.5 L412.0 0.0" fill-rule="evenodd" stroke="none"/>
    </g>
    <g id="font_Trebuchet_MS_G0">
      <path d="M616.0 -673.0 L616.0 -673.0 Q531.5 -745.0 411.0 -745.0 241.0 -745.0 140.5 -639.0 40.0 -533.0 40.0 -363.5 40.0 -194.0 132.5 -90.5 224.5 12.5 382.0 12.5 454.5 12.5 528.0 -8.5 601.0 -30.0 647.5 -68.0 L647.5 -396.0 416.0 -396.0 416.0 -285.0 517.5 -285.0 517.5 -141.0 Q472.5 -103.0 403.0 -103.0 297.5 -103.0 236.5 -173.0 175.0 -243.0 175.0 -360.0 175.0 -483.0 237.5 -556.0 300.0 -629.5 408.0 -629.5 442.5 -629.5 490.5 -609.0 538.5 -589.0 561.5 -568.5 L616.0 -673.0" fill-rule="evenodd" stroke="none"/>
    </g>
    <g id="font_Trebuchet_MS_a0">
      <path d="M353.5 -252.0 L353.5 -202.0 Q353.5 -89.5 241.0 -89.5 157.5 -89.5 157.5 -161.5 157.5 -258.5 305.5 -258.5 321.5 -258.5 353.5 -252.0 M365.5 -53.5 L365.5 -53.5 Q373.0 -30.0 394.5 -10.0 416.0 10.0 443.0 10.0 467.5 10.0 486.5 4.0 505.5 -2.5 521.0 -29.5 478.0 -57.0 478.0 -164.0 L478.0 -278.5 Q478.0 -434.0 421.0 -489.5 364.0 -545.5 241.5 -545.5 152.5 -545.5 88.0 -514.5 L115.0 -417.5 Q162.5 -441.0 233.0 -441.0 352.5 -441.0 352.5 -346.5 322.5 -354.0 300.5 -354.0 172.0 -354.0 102.5 -301.5 32.5 -249.0 32.5 -156.0 32.5 -76.5 82.0 -33.0 131.5 10.0 218.0 10.0 264.0 10.0 306.5 -7.5 348.5 -25.5 365.5 -53.5" fill-rule="evenodd" stroke="none"/>
    </g>
    <g id="font_Trebuchet_MS_m0">
      <path d="M687.5 0.0 L812.5 0.0 812.5 -353.5 Q812.5 -443.0 763.0 -494.0 713.0 -545.5 623.5 -545.5 581.5 -545.5 539.5 -529.5 497.5 -514.0 474.0 -487.5 420.0 -545.5 313.5 -545.5 231.0 -545.5 179.0 -488.5 L153.5 -535.5 67.5 -535.5 67.5 0.0 192.5 0.0 192.5 -385.0 Q205.0 -406.0 233.0 -423.5 260.5 -441.0 284.0 -441.0 328.5 -441.0 353.0 -417.5 377.5 -394.5 377.5 -355.0 L377.5 0.0 502.5 0.0 502.5 -386.5 Q513.0 -408.0 539.0 -424.5 565.0 -441.0 593.0 -441.0 687.5 -441.0 687.5 -335.5 L687.5 0.0" fill-rule="evenodd" stroke="none"/>
    </g>
    <g id="font_Trebuchet_MS_e0">
      <path d="M167.5 -323.5 L167.5 -323.5 Q193.5 -441.0 300.5 -441.0 417.5 -441.0 430.5 -323.5 L167.5 -323.5 M545.5 -229.5 L545.5 -229.5 Q556.0 -276.0 556.0 -299.0 556.0 -406.5 485.5 -476.0 415.0 -545.5 298.5 -545.5 189.0 -545.5 111.0 -467.0 32.5 -388.5 32.5 -262.0 32.5 -133.5 104.0 -61.5 175.0 10.0 297.5 10.0 428.5 10.0 494.5 -43.5 L446.0 -139.0 Q401.5 -94.5 316.0 -94.5 247.5 -94.5 207.0 -130.0 166.5 -165.5 163.0 -229.5 L545.5 -229.5" fill-rule="evenodd" stroke="none"/>
    </g>
    <g id="font_Trebuchet_MS_H0">
      <path d="M496.5 0.0 L625.0 0.0 625.0 -732.5 496.5 -732.5 496.5 -445.5 205.0 -445.5 205.0 -732.5 75.0 -732.5 75.0 0.0 205.0 0.0 205.0 -330.0 496.5 -330.0 496.5 0.0" fill-rule="evenodd" stroke="none"/>
    </g>
    <g id="font_Trebuchet_MS_l0">
      <path d="M89.0 -735.0 L89.0 -108.0 Q89.0 10.0 174.0 10.0 244.0 10.0 273.0 -45.0 214.0 -64.0 214.0 -163.0 L214.0 -765.0 89.0 -735.0" fill-rule="evenodd" stroke="none"/>
    </g>
    <g id="font_Trebuchet_MS_p0">
      <path d="M182.5 -404.5 L182.5 -404.5 Q217.5 -439.5 262.5 -439.5 349.0 -439.5 386.5 -400.5 424.0 -362.0 424.0 -267.0 424.0 -178.0 386.5 -136.5 348.5 -95.5 262.0 -95.5 216.5 -95.5 182.5 -123.0 L182.5 -404.5 M182.5 -13.5 L182.5 -13.5 Q231.0 10.0 290.0 10.0 412.5 10.0 483.5 -61.0 554.0 -132.0 554.0 -263.5 554.0 -545.5 298.0 -545.5 229.5 -545.5 182.5 -499.5 L182.5 -535.5 57.5 -535.5 57.5 210.0 182.5 210.0 182.5 -13.5" fill-rule="evenodd" stroke="none"/>
    </g>
    <g id="font_Trebuchet_MS__1">
      <path d="M324.0 -747.0 L324.0 -747.0 Q221.5 -695.5 151.5 -556.5 81.5 -418.0 81.5 -279.0 81.5 -116.5 144.0 15.5 206.0 147.5 324.0 227.5 L324.0 143.0 Q225.0 33.0 225.0 -278.0 225.0 -539.5 324.0 -678.0 L324.0 -747.0" fill-rule="evenodd" stroke="none"/>
    </g>
    <g id="font_Trebuchet_MS_F0">
      <path d="M205.0 -617.0 L557.5 -617.0 557.5 -732.5 75.0 -732.5 75.0 0.0 205.0 0.0 205.0 -335.0 462.5 -335.0 462.5 -445.5 205.0 -445.5 205.0 -617.0" fill-rule="evenodd" stroke="none"/>
    </g>
    <g id="font_Trebuchet_MS_10">
      <path d="M284.5 0.0 L414.5 0.0 414.5 -735.5 362.5 -735.5 Q279.0 -633.0 135.5 -563.5 L135.5 -438.5 284.5 -528.0 284.5 0.0" fill-rule="evenodd" stroke="none"/>
    </g>
    <g id="font_Trebuchet_MS_20">
      <path d="M77.5 0.0 L557.5 0.0 557.5 -115.5 282.5 -115.5 432.5 -344.0 Q514.0 -468.5 514.0 -552.0 514.0 -643.0 450.5 -694.0 387.0 -745.5 274.5 -745.5 207.0 -745.5 151.5 -710.5 95.5 -676.0 69.5 -623.5 L157.0 -554.5 Q203.5 -635.0 279.5 -635.0 379.0 -635.0 379.0 -552.0 379.0 -482.0 309.5 -379.5 L77.5 -38.0 77.5 0.0" fill-rule="evenodd" stroke="none"/>
    </g>
    <g id="font_Trebuchet_MS_T0">
      <path d="M373.0 -617.0 L616.5 -617.0 616.5 -732.5 10.0 -732.5 10.0 -617.0 243.0 -617.0 243.0 0.0 373.0 0.0 373.0 -617.0" fill-rule="evenodd" stroke="none"/>
    </g>
    <g id="font_Trebuchet_MS_o0">
      <path d="M162.5 -269.0 L162.5 -269.0 Q162.5 -351.5 197.0 -397.5 231.5 -443.5 290.0 -443.5 417.0 -443.5 417.0 -269.0 417.0 -184.0 383.0 -138.0 348.5 -92.0 290.0 -92.0 162.5 -92.0 162.5 -269.0 M32.5 -269.0 L32.5 -269.0 Q32.5 -142.5 100.5 -66.0 168.0 10.0 290.0 10.0 409.5 10.0 478.5 -65.5 547.0 -141.0 547.0 -269.0 547.0 -397.5 479.5 -471.5 412.0 -545.5 290.0 -545.5 174.0 -545.5 103.5 -468.5 32.5 -391.5 32.5 -269.0" fill-rule="evenodd" stroke="none"/>
    </g>
    <g id="font_Trebuchet_MS_O0">
      <path d="M175.0 -372.5 L175.0 -372.5 Q175.0 -490.5 221.5 -560.0 268.0 -630.0 355.0 -630.0 545.0 -630.0 545.0 -372.5 545.0 -241.0 494.0 -172.0 442.5 -103.0 345.0 -103.0 262.0 -103.0 218.5 -173.5 175.0 -244.0 175.0 -372.5 M40.0 -372.5 L40.0 -372.5 Q40.0 -193.5 119.0 -90.5 197.5 12.5 345.0 12.5 505.5 12.5 593.0 -91.5 680.0 -195.5 680.0 -372.5 680.0 -549.5 596.5 -647.5 513.0 -745.5 355.0 -745.5 211.5 -745.5 126.0 -637.0 40.0 -529.0 40.0 -372.5" fill-rule="evenodd" stroke="none"/>
    </g>
    <g id="font_Trebuchet_MS_A0">
      <path d="M323.0 -518.5 L411.0 -248.0 235.0 -248.0 323.0 -518.5 M502.5 0.0 L646.0 0.0 351.5 -742.5 294.5 -742.5 2.5 0.0 147.0 0.0 198.0 -148.5 449.0 -148.5 502.5 0.0" fill-rule="evenodd" stroke="none"/>
    </g>
    <g id="font_Trebuchet_MS_d0">
      <path d="M412.0 -407.5 L412.0 -128.0 Q404.0 -117.0 378.0 -106.0 351.5 -95.5 333.5 -95.5 172.5 -95.5 172.5 -262.5 172.5 -348.0 213.0 -393.5 253.5 -439.5 328.5 -439.5 372.0 -439.5 412.0 -407.5 M412.0 0.0 L537.0 0.0 537.0 -765.0 412.0 -735.0 412.0 -520.5 Q362.0 -545.5 301.0 -545.5 190.0 -545.5 116.5 -465.5 42.5 -386.0 42.5 -259.0 42.5 -132.0 107.0 -61.0 171.0 10.0 283.0 10.0 322.5 10.0 359.5 -2.5 396.5 -15.5 412.0 -32.5 L412.0 0.0" fill-rule="evenodd" stroke="none"/>
    </g>
    <g id="font_Trebuchet_MS_C0">
      <path d="M577.0 -693.5 L577.0 -693.5 Q501.5 -745.0 375.5 -745.0 228.5 -745.0 134.5 -635.5 40.0 -526.5 40.0 -364.0 40.0 -189.5 125.0 -88.5 210.0 12.5 363.5 12.5 517.0 12.5 596.5 -72.0 L536.0 -177.0 Q477.5 -103.0 374.0 -103.0 283.5 -103.0 229.5 -172.0 175.0 -241.0 175.0 -358.5 175.0 -476.0 233.5 -552.5 292.0 -629.5 383.5 -629.5 480.0 -629.5 523.5 -586.0 L577.0 -693.5" fill-rule="evenodd" stroke="none"/>
    </g>
    <g id="font_Trebuchet_MS_s0">
      <path d="M34.5 -34.5 L34.5 -34.5 Q85.0 -7.5 117.5 1.5 149.5 10.0 203.0 10.0 298.0 10.0 353.5 -32.5 408.5 -75.5 408.5 -150.0 408.5 -206.0 377.5 -245.5 346.5 -285.0 276.0 -312.5 205.5 -340.5 184.0 -357.0 162.5 -373.5 162.5 -394.0 162.5 -446.0 228.0 -446.0 301.0 -446.0 342.0 -411.0 L378.0 -508.0 Q304.5 -545.5 221.0 -545.5 138.5 -545.5 85.5 -506.5 32.5 -468.0 32.5 -398.5 32.5 -295.0 171.0 -237.5 234.5 -211.0 256.5 -191.5 278.5 -172.0 278.5 -141.5 278.5 -89.5 205.5 -89.5 135.0 -89.5 79.0 -134.0 L34.5 -34.5" fill-rule="evenodd" stroke="none"/>
    </g>
    <g id="font_Trebuchet_MS__2">
      <path d="M81.5 227.5 L81.5 227.5 Q199.5 147.5 262.0 15.5 324.0 -116.5 324.0 -279.0 324.0 -418.0 254.0 -556.5 184.0 -695.5 81.5 -747.0 L81.5 -678.0 Q180.5 -539.5 180.5 -278.0 180.5 33.0 81.5 143.0 L81.5 227.5" fill-rule="evenodd" stroke="none"/>
    </g>
    <g id="sprite0" transform="matrix(1.0, 0.0, 0.0, 1.0, 0.5, 2.3)">
      <use data-characterId="1013" height="16.0" transform="matrix(1.0, 0.0, 0.0, 1.0, -0.5, -0.5)" width="118.1" xlink:href="#shape1"/>
      <use data-characterId="1014" height="19.0" id="ActionLabel" transform="matrix(1.0, 0.0, 0.0, 1.0, 2.0, -2.3)" width="116.0" xlink:href="#text1"/>
    </g>
    <g id="shape1" transform="matrix(1.0, 0.0, 0.0, 1.0, 0.5, 0.5)">
      <path d="M117.1 12.8 Q117.1 13.7 116.05 14.35 115.05 15.0 113.65 15.0 L3.45 15.0 Q2.0 15.0 1.0 14.35 0.0 13.7 0.0 12.8 L0.0 2.2 Q0.0 1.3 1.0 0.65 2.0 0.0 3.45 0.0 L113.65 0.0 Q115.05 0.0 116.05 0.65 117.1 1.3 117.1 2.2 L117.1 12.8" fill="#333333" fill-rule="evenodd" stroke="none"/>
      <path d="M117.1 12.8 L117.1 2.2 Q117.1 1.3 116.05 0.65 115.05 0.0 113.65 0.0 L3.45 0.0 Q2.0 0.0 1.0 0.65 0.0 1.3 0.0 2.2 L0.0 12.8 Q0.0 13.7 1.0 14.35 2.0 15.0 3.45 15.0 L113.65 15.0 Q115.05 15.0 116.05 14.35 117.1 13.7 117.1 12.8 Z" fill="none" stroke="#ff9900" stroke-linecap="round" stroke-linejoin="round" stroke-width="1.0"/>
    </g>
    <g id="text1" transform="matrix(1.0, 0.0, 0.0, 1.0, 2.0, 2.0)">
      <g transform="matrix(1.0, 0.0, 0.0, 1.0, -2.0, -2.0)">
        <use fill="#ffff00" height="19.0" transform="matrix(0.0117, 0.0, 0.0, 0.0117, 58.0, 14.0)" width="116.0" xlink:href="#font_Trebuchet_MS_a0"/>
        <use fill="#ffff00" height="19.0" transform="matrix(0.0117, 0.0, 0.0, 0.0117, 58.0, 14.0)" width="116.0" xlink:href="#font_Trebuchet_MS_c0"/>
        <use fill="#ffff00" height="19.0" transform="matrix(0.0117, 0.0, 0.0, 0.0117, 58.0, 14.0)" width="116.0" xlink:href="#font_Trebuchet_MS_t0"/>
        <use fill="#ffff00" height="19.0" transform="matrix(0.0117, 0.0, 0.0, 0.0117, 58.0, 14.0)" width="116.0" xlink:href="#font_Trebuchet_MS_i0"/>
        <use fill="#ffff00" height="19.0" transform="matrix(0.0117, 0.0, 0.0, 0.0117, 58.0, 14.0)" width="116.0" xlink:href="#font_Trebuchet_MS_o0"/>
        <use fill="#ffff00" height="19.0" transform="matrix(0.0117, 0.0, 0.0, 0.0117, 58.0, 14.0)" width="116.0" xlink:href="#font_Trebuchet_MS_n0"/>
        <use fill="#ffff00" height="19.0" transform="matrix(0.0117, 0.0, 0.0, 0.0117, 58.0, 14.0)" width="116.0" xlink:href="#font_Trebuchet_MS_g0"/>
      </g>
    </g>
    <g id="font_Trebuchet_MS_c0">
      <path d="M487.5 -493.0 L487.5 -493.0 Q418.5 -545.5 325.0 -545.5 189.5 -545.5 111.0 -467.5 32.5 -389.5 32.5 -263.0 32.5 -134.5 104.5 -62.0 176.0 10.0 300.0 10.0 355.5 10.0 396.5 1.0 437.0 -8.0 491.5 -42.0 L445.5 -140.5 Q392.5 -94.5 323.0 -94.5 162.5 -94.5 162.5 -263.0 162.5 -346.5 204.0 -393.5 245.0 -441.0 316.0 -441.0 390.0 -441.0 434.0 -399.5 L487.5 -493.0" fill-rule="evenodd" stroke="none"/>
    </g>
    <g id="font_Trebuchet_MS_t0">
      <path d="M86.5 -435.0 L86.5 -164.0 Q86.5 -80.5 129.5 -35.0 172.5 10.0 252.5 10.0 333.0 10.0 376.5 -5.0 L376.5 -120.0 Q337.5 -95.5 292.5 -95.5 247.5 -95.5 229.5 -119.0 211.5 -143.0 211.5 -200.5 L211.5 -435.0 358.5 -435.0 358.5 -535.5 211.5 -535.5 211.5 -690.5 86.5 -644.5 86.5 -535.5 24.5 -535.5 24.5 -435.0 86.5 -435.0" fill-rule="evenodd" stroke="none"/>
    </g>
    <g id="font_Trebuchet_MS_i0">
      <path d="M101.0 0.0 L227.5 0.0 227.5 -535.5 32.5 -535.5 32.5 -433.0 101.0 -433.0 101.0 0.0 M165.5 -743.0 L165.5 -743.0 Q135.5 -743.0 114.5 -721.5 93.0 -700.5 93.0 -670.5 93.0 -640.5 114.5 -619.0 135.5 -598.0 165.5 -598.0 195.5 -598.0 217.0 -619.0 238.0 -640.5 238.0 -670.5 238.0 -700.5 217.0 -721.5 195.5 -743.0 165.5 -743.0" fill-rule="evenodd" stroke="none"/>
    </g>
    <g id="font_Trebuchet_MS_g0">
      <path d="M152.5 -347.5 L152.5 -347.5 Q152.5 -390.0 179.5 -417.0 206.5 -444.0 249.5 -444.0 290.5 -444.0 316.5 -416.0 342.0 -388.0 342.0 -347.5 342.0 -298.5 318.0 -270.5 294.0 -242.5 249.5 -242.5 205.0 -242.5 179.0 -271.0 152.5 -300.0 152.5 -347.5 M27.5 137.5 L27.5 137.5 Q127.0 210.0 250.0 210.0 353.0 210.0 426.0 164.0 499.0 117.5 499.0 36.5 499.0 -110.0 316.5 -110.0 290.5 -110.0 254.0 -102.5 217.5 -95.0 202.0 -95.0 167.5 -95.0 167.5 -115.0 167.5 -126.5 191.0 -137.0 214.0 -148.0 217.5 -148.0 L238.0 -145.0 Q260.5 -142.5 274.0 -142.5 359.0 -142.5 415.0 -197.0 470.5 -252.0 470.5 -343.5 470.5 -407.5 439.5 -454.5 L499.0 -498.0 412.5 -576.5 363.5 -519.5 Q315.0 -546.5 243.0 -546.5 151.0 -546.5 88.0 -490.0 25.0 -434.0 25.0 -348.0 25.0 -239.0 116.5 -179.5 88.0 -167.5 66.5 -142.0 45.0 -116.5 45.0 -90.0 45.0 2.5 174.0 2.5 195.0 2.5 236.5 -2.5 278.0 -7.5 299.0 -7.5 376.5 -7.5 376.5 40.0 376.5 68.0 341.5 84.0 306.5 100.0 252.5 100.0 172.0 100.0 106.5 40.0 L27.5 137.5" fill-rule="evenodd" stroke="none"/>
    </g>
    <g id="button0" transform="matrix(1.0, 0.0, 0.0, 1.0, 13.5, 13.5)">
      <use data-characterId="966" height="27.0" transform="matrix(1.0, 0.0, 0.0, 1.0, -13.5, -13.5)" width="27.0" xlink:href="#shape2"/>
    </g>
    <g id="shape2" transform="matrix(1.0, 0.0, 0.0, 1.0, 13.5, 13.5)">
      <path d="M0.0 -12.5 Q5.2 -12.55 8.85 -8.85 12.5 -5.2 12.5 0.0 12.5 5.15 8.85 8.85 5.2 12.5 0.0 12.5 -5.2 12.5 -8.85 8.85 -12.5 5.15 -12.5 0.0 -12.5 -5.2 -8.85 -8.85 -5.2 -12.55 0.0 -12.5 M-4.75 -6.0 L0.3 0.2 -5.75 6.5 0.3 0.2 -4.75 -6.0 M5.5 6.5 L0.3 0.2 5.5 -5.25 0.3 0.2 5.5 6.5" fill="#ff9900" fill-rule="evenodd" stroke="none"/>
      <path d="M0.0 -12.5 Q-5.2 -12.55 -8.85 -8.85 -12.5 -5.2 -12.5 0.0 -12.5 5.15 -8.85 8.85 -5.2 12.5 0.0 12.5 5.2 12.5 8.85 8.85 12.5 5.15 12.5 0.0 12.5 -5.2 8.85 -8.85 5.2 -12.55 0.0 -12.5 M5.5 -5.25 L0.3 0.2 5.5 6.5 M-5.75 6.5 L0.3 0.2 -4.75 -6.0" fill="none" stroke="#000000" stroke-linecap="round" stroke-linejoin="round" stroke-width="2.0"/>
    </g>
  </defs>
</svg>
