<?xml version="1.0" encoding="UTF-8" standalone="no"?>
<svg xmlns:xlink="http://www.w3.org/1999/xlink" height="85.25px" width="87.15px" xmlns="http://www.w3.org/2000/svg">
  <g transform="matrix(1.0, 0.0, 0.0, 1.0, 29.0, 40.25)">
    <use data-characterId="906" height="73.0" transform="matrix(1.0, 0.0, 0.0, 1.0, -29.0, -36.0)" width="58.0" xlink:href="#shape0"/>
    <use data-characterId="908" height="65.1" transform="matrix(1.0, 0.0, 0.0, 1.0, -5.5, -32.0)" width="12.0" xlink:href="#shape1"/>
    <use data-characterId="910" height="10.9" transform="matrix(4.6625, 0.0, 0.0, 6.7197, -16.1702, -40.2628)" width="15.3" xlink:href="#text0"/>
    <use data-characterId="911" height="10.9" transform="matrix(4.6625, 0.0, 0.0, 6.7197, -13.1702, -40.1628)" width="15.3" xlink:href="#text1"/>
  </g>
  <defs>
    <g id="shape0" transform="matrix(1.0, 0.0, 0.0, 1.0, 29.0, 36.0)">
      <path d="M2.65 -9.15 L2.5 -9.2 1.95 -8.95 1.75 -8.3 1.95 -7.7 2.5 -7.4 Q2.8 -7.4 3.0 -7.7 L3.25 -8.3 3.2 -8.6 3.25 -8.3 3.0 -7.7 Q2.8 -7.4 2.5 -7.4 L1.95 -7.7 1.75 -8.3 1.95 -8.95 2.5 -9.2 2.65 -9.15 2.6 -9.15 2.5 -8.85 2.6 -8.6 Q2.75 -8.45 2.9 -8.45 L3.15 -8.6 3.2 -8.6 3.3 -8.85 3.15 -9.15 2.9 -9.25 2.65 -9.15 M4.45 -7.05 Q3.95 -7.05 3.6 -6.65 3.25 -6.25 3.25 -5.65 3.25 -5.05 3.6 -4.65 3.95 -4.25 4.45 -4.25 4.95 -4.25 5.3 -4.65 5.65 -5.05 5.65 -5.65 5.65 -6.25 5.3 -6.65 4.95 -7.05 4.45 -7.05 4.95 -7.05 5.3 -6.65 5.65 -6.25 5.65 -5.65 5.65 -5.05 5.3 -4.65 4.95 -4.25 4.45 -4.25 3.95 -4.25 3.6 -4.65 3.25 -5.05 3.25 -5.65 3.25 -6.25 3.6 -6.65 3.95 -7.05 4.45 -7.05 M0.35 -4.45 L0.5 -3.65 Q0.5 -2.95 0.0 -2.45 -0.5 -1.9 -1.2 -1.9 -1.9 -1.9 -2.4 -2.45 -2.9 -2.95 -2.9 -3.65 L-2.85 -3.9 -2.9 -3.65 Q-2.9 -2.95 -2.4 -2.45 -1.9 -1.9 -1.2 -1.9 -0.5 -1.9 0.0 -2.45 0.5 -2.95 0.5 -3.65 L0.35 -4.45 -2.85 -3.9 0.35 -4.45 0.0 -4.9 Q-0.5 -5.4 -1.2 -5.4 -1.9 -5.4 -2.4 -4.9 L-2.85 -3.9 -2.4 -4.9 Q-1.9 -5.4 -1.2 -5.4 -0.5 -5.4 0.0 -4.9 L0.35 -4.45 0.85 -4.45 Q3.35 -4.45 5.1 -3.7 6.85 -2.9 6.85 -1.8 6.85 -0.7 5.1 0.05 3.35 0.85 0.85 0.85 -1.65 0.85 -3.4 0.05 -5.15 -0.7 -5.15 -1.8 -5.15 -2.9 -3.4 -3.7 L-2.85 -3.9 -3.4 -3.7 Q-5.15 -2.9 -5.15 -1.8 -5.15 -0.7 -3.4 0.05 -1.65 0.85 0.85 0.85 3.35 0.85 5.1 0.05 6.85 -0.7 6.85 -1.8 6.85 -2.9 5.1 -3.7 3.35 -4.45 0.85 -4.45 L0.35 -4.45 M28.5 36.5 L-28.5 36.5 -28.5 -35.5 28.5 -35.5 28.5 36.5" fill="#000000" fill-rule="evenodd" stroke="none"/>
      <path d="M2.65 -9.15 L2.9 -9.25 3.15 -9.15 3.3 -8.85 3.2 -8.6 3.0 -8.95 2.65 -9.15 3.0 -8.95 3.2 -8.6 3.15 -8.6 2.9 -8.45 Q2.75 -8.45 2.6 -8.6 L2.5 -8.85 2.6 -9.15 2.65 -9.15" fill="#cc9900" fill-rule="evenodd" stroke="none"/>
      <path d="M3.2 -8.6 L3.25 -8.3 3.0 -7.7 Q2.8 -7.4 2.5 -7.4 L1.95 -7.7 1.75 -8.3 1.95 -8.95 2.5 -9.2 2.65 -9.15 2.9 -9.25 3.15 -9.15 3.3 -8.85 3.2 -8.6 3.0 -8.95 2.65 -9.15 2.6 -9.15 2.5 -8.85 2.6 -8.6 Q2.75 -8.45 2.9 -8.45 L3.15 -8.6 3.2 -8.6 M4.45 -7.05 Q4.95 -7.05 5.3 -6.65 5.65 -6.25 5.65 -5.65 5.65 -5.05 5.3 -4.65 4.95 -4.25 4.45 -4.25 3.95 -4.25 3.6 -4.65 3.25 -5.05 3.25 -5.65 3.25 -6.25 3.6 -6.65 3.95 -7.05 4.45 -7.05 M0.35 -4.45 L-2.85 -3.9 -3.4 -3.7 Q-5.15 -2.9 -5.15 -1.8 -5.15 -0.7 -3.4 0.05 -1.65 0.85 0.85 0.85 3.35 0.85 5.1 0.05 6.85 -0.7 6.85 -1.8 6.85 -2.9 5.1 -3.7 3.35 -4.45 0.85 -4.45 L0.35 -4.45" fill="none" stroke="#000000" stroke-linecap="round" stroke-linejoin="round" stroke-width="0.1"/>
      <path d="M-2.85 -3.9 L-2.9 -3.65 Q-2.9 -2.95 -2.4 -2.45 -1.9 -1.9 -1.2 -1.9 -0.5 -1.9 0.0 -2.45 0.5 -2.95 0.5 -3.65 L0.35 -4.45 0.0 -4.9 Q-0.5 -5.4 -1.2 -5.4 -1.9 -5.4 -2.4 -4.9 L-2.85 -3.9" fill="none" stroke="#000000" stroke-linecap="round" stroke-linejoin="round" stroke-width="1.0"/>
      <path d="M28.5 36.5 L-28.5 36.5 -28.5 -35.5 28.5 -35.5 28.5 36.5 Z" fill="none" stroke="#333333" stroke-linecap="round" stroke-linejoin="round" stroke-width="1.0"/>
    </g>
    <g id="shape1" transform="matrix(1.0, 0.0, 0.0, 1.0, 5.5, 32.0)">
      <path d="M-2.0 -22.0 L3.0 -22.0 3.0 -31.4 6.0 -31.4 6.0 -21.9 -2.0 -21.9 -2.0 -22.0 M3.0 22.6 L6.0 22.6 6.0 32.6 -1.0 32.6 -1.0 32.5 3.0 32.5 3.0 22.6" fill="#00ff00" fill-rule="evenodd" stroke="none"/>
      <path d="M3.0 -31.4 L3.0 -22.0 -2.0 -22.0 -5.0 -22.0 -5.0 -31.5 3.0 -31.5 3.0 -31.4 M-1.0 32.5 L-4.0 32.5 -4.0 22.5 3.0 22.5 3.0 22.6 3.0 32.5 -1.0 32.5" fill="#ffff00" fill-rule="evenodd" stroke="none"/>
      <path d="M-2.0 -22.0 L-2.0 -21.9 6.0 -21.9 6.0 -31.4 3.0 -31.4 M3.0 22.6 L6.0 22.6 6.0 32.6 -1.0 32.6 -1.0 32.5" fill="none" stroke="#00ff00" stroke-linecap="round" stroke-linejoin="round" stroke-width="1.0"/>
      <path d="M-2.0 -22.0 L3.0 -22.0 3.0 -31.4 3.0 -31.5 -5.0 -31.5 -5.0 -22.0 -2.0 -22.0 M-1.0 32.5 L-4.0 32.5 -4.0 22.5 3.0 22.5 3.0 22.6 3.0 32.5 -1.0 32.5 Z" fill="none" stroke="#ffff00" stroke-linecap="round" stroke-linejoin="round" stroke-width="1.0"/>
    </g>
    <g id="text0" transform="matrix(1.0, 0.0, 0.0, 1.0, -68.95, -2.9)">
      <g transform="matrix(1.0, 0.0, 0.0, 1.0, 68.4, 0.0)">
        <use fill="#ffff00" height="10.9" transform="matrix(0.0137, 0.0, 0.0, 0.0137, 0.0, 13.0)" width="15.3" xlink:href="#font_Arial_s0"/>
      </g>
    </g>
    <g id="font_Arial_s0">
      <path d="M31.5 -158.5 L31.5 -158.5 Q46.5 -74.0 101.0 -31.0 155.0 12.0 258.5 12.0 321.0 12.0 370.5 -9.5 420.0 -31.5 446.5 -71.0 472.5 -111.0 472.5 -156.0 472.5 -202.0 451.0 -233.0 429.5 -264.0 392.0 -280.0 354.0 -296.5 258.5 -322.0 192.5 -340.0 179.0 -345.0 155.5 -354.5 144.5 -369.0 133.5 -383.0 133.5 -400.5 133.5 -428.0 160.0 -448.5 186.5 -469.0 248.5 -469.0 301.0 -469.0 330.0 -446.0 358.5 -423.0 364.5 -382.0 L452.5 -394.0 Q444.0 -445.5 421.5 -476.0 399.0 -507.0 352.0 -525.0 304.5 -543.0 242.0 -543.0 200.5 -543.0 164.5 -532.0 128.0 -521.5 107.0 -506.0 79.0 -486.0 63.0 -455.5 46.5 -425.5 46.5 -390.0 46.5 -351.0 66.5 -318.5 86.0 -286.5 124.5 -268.0 162.5 -250.0 261.5 -225.0 335.0 -206.5 353.5 -194.5 380.0 -177.0 380.0 -146.5 380.0 -112.5 350.0 -87.0 320.0 -62.0 258.0 -62.0 196.5 -62.0 162.5 -90.5 128.0 -119.0 120.5 -172.5 L31.5 -158.5" fill-rule="evenodd" stroke="none"/>
    </g>
    <g id="text1" transform="matrix(1.0, 0.0, 0.0, 1.0, -68.95, -2.9)">
      <g transform="matrix(1.0, 0.0, 0.0, 1.0, 68.4, 0.0)">
        <use fill="#00ff00" height="10.9" transform="matrix(0.0137, 0.0, 0.0, 0.0137, 0.0, 13.0)" width="15.3" xlink:href="#font_Arial_s0"/>
      </g>
    </g>
  </defs>
</svg>
