<?xml version="1.0" encoding="UTF-8" standalone="no"?>
<svg xmlns:xlink="http://www.w3.org/1999/xlink" height="85.25px" width="87.15px" xmlns="http://www.w3.org/2000/svg">
  <g transform="matrix(1.0, 0.0, 0.0, 1.0, 29.0, 40.25)">
    <use data-characterId="904" data-characterName="sc313_fla.m_screen_126" height="76.0" id="staticscreen" transform="matrix(0.75, 0.0, 0.0, 0.96, -28.5, -35.9803)" width="76.0" xlink:href="#sprite0"/>
    <use data-characterId="905" height="73.0" transform="matrix(1.0, 0.0, 0.0, 1.0, -29.0, -36.0)" width="58.0" xlink:href="#shape1"/>
  </g>
  <defs>
    <g id="sprite0" transform="matrix(1.0, 0.0, 0.0, 1.0, 38.0, 38.0)">
      <use data-characterId="90" height="550.0" transform="matrix(0.1086, 0.0, 0.0, 0.1364, -37.9982, -37.5011)" width="700.0" xlink:href="#shape0"/>
      <use data-characterId="90" height="550.0" transform="matrix(0.0071, 0.0, 0.0, 0.0091, -2.4994, -2.5009)" width="700.0" xlink:href="#shape0"/>
    </g>
    <g id="shape0" transform="matrix(1.0, 0.0, 0.0, 1.0, 350.0, 275.0)">
      <path d="M350.0 275.0 L-350.0 275.0 -350.0 -275.0 350.0 -275.0 350.0 275.0" fill="#000000" fill-rule="evenodd" stroke="none"/>
    </g>
    <g id="shape1" transform="matrix(1.0, 0.0, 0.0, 1.0, 29.0, 36.0)">
      <path d="M28.5 -35.5 L28.5 36.5 -28.5 36.5 -28.5 -35.5 28.5 -35.5 Z" fill="none" stroke="#222222" stroke-linecap="round" stroke-linejoin="round" stroke-width="1.0"/>
    </g>
  </defs>
</svg>
