<?xml version="1.0" encoding="UTF-8" standalone="no"?>
<svg xmlns:xlink="http://www.w3.org/1999/xlink" height="1043.35px" width="2027.75px" xmlns="http://www.w3.org/2000/svg">
  <g transform="matrix(1.0, 0.0, 0.0, 1.0, 429.0, 496.1)">
    <use data-characterId="1335" data-characterName="sc313_fla.login_m_login_connect_50" height="897.4" transform="matrix(1.0, 0.0, 0.0, 1.0002, -304.4, -496.0833)" width="1903.15" xlink:href="#sprite0"/>
    <use data-characterId="1276" data-characterName="sc313_fla.login_m_signup_44" height="524.0" id="mov_signup" transform="matrix(1.0, 0.0, 0.0, 1.0, -391.0, -427.5)" width="934.6" xlink:href="#sprite1"/>
    <use data-characterId="1223" height="61.05" id="RelayMessage" transform="matrix(1.0, 0.0, 0.0, 1.0, -88.8, 22.4)" width="406.65" xlink:href="#text2"/>
  </g>
  <defs>
    <g id="sprite0" transform="matrix(1.0, 0.0, 0.0, 1.0, 254.4, 496.0)">
      <use data-characterId="1299" height="300.05" transform="matrix(1.0, 0.0, 0.0, 1.0, -254.4, -326.9)" width="300.0" xlink:href="#shape0"/>
    </g>
    <g id="shape0" transform="matrix(1.0, 0.0, 0.0, 1.0, 150.0, 150.05)">
      <path d="M144.85 -144.9 Q149.95 -139.8 150.0 -132.55 L150.0 132.5 Q149.95 139.75 144.85 144.85 139.75 149.95 132.5 150.0 L-132.55 150.0 Q-139.8 149.95 -144.9 144.85 -150.05 139.75 -150.0 132.5 L-150.0 -132.55 Q-150.05 -139.8 -144.9 -144.9 -139.8 -150.05 -132.55 -150.05 L132.5 -150.05 Q139.75 -150.05 144.85 -144.9" fill="#000000" fill-opacity="0.19607843" fill-rule="evenodd" stroke="none"/>
    </g>
    <g id="sprite1" transform="matrix(1.0, 0.0, 0.0, 1.0, 101.0, 423.0)">
      <use data-characterId="1224" height="202.0" transform="matrix(1.0, 0.0, 0.0, 1.0, -101.0, -101.0)" width="202.0" xlink:href="#shape1"/>
      <use data-characterId="1225" height="19.6" transform="matrix(1.0, 0.0, 0.0, 1.0, 69.8, 70.05)" width="20.15" xlink:href="#shape2"/>
      <use data-characterId="90" height="550.0" transform="matrix(0.2858, 0.0, 0.0, 0.0038, -100.0183, -76.1074)" width="700.0" xlink:href="#shape3"/>
      <use data-characterId="90" height="550.0" transform="matrix(0.2858, 0.0, 0.0, 0.0038, -100.0183, -75.1074)" width="700.0" xlink:href="#shape3"/>
      <use data-characterId="1225" height="19.6" transform="matrix(1.0, 0.0, 0.0, 1.0, -90.2, 70.05)" width="20.15" xlink:href="#shape2"/>
      <use data-characterId="1257" height="19.75" transform="matrix(1.0, 0.0, 0.0, 1.0, -54.8, 43.65)" width="112.55" xlink:href="#text0"/>
      <use data-characterId="1258" height="19.75" transform="matrix(1.0, 0.0, 0.0, 1.0, -55.8, 42.65)" width="112.55" xlink:href="#text1"/>
      <use data-characterId="1263" height="119.95" id="thebutton" transform="matrix(1.0, 0.0, 0.0, 1.0, -58.75, -86.9)" width="120.0" xlink:href="#button0"/>
    </g>
    <g id="shape1" transform="matrix(1.0, 0.0, 0.0, 1.0, 101.0, 101.0)">
      <path d="M95.0 -95.0 Q99.95 -90.0 100.0 -82.9 L100.0 82.95 Q99.95 90.0 95.0 95.0 90.0 100.0 82.9 100.0 L-82.95 100.0 Q-90.05 100.0 -95.05 95.0 -100.05 90.0 -100.0 82.95 L-100.0 -82.9 Q-100.05 -90.0 -95.05 -95.0 -90.05 -100.0 -82.95 -100.0 L82.9 -100.0 Q90.0 -100.0 95.0 -95.0" fill="url(#gradient0)" fill-rule="evenodd" stroke="none"/>
      <path d="M95.0 -95.0 Q90.0 -100.0 82.9 -100.0 L-82.95 -100.0 Q-90.05 -100.0 -95.05 -95.0 -100.05 -90.0 -100.0 -82.9 L-100.0 82.95 Q-100.05 90.0 -95.05 95.0 -90.05 100.0 -82.95 100.0 L82.9 100.0 Q90.0 100.0 95.0 95.0 99.95 90.0 100.0 82.95 L100.0 -82.9 Q99.95 -90.0 95.0 -95.0 Z" fill="none" stroke="#000000" stroke-linecap="round" stroke-linejoin="round" stroke-width="2.0"/>
    </g>
    <linearGradient gradientTransform="matrix(0.0, 0.1221, -0.1221, 0.0, 0.0, 0.0)" gradientUnits="userSpaceOnUse" id="gradient0" spreadMethod="pad" x1="-819.2" x2="819.2">
      <stop offset="0.0" stop-color="#cccccc"/>
      <stop offset="0.058823529411764705" stop-color="#ffffff"/>
      <stop offset="0.12549019607843137" stop-color="#cccccc"/>
      <stop offset="0.4117647058823529" stop-color="#666666"/>
      <stop offset="0.8470588235294118" stop-color="#333333"/>
      <stop offset="0.9254901960784314" stop-color="#666666"/>
      <stop offset="1.0" stop-color="#333333"/>
    </linearGradient>
    <g id="shape2" transform="matrix(1.0, 0.0, 0.0, 1.0, 10.05, 9.8)">
      <path d="M-7.8 3.25 Q-10.05 1.0 -10.05 -2.15 -10.05 -5.35 -7.8 -7.55 -5.5 -9.8 -2.35 -9.8 0.8 -9.8 3.05 -7.55 5.3 -5.35 5.3 -2.15 5.3 1.0 3.05 3.25 0.8 5.5 -2.35 5.5 -5.5 5.5 -7.8 3.25" fill="#7a7a7a" fill-rule="evenodd" stroke="none"/>
      <path d="M-5.2 2.15 Q-5.2 -1.0 -2.95 -3.25 -0.7 -5.5 2.45 -5.5 5.6 -5.5 7.85 -3.25 10.1 -1.0 10.1 2.15 10.1 5.3 7.85 7.55 5.6 9.8 2.45 9.8 -0.7 9.8 -2.95 7.55 -5.2 5.3 -5.2 2.15" fill="#cccccc" fill-rule="evenodd" stroke="none"/>
      <path d="M-7.7 0.2 Q-7.7 -2.95 -5.45 -5.2 -3.25 -7.5 -0.05 -7.5 3.1 -7.5 5.35 -5.2 7.55 -2.95 7.55 0.2 7.55 3.35 5.35 5.6 3.1 7.85 -0.05 7.85 -3.25 7.85 -5.45 5.6 -7.7 3.35 -7.7 0.2" fill="#000000" fill-rule="evenodd" stroke="none"/>
      <path d="M-3.65 3.85 Q-5.15 2.35 -5.15 0.2 -5.15 -1.95 -3.65 -3.45 -2.15 -5.0 0.0 -5.0 2.15 -5.0 3.65 -3.45 5.2 -1.95 5.2 0.2 5.2 2.35 3.65 3.85 2.15 5.35 0.0 5.35 -2.15 5.35 -3.65 3.85" fill="#656565" fill-rule="evenodd" stroke="none"/>
      <path d="M-0.4 4.15 Q-2.2 4.15 -3.45 2.85 -4.75 1.6 -4.75 -0.2 -4.75 -2.0 -3.45 -3.25 -2.2 -4.55 -0.4 -4.55 1.4 -4.55 2.7 -3.25 3.95 -2.0 3.95 -0.2 3.95 1.6 2.7 2.85 1.4 4.15 -0.4 4.15" fill="#8e8e8e" fill-rule="evenodd" stroke="none"/>
      <path d="M-2.65 -1.0 Q-3.1 -1.0 -3.4 -1.3 L-3.7 -2.05 -3.4 -2.75 -2.65 -3.1 Q-2.25 -3.1 -1.95 -2.75 -1.65 -2.5 -1.65 -2.05 -1.65 -1.65 -1.95 -1.3 -2.25 -1.0 -2.65 -1.0" fill="#cccccc" fill-rule="evenodd" stroke="none"/>
      <path d="M1.8 1.2 Q1.55 1.2 1.4 1.05 L1.25 0.6 Q1.25 0.35 1.4 0.2 1.55 0.0 1.8 0.0 L2.2 0.2 2.4 0.6 2.2 1.05 1.8 1.2" fill="#cccccc" fill-rule="evenodd" stroke="none"/>
      <path d="M-4.55 3.0 L-1.0 -0.2 -2.55 -4.65 0.2 -0.9 4.6 -2.7 0.8 0.25 3.05 4.3 -0.45 0.95 -4.55 3.0" fill="#000000" fill-rule="evenodd" stroke="none"/>
    </g>
    <g id="shape3" transform="matrix(1.0, 0.0, 0.0, 1.0, 350.0, 275.0)">
      <path d="M350.0 275.0 L-350.0 275.0 -350.0 -275.0 350.0 -275.0 350.0 275.0" fill="#656565" fill-rule="evenodd" stroke="none"/>
    </g>
    <g id="text0" transform="matrix(1.0, 0.0, 0.0, 1.0, -1.1, -3.3)">
      <g transform="matrix(1.0, 0.0, 0.0, 1.0, 0.0, 0.0)">
        <use fill="#999999" height="19.75" transform="matrix(0.0234, 0.0, 0.0, 0.0234, 0.0, 22.0)" width="112.55" xlink:href="#font_Arial_S0"/>
        <use fill="#999999" height="19.75" transform="matrix(0.0234, 0.0, 0.0, 0.0234, 16.0, 22.0)" width="112.55" xlink:href="#font_Arial_I0"/>
        <use fill="#999999" height="19.75" transform="matrix(0.0234, 0.0, 0.0, 0.0234, 22.65, 22.0)" width="112.55" xlink:href="#font_Arial_G0"/>
        <use fill="#999999" height="19.75" transform="matrix(0.0234, 0.0, 0.0, 0.0234, 41.3, 22.0)" width="112.55" xlink:href="#font_Arial_N0"/>
        <use fill="#999999" height="19.75" transform="matrix(0.0234, 0.0, 0.0, 0.0234, 65.3, 22.0)" width="112.55" xlink:href="#font_Arial_U0"/>
        <use fill="#999999" height="19.75" transform="matrix(0.0234, 0.0, 0.0, 0.0234, 82.65, 22.0)" width="112.55" xlink:href="#font_Arial_P0"/>
      </g>
    </g>
    <g id="font_Arial_S0">
      <path d="M46.0 -235.5 L46.0 -235.5 Q48.0 -162.0 86.5 -103.5 124.5 -45.5 192.0 -16.5 259.0 12.5 358.5 12.5 437.0 12.5 500.0 -16.0 562.5 -45.0 596.0 -96.5 629.5 -148.5 629.5 -207.0 629.5 -266.0 599.0 -311.0 568.5 -356.5 504.5 -386.0 460.5 -406.0 342.5 -432.5 224.0 -459.5 196.0 -485.0 167.5 -510.5 167.5 -550.0 167.5 -595.5 208.0 -627.5 248.0 -660.0 336.0 -660.0 420.5 -660.0 464.0 -624.5 507.0 -589.0 514.5 -519.5 L607.5 -526.5 Q605.0 -591.0 571.5 -642.0 538.0 -693.0 476.0 -719.0 413.5 -745.5 332.0 -745.5 258.0 -745.5 197.5 -720.5 137.0 -695.5 105.5 -647.0 74.0 -599.0 74.0 -543.5 74.0 -493.0 100.0 -452.0 125.5 -411.5 178.0 -384.0 218.5 -362.5 319.5 -338.0 420.5 -314.0 450.0 -302.5 496.0 -285.0 516.0 -259.0 536.0 -233.5 536.0 -199.0 536.0 -165.0 515.5 -136.0 494.5 -107.5 452.0 -91.0 409.5 -74.5 354.0 -74.5 291.5 -74.5 241.5 -96.0 191.5 -118.0 168.0 -153.0 144.0 -188.5 137.5 -243.5 L46.0 -235.5" fill-rule="evenodd" stroke="none"/>
    </g>
    <g id="font_Arial_I0">
      <path d="M95.5 0.0 L192.5 0.0 192.5 -733.0 95.5 -733.0 95.5 0.0" fill-rule="evenodd" stroke="none"/>
    </g>
    <g id="font_Arial_G0">
      <path d="M422.0 -287.5 L637.5 -287.5 637.5 -151.0 Q606.5 -123.5 546.5 -99.0 486.5 -75.0 423.5 -75.0 351.0 -75.0 286.5 -107.0 222.0 -139.0 188.5 -205.0 154.5 -271.0 154.5 -369.0 154.5 -448.5 182.5 -516.5 199.0 -556.0 229.0 -589.0 258.5 -622.0 307.0 -642.0 355.5 -662.5 422.0 -662.5 477.5 -662.5 523.0 -643.0 568.5 -624.0 593.0 -592.0 617.5 -560.0 634.0 -504.0 L721.5 -528.0 Q702.5 -602.0 666.0 -648.0 629.5 -694.0 565.5 -719.5 501.0 -745.5 421.5 -745.5 312.0 -745.5 228.0 -700.5 144.0 -655.5 99.5 -562.5 54.5 -470.0 54.5 -363.0 54.5 -255.0 99.5 -167.5 144.5 -80.0 233.0 -33.5 321.0 12.5 429.0 12.5 509.0 12.5 585.0 -16.0 661.0 -45.0 732.5 -102.0 L732.5 -374.0 422.0 -373.5 422.0 -287.5" fill-rule="evenodd" stroke="none"/>
    </g>
    <g id="font_Arial_N0">
      <path d="M78.0 0.0 L171.0 0.0 171.0 -576.0 556.0 0.0 655.5 0.0 655.5 -733.0 562.5 -733.0 562.5 -157.5 177.5 -733.0 78.0 -733.0 78.0 0.0" fill-rule="evenodd" stroke="none"/>
    </g>
    <g id="font_Arial_U0">
      <path d="M560.0 -733.0 L560.0 -310.0 Q560.0 -172.0 514.5 -123.5 469.0 -75.0 362.0 -75.0 299.5 -75.0 256.5 -99.5 213.0 -124.0 195.5 -169.0 177.5 -214.5 177.5 -310.0 L177.5 -733.0 80.5 -733.0 80.5 -309.5 Q80.5 -193.0 108.5 -125.5 136.5 -58.5 202.0 -23.0 267.5 12.5 370.5 12.5 476.5 12.5 542.0 -28.0 607.0 -69.0 632.0 -134.0 657.0 -199.0 657.0 -309.5 L657.0 -733.0 560.0 -733.0" fill-rule="evenodd" stroke="none"/>
    </g>
    <g id="font_Arial_P0">
      <path d="M176.0 -384.5 L176.0 -646.5 363.5 -646.5 Q429.5 -646.5 454.0 -640.0 492.0 -629.5 515.5 -596.5 538.5 -564.0 538.5 -518.0 538.5 -454.5 499.0 -419.5 459.5 -384.5 365.5 -384.5 L176.0 -384.5 M79.0 0.0 L176.0 0.0 176.0 -298.0 364.0 -298.0 Q519.5 -298.0 579.0 -362.5 638.5 -427.5 638.5 -521.0 638.5 -575.5 616.5 -621.0 594.0 -666.5 557.5 -691.5 521.0 -717.0 467.0 -726.0 428.5 -733.0 355.5 -733.0 L79.0 -733.0 79.0 0.0" fill-rule="evenodd" stroke="none"/>
    </g>
    <g id="text1" transform="matrix(1.0, 0.0, 0.0, 1.0, -1.1, -3.3)">
      <g transform="matrix(1.0, 0.0, 0.0, 1.0, 0.0, 0.0)">
        <use fill="#000000" height="19.75" transform="matrix(0.0234, 0.0, 0.0, 0.0234, 0.0, 22.0)" width="112.55" xlink:href="#font_Arial_S0"/>
        <use fill="#000000" height="19.75" transform="matrix(0.0234, 0.0, 0.0, 0.0234, 16.0, 22.0)" width="112.55" xlink:href="#font_Arial_I0"/>
        <use fill="#000000" height="19.75" transform="matrix(0.0234, 0.0, 0.0, 0.0234, 22.65, 22.0)" width="112.55" xlink:href="#font_Arial_G0"/>
        <use fill="#000000" height="19.75" transform="matrix(0.0234, 0.0, 0.0, 0.0234, 41.3, 22.0)" width="112.55" xlink:href="#font_Arial_N0"/>
        <use fill="#000000" height="19.75" transform="matrix(0.0234, 0.0, 0.0, 0.0234, 65.3, 22.0)" width="112.55" xlink:href="#font_Arial_U0"/>
        <use fill="#000000" height="19.75" transform="matrix(0.0234, 0.0, 0.0, 0.0234, 82.65, 22.0)" width="112.55" xlink:href="#font_Arial_P0"/>
      </g>
    </g>
    <g id="button0" transform="matrix(1.0, 0.0, 0.0, 1.0, 60.0, 60.0)">
      <use data-characterId="1259" height="115.5" transform="matrix(1.0, 0.0, 0.0, 1.0, -57.75, -57.8)" width="115.55" xlink:href="#shape4"/>
      <use data-characterId="1260" height="119.95" transform="matrix(1.0, 0.0, 0.0, 1.0, -60.0, -60.0)" width="120.0" xlink:href="#shape5"/>
    </g>
    <g id="shape4" transform="matrix(1.0, 0.0, 0.0, 1.0, 57.75, 57.8)">
      <path d="M19.15 -54.5 L17.05 -51.95 13.7 -47.55 10.55 -42.8 9.55 -40.9 Q5.35 -32.85 6.55 -23.95 -1.3 -24.6 -6.3 -30.3 -7.1 -31.25 -7.6 -32.55 -9.25 -36.8 -9.65 -41.35 -4.2 -42.65 1.25 -45.65 L1.55 -45.8 Q8.9 -50.1 15.35 -55.7 L19.15 -54.5 M28.9 1.3 L37.15 7.45 27.95 3.75 25.8 2.85 19.5 0.45 Q14.1 -1.55 10.6 -2.35 2.45 -4.35 -5.25 -3.5 -6.85 -9.6 -4.15 -15.1 -3.3 -16.8 -1.8 -18.0 2.1 -21.1 7.05 -21.5 8.6 -15.6 13.2 -10.75 15.9 -7.9 21.85 -3.6 L26.8 -0.15 28.9 1.3 M-33.85 9.05 L-41.1 15.1 -51.9 24.7 -51.5 24.0 Q-44.25 12.25 -38.25 0.0 L-37.75 -1.3 Q-34.0 -10.45 -33.5 -19.7 -25.1 -19.55 -17.6 -15.8 -13.4 -13.75 -10.7 -10.05 -8.5 -6.95 -7.05 -3.3 L-8.95 -2.95 Q-22.8 0.1 -33.85 9.05 M-34.35 -29.7 L-35.2 -32.95 Q-36.1 -35.8 -37.45 -38.65 L-39.35 -42.2 -36.25 -44.95 -34.5 -46.3 -34.15 -46.55 -33.95 -46.65 Q-29.0 -43.4 -24.7 -41.9 L-22.4 -41.25 Q-18.4 -40.25 -14.4 -40.6 L-11.35 -41.0 Q-12.9 -29.0 -23.95 -24.25 -28.55 -22.25 -33.45 -21.15 L-33.45 -21.85 Q-33.5 -25.75 -34.35 -29.7" fill="#ffd166" fill-rule="evenodd" stroke="none"/>
      <path d="M0.3 -57.75 L1.25 -57.75 0.45 -48.05 -1.55 -48.2 0.3 -57.75 M15.35 -55.7 L9.35 -57.05 Q23.7 -54.8 35.15 -45.8 L32.75 -47.55 30.7 -24.3 27.35 -30.9 31.0 -48.75 Q25.45 -52.3 19.15 -54.5 L15.35 -55.7 M17.05 -51.95 L16.25 -42.15 13.0 -44.1 13.7 -47.55 17.05 -51.95 M-35.2 -32.95 L-35.2 -32.4 Q-37.75 -28.95 -39.3 -25.1 L-37.45 -38.65 Q-36.1 -35.8 -35.2 -32.95 M-36.25 -44.95 Q-24.25 -54.9 -9.1 -57.1 -13.25 -56.4 -17.25 -55.1 L-17.65 -46.0 -21.2 -44.5 -19.8 -54.3 Q-27.5 -51.5 -33.95 -46.65 L-34.15 -46.55 -34.5 -46.3 -36.25 -44.95 M57.8 -0.05 L57.8 0.0 Q57.75 18.8 47.2 33.3 L50.85 27.4 Q56.75 16.5 57.6 4.15 L56.65 3.4 57.8 -0.05 M56.1 -14.1 Q54.45 -20.35 51.45 -26.3 L47.75 -0.7 43.2 -1.25 51.35 -26.45 48.35 -31.7 Q53.85 -23.6 56.1 -14.1 M19.0 18.75 Q18.7 20.6 18.7 22.6 18.7 30.55 23.5 36.9 L25.25 39.05 24.1 52.4 26.2 51.45 29.15 42.35 Q32.05 44.3 35.6 45.4 L37.65 43.75 Q24.1 55.6 6.4 57.4 L7.75 57.2 Q14.95 56.2 21.8 53.45 22.65 51.05 22.65 48.7 22.65 42.8 18.45 38.6 16.3 36.45 13.75 35.45 L16.85 20.4 19.0 18.75 M8.3 34.45 Q2.4 34.4 -1.75 38.6 -3.35 40.2 -4.35 42.0 L-1.25 26.8 Q5.05 26.3 10.6 23.9 L9.7 34.5 8.3 34.45 M-47.8 -4.0 Q-53.15 -3.5 -57.75 -0.6 -57.6 -19.6 -46.55 -34.15 L-48.35 -31.6 -47.8 -4.0 M-41.85 -6.45 L-41.5 -3.8 -42.2 -3.95 -41.85 -6.45 M-56.45 12.45 Q-55.2 18.0 -52.8 23.35 -51.1 27.2 -48.9 30.75 -54.45 22.3 -56.45 12.45 M-22.0 22.7 L-20.5 23.45 -21.75 53.45 -21.05 53.75 -15.55 25.35 Q-10.85 26.8 -5.9 26.9 L-8.4 57.1 -7.4 57.25 -5.9 49.95 -5.15 53.0 Q-4.45 55.5 -2.8 57.65 L0.0 57.7 Q-22.85 57.75 -39.35 42.2 L-34.5 40.3 -34.3 46.35 -33.2 39.55 -32.3 39.0 Q-23.65 33.0 -22.0 22.7" fill="#ce8f00" fill-rule="evenodd" stroke="none"/>
      <path d="M10.55 -42.8 Q15.95 -40.25 20.55 -35.65 30.9 -25.3 30.9 -10.7 30.9 -4.3 28.9 1.3 L26.8 -0.15 Q29.25 -8.4 28.0 -9.9 26.65 -11.45 21.85 -3.6 15.9 -7.9 13.2 -10.75 8.6 -15.6 7.05 -21.5 L17.75 -22.5 6.55 -23.95 Q5.35 -32.85 9.55 -40.9 L10.55 -42.8 M27.95 3.75 Q25.35 9.45 20.55 14.3 10.15 24.7 -4.45 24.7 -19.1 24.7 -29.45 14.3 -31.95 11.8 -33.85 9.05 -22.8 0.1 -8.95 -2.95 L-7.05 -3.3 -4.15 3.8 -5.25 -3.5 Q2.45 -4.35 10.6 -2.35 14.1 -1.55 19.5 0.45 L16.65 4.95 Q20.3 7.5 18.2 11.35 17.3 13.0 15.45 13.4 12.55 13.75 10.75 11.45 0.45 19.75 -13.1 19.5 L-20.0 18.9 Q-6.2 26.05 8.45 20.05 14.85 17.45 19.8 12.45 23.9 8.3 25.8 2.85 L27.95 3.75 M-38.25 0.0 Q-39.85 -5.05 -39.85 -10.7 -39.85 -21.35 -34.35 -29.7 -33.5 -25.75 -33.45 -21.85 L-33.45 -21.15 -38.15 -20.0 -33.5 -19.7 Q-34.0 -10.45 -37.75 -1.3 L-38.25 0.0 M-22.4 -41.25 Q-16.95 -44.55 -10.55 -45.6 L-11.35 -41.0 -14.4 -40.6 Q-18.4 -40.25 -22.4 -41.25 M-10.2 -45.65 L-4.45 -46.05 1.25 -45.65 Q-4.2 -42.65 -9.65 -41.35 L-10.2 -45.65" fill="#ffb200" fill-rule="evenodd" stroke="none"/>
      <path d="M-10.55 -45.6 L-10.4 -46.65 -10.2 -45.65 -9.65 -41.35 Q-9.25 -36.8 -7.6 -32.55 -7.1 -31.25 -6.3 -30.3 -1.3 -24.6 6.55 -23.95 L17.75 -22.5 7.05 -21.5 Q2.1 -21.1 -1.8 -18.0 -3.3 -16.8 -4.15 -15.1 -6.85 -9.6 -5.25 -3.5 L-4.15 3.8 -7.05 -3.3 Q-8.5 -6.95 -10.7 -10.05 -13.4 -13.75 -17.6 -15.8 -25.1 -19.55 -33.5 -19.7 L-38.15 -20.0 -33.45 -21.15 Q-28.55 -22.25 -23.95 -24.25 -12.9 -29.0 -11.35 -41.0 L-10.55 -45.6" fill="#ffffff" fill-rule="evenodd" stroke="none"/>
    </g>
    <g id="shape5" transform="matrix(1.0, 0.0, 0.0, 1.0, 60.0, 60.0)">
      <path d="M15.35 -55.7 Q8.9 -50.1 1.55 -45.8 L1.25 -45.65 -4.45 -46.05 -10.2 -45.65 -10.4 -46.65 -10.55 -45.6 Q-16.95 -44.55 -22.4 -41.25 L-24.7 -41.9 Q-29.0 -43.4 -33.95 -46.65 -27.5 -51.5 -19.8 -54.3 L-21.2 -44.5 -17.65 -46.0 -17.25 -55.1 Q-13.25 -56.4 -9.1 -57.1 -24.25 -54.9 -36.25 -44.95 L-39.35 -42.2 -37.45 -38.65 -39.3 -25.1 Q-37.75 -28.95 -35.2 -32.4 L-35.2 -32.95 -34.35 -29.7 Q-39.85 -21.35 -39.85 -10.7 -39.85 -5.05 -38.25 0.0 -44.25 12.25 -51.5 24.0 L-51.9 24.7 -41.1 15.1 -33.85 9.05 Q-31.95 11.8 -29.45 14.3 -19.1 24.7 -4.45 24.7 10.15 24.7 20.55 14.3 25.35 9.45 27.95 3.75 L37.15 7.45 28.9 1.3 Q30.9 -4.3 30.9 -10.7 30.9 -25.3 20.55 -35.65 15.95 -40.25 10.55 -42.8 L13.7 -47.55 13.0 -44.1 16.25 -42.15 17.05 -51.95 19.15 -54.5 Q25.45 -52.3 31.0 -48.75 L27.35 -30.9 30.7 -24.3 32.75 -47.55 35.15 -45.8 Q23.7 -54.8 9.35 -57.05 L15.35 -55.7 M0.3 -57.75 L-1.55 -48.2 0.45 -48.05 1.25 -57.75 0.3 -57.75 M28.0 -9.9 Q29.25 -8.4 26.8 -0.15 L21.85 -3.6 Q26.65 -11.45 28.0 -9.9 M56.1 -14.1 Q53.85 -23.6 48.35 -31.7 L51.35 -26.45 43.2 -1.25 47.75 -0.7 51.45 -26.3 Q54.45 -20.35 56.1 -14.1 M51.35 -31.1 Q53.85 -25.9 56.0 -20.45 61.65 -6.2 59.3 9.1 57.3 22.35 49.8 33.5 41.55 45.65 28.6 52.7 13.75 60.7 -3.05 59.9 -16.65 59.25 -28.55 52.7 -41.45 45.6 -49.7 33.5 -58.15 21.05 -59.7 6.1 -61.4 -10.8 -54.0 -25.95 -46.85 -40.65 -33.45 -49.65 -19.65 -59.05 -3.05 -59.95 13.65 -60.75 28.5 -52.65 42.85 -44.9 51.35 -31.1 M57.8 -0.05 L56.65 3.4 57.6 4.15 Q56.75 16.5 50.85 27.4 L47.2 33.3 Q57.75 18.8 57.8 0.0 L57.8 -0.05 M-47.8 -4.0 L-48.35 -31.6 -46.55 -34.15 Q-57.6 -19.6 -57.75 -0.6 -53.15 -3.5 -47.8 -4.0 M-41.85 -6.45 L-42.2 -3.95 -41.5 -3.8 -41.85 -6.45 M-20.0 18.9 L-13.1 19.5 Q0.45 19.75 10.75 11.45 12.55 13.75 15.45 13.4 17.3 13.0 18.2 11.35 20.3 7.5 16.65 4.95 L19.5 0.45 25.8 2.85 Q23.9 8.3 19.8 12.45 14.85 17.45 8.45 20.05 -6.2 26.05 -20.0 18.9 M-22.0 22.7 Q-23.65 33.0 -32.3 39.0 L-33.2 39.55 -34.3 46.35 -34.5 40.3 -39.35 42.2 Q-22.85 57.75 0.0 57.7 L-2.8 57.65 Q-4.45 55.5 -5.15 53.0 L-5.9 49.95 -7.4 57.25 -8.4 57.1 -5.9 26.9 Q-10.85 26.8 -15.55 25.35 L-21.05 53.75 -21.75 53.45 -20.5 23.45 -22.0 22.7 M-4.35 42.0 Q-3.35 40.2 -1.75 38.6 2.4 34.4 8.3 34.45 L9.7 34.5 10.6 23.9 Q5.05 26.3 -1.25 26.8 L-4.35 42.0 M-56.45 12.45 Q-54.45 22.3 -48.9 30.75 -51.1 27.2 -52.8 23.35 -55.2 18.0 -56.45 12.45 M19.0 18.75 L16.85 20.4 13.75 35.45 Q16.3 36.45 18.45 38.6 22.65 42.8 22.65 48.7 22.65 51.05 21.8 53.45 14.95 56.2 7.75 57.2 L6.4 57.4 Q24.1 55.6 37.65 43.75 L35.6 45.4 Q32.05 44.3 29.15 42.35 L26.2 51.45 24.1 52.4 25.25 39.05 23.5 36.9 Q18.7 30.55 18.7 22.6 18.7 20.6 19.0 18.75" fill="#000000" fill-rule="evenodd" stroke="none"/>
    </g>
    <g id="text2" transform="matrix(1.0, 0.0, 0.0, 1.0, 2.0, 2.0)">
      <g transform="matrix(1.0, 0.0, 0.0, 1.0, -2.0, -2.0)">
        <use fill="#ff0000" height="61.05" transform="matrix(0.0127, 0.0, 0.0, 0.0127, 0.0, 15.0)" width="406.65" xlink:href="#font_Arial_R0"/>
        <use fill="#ff0000" height="61.05" transform="matrix(0.0127, 0.0, 0.0, 0.0127, 0.0, 15.0)" width="406.65" xlink:href="#font_Arial_e0"/>
        <use fill="#ff0000" height="61.05" transform="matrix(0.0127, 0.0, 0.0, 0.0127, 0.0, 15.0)" width="406.65" xlink:href="#font_Arial_l0"/>
        <use fill="#ff0000" height="61.05" transform="matrix(0.0127, 0.0, 0.0, 0.0127, 0.0, 15.0)" width="406.65" xlink:href="#font_Arial_a0"/>
        <use fill="#ff0000" height="61.05" transform="matrix(0.0127, 0.0, 0.0, 0.0127, 0.0, 15.0)" width="406.65" xlink:href="#font_Arial_y0"/>
        <use fill="#ff0000" height="61.05" transform="matrix(0.0127, 0.0, 0.0, 0.0127, 0.0, 15.0)" width="406.65" xlink:href="#font_Arial_M0"/>
        <use fill="#ff0000" height="61.05" transform="matrix(0.0127, 0.0, 0.0, 0.0127, 0.0, 15.0)" width="406.65" xlink:href="#font_Arial_e0"/>
        <use fill="#ff0000" height="61.05" transform="matrix(0.0127, 0.0, 0.0, 0.0127, 0.0, 15.0)" width="406.65" xlink:href="#font_Arial_s0"/>
        <use fill="#ff0000" height="61.05" transform="matrix(0.0127, 0.0, 0.0, 0.0127, 0.0, 15.0)" width="406.65" xlink:href="#font_Arial_s0"/>
        <use fill="#ff0000" height="61.05" transform="matrix(0.0127, 0.0, 0.0, 0.0127, 0.0, 15.0)" width="406.65" xlink:href="#font_Arial_a0"/>
        <use fill="#ff0000" height="61.05" transform="matrix(0.0127, 0.0, 0.0, 0.0127, 0.0, 15.0)" width="406.65" xlink:href="#font_Arial_g0"/>
        <use fill="#ff0000" height="61.05" transform="matrix(0.0127, 0.0, 0.0, 0.0127, 0.0, 15.0)" width="406.65" xlink:href="#font_Arial_e0"/>
      </g>
    </g>
    <g id="font_Arial_R0">
      <path d="M177.5 -409.5 L177.5 -652.0 409.5 -652.0 Q491.0 -652.0 529.0 -618.5 566.5 -585.0 566.5 -533.0 566.5 -497.5 547.0 -467.0 527.5 -437.0 490.0 -423.0 452.5 -409.5 386.0 -409.5 L177.5 -409.5 M80.5 0.0 L177.5 0.0 177.5 -325.5 290.0 -325.5 Q327.5 -325.5 344.0 -322.0 366.5 -316.5 388.5 -302.5 410.0 -288.5 437.5 -253.5 465.0 -218.5 507.5 -152.5 L604.5 0.0 726.5 0.0 599.0 -199.5 Q561.0 -258.0 518.5 -297.0 498.5 -315.0 460.0 -333.5 565.5 -348.0 616.0 -401.5 666.5 -455.0 666.5 -533.0 666.5 -593.5 636.0 -643.5 605.5 -693.5 554.5 -713.0 503.5 -733.0 405.5 -733.0 L80.5 -733.0 80.5 0.0" fill-rule="evenodd" stroke="none"/>
    </g>
    <g id="font_Arial_e0">
      <path d="M135.5 -316.5 L135.5 -316.5 Q140.0 -386.0 182.5 -427.5 224.5 -469.0 286.5 -469.0 355.0 -469.0 398.0 -417.0 426.0 -383.5 432.0 -316.5 L135.5 -316.5 M431.0 -171.0 L431.0 -171.0 Q410.5 -114.0 375.5 -88.0 340.5 -62.0 291.0 -62.0 224.5 -62.0 180.0 -108.5 135.5 -155.0 130.5 -242.5 L526.5 -242.5 Q527.0 -258.5 527.0 -266.5 527.0 -398.0 459.5 -470.5 392.0 -543.0 285.5 -543.0 175.5 -543.0 106.5 -469.0 37.5 -395.0 37.5 -261.0 37.5 -131.5 106.0 -59.5 174.0 12.0 290.5 12.0 383.0 12.0 442.5 -33.0 502.0 -78.0 524.0 -159.5 L431.0 -171.0" fill-rule="evenodd" stroke="none"/>
    </g>
    <g id="font_Arial_l0">
      <path d="M65.5 0.0 L155.5 0.0 155.5 -733.0 65.5 -733.0 65.5 0.0" fill-rule="evenodd" stroke="none"/>
    </g>
    <g id="font_Arial_a0">
      <path d="M406.5 -266.5 L406.5 -233.5 Q406.5 -174.0 392.0 -143.5 373.0 -104.0 332.5 -81.0 292.0 -58.5 240.0 -58.5 187.5 -58.5 160.5 -82.5 133.0 -106.5 133.0 -142.5 133.0 -166.0 145.5 -185.0 158.0 -204.5 181.0 -214.5 204.0 -224.5 259.5 -232.5 357.5 -246.5 406.5 -266.5 M414.0 -65.5 L414.0 -65.5 Q418.0 -28.0 432.0 0.0 L526.0 0.0 Q509.0 -30.5 503.5 -63.5 497.5 -97.0 497.5 -222.5 L497.5 -342.5 Q497.5 -402.5 493.0 -425.5 485.0 -462.5 465.0 -486.5 445.0 -511.0 402.5 -527.0 360.0 -543.0 292.0 -543.0 223.5 -543.0 171.5 -524.0 119.5 -505.5 92.0 -470.5 64.5 -436.0 52.5 -379.5 L140.5 -367.5 Q155.0 -424.0 185.5 -446.0 215.5 -468.5 279.0 -468.5 347.0 -468.5 381.5 -438.0 407.0 -415.5 407.0 -360.5 407.0 -355.5 406.5 -337.0 355.0 -319.0 246.0 -306.0 192.5 -299.5 166.0 -292.5 130.0 -282.5 101.5 -263.0 72.5 -243.5 55.0 -211.0 37.0 -179.0 37.0 -140.0 37.0 -73.5 84.0 -30.5 131.0 12.0 218.5 12.0 271.5 12.0 318.0 -5.5 364.0 -23.0 414.0 -65.5" fill-rule="evenodd" stroke="none"/>
    </g>
    <g id="font_Arial_y0">
      <path d="M63.5 204.5 L63.5 204.5 Q95.5 215.5 121.5 215.5 164.5 215.5 195.5 195.0 226.5 174.0 250.5 129.5 268.5 96.5 301.0 9.0 L503.0 -531.0 413.0 -531.0 299.5 -221.5 Q278.0 -162.5 262.5 -100.5 245.5 -165.0 224.0 -223.5 L113.5 -531.0 16.5 -531.0 218.0 1.0 Q212.5 15.5 210.0 23.0 191.0 76.5 182.5 90.0 171.0 108.0 153.0 118.0 135.0 128.0 105.0 128.0 83.0 128.0 53.5 120.0 L63.5 204.5" fill-rule="evenodd" stroke="none"/>
    </g>
    <g id="font_Arial_M0">
      <path d="M76.0 0.0 L169.5 0.0 169.5 -624.0 381.5 0.0 469.0 0.0 682.0 -613.5 682.0 0.0 775.5 0.0 775.5 -733.0 645.0 -733.0 469.5 -223.0 Q443.0 -145.5 430.5 -105.5 419.5 -141.5 395.5 -214.0 L222.0 -733.0 76.0 -733.0 76.0 0.0" fill-rule="evenodd" stroke="none"/>
    </g>
    <g id="font_Arial_s0">
      <path d="M31.5 -158.5 L31.5 -158.5 Q46.5 -74.0 101.0 -31.0 155.0 12.0 258.5 12.0 321.0 12.0 370.5 -9.5 420.0 -31.5 446.5 -71.0 472.5 -111.0 472.5 -156.0 472.5 -202.0 451.0 -233.0 429.5 -264.0 392.0 -280.0 354.0 -296.5 258.5 -322.0 192.5 -340.0 179.0 -345.0 155.5 -354.5 144.5 -369.0 133.5 -383.0 133.5 -400.5 133.5 -428.0 160.0 -448.5 186.5 -469.0 248.5 -469.0 301.0 -469.0 330.0 -446.0 358.5 -423.0 364.5 -382.0 L452.5 -394.0 Q444.0 -445.5 421.5 -476.0 399.0 -507.0 352.0 -525.0 304.5 -543.0 242.0 -543.0 200.5 -543.0 164.5 -532.0 128.0 -521.5 107.0 -506.0 79.0 -486.0 63.0 -455.5 46.5 -425.5 46.5 -390.0 46.5 -351.0 66.5 -318.5 86.0 -286.5 124.5 -268.0 162.5 -250.0 261.5 -225.0 335.0 -206.5 353.5 -194.5 380.0 -177.0 380.0 -146.5 380.0 -112.5 350.0 -87.0 320.0 -62.0 258.0 -62.0 196.5 -62.0 162.5 -90.5 128.0 -119.0 120.5 -172.5 L31.5 -158.5" fill-rule="evenodd" stroke="none"/>
    </g>
    <g id="font_Arial_g0">
      <path d="M125.5 -275.0 L125.5 -275.0 Q125.5 -371.0 167.5 -419.5 209.5 -468.5 269.5 -468.5 330.5 -468.5 374.0 -419.0 417.0 -369.5 417.0 -272.0 417.0 -170.0 375.0 -122.0 333.0 -74.5 271.0 -74.5 208.5 -74.5 167.0 -122.5 125.5 -170.5 125.5 -275.0 M51.0 44.0 L51.0 44.0 Q49.0 130.0 107.5 173.0 166.0 215.5 261.0 215.5 341.0 215.5 396.0 185.5 450.5 155.5 476.0 104.0 501.0 52.0 501.0 -72.0 L501.0 -531.0 418.0 -531.0 418.0 -467.0 Q357.0 -543.0 263.0 -543.0 192.5 -543.0 140.5 -508.0 88.0 -473.0 60.5 -408.5 33.0 -344.5 33.0 -268.5 33.0 -158.0 93.0 -79.0 153.0 0.0 262.5 0.0 350.5 0.0 409.5 -69.5 410.0 18.5 403.0 46.0 391.0 91.0 357.0 116.0 323.0 141.0 260.5 141.0 202.5 141.0 169.0 116.0 144.0 97.5 138.5 57.0 L51.0 44.0" fill-rule="evenodd" stroke="none"/>
    </g>
  </defs>
</svg>
