<?xml version="1.0" encoding="UTF-8" standalone="no"?>
<svg xmlns:xlink="http://www.w3.org/1999/xlink" height="51.15px" width="19.9px" xmlns="http://www.w3.org/2000/svg">
  <g transform="matrix(1.0, 0.0, 0.0, 1.0, 9.95, 25.55)">
    <use data-characterId="1319" height="51.15" transform="matrix(1.0, 0.0, 0.0, 1.0, -9.95, -25.55)" width="19.9" xlink:href="#shape0"/>
  </g>
  <defs>
    <g id="shape0" transform="matrix(1.0, 0.0, 0.0, 1.0, 9.95, 25.55)">
      <path d="M1.45 -22.7 L1.45 22.75 -1.4 22.75 -1.4 -22.7 1.45 -22.7" fill="#ffffff" fill-rule="evenodd" stroke="none"/>
      <path d="M-9.95 22.75 L-1.4 22.75 -1.4 25.6 -9.95 25.6 -9.95 22.75" fill="#ffffff" fill-rule="evenodd" stroke="none"/>
      <path d="M-9.95 -25.55 L-1.4 -25.55 -1.4 -22.7 -9.95 -22.7 -9.95 -25.55" fill="#ffffff" fill-rule="evenodd" stroke="none"/>
      <path d="M1.45 22.75 L9.95 22.75 9.95 25.6 1.45 25.6 1.45 22.75" fill="#ffffff" fill-rule="evenodd" stroke="none"/>
      <path d="M1.45 -25.55 L9.95 -25.55 9.95 -22.7 1.45 -22.7 1.45 -25.55" fill="#ffffff" fill-rule="evenodd" stroke="none"/>
    </g>
  </defs>
</svg>
