<?xml version="1.0" encoding="UTF-8" standalone="no"?>
<svg xmlns:xlink="http://www.w3.org/1999/xlink" height="286.95px" width="227.7px" xmlns="http://www.w3.org/2000/svg">
  <g transform="matrix(1.0, 0.0, 0.0, 1.0, 113.45, 143.45)">
    <use data-characterId="200" height="286.95" transform="matrix(1.0, 0.0, 0.0, 1.0, -113.45, -143.45)" width="227.7" xlink:href="#shape0"/>
  </g>
  <defs>
    <g id="shape0" transform="matrix(1.0, 0.0, 0.0, 1.0, 113.45, 143.45)">
      <path d="M71.25 -31.25 Q77.1 -25.4 85.45 -25.4 93.75 -25.4 99.65 -31.25 105.55 -37.15 105.55 -45.5 105.55 -53.85 99.65 -59.7 93.75 -65.6 85.45 -65.6 77.1 -65.6 71.25 -59.7 65.35 -53.85 65.35 -45.5 65.35 -37.15 71.25 -31.25 M101.9 78.35 Q107.75 72.45 107.75 64.1 107.75 55.75 101.9 49.9 96.0 44.0 87.65 44.0 79.3 44.0 73.45 49.9 67.55 55.75 67.55 64.1 67.55 72.45 73.45 78.35 79.3 84.25 87.65 84.25 96.0 84.25 101.9 78.35 M-84.4 -66.6 Q-76.05 -66.65 -70.15 -60.75 -64.3 -54.85 -64.3 -46.5 -64.3 -38.15 -70.15 -32.25 -76.05 -26.4 -84.4 -26.4 -92.7 -26.4 -98.6 -32.25 -104.5 -38.15 -104.5 -46.5 -104.5 -54.85 -98.6 -60.75 -92.7 -66.65 -84.4 -66.6 M-70.95 78.35 Q-76.85 84.25 -85.2 84.25 -93.55 84.25 -99.4 78.35 -105.3 72.45 -105.3 64.1 -105.3 55.75 -99.4 49.9 -93.55 44.0 -85.2 44.0 -76.85 44.0 -70.95 49.9 -65.1 55.75 -65.1 64.1 -65.1 72.45 -70.95 78.35" fill="none" stroke="#cccccc" stroke-linecap="butt" stroke-linejoin="miter-clip" stroke-miterlimit="3.0" stroke-width="1.0"/>
      <path d="M-22.55 -129.95 L0.05 -128.95" fill="none" stroke="#cccccc" stroke-linecap="butt" stroke-linejoin="miter-clip" stroke-miterlimit="3.0" stroke-width="1.0"/>
      <path d="M99.2 -119.55 L101.65 -95.45 97.3 -95.45 M0.05 -128.95 L22.6 -129.95 33.65 -142.95" fill="none" stroke="#cccccc" stroke-linecap="butt" stroke-linejoin="miter-clip" stroke-miterlimit="3.0" stroke-width="1.0"/>
      <path d="M97.3 -95.45 L97.1 -71.1 Q102.8 -64.75 106.8 -56.55 110.9 -48.0 113.05 -37.4 L113.05 83.25 101.0 109.4 52.0 123.4 62.5 142.0 48.4 142.0 34.35 142.0 20.3 142.0 6.25 142.0 13.1 123.5 -11.15 123.5 -3.95 143.0 -17.95 143.0 -32.0 143.0 -46.1 143.0 -60.2 143.0 -49.15 123.5 -51.65 123.5 -100.9 109.4 -112.95 83.25 -112.95 25.95 -112.95 5.05 -112.95 -13.3 -112.95 -37.4 Q-110.85 -48.0 -106.7 -56.55 -102.75 -64.75 -97.0 -71.1 L-97.2 -95.45 -101.6 -95.45 -99.1 -119.55 -86.6 -119.55 -84.2 -95.45 -88.5 -95.45 -88.4 -78.95 Q-82.7 -83.15 -75.8 -86.15 -71.05 -88.25 -65.75 -89.7 -67.2 -118.1 -33.6 -142.95 L0.05 -142.95 33.65 -142.95 Q68.85 -124.0 65.8 -89.7 71.1 -88.25 75.85 -86.15 82.75 -83.15 88.45 -78.95 L88.6 -95.45 97.3 -95.45 M50.5 -62.55 L34.55 -80.4 30.05 -77.35 41.5 -56.5 41.55 -56.5 50.5 -62.55 59.5 -68.6 39.0 -83.45 34.55 -80.4 18.55 -98.25 30.05 -77.35 0.0 -77.45 -0.1 -56.5 41.5 -56.5 41.55 -56.45 41.55 -56.5 41.8 -56.5 41.8 -56.0 41.55 -56.45 41.55 82.25 51.5 102.35 59.5 83.25 59.5 40.0 47.55 28.95 47.55 -21.35 59.5 -21.35 59.5 -68.6 M39.0 -83.45 L18.55 -98.25 0.05 -98.5 0.0 -77.45 -30.1 -77.6 -41.7 -56.5 -0.1 -56.5 M88.45 -78.95 Q93.2 -75.45 97.1 -71.1 M59.5 -21.35 L83.65 -21.35 98.2 -17.3 98.2 5.05 83.65 5.05 83.65 28.95 47.55 28.95 M83.65 -21.35 L83.65 5.05 M98.2 27.45 L83.65 28.95 88.85 40.0 100.85 32.95 98.2 27.45 98.2 5.05 M98.2 27.45 L112.8 25.95 100.85 32.95 M52.0 123.4 L51.75 123.5 51.75 122.95 47.35 115.2 39.8 114.5 48.4 142.0 M51.75 122.95 L51.75 102.35 51.5 102.35 -51.65 102.35 -51.65 123.5 M51.75 122.95 L52.0 123.4 M39.8 114.5 L32.25 113.8 34.35 142.0 M32.25 113.8 L24.7 113.1 20.3 142.0 M24.7 113.1 L17.2 112.4 13.1 123.5 M59.5 40.0 L88.85 40.0 M113.05 83.25 L51.75 102.35 M-97.0 -71.1 Q-93.15 -75.45 -88.4 -78.95 M-88.5 -95.45 L-97.2 -95.45 M-98.4 -17.3 L-98.4 5.05 -83.8 5.05 -83.8 -21.35 -98.4 -17.3 -112.95 -13.3 M-34.6 -80.65 L-18.5 -98.75 -39.1 -83.7 -34.6 -80.65 -30.1 -77.6 -18.5 -98.75 0.05 -98.5 M-59.7 -68.6 L-59.7 -21.35 -47.75 -21.35 -47.75 28.95 -59.7 40.0 -59.7 83.25 -51.65 102.35 -41.7 82.25 -41.7 -56.5 -50.7 -62.55 -59.7 -68.6 -39.1 -83.7 M-34.6 -80.65 L-50.7 -62.55 M-59.7 -21.35 L-83.8 -21.35 M-98.4 27.45 L-101.0 32.95 -89.05 40.0 -83.8 28.95 -98.4 27.45 -112.95 25.95 -101.0 32.95 M-112.95 5.05 L-98.4 5.05 -98.4 27.45 M-83.8 28.95 L-83.8 5.05 M-11.15 123.5 L-14.9 113.4 -22.4 114.1 -17.95 143.0 M-22.4 114.1 L-29.9 114.8 -32.0 143.0 M-29.9 114.8 L-37.45 115.5 -46.1 143.0 M-37.45 115.5 L-45.0 116.2 -49.15 123.5 M-59.7 40.0 L-89.05 40.0 M-51.65 102.35 L-112.95 83.25 M-47.75 28.95 L-83.8 28.95 M-41.7 82.25 L41.55 82.25" fill="none" stroke="#cccccc" stroke-linecap="round" stroke-linejoin="miter-clip" stroke-miterlimit="3.0" stroke-width="1.0"/>
      <path d="M88.6 -95.45 L84.25 -95.45 86.7 -119.55 99.2 -119.55 M98.2 -17.3 L112.8 -13.3 M98.2 5.05 L112.8 5.05 M-33.6 -142.95 L-22.55 -129.95" fill="none" stroke="#cccccc" stroke-linecap="round" stroke-linejoin="miter-clip" stroke-miterlimit="3.0" stroke-width="1.0"/>
    </g>
  </defs>
</svg>
