<?xml version="1.0" encoding="UTF-8" standalone="no"?>
<svg xmlns:xlink="http://www.w3.org/1999/xlink" height="35.3px" width="86.0px" xmlns="http://www.w3.org/2000/svg">
  <g transform="matrix(1.0, 0.0, 0.0, 1.0, 42.0, 8.0)">
    <use data-characterId="197" height="22.55" transform="matrix(1.0006, 0.0, 0.0, 1.0022, -42.0012, 4.6956)" width="85.95" xlink:href="#text0"/>
    <use data-characterId="198" height="16.0" transform="matrix(1.0, 0.0, 0.0, 1.0, -8.0, -8.0)" width="16.0" xlink:href="#button0"/>
  </g>
  <defs>
    <g id="text0" transform="matrix(1.0, 0.0, 0.0, 1.0, 2.0, 2.0)">
      <g transform="matrix(1.0, 0.0, 0.0, 1.0, -2.0, -2.0)">
        <use fill="#00ffff" height="22.55" transform="matrix(0.0098, 0.0, 0.0, 0.0098, 42.95, 12.0)" width="85.95" xlink:href="#font_Trebuchet_MS_l0"/>
        <use fill="#00ffff" height="22.55" transform="matrix(0.0098, 0.0, 0.0, 0.0098, 42.95, 12.0)" width="85.95" xlink:href="#font_Trebuchet_MS_a0"/>
        <use fill="#00ffff" height="22.55" transform="matrix(0.0098, 0.0, 0.0, 0.0098, 42.95, 12.0)" width="85.95" xlink:href="#font_Trebuchet_MS_b0"/>
        <use fill="#00ffff" height="22.55" transform="matrix(0.0098, 0.0, 0.0, 0.0098, 42.95, 12.0)" width="85.95" xlink:href="#font_Trebuchet_MS_e0"/>
        <use fill="#00ffff" height="22.55" transform="matrix(0.0098, 0.0, 0.0, 0.0098, 42.95, 12.0)" width="85.95" xlink:href="#font_Trebuchet_MS_l0"/>
      </g>
    </g>
    <g id="font_Trebuchet_MS_l0">
      <path d="M75.0 -151.5 Q75.0 10.0 259.5 10.0 L259.5 -75.0 Q219.5 -75.0 195.0 -99.5 170.0 -124.5 170.0 -167.5 L170.0 -755.0 75.0 -755.0 75.0 -151.5" fill-rule="evenodd" stroke="none"/>
    </g>
    <g id="font_Trebuchet_MS_a0">
      <path d="M361.0 -263.0 L361.0 -133.5 Q305.5 -65.0 233.5 -65.0 135.0 -65.0 135.0 -148.5 135.0 -199.0 180.5 -236.0 226.0 -273.0 298.0 -273.0 316.0 -273.0 361.0 -263.0 M370.0 -61.5 Q382.5 -23.5 411.5 -7.0 440.0 9.5 498.0 9.5 L498.0 -38.0 Q456.0 -61.5 456.0 -132.0 L456.0 -324.0 Q456.0 -439.5 403.5 -492.5 350.5 -545.5 234.0 -545.5 190.5 -545.5 143.0 -529.5 95.0 -514.0 68.0 -492.0 L108.0 -412.5 Q156.0 -460.5 245.0 -460.5 361.0 -460.5 361.0 -330.5 323.0 -343.5 293.0 -343.5 182.5 -343.5 111.5 -287.0 40.0 -231.0 40.0 -149.5 40.0 -81.5 86.5 -35.5 132.5 10.0 195.5 10.0 313.0 10.0 370.0 -61.5" fill-rule="evenodd" stroke="none"/>
    </g>
    <g id="font_Trebuchet_MS_b0">
      <path d="M162.5 -423.5 Q172.0 -435.5 203.5 -450.5 234.5 -465.5 252.0 -465.5 335.0 -465.5 384.0 -414.5 433.0 -363.5 433.0 -272.5 433.0 -163.0 391.0 -116.5 349.0 -70.0 252.0 -70.0 233.5 -70.0 198.0 -88.0 162.5 -106.5 162.5 -114.5 L162.5 -423.5 M148.5 -38.5 Q167.5 -18.5 204.5 -4.0 241.0 10.0 279.0 10.0 396.0 10.0 464.5 -66.5 533.0 -143.5 533.0 -277.5 533.0 -393.5 465.0 -469.5 396.5 -545.5 286.5 -545.5 250.5 -545.5 213.5 -530.0 176.0 -514.5 162.5 -496.0 L162.5 -755.0 67.5 -755.0 67.5 10.0 115.0 10.0 Q132.0 -14.0 148.5 -38.5" fill-rule="evenodd" stroke="none"/>
    </g>
    <g id="font_Trebuchet_MS_e0">
      <path d="M288.0 -465.5 Q356.0 -465.5 395.5 -423.5 431.5 -385.0 431.5 -327.5 L135.0 -327.5 Q140.5 -385.5 181.5 -424.5 224.5 -465.5 288.0 -465.5 M518.5 -258.5 Q526.0 -285.0 526.0 -316.5 526.0 -419.0 463.0 -481.0 398.0 -545.5 283.5 -545.5 185.0 -545.5 113.0 -474.0 32.5 -394.0 32.5 -261.5 32.5 -134.0 111.0 -58.5 181.5 10.0 282.5 10.0 352.5 10.0 409.5 -11.0 455.0 -27.0 477.0 -49.0 L437.0 -117.5 Q382.5 -70.0 301.0 -70.0 229.5 -70.0 184.0 -114.0 132.5 -164.5 132.5 -258.5 L518.5 -258.5" fill-rule="evenodd" stroke="none"/>
    </g>
    <g id="button0" transform="matrix(1.0, 0.0, 0.0, 1.0, 8.0, 8.0)">
      <use data-characterId="173" height="16.0" transform="matrix(1.0, 0.0, 0.0, 1.0, -8.0, -8.0)" width="16.0" xlink:href="#shape0"/>
    </g>
    <g id="shape0" transform="matrix(1.0, 0.0, 0.0, 1.0, 8.0, 8.0)">
      <path d="M7.5 0.0 Q7.5 3.1 5.3 5.3 3.1 7.5 0.0 7.5 -3.15 7.5 -5.35 5.3 -7.5 3.1 -7.5 0.0 -7.5 -3.15 -5.35 -5.35 -3.15 -7.5 0.0 -7.5 3.1 -7.5 5.3 -5.35 7.5 -3.15 7.5 0.0" fill="#0033ff" fill-rule="evenodd" stroke="none"/>
      <path d="M7.5 0.0 Q7.5 3.1 5.3 5.3 3.1 7.5 0.0 7.5 -3.15 7.5 -5.35 5.3 -7.5 3.1 -7.5 0.0 -7.5 -3.15 -5.35 -5.35 -3.15 -7.5 0.0 -7.5 3.1 -7.5 5.3 -5.35 7.5 -3.15 7.5 0.0 Z" fill="none" stroke="#00ccff" stroke-linecap="round" stroke-linejoin="round" stroke-width="1.0"/>
    </g>
  </defs>
</svg>
