<?xml version="1.0" encoding="UTF-8" standalone="no"?>
<svg xmlns:xlink="http://www.w3.org/1999/xlink" height="16.0px" width="16.0px" xmlns="http://www.w3.org/2000/svg">
  <g transform="matrix(1.0, 0.0, 0.0, 1.0, 8.0, 8.0)">
    <use data-characterId="80" height="16.0" transform="matrix(1.0, 0.0, 0.0, 1.0, -8.0, -8.0)" width="16.0" xlink:href="#shape0"/>
  </g>
  <defs>
    <g id="shape0" transform="matrix(1.0, 0.0, 0.0, 1.0, 8.0, 8.0)">
      <pattern height="16" id="PatternID_80_1" overflow="visible" patternTransform="matrix(1.0, 0.0, 0.0, 1.0, -8.0, -8.0)" patternUnits="userSpaceOnUse" viewBox="0 0 16 16" width="16">
        <image height="16" width="16" xlink:href="data:image/PNG;base64,iVBORw0KGgoAAAANSUhEUgAAABAAAAAQCAYAAAAf8/9hAAAAP0lEQVR42mNgwAGKJRj+M5ADYBrJNoBsg9AVkuwCkAZkW5ENoDg8qBIW2FxGVOBRFBZUAVQ1bGDB4PEK1WMJAK+PJntDmMvsAAAAAElFTkSuQmCC"/>
      </pattern>
      <path d="M-8.0 -8.0 L8.0 -8.0 8.0 8.0 -8.0 8.0 -8.0 -8.0" style="fill:url(#PatternID_80_1)"/>
    </g>
  </defs>
</svg>
