<?xml version="1.0" encoding="UTF-8" standalone="no"?>
<svg xmlns:xlink="http://www.w3.org/1999/xlink" height="16.0px" width="16.0px" xmlns="http://www.w3.org/2000/svg">
  <g transform="matrix(1.0, 0.0, 0.0, 1.0, 8.0, 8.0)">
    <use data-characterId="70" height="16.0" transform="matrix(1.0, 0.0, 0.0, 1.0, -7.75, -8.0)" width="16.0" xlink:href="#shape0"/>
  </g>
  <defs>
    <g id="shape0" transform="matrix(1.0, 0.0, 0.0, 1.0, 7.75, 8.0)">
      <pattern height="16" id="PatternID_70_1" overflow="visible" patternTransform="matrix(1.0, 0.0, 0.0, 1.0, -7.75, -8.0)" patternUnits="userSpaceOnUse" viewBox="0 0 16 16" width="16">
        <image height="16" width="16" xlink:href="data:image/PNG;base64,iVBORw0KGgoAAAANSUhEUgAAABAAAAAQCAYAAAAf8/9hAAAAZ0lEQVR42mNgGAU4wdJsjv/FEgz/ydIM0ri2WOD/uSkcYJpkg0AaYODYsWP/YWJEGwCyGR+foO3v9zqhaAC5hGgXoBsA8wZJBizVRITB/6VO8HAgCdxrsQTHQksQJDrJigmSQ39oAgD+MFaE0SjpQwAAAABJRU5ErkJggg=="/>
      </pattern>
      <path d="M-7.75 -8.0 L8.25 -8.0 8.25 8.0 -7.75 8.0 -7.75 -8.0" style="fill:url(#PatternID_70_1)"/>
    </g>
  </defs>
</svg>
