<?xml version="1.0" encoding="UTF-8" standalone="no"?>
<svg xmlns:xlink="http://www.w3.org/1999/xlink" height="13.0px" width="13.0px" xmlns="http://www.w3.org/2000/svg">
  <g transform="matrix(1.0, 0.0, 0.0, 1.0, 6.5, 6.5)">
    <use data-characterId="1612" height="13.0" transform="matrix(1.0, 0.0, 0.0, 1.0, -6.5, -6.5)" width="13.0" xlink:href="#shape0"/>
  </g>
  <defs>
    <g id="shape0" transform="matrix(1.0, 0.0, 0.0, 1.0, 6.5, 6.5)">
      <path d="M4.25 -4.25 Q6.0 -2.45 6.0 0.0 6.0 2.5 4.25 4.25 2.5 6.0 0.0 6.0 -2.45 6.0 -4.25 4.25 -6.0 2.5 -6.0 0.0 -6.0 -2.45 -4.25 -4.25 -2.45 -6.0 0.0 -6.0 2.5 -6.0 4.25 -4.25" fill="url(#gradient0)" fill-rule="evenodd" stroke="none"/>
      <path d="M4.25 -4.25 Q6.0 -2.45 6.0 0.0 6.0 2.5 4.25 4.25 2.5 6.0 0.0 6.0 -2.45 6.0 -4.25 4.25 -6.0 2.5 -6.0 0.0 -6.0 -2.45 -4.25 -4.25 -2.45 -6.0 0.0 -6.0 2.5 -6.0 4.25 -4.25 Z" fill="none" stroke="#990000" stroke-linecap="butt" stroke-linejoin="miter-clip" stroke-miterlimit="3.0" stroke-width="1.0"/>
    </g>
    <radialGradient cx="0" cy="0" gradientTransform="matrix(0.0076, 0.0, 0.0, 0.0076, 0.0, 0.0)" gradientUnits="userSpaceOnUse" id="gradient0" r="819.2" spreadMethod="pad">
      <stop offset="0.0" stop-color="#f72d2d"/>
      <stop offset="1.0" stop-color="#8d0303"/>
    </radialGradient>
  </defs>
</svg>
