<?xml version="1.0" encoding="UTF-8" standalone="no"?>
<svg xmlns:xlink="http://www.w3.org/1999/xlink" height="3.3px" width="6.9px" xmlns="http://www.w3.org/2000/svg">
  <g transform="matrix(1.0, 0.0, 0.0, 1.0, 3.45, 1.65)">
    <use data-characterId="940" height="3.3" transform="matrix(1.0, 0.0, 0.0, 1.0, -3.45, -1.65)" width="6.9" xlink:href="#shape0"/>
  </g>
  <defs>
    <g id="shape0" transform="matrix(1.0, 0.0, 0.0, 1.0, 3.45, 1.65)">
      <path d="M3.45 1.65 L-3.45 1.65 -3.45 -1.65 3.45 -1.65 3.45 1.65" fill="#ffcc00" fill-rule="evenodd" stroke="none"/>
    </g>
  </defs>
</svg>
