<?xml version="1.0" encoding="UTF-8" standalone="no"?>
<svg xmlns:xlink="http://www.w3.org/1999/xlink" height="17.1px" width="12.5px" xmlns="http://www.w3.org/2000/svg">
  <g transform="matrix(1.0, 0.0, 0.0, 1.0, 1.3, 1.05)">
    <use data-characterId="1158" height="16.0" transform="matrix(1.0, 0.0, 0.0, 1.0, -0.45, -0.5)" width="11.0" xlink:href="#shape0"/>
    <use data-characterId="1159" height="16.5" id="button" transform="matrix(1.0, 0.0, 0.0, 1.0, -1.3, -1.05)" width="12.5" xlink:href="#text0"/>
  </g>
  <defs>
    <g id="shape0" transform="matrix(1.0, 0.0, 0.0, 1.0, 0.45, 0.5)">
      <path d="M10.05 15.0 L0.05 15.0 0.05 0.0 10.05 0.0 10.05 15.0" fill="#ffff00" fill-rule="evenodd" stroke="none"/>
      <path d="M10.05 15.0 L0.05 15.0 0.05 0.0 10.05 0.0 10.05 15.0 Z" fill="none" stroke="#cccccc" stroke-linecap="round" stroke-linejoin="round" stroke-width="1.0"/>
    </g>
    <g id="text0" transform="matrix(1.0, 0.0, 0.0, 1.0, 2.0, 2.0)">
      <g transform="matrix(1.0, 0.0, 0.0, 1.0, -2.0, -2.0)">
        <use fill="#ff0000" height="16.5" transform="matrix(0.0098, 0.0, 0.0, 0.0098, 6.25, 12.0)" width="12.5" xlink:href="#font_Trebuchet_MS_W0"/>
      </g>
    </g>
    <g id="font_Trebuchet_MS_W0">
      <path d="M638.0 10.0 L866.0 -732.5 762.0 -732.5 Q687.5 -477.0 612.5 -222.0 L453.5 -732.5 418.5 -732.5 257.5 -221.0 110.5 -732.5 6.5 -732.5 237.5 10.0 269.0 10.0 432.0 -495.0 Q519.5 -242.5 606.5 10.0 L638.0 10.0" fill-rule="evenodd" stroke="none"/>
    </g>
  </defs>
</svg>
