<?xml version="1.0" encoding="UTF-8" standalone="no"?>
<svg xmlns:xlink="http://www.w3.org/1999/xlink" height="102.0px" width="102.0px" xmlns="http://www.w3.org/2000/svg">
  <g transform="matrix(1.0, 0.0, 0.0, 1.0, 51.0, 51.0)">
    <use data-characterId="1436" height="101.0" transform="matrix(1.0, 0.0, 0.0, 1.0, -50.5, -50.5)" width="101.0" xlink:href="#shape0"/>
    <use data-characterId="1439" data-characterName="sc313_fla.radarpingcircle_64" height="102.0" id="radarPing" transform="matrix(1.0, 0.0, 0.0, 1.0, -51.0, -51.0)" width="102.0" xlink:href="#sprite0"/>
    <clipPath id="clipPath0" transform="matrix(1.0, 0.0, 0.0, 1.0, 0.0, 0.0)">
      <path d="M35.35 -35.35 Q50.0 -20.7 50.0 0.0 50.0 20.7 35.35 35.35 20.7 50.0 0.0 50.0 -20.7 50.0 -35.35 35.35 -50.0 20.7 -50.0 0.0 -50.0 -20.7 -35.35 -35.35 -20.7 -50.0 0.0 -50.0 20.7 -50.0 35.35 -35.35" fill="#000000" fill-opacity="0.4" fill-rule="evenodd" stroke="none"/>
    </clipPath>
    <g clip-path="url(#clipPath0)">
      <use data-characterId="1441" height="0.0" id="radarScreen" transform="matrix(1.0, 0.0, 0.0, 1.0, 0.0, 0.0)" width="0.0" xlink:href="#sprite1"/>
    </g>
  </g>
  <defs>
    <g id="shape0" transform="matrix(1.0, 0.0, 0.0, 1.0, 50.5, 50.5)">
      <path d="M24.7 -24.8 Q14.5 -35.0 0.0 -35.0 -14.55 -35.0 -24.8 -24.8 -35.0 -14.55 -35.0 0.0 -35.0 14.5 -24.8 24.7 -14.55 35.0 0.0 35.0 14.5 35.0 24.7 24.7 35.0 14.5 35.0 0.0 35.0 -14.55 24.7 -24.8 35.0 -14.55 35.0 0.0 35.0 14.5 24.7 24.7 14.5 35.0 0.0 35.0 -14.55 35.0 -24.8 24.7 -35.0 14.5 -35.0 0.0 -35.0 -14.55 -24.8 -24.8 -14.55 -35.0 0.0 -35.0 14.5 -35.0 24.7 -24.8 M0.7 -0.7 L0.0 -1.0 -0.7 -0.7 -1.0 0.0 -0.7 0.7 0.0 1.0 0.7 0.7 1.0 0.0 0.7 -0.7 1.0 0.0 0.7 0.7 0.0 1.0 -0.7 0.7 -1.0 0.0 -0.7 -0.7 0.0 -1.0 0.7 -0.7 M12.05 -12.05 Q7.05 -17.0 0.0 -17.0 -7.0 -17.0 -12.0 -12.05 -17.0 -7.05 -17.0 0.0 -17.0 7.0 -12.0 12.0 -7.0 16.95 0.0 16.95 7.05 16.95 12.05 12.0 17.0 7.0 17.0 0.0 17.0 -7.05 12.05 -12.05 17.0 -7.05 17.0 0.0 17.0 7.0 12.05 12.0 7.05 16.95 0.0 16.95 -7.0 16.95 -12.0 12.0 -17.0 7.0 -17.0 0.0 -17.0 -7.05 -12.0 -12.05 -7.0 -17.0 0.0 -17.0 7.05 -17.0 12.05 -12.05 M35.35 -35.35 Q50.0 -20.7 50.0 0.0 50.0 20.7 35.35 35.35 20.7 50.0 0.0 50.0 -20.7 50.0 -35.35 35.35 -50.0 20.7 -50.0 0.0 -50.0 -20.7 -35.35 -35.35 -20.7 -50.0 0.0 -50.0 20.7 -50.0 35.35 -35.35" fill="#000000" fill-opacity="0.4" fill-rule="evenodd" stroke="none"/>
      <path d="M24.7 -24.8 Q35.0 -14.55 35.0 0.0 35.0 14.5 24.7 24.7 14.5 35.0 0.0 35.0 -14.55 35.0 -24.8 24.7 -35.0 14.5 -35.0 0.0 -35.0 -14.55 -24.8 -24.8 -14.55 -35.0 0.0 -35.0 14.5 -35.0 24.7 -24.8 M12.05 -12.05 Q17.0 -7.05 17.0 0.0 17.0 7.0 12.05 12.0 7.05 16.95 0.0 16.95 -7.0 16.95 -12.0 12.0 -17.0 7.0 -17.0 0.0 -17.0 -7.05 -12.0 -12.05 -7.0 -17.0 0.0 -17.0 7.05 -17.0 12.05 -12.05 M0.7 -0.7 L1.0 0.0 0.7 0.7 0.0 1.0 -0.7 0.7 -1.0 0.0 -0.7 -0.7 0.0 -1.0 0.7 -0.7" fill="none" stroke="#006600" stroke-linecap="round" stroke-linejoin="round" stroke-width="1.0"/>
      <path d="M35.35 -35.35 Q50.0 -20.7 50.0 0.0 50.0 20.7 35.35 35.35 20.7 50.0 0.0 50.0 -20.7 50.0 -35.35 35.35 -50.0 20.7 -50.0 0.0 -50.0 -20.7 -35.35 -35.35 -20.7 -50.0 0.0 -50.0 20.7 -50.0 35.35 -35.35 Z" fill="none" stroke="#666666" stroke-linecap="round" stroke-linejoin="round" stroke-width="1.0"/>
    </g>
  </defs>
</svg>
