<?xml version="1.0" encoding="UTF-8" standalone="no"?>
<svg xmlns:xlink="http://www.w3.org/1999/xlink" height="21.95px" width="513.8px" xmlns="http://www.w3.org/2000/svg">
  <g transform="matrix(1.0, 0.0, 0.0, 1.0, 0.0, 0.0)">
    <use data-characterId="375" height="21.9" id="chatdisplay" transform="matrix(0.9997, 0.0, 0.0, 1.0025, 5.0E-4, -0.0049)" width="513.95" xlink:href="#text0"/>
  </g>
  <defs>
    <g id="text0" transform="matrix(1.0, 0.0, 0.0, 1.0, 2.0, 2.0)">
      <g transform="matrix(1.0, 0.0, 0.0, 1.0, -2.0, -2.0)">
        <use fill="#ffffff" height="21.9" transform="matrix(0.0107, 0.0, 0.0, 0.0107, 0.0, 11.95)" width="513.95" xlink:href="#font__sans_o0"/>
        <use fill="#ffffff" height="21.9" transform="matrix(0.0107, 0.0, 0.0, 0.0107, 6.1, 11.95)" width="513.95" xlink:href="#font__sans_u0"/>
        <use fill="#ffffff" height="21.9" transform="matrix(0.0107, 0.0, 0.0, 0.0107, 12.2, 11.95)" width="513.95" xlink:href="#font__sans_t0"/>
        <use fill="#ffffff" height="21.9" transform="matrix(0.0107, 0.0, 0.0, 0.0107, 15.25, 11.95)" width="513.95" xlink:href="#font__sans_p0"/>
        <use fill="#ffffff" height="21.9" transform="matrix(0.0107, 0.0, 0.0, 0.0107, 21.35, 11.95)" width="513.95" xlink:href="#font__sans_u0"/>
        <use fill="#ffffff" height="21.9" transform="matrix(0.0107, 0.0, 0.0, 0.0107, 27.45, 11.95)" width="513.95" xlink:href="#font__sans_t0"/>
      </g>
    </g>
    <g id="font__sans_o0">
      <path d="M126.5 -265.5 Q126.5 -367.5 171.0 -418.0 215.5 -468.5 283.0 -468.5 349.5 -468.5 394.5 -417.5 439.0 -367.0 439.0 -268.5 439.0 -164.0 394.5 -113.0 350.0 -62.0 283.0 -62.0 215.5 -62.0 171.0 -112.5 126.5 -163.5 126.5 -265.5 M34.0 -265.5 Q34.0 -131.0 103.0 -59.5 171.5 12.0 283.0 12.0 352.5 12.0 411.5 -20.5 470.0 -53.0 501.0 -111.5 531.5 -170.5 531.5 -273.0 531.5 -399.5 462.0 -471.0 392.5 -543.0 283.0 -543.0 184.5 -543.0 116.0 -484.0 34.0 -413.0 34.0 -265.5" fill-rule="evenodd" stroke="none"/>
    </g>
    <g id="font__sans_u0">
      <path d="M415.5 0.0 L496.0 0.0 496.0 -531.0 406.0 -531.0 406.0 -246.5 Q406.0 -178.5 391.5 -142.5 376.5 -107.0 341.0 -86.0 305.5 -65.5 265.0 -65.5 224.5 -65.5 197.0 -85.5 169.5 -106.0 161.0 -141.5 155.5 -166.0 155.5 -236.5 L155.5 -531.0 65.5 -531.0 65.5 -202.0 Q65.5 -144.5 71.0 -118.0 79.0 -78.5 99.0 -51.0 118.5 -24.0 159.5 -6.0 200.0 12.0 247.0 12.0 353.5 12.0 415.5 -78.0 L415.5 0.0" fill-rule="evenodd" stroke="none"/>
    </g>
    <g id="font__sans_t0">
      <path d="M264.0 -80.5 Q239.5 -77.0 224.5 -77.0 204.5 -77.0 194.0 -83.5 183.0 -90.0 178.5 -101.0 173.5 -112.0 173.5 -150.5 L173.5 -461.0 264.0 -461.0 264.0 -531.0 173.5 -531.0 173.5 -716.5 84.0 -662.5 84.0 -531.0 18.0 -531.0 18.0 -461.0 84.0 -461.0 84.0 -155.5 Q84.0 -74.5 95.0 -49.0 106.0 -24.0 133.0 -8.5 160.0 7.0 209.0 7.0 239.0 7.0 277.0 -1.0 L264.0 -80.5" fill-rule="evenodd" stroke="none"/>
    </g>
    <g id="font__sans_p0">
      <path d="M149.0 -262.5 Q149.0 -365.0 193.5 -418.5 237.5 -472.5 295.0 -472.5 353.0 -472.5 395.0 -422.0 436.5 -371.5 436.5 -270.0 436.5 -163.5 394.0 -112.5 351.0 -62.0 291.0 -62.0 232.0 -62.0 190.5 -111.0 149.0 -160.0 149.0 -262.5 M67.5 203.5 L157.5 203.5 157.5 -55.0 Q180.5 -26.0 216.5 -7.0 252.0 12.0 297.0 12.0 358.5 12.0 414.5 -22.5 470.0 -57.5 499.5 -122.5 528.5 -188.0 528.5 -269.5 528.5 -345.5 502.0 -409.0 475.5 -473.0 423.5 -508.0 371.5 -543.0 303.5 -543.0 251.5 -543.0 215.0 -522.5 178.5 -502.5 149.5 -462.0 L149.5 -531.0 67.5 -531.0 67.5 203.5" fill-rule="evenodd" stroke="none"/>
    </g>
  </defs>
</svg>
