<?xml version="1.0" encoding="UTF-8" standalone="no"?>
<svg xmlns:xlink="http://www.w3.org/1999/xlink" height="50.0px" width="117.0px" xmlns="http://www.w3.org/2000/svg">
  <g transform="matrix(1.0, 0.0, 0.0, 1.0, 58.5, 23.85)">
    <use data-characterId="1004" height="47.1" transform="matrix(1.0, 0.0, 0.0, 1.0, -58.5, -20.95)" width="117.0" xlink:href="#text0"/>
  </g>
  <defs/>
</svg>
