<?xml version="1.0" encoding="UTF-8" standalone="no"?>
<svg xmlns:xlink="http://www.w3.org/1999/xlink" height="4.45px" width="38.65px" xmlns="http://www.w3.org/2000/svg">
  <g transform="matrix(1.0, 0.0, 0.0, 1.0, 0.2, 0.5)">
    <use data-characterId="802" height="4.45" transform="matrix(1.0, 0.0, 0.0, 1.0, -0.2, -0.5)" width="38.65" xlink:href="#shape0"/>
  </g>
  <defs>
    <g id="shape0" transform="matrix(1.0, 0.0, 0.0, 1.0, 0.2, 0.5)">
      <path d="M3.05 0.05 L37.95 0.05 37.95 3.45 0.35 3.45 0.35 2.6 0.35 0.05 3.05 0.05" fill="#006600" fill-rule="evenodd" stroke="none"/>
      <path d="M0.35 2.6 L0.35 3.45 37.95 3.45 37.95 0.05 3.05 0.05 0.3 0.0 0.35 2.6 Z" fill="none" stroke="#003300" stroke-linecap="round" stroke-linejoin="round" stroke-width="1.0"/>
    </g>
  </defs>
</svg>
