<?xml version="1.0" encoding="UTF-8" standalone="no"?>
<svg xmlns:xlink="http://www.w3.org/1999/xlink" height="39.0px" width="39.0px" xmlns="http://www.w3.org/2000/svg">
  <g transform="matrix(1.0, 0.0, 0.0, 1.0, 19.5, 19.5)">
    <use data-characterId="798" height="13.0" transform="matrix(1.5, 0.0, 0.0, 1.5, -9.75, -9.75)" width="13.0" xlink:href="#shape0"/>
  </g>
  <defs>
    <g id="shape0" transform="matrix(1.0, 0.0, 0.0, 1.0, 6.5, 6.5)">
      <path d="M-0.4 -5.0 Q-1.45 -1.15 -5.0 0.1 -1.55 1.35 -0.4 5.0 M-0.35 -4.75 Q0.95 -1.1 5.0 -0.05 0.9 1.15 -0.35 4.75" fill="none" stroke="#999999" stroke-linecap="round" stroke-linejoin="round" stroke-width="3.0"/>
      <path d="M-0.25 -3.5 Q-1.0 -0.8 -3.5 0.1 -1.05 0.95 -0.3 3.5 M-0.2 -3.3 Q0.65 -0.8 3.5 -0.05 0.65 0.8 -0.25 3.35" fill="none" stroke="#cccccc" stroke-linecap="round" stroke-linejoin="round" stroke-width="2.0"/>
      <path d="M-0.2 2.15 Q0.4 0.5 2.25 0.0 0.4 -0.5 -0.2 -2.15 -0.7 -0.5 -2.25 0.05 -0.75 0.6 -0.2 2.15 Z" fill="none" stroke="#ffffff" stroke-linecap="round" stroke-linejoin="round" stroke-width="1.0"/>
    </g>
  </defs>
</svg>
