<?xml version="1.0" encoding="UTF-8" standalone="no"?>
<svg xmlns:xlink="http://www.w3.org/1999/xlink" height="83.75px" width="83.75px" xmlns="http://www.w3.org/2000/svg">
  <g transform="matrix(1.0, 0.0, 0.0, 1.0, 41.2, 47.55)">
    <use data-characterId="665" height="83.75" transform="matrix(1.0, 0.0, 0.0, 1.0, -41.2, -47.55)" width="83.75" xlink:href="#shape0"/>
  </g>
  <defs>
    <g id="shape0" transform="matrix(1.0, 0.0, 0.0, 1.0, 41.2, 45.55)">
      <path d="M0.7 -45.0 L1.35 -45.0 Q23.7 -44.85 33.3 -27.85 41.5 -10.0 42.05 9.75 41.95 30.0 28.4 34.75 14.75 37.05 0.7 37.7 -13.4 37.05 -27.05 34.75 -40.6 30.0 -40.7 9.75 -40.15 -10.0 -31.95 -27.85 -22.35 -44.85 0.05 -45.0 L0.7 -45.0 Z" fill="none" stroke="#00ffff" stroke-linecap="round" stroke-linejoin="round" stroke-width="1.0"/>
    </g>
  </defs>
</svg>
