<?xml version="1.0" encoding="UTF-8" standalone="no"?>
<svg xmlns:xlink="http://www.w3.org/1999/xlink" height="46.0px" width="101.0px" xmlns="http://www.w3.org/2000/svg">
  <g transform="matrix(1.0, 0.0, 0.0, 1.0, 0.5, 0.5)">
    <use data-characterId="1223" height="46.0" transform="matrix(1.0, 0.0, 0.0, 1.0, -0.5, -0.5)" width="101.0" xlink:href="#sprite0"/>
    <use data-characterId="1224" height="28.3" transform="matrix(0.9988, 0.0, 0.0, 1.0, 2.0024, 3.0)" width="46.85" xlink:href="#text0"/>
    <use data-characterId="1225" height="18.55" id="drainrate" transform="matrix(1.0, 0.0, 0.0, 1.0, 1.15, 21.5)" width="72.9" xlink:href="#text1"/>
    <use data-characterId="1228" height="16.0" id="full" transform="matrix(1.0, 0.0, 0.0, 1.0, 71.35, 2.5)" width="26.25" xlink:href="#sprite1"/>
    <use data-characterId="1232" height="16.0" id="off" transform="matrix(0.9975, 0.0, 0.0, 1.0, 76.6509, 24.5)" width="21.0" xlink:href="#sprite2"/>
    <use data-characterId="1234" height="16.5" id="half" transform="matrix(0.9975, 0.0, 0.0, 1.0, 44.9509, 2.0)" width="21.0" xlink:href="#sprite3"/>
  </g>
  <defs>
    <g id="sprite0" transform="matrix(1.0, 0.0, 0.0, 1.0, 0.5, 0.5)">
      <use data-characterId="1222" height="46.0" transform="matrix(1.0, 0.0, 0.0, 1.0, -0.5, -0.5)" width="101.0" xlink:href="#shape0"/>
    </g>
    <g id="shape0" transform="matrix(1.0, 0.0, 0.0, 1.0, 0.5, 0.5)">
      <path d="M100.0 45.0 L0.0 45.0 0.0 0.0 100.0 0.0 100.0 45.0" fill="#000000" fill-rule="evenodd" stroke="none"/>
      <path d="M100.0 45.0 L0.0 45.0 0.0 0.0 100.0 0.0 100.0 45.0 Z" fill="none" stroke="#cccccc" stroke-linecap="round" stroke-linejoin="round" stroke-width="1.0"/>
    </g>
    <g id="text0" transform="matrix(1.0, 0.0, 0.0, 1.0, 2.0, 2.0)">
      <g transform="matrix(1.0, 0.0, 0.0, 1.0, -2.0, -2.0)">
        <use fill="#00ff00" height="28.3" transform="matrix(0.0098, 0.0, 0.0, 0.0098, 0.0, 11.05)" width="46.85" xlink:href="#font__sans_S0"/>
        <use fill="#00ff00" height="28.3" transform="matrix(0.0098, 0.0, 0.0, 0.0098, 6.65, 11.05)" width="46.85" xlink:href="#font__sans_h0"/>
        <use fill="#00ff00" height="28.3" transform="matrix(0.0098, 0.0, 0.0, 0.0098, 12.2, 11.05)" width="46.85" xlink:href="#font__sans_i0"/>
        <use fill="#00ff00" height="28.3" transform="matrix(0.0098, 0.0, 0.0, 0.0098, 14.4, 11.05)" width="46.85" xlink:href="#font__sans_e0"/>
        <use fill="#00ff00" height="28.3" transform="matrix(0.0098, 0.0, 0.0, 0.0098, 19.95, 11.05)" width="46.85" xlink:href="#font__sans_l0"/>
        <use fill="#00ff00" height="28.3" transform="matrix(0.0098, 0.0, 0.0, 0.0098, 22.15, 11.05)" width="46.85" xlink:href="#font__sans_d0"/>
        <use fill="#00ff00" height="28.3" transform="matrix(0.0098, 0.0, 0.0, 0.0098, 27.7, 11.05)" width="46.85" xlink:href="#font__sans_s0"/>
      </g>
    </g>
    <g id="font__sans_S0">
      <path d="M46.0 -235.5 Q48.0 -162.0 86.5 -103.5 124.5 -45.5 192.0 -16.5 259.0 12.5 358.5 12.5 437.0 12.5 500.0 -16.0 562.5 -45.0 596.0 -96.5 629.5 -148.5 629.5 -207.0 629.5 -266.0 599.0 -311.0 568.5 -356.5 504.5 -386.0 460.5 -406.0 342.5 -432.5 224.0 -459.5 196.0 -485.0 167.5 -510.5 167.5 -550.0 167.5 -595.5 208.0 -627.5 248.0 -660.0 336.0 -660.0 420.5 -660.0 464.0 -624.5 507.0 -589.0 514.5 -519.5 L607.5 -526.5 Q605.0 -591.0 571.5 -642.0 538.0 -693.0 476.0 -719.0 413.5 -745.5 332.0 -745.5 258.0 -745.5 197.5 -720.5 137.0 -695.5 105.5 -647.0 74.0 -599.0 74.0 -543.5 74.0 -493.0 100.0 -452.0 125.5 -411.5 178.0 -384.0 218.5 -362.5 319.5 -338.0 420.5 -314.0 450.0 -302.5 496.0 -285.0 516.0 -259.0 536.0 -233.5 536.0 -199.0 536.0 -165.0 515.5 -136.0 494.5 -107.5 452.0 -91.0 409.5 -74.5 354.0 -74.5 291.5 -74.5 241.5 -96.0 191.5 -118.0 168.0 -153.0 144.0 -188.5 137.5 -243.5 L46.0 -235.5" fill-rule="evenodd" stroke="none"/>
    </g>
    <g id="font__sans_h0">
      <path d="M67.5 0.0 L157.5 0.0 157.5 -290.5 Q157.5 -353.0 172.5 -388.5 187.5 -424.0 223.0 -444.5 258.0 -465.5 298.0 -465.5 351.5 -465.5 381.0 -434.5 410.0 -404.0 410.0 -336.5 L410.0 0.0 500.0 0.0 500.0 -336.5 Q500.0 -414.5 481.5 -455.5 462.5 -496.5 419.0 -519.5 375.5 -543.0 316.5 -543.0 220.5 -543.0 157.5 -470.0 L157.5 -733.0 67.5 -733.0 67.5 0.0" fill-rule="evenodd" stroke="none"/>
    </g>
    <g id="font__sans_i0">
      <path d="M68.0 0.0 L158.0 0.0 158.0 -531.0 68.0 -531.0 68.0 0.0 M68.0 -629.5 L158.0 -629.5 158.0 -733.0 68.0 -733.0 68.0 -629.5" fill-rule="evenodd" stroke="none"/>
    </g>
    <g id="font__sans_e0">
      <path d="M135.5 -316.5 Q140.0 -386.0 182.5 -427.5 224.5 -469.0 286.5 -469.0 355.0 -469.0 398.0 -417.0 426.0 -383.5 432.0 -316.5 L135.5 -316.5 M431.0 -171.0 Q410.5 -114.0 375.5 -88.0 340.5 -62.0 291.0 -62.0 224.5 -62.0 180.0 -108.5 135.5 -155.0 130.5 -242.5 L526.5 -242.5 527.0 -266.5 Q527.0 -398.0 459.5 -470.5 392.0 -543.0 285.5 -543.0 175.5 -543.0 106.5 -469.0 37.5 -395.0 37.5 -261.0 37.5 -131.5 106.0 -59.5 174.0 12.0 290.5 12.0 383.0 12.0 442.5 -33.0 502.0 -78.0 524.0 -159.5 L431.0 -171.0" fill-rule="evenodd" stroke="none"/>
    </g>
    <g id="font__sans_l0">
      <path d="M65.5 0.0 L155.5 0.0 155.5 -733.0 65.5 -733.0 65.5 0.0" fill-rule="evenodd" stroke="none"/>
    </g>
    <g id="font__sans_d0">
      <path d="M127.5 -265.0 Q127.5 -370.5 168.0 -419.5 208.0 -468.5 268.0 -468.5 329.5 -468.5 371.5 -417.5 413.5 -366.5 413.5 -257.5 413.5 -158.5 372.5 -110.0 331.0 -62.0 272.0 -62.0 213.5 -62.0 170.5 -112.5 127.5 -163.0 127.5 -265.0 M412.0 0.0 L495.5 0.0 495.5 -733.0 406.0 -733.0 406.0 -470.0 Q382.5 -502.5 345.0 -522.5 307.5 -543.0 259.5 -543.0 194.0 -543.0 141.0 -508.5 88.0 -474.0 61.5 -409.0 35.0 -344.5 35.0 -265.0 35.0 -183.5 64.5 -120.5 93.5 -58.0 147.0 -23.0 200.0 12.0 263.5 12.0 361.5 12.0 412.0 -67.0 L412.0 0.0" fill-rule="evenodd" stroke="none"/>
    </g>
    <g id="font__sans_s0">
      <path d="M31.5 -158.5 Q46.5 -74.0 101.0 -31.0 155.0 12.0 258.5 12.0 321.0 12.0 370.5 -9.5 420.0 -31.5 446.5 -71.0 472.5 -111.0 472.5 -156.0 472.5 -202.0 451.0 -233.0 429.5 -264.0 392.0 -280.0 354.0 -296.5 258.5 -322.0 192.5 -340.0 179.0 -345.0 155.5 -354.5 144.5 -369.0 133.5 -383.0 133.5 -400.5 133.5 -428.0 160.0 -448.5 186.5 -469.0 248.5 -469.0 301.0 -469.0 330.0 -446.0 358.5 -423.0 364.5 -382.0 L452.5 -394.0 Q444.0 -445.5 421.5 -476.0 399.0 -507.0 352.0 -525.0 304.5 -543.0 242.0 -543.0 200.5 -543.0 164.5 -532.0 128.0 -521.5 107.0 -506.0 79.0 -486.0 63.0 -455.5 46.5 -425.5 46.5 -390.0 46.5 -351.0 66.5 -318.5 86.0 -286.5 124.5 -268.0 162.5 -250.0 261.5 -225.0 335.0 -206.5 353.5 -194.5 380.0 -177.0 380.0 -146.5 380.0 -112.5 350.0 -87.0 320.0 -62.0 258.0 -62.0 196.5 -62.0 162.5 -90.5 128.0 -119.0 120.5 -172.5 L31.5 -158.5" fill-rule="evenodd" stroke="none"/>
    </g>
    <g id="text1" transform="matrix(1.0, 0.0, 0.0, 1.0, 2.0, 2.0)">
      <g transform="matrix(1.0, 0.0, 0.0, 1.0, -2.0, -2.0)">
        <use fill="#00ff00" height="18.55" transform="matrix(0.0098, 0.0, 0.0, 0.0098, 0.0, 11.05)" width="72.9" xlink:href="#font__sans_r0"/>
        <use fill="#00ff00" height="18.55" transform="matrix(0.0098, 0.0, 0.0, 0.0098, 3.35, 11.05)" width="72.9" xlink:href="#font__sans_a0"/>
        <use fill="#00ff00" height="18.55" transform="matrix(0.0098, 0.0, 0.0, 0.0098, 8.9, 11.05)" width="72.9" xlink:href="#font__sans_i0"/>
        <use fill="#00ff00" height="18.55" transform="matrix(0.0098, 0.0, 0.0, 0.0098, 11.1, 11.05)" width="72.9" xlink:href="#font__sans_n0"/>
      </g>
    </g>
    <g id="font__sans_r0">
      <path d="M66.5 0.0 L156.5 0.0 156.5 -278.0 Q156.5 -335.0 171.5 -383.0 181.5 -414.5 205.0 -432.0 228.5 -450.0 258.0 -450.0 291.0 -450.0 324.0 -430.5 L355.0 -514.0 Q308.0 -543.0 262.5 -543.0 231.0 -543.0 205.0 -525.0 178.5 -507.0 147.5 -450.5 L147.5 -531.0 66.5 -531.0 66.5 0.0" fill-rule="evenodd" stroke="none"/>
    </g>
    <g id="font__sans_a0">
      <path d="M406.5 -266.5 L406.5 -233.5 Q406.5 -174.0 392.0 -143.5 373.0 -104.0 332.5 -81.0 292.0 -58.5 240.0 -58.5 187.5 -58.5 160.5 -82.5 133.0 -106.5 133.0 -142.5 133.0 -166.0 145.5 -185.0 158.0 -204.5 181.0 -214.5 204.0 -224.5 259.5 -232.5 357.5 -246.5 406.5 -266.5 M414.0 -65.5 Q418.0 -28.0 432.0 0.0 L526.0 0.0 Q509.0 -30.5 503.5 -63.5 497.5 -97.0 497.5 -222.5 L497.5 -342.5 Q497.5 -402.5 493.0 -425.5 485.0 -462.5 465.0 -486.5 445.0 -511.0 402.5 -527.0 360.0 -543.0 292.0 -543.0 223.5 -543.0 171.5 -524.0 119.5 -505.5 92.0 -470.5 64.5 -436.0 52.5 -379.5 L140.5 -367.5 Q155.0 -424.0 185.5 -446.0 215.5 -468.5 279.0 -468.5 347.0 -468.5 381.5 -438.0 407.0 -415.5 407.0 -360.5 L406.5 -337.0 Q355.0 -319.0 246.0 -306.0 192.5 -299.5 166.0 -292.5 130.0 -282.5 101.5 -263.0 72.5 -243.5 55.0 -211.0 37.0 -179.0 37.0 -140.0 37.0 -73.5 84.0 -30.5 131.0 12.0 218.5 12.0 271.5 12.0 318.0 -5.5 364.0 -23.0 414.0 -65.5" fill-rule="evenodd" stroke="none"/>
    </g>
    <g id="font__sans_n0">
      <path d="M67.5 0.0 L157.5 0.0 157.5 -290.0 Q157.5 -392.0 199.5 -428.5 241.0 -465.0 298.5 -465.0 334.5 -465.0 361.5 -448.5 388.0 -432.5 398.5 -405.0 409.0 -378.0 409.0 -323.0 L409.0 0.0 499.0 0.0 499.0 -326.5 Q499.0 -389.0 494.0 -414.0 486.0 -452.5 466.0 -480.5 446.0 -508.5 406.0 -525.5 365.5 -543.0 317.5 -543.0 207.0 -543.0 148.5 -455.5 L148.5 -531.0 67.5 -531.0 67.5 0.0" fill-rule="evenodd" stroke="none"/>
    </g>
    <g id="sprite1" transform="matrix(1.0, 0.0, 0.0, 1.0, 0.6, 0.5)">
      <use data-characterId="1196" height="16.0" transform="matrix(1.0, 0.0, 0.0, 1.0, -0.45, -0.5)" width="26.0" xlink:href="#shape1"/>
      <use data-characterId="1226" height="13.15" transform="matrix(1.0503, 0.0, 0.0, 1.0303, -0.6006, 0.1894)" width="24.8" xlink:href="#text2"/>
    </g>
    <g id="shape1" transform="matrix(1.0, 0.0, 0.0, 1.0, 0.45, 0.5)">
      <path d="M25.05 0.0 L25.05 15.0 0.05 15.0 0.05 0.0 25.05 0.0" fill="#ffff33" fill-rule="evenodd" stroke="none"/>
      <path d="M25.05 0.0 L25.05 15.0 0.05 15.0 0.05 0.0 25.05 0.0 Z" fill="none" stroke="#cccccc" stroke-linecap="round" stroke-linejoin="round" stroke-width="1.0"/>
    </g>
    <g id="text2" transform="matrix(1.0, 0.0, 0.0, 1.0, 2.0, 2.0)">
      <g transform="matrix(1.0, 0.0, 0.0, 1.0, -2.0, -2.0)">
        <use fill="#000000" height="13.15" transform="matrix(0.0078, 0.0, 0.0, 0.0078, 2.6, 8.15)" width="24.8" xlink:href="#font_Arial_F0"/>
        <use fill="#000000" height="13.15" transform="matrix(0.0078, 0.0, 0.0, 0.0078, 7.5, 8.15)" width="24.8" xlink:href="#font_Arial_U0"/>
        <use fill="#000000" height="13.15" transform="matrix(0.0078, 0.0, 0.0, 0.0078, 13.3, 8.15)" width="24.8" xlink:href="#font_Arial_L0"/>
        <use fill="#000000" height="13.15" transform="matrix(0.0078, 0.0, 0.0, 0.0078, 17.75, 8.15)" width="24.8" xlink:href="#font_Arial_L0"/>
      </g>
    </g>
    <g id="font_Arial_F0">
      <path d="M84.0 0.0 L181.0 0.0 181.0 -333.0 525.0 -333.0 525.0 -419.5 181.0 -419.5 181.0 -646.5 578.5 -646.5 578.5 -733.0 84.0 -733.0 84.0 0.0" fill-rule="evenodd" stroke="none"/>
    </g>
    <g id="font_Arial_U0">
      <path d="M560.0 -733.0 L560.0 -310.0 Q560.0 -172.0 514.5 -123.5 469.0 -75.0 362.0 -75.0 299.5 -75.0 256.5 -99.5 213.0 -124.0 195.5 -169.0 177.5 -214.5 177.5 -310.0 L177.5 -733.0 80.5 -733.0 80.5 -309.5 Q80.5 -193.0 108.5 -125.5 136.5 -58.5 202.0 -23.0 267.5 12.5 370.5 12.5 476.5 12.5 542.0 -28.0 607.0 -69.0 632.0 -134.0 657.0 -199.0 657.0 -309.5 L657.0 -733.0 560.0 -733.0" fill-rule="evenodd" stroke="none"/>
    </g>
    <g id="font_Arial_L0">
      <path d="M75.0 0.0 L533.0 0.0 533.0 -86.5 172.0 -86.5 172.0 -733.0 75.0 -733.0 75.0 0.0" fill-rule="evenodd" stroke="none"/>
    </g>
    <g id="sprite2" transform="matrix(1.0, 0.0, 0.0, 1.0, 0.35, 0.5)">
      <use data-characterId="1229" height="16.0" transform="matrix(1.0, 0.0, 0.0, 1.0, -0.35, -0.5)" width="21.0" xlink:href="#shape2"/>
      <use data-characterId="1230" height="13.15" transform="matrix(1.0, 0.0, 0.0, 1.0, 0.0, 0.5)" width="20.05" xlink:href="#text3"/>
    </g>
    <g id="shape2" transform="matrix(1.0, 0.0, 0.0, 1.0, 0.35, 0.5)">
      <path d="M20.15 0.0 L20.15 15.0 0.15 15.0 0.15 0.0 20.15 0.0" fill="#ffff33" fill-rule="evenodd" stroke="none"/>
      <path d="M20.15 0.0 L20.15 15.0 0.15 15.0 0.15 0.0 20.15 0.0 Z" fill="none" stroke="#cccccc" stroke-linecap="round" stroke-linejoin="round" stroke-width="1.0"/>
    </g>
    <g id="text3" transform="matrix(1.0, 0.0, 0.0, 1.0, 2.0, 2.0)">
      <g transform="matrix(1.0, 0.0, 0.0, 1.0, -2.0, -2.0)">
        <use fill="#000000" height="13.15" transform="matrix(0.0078, 0.0, 0.0, 0.0078, 0.0, 8.15)" width="20.05" xlink:href="#font_Arial_O0"/>
        <use fill="#000000" height="13.15" transform="matrix(0.0078, 0.0, 0.0, 0.0078, 6.2, 8.15)" width="20.05" xlink:href="#font_Arial_F0"/>
        <use fill="#000000" height="13.15" transform="matrix(0.0078, 0.0, 0.0, 0.0078, 11.1, 8.15)" width="20.05" xlink:href="#font_Arial_F0"/>
      </g>
    </g>
    <g id="font_Arial_O0">
      <path d="M149.5 -355.5 Q149.5 -521.0 224.0 -591.5 298.0 -662.5 401.0 -662.5 473.5 -662.5 532.0 -625.5 590.0 -589.0 620.5 -522.0 650.5 -455.5 650.5 -366.0 650.5 -224.5 580.0 -147.5 509.0 -70.5 399.5 -70.5 292.0 -70.5 221.0 -146.5 149.5 -223.0 149.5 -355.5 M49.5 -357.0 Q49.5 -260.5 91.5 -174.0 133.5 -87.5 215.0 -37.5 296.5 12.5 400.0 12.5 495.5 12.5 578.0 -32.5 660.5 -78.0 705.5 -166.0 750.5 -254.0 750.5 -365.5 750.5 -475.5 708.0 -562.0 665.0 -649.0 583.5 -697.5 502.0 -746.0 400.5 -746.0 245.5 -746.0 147.5 -642.5 49.5 -539.5 49.5 -357.0" fill-rule="evenodd" stroke="none"/>
    </g>
    <g id="sprite3" transform="matrix(1.0, 0.0, 0.0, 1.0, 0.35, 1.0)">
      <use data-characterId="1229" height="16.0" transform="matrix(1.0, 0.0, 0.0, 1.0, -0.35, -0.5)" width="21.0" xlink:href="#shape2"/>
      <use data-characterId="1233" height="14.0" transform="matrix(1.0, 0.0, 0.0, 1.0, 0.0, -1.0)" width="19.4" xlink:href="#text4"/>
    </g>
    <g id="text4" transform="matrix(1.0, 0.0, 0.0, 1.0, 2.0, 2.0)">
      <g transform="matrix(1.0, 0.0, 0.0, 1.0, -2.0, -2.0)">
        <use fill="#000000" height="14.0" transform="matrix(0.0078, 0.0, 0.0, 0.0078, 9.7, 9.0)" width="19.4" xlink:href="#font_Trebuchet_MS_10"/>
        <use fill="#000000" height="14.0" transform="matrix(0.0078, 0.0, 0.0, 0.0078, 9.7, 9.0)" width="19.4" xlink:href="#font_Trebuchet_MS__0"/>
        <use fill="#000000" height="14.0" transform="matrix(0.0078, 0.0, 0.0, 0.0078, 9.7, 9.0)" width="19.4" xlink:href="#font_Trebuchet_MS_20"/>
      </g>
    </g>
    <g id="font_Trebuchet_MS_10">
      <path d="M249.0 0.0 L349.0 0.0 349.0 -735.5 319.0 -735.5 Q284.0 -690.5 220.5 -640.5 156.5 -590.5 100.0 -562.0 L100.0 -468.5 249.0 -561.5 249.0 0.0" fill-rule="evenodd" stroke="none"/>
    </g>
    <g id="font_Trebuchet_MS__0">
      <path d="M175.0 0.0 Q307.5 -367.5 439.5 -735.5 L360.0 -735.5 Q227.5 -367.5 94.5 0.0 L175.0 0.0" fill-rule="evenodd" stroke="none"/>
    </g>
    <g id="font_Trebuchet_MS_20">
      <path d="M34.5 0.0 L484.5 0.0 484.5 -90.0 197.5 -90.0 362.0 -351.0 Q441.0 -476.5 441.0 -559.0 441.0 -648.0 381.5 -696.5 322.0 -745.5 216.5 -745.5 146.0 -745.5 96.5 -716.5 46.5 -687.5 29.5 -638.5 L94.0 -585.5 Q110.0 -618.0 145.5 -639.0 181.0 -660.5 221.5 -660.5 336.0 -660.5 336.0 -559.0 336.0 -482.0 264.0 -371.5 149.5 -195.5 34.5 -20.0 L34.5 0.0" fill-rule="evenodd" stroke="none"/>
    </g>
  </defs>
</svg>
