<?xml version="1.0" encoding="UTF-8" standalone="no"?>
<svg xmlns:xlink="http://www.w3.org/1999/xlink" height="174.55px" width="198.35px" xmlns="http://www.w3.org/2000/svg">
  <g transform="matrix(1.0, 0.0, 0.0, 1.0, 36.0, 37.55)">
    <use data-characterId="1050" height="174.55" transform="matrix(1.0, 0.0, 0.0, 1.0, -36.0, -37.55)" width="188.1" xlink:href="#shape0"/>
    <use data-characterId="708" height="21.7" transform="matrix(1.0, 0.0, 0.0, 1.0, 29.2, 37.25)" width="47.3" xlink:href="#text0"/>
    <use data-characterId="1051" height="26.8" id="costdisp" transform="matrix(1.0, 0.0, 0.0, 1.0, 8.75, 79.25)" width="95.3" xlink:href="#text1"/>
    <use data-characterId="1052" height="32.8" id="quantity" transform="matrix(1.0, 0.0, 0.0, 1.0, 18.0, 55.0)" width="76.6" xlink:href="#text2"/>
    <use data-characterId="1053" height="26.8" id="banknumberdisp" transform="matrix(1.0, 0.0, 0.0, 1.0, -35.25, -31.5)" width="197.6" xlink:href="#text3"/>
    <use data-characterId="1054" height="26.8" id="missilecostdisp" transform="matrix(1.0, 0.0, 0.0, 1.0, -19.0, -6.5)" width="160.45" xlink:href="#text4"/>
    <use data-characterId="1055" height="30.95" id="yesbutton" transform="matrix(1.0, 0.0, 0.0, 1.0, -25.5, 101.5)" width="37.0" xlink:href="#button0"/>
    <use data-characterId="1056" height="30.95" id="nobutton" transform="matrix(1.0, 0.0, 0.0, 1.0, 94.5, 102.5)" width="37.0" xlink:href="#button1"/>
    <use data-characterId="1057" height="26.8" id="maxpurchase" transform="matrix(1.0, 0.0, 0.0, 1.0, -3.75, 15.5)" width="125.8" xlink:href="#text7"/>
  </g>
  <defs>
    <g id="shape0" transform="matrix(1.0, 0.0, 0.0, 1.0, 36.0, 37.55)">
      <path d="M36.5 54.5 L67.5 54.5 67.5 73.05 36.5 73.05 36.5 54.5" fill="#000000" fill-rule="evenodd" stroke="none"/>
      <path d="M36.5 54.5 L36.5 73.05 67.5 73.05 67.5 54.5 36.5 54.5 M151.1 -36.55 L151.1 136.0 -35.0 136.0 -35.0 -36.55 151.1 -36.55" fill="#000000" fill-opacity="0.8" fill-rule="evenodd" stroke="none"/>
      <path d="M151.1 -36.55 L-35.0 -36.55 -35.0 136.0 151.1 136.0 151.1 -36.55" fill="none" stroke="#cccccc" stroke-linecap="butt" stroke-linejoin="miter-clip" stroke-miterlimit="3.0" stroke-width="2.0"/>
      <path d="M36.5 54.5 L67.5 54.5 67.5 73.05 36.5 73.05 36.5 54.5 Z" fill="none" stroke="#cccccc" stroke-linecap="butt" stroke-linejoin="miter-clip" stroke-miterlimit="3.0" stroke-width="1.0"/>
    </g>
    <g id="text0" transform="matrix(1.0, 0.0, 0.0, 1.0, -12.45, 2.05)">
      <g transform="matrix(1.0, 0.0, 0.0, 1.0, 12.0, -2.0)">
        <use fill="#ffff00" height="21.7" transform="matrix(0.0098, 0.0, 0.0, 0.0098, 0.0, 9.0)" width="47.3" xlink:href="#font_Arial_Q0"/>
        <use fill="#ffff00" height="21.7" transform="matrix(0.0098, 0.0, 0.0, 0.0098, 7.8, 9.0)" width="47.3" xlink:href="#font_Arial_u0"/>
        <use fill="#ffff00" height="21.7" transform="matrix(0.0098, 0.0, 0.0, 0.0098, 13.9, 9.0)" width="47.3" xlink:href="#font_Arial_a0"/>
        <use fill="#ffff00" height="21.7" transform="matrix(0.0098, 0.0, 0.0, 0.0098, 19.45, 9.0)" width="47.3" xlink:href="#font_Arial_n0"/>
        <use fill="#ffff00" height="21.7" transform="matrix(0.0098, 0.0, 0.0, 0.0098, 25.55, 9.0)" width="47.3" xlink:href="#font_Arial_t0"/>
        <use fill="#ffff00" height="21.7" transform="matrix(0.0098, 0.0, 0.0, 0.0098, 28.9, 9.0)" width="47.3" xlink:href="#font_Arial_i0"/>
        <use fill="#ffff00" height="21.7" transform="matrix(0.0098, 0.0, 0.0, 0.0098, 31.7, 9.0)" width="47.3" xlink:href="#font_Arial_t0"/>
        <use fill="#ffff00" height="21.7" transform="matrix(0.0098, 0.0, 0.0, 0.0098, 35.05, 9.0)" width="47.3" xlink:href="#font_Arial_y0"/>
      </g>
    </g>
    <g id="font_Arial_Q0">
      <path d="M545.5 -176.5 Q479.0 -226.5 406.0 -251.5 L364.5 -167.0 Q411.0 -150.5 456.0 -121.0 427.5 -110.5 395.5 -110.5 309.5 -110.5 253.5 -174.0 197.0 -238.0 197.0 -366.5 197.0 -493.0 253.5 -556.0 309.5 -619.0 400.0 -619.0 490.5 -619.0 546.5 -556.0 602.5 -493.5 602.5 -366.5 602.5 -305.0 588.5 -257.5 574.0 -210.0 545.5 -176.5 M664.5 -93.0 Q708.5 -144.5 728.5 -199.5 755.0 -271.5 755.0 -366.5 755.0 -546.0 659.5 -645.5 564.0 -745.5 401.0 -745.5 236.5 -745.5 140.5 -645.5 44.5 -546.0 44.5 -366.5 44.5 -186.5 140.5 -87.0 236.0 12.5 405.0 12.5 492.5 12.5 564.5 -19.0 656.0 42.5 663.0 46.0 695.0 63.5 728.5 73.5 L783.0 -31.0 Q719.0 -54.0 664.5 -93.0" fill-rule="evenodd" stroke="none"/>
    </g>
    <g id="font_Arial_u0">
      <path d="M423.0 0.0 L553.5 0.0 553.5 -531.0 413.0 -531.0 413.0 -307.0 Q413.0 -193.0 402.5 -163.5 392.0 -134.5 363.5 -114.5 335.0 -95.0 299.0 -95.0 267.5 -95.0 247.0 -109.5 226.5 -124.5 219.0 -149.5 211.0 -175.0 211.0 -287.0 L211.0 -531.0 70.5 -531.0 70.5 -195.0 Q70.5 -120.0 89.5 -77.5 108.5 -35.0 151.0 -11.5 193.5 12.0 247.0 12.0 299.5 12.0 347.0 -12.5 394.0 -37.0 423.0 -79.5 L423.0 0.0" fill-rule="evenodd" stroke="none"/>
    </g>
    <g id="font_Arial_a0">
      <path d="M366.5 -255.0 L366.5 -227.0 Q366.5 -176.5 361.0 -158.5 353.0 -131.0 327.5 -112.0 293.0 -87.0 255.0 -87.0 221.0 -87.0 199.0 -108.5 177.0 -130.0 177.0 -159.5 177.0 -189.5 204.5 -209.0 222.5 -221.0 281.0 -233.5 339.5 -246.0 366.5 -255.0 M178.5 -369.0 Q191.5 -406.0 212.5 -420.5 233.5 -435.5 271.0 -435.5 326.5 -435.5 346.5 -418.0 366.5 -401.0 366.5 -360.5 L366.5 -346.5 Q328.5 -330.5 230.0 -312.0 157.0 -298.0 118.5 -279.0 79.5 -260.5 58.0 -225.0 36.5 -190.0 36.5 -145.0 36.5 -77.0 84.0 -32.5 131.0 12.0 213.0 12.0 259.5 12.0 300.5 -5.5 341.5 -23.0 377.5 -58.0 379.0 -54.0 382.5 -41.5 390.5 -14.0 396.0 0.0 L535.0 0.0 Q516.5 -38.0 510.0 -71.0 503.0 -104.5 503.0 -174.5 L504.5 -338.5 Q504.5 -430.0 486.0 -464.0 467.0 -498.5 421.0 -520.5 375.0 -543.0 281.0 -543.0 177.5 -543.0 125.0 -506.0 72.5 -469.0 51.0 -392.0 L178.5 -369.0" fill-rule="evenodd" stroke="none"/>
    </g>
    <g id="font_Arial_n0">
      <path d="M556.5 0.0 L556.5 -330.0 Q556.5 -391.5 549.0 -424.5 541.0 -457.5 521.5 -483.5 501.5 -509.5 463.0 -526.0 424.5 -543.0 378.0 -543.0 272.5 -543.0 203.0 -453.0 L203.0 -531.0 72.5 -531.0 72.5 0.0 213.0 0.0 213.0 -240.5 Q213.0 -329.5 224.0 -362.5 234.5 -395.5 263.5 -415.5 292.5 -435.5 329.0 -435.5 357.5 -435.5 378.0 -421.5 398.0 -407.5 407.0 -382.0 416.0 -357.0 416.0 -271.0 L416.0 0.0 556.5 0.0" fill-rule="evenodd" stroke="none"/>
    </g>
    <g id="font_Arial_t0">
      <path d="M317.0 -531.0 L221.0 -531.0 221.0 -718.5 80.0 -636.5 80.0 -531.0 15.5 -531.0 15.5 -419.0 80.0 -419.0 80.0 -187.5 Q80.0 -113.0 84.5 -88.5 90.0 -54.0 104.5 -33.5 118.5 -13.5 149.0 -0.5 179.5 12.0 217.5 12.0 279.5 12.0 328.5 -9.0 L316.5 -118.0 Q279.5 -104.5 260.0 -104.5 246.0 -104.5 236.5 -111.5 226.5 -118.5 224.0 -129.0 221.0 -140.0 221.0 -205.0 L221.0 -419.0 317.0 -419.0 317.0 -531.0" fill-rule="evenodd" stroke="none"/>
    </g>
    <g id="font_Arial_i0">
      <path d="M73.5 0.0 L214.0 0.0 214.0 -531.0 73.5 -531.0 73.5 0.0 M73.5 -603.0 L214.0 -603.0 214.0 -733.0 73.5 -733.0 73.5 -603.0" fill-rule="evenodd" stroke="none"/>
    </g>
    <g id="font_Arial_y0">
      <path d="M7.0 -531.0 L209.0 1.5 Q196.5 46.0 173.0 75.0 149.5 103.5 100.5 103.5 74.0 103.5 41.0 97.0 L53.5 207.0 Q92.5 215.5 133.0 215.5 173.0 215.5 205.0 207.0 236.5 198.5 258.5 183.5 280.0 168.0 297.0 143.5 313.5 119.0 332.0 72.5 L365.5 -20.0 553.0 -531.0 407.5 -531.0 283.5 -154.0 156.5 -531.0 7.0 -531.0" fill-rule="evenodd" stroke="none"/>
    </g>
    <g id="text1" transform="matrix(1.0, 0.0, 0.0, 1.0, 4.0, 2.0)">
      <g transform="matrix(1.0, 0.0, 0.0, 1.0, -4.0, -2.0)">
        <use fill="#00ffff" height="26.8" transform="matrix(0.0098, 0.0, 0.0, 0.0098, 27.1, 9.05)" width="95.3" xlink:href="#font_Arial_c0"/>
        <use fill="#00ffff" height="26.8" transform="matrix(0.0098, 0.0, 0.0, 0.0098, 32.65, 9.05)" width="95.3" xlink:href="#font_Arial_o0"/>
        <use fill="#00ffff" height="26.8" transform="matrix(0.0098, 0.0, 0.0, 0.0098, 38.75, 9.05)" width="95.3" xlink:href="#font_Arial_s0"/>
        <use fill="#00ffff" height="26.8" transform="matrix(0.0098, 0.0, 0.0, 0.0098, 44.3, 9.05)" width="95.3" xlink:href="#font_Arial_t0"/>
        <use fill="#00ffff" height="26.8" transform="matrix(0.0098, 0.0, 0.0, 0.0098, 47.65, 9.05)" width="95.3" xlink:href="#font_Arial_d0"/>
        <use fill="#00ffff" height="26.8" transform="matrix(0.0098, 0.0, 0.0, 0.0098, 53.75, 9.05)" width="95.3" xlink:href="#font_Arial_i0"/>
        <use fill="#00ffff" height="26.8" transform="matrix(0.0098, 0.0, 0.0, 0.0098, 56.55, 9.05)" width="95.3" xlink:href="#font_Arial_s0"/>
        <use fill="#00ffff" height="26.8" transform="matrix(0.0098, 0.0, 0.0, 0.0098, 62.1, 9.05)" width="95.3" xlink:href="#font_Arial_p0"/>
      </g>
    </g>
    <g id="font_Arial_c0">
      <path d="M536.5 -374.0 Q511.5 -459.5 454.5 -501.0 397.0 -543.0 300.0 -543.0 181.5 -543.0 112.0 -469.5 42.5 -396.5 42.5 -265.0 42.5 -135.0 112.0 -61.5 181.0 12.0 297.5 12.0 400.0 12.0 461.0 -36.5 522.0 -85.0 543.5 -180.0 L405.5 -203.5 Q395.0 -148.0 369.5 -125.0 344.0 -102.5 304.0 -102.5 250.5 -102.5 219.0 -141.5 187.0 -180.5 187.0 -275.0 187.0 -360.0 218.5 -396.0 249.5 -432.5 302.0 -432.5 341.5 -432.5 366.5 -411.5 391.0 -390.5 398.0 -349.0 L536.5 -374.0" fill-rule="evenodd" stroke="none"/>
    </g>
    <g id="font_Arial_o0">
      <path d="M185.0 -265.5 Q185.0 -344.5 222.5 -386.5 260.0 -428.5 315.0 -428.5 370.0 -428.5 407.5 -386.5 444.5 -344.5 444.5 -266.5 444.5 -186.5 407.5 -144.5 370.0 -102.5 315.0 -102.5 260.0 -102.5 222.5 -144.5 185.0 -186.5 185.0 -265.5 M41.0 -273.0 Q41.0 -181.5 75.5 -117.5 110.0 -54.0 176.5 -21.0 242.5 12.0 315.5 12.0 433.5 12.0 511.5 -67.0 589.0 -146.5 589.0 -267.0 589.0 -386.5 512.0 -464.5 435.0 -543.0 314.5 -543.0 236.5 -543.0 173.5 -508.5 110.0 -474.0 75.5 -408.5 41.0 -343.0 41.0 -273.0" fill-rule="evenodd" stroke="none"/>
    </g>
    <g id="font_Arial_s0">
      <path d="M24.0 -151.5 Q43.5 -76.0 107.0 -32.0 170.0 12.0 278.5 12.0 398.0 12.0 459.0 -40.5 520.0 -93.0 520.0 -166.0 520.0 -233.0 476.0 -270.5 431.5 -307.5 319.5 -333.0 207.0 -358.5 188.0 -372.5 174.0 -383.0 174.0 -398.0 174.0 -415.5 190.0 -426.5 214.0 -442.0 269.5 -442.0 313.5 -442.0 337.5 -425.5 361.0 -409.0 369.5 -378.0 L502.0 -402.5 Q482.0 -472.0 429.0 -507.5 376.0 -543.0 267.0 -543.0 152.5 -543.0 98.0 -496.0 43.5 -449.0 43.5 -380.0 43.5 -303.5 106.5 -260.5 152.0 -229.5 322.0 -192.0 358.5 -183.5 369.0 -173.5 379.0 -163.0 379.0 -147.0 379.0 -123.5 360.5 -109.5 333.0 -89.5 278.5 -89.5 229.0 -89.5 201.5 -110.5 174.0 -132.0 165.0 -173.0 L24.0 -151.5" fill-rule="evenodd" stroke="none"/>
    </g>
    <g id="font_Arial_d0">
      <path d="M185.5 -277.0 Q185.5 -356.0 219.5 -395.5 253.0 -435.5 303.0 -435.5 354.5 -435.5 387.5 -395.0 420.5 -355.0 420.5 -263.5 420.5 -181.5 386.5 -140.0 352.5 -99.0 304.0 -99.0 243.0 -99.0 209.0 -154.0 185.5 -192.0 185.5 -277.0 M560.5 0.0 L560.5 -733.0 420.0 -733.0 420.0 -469.0 Q355.0 -543.0 266.0 -543.0 169.0 -543.0 105.5 -472.5 42.0 -402.5 42.0 -267.5 42.0 -135.5 107.5 -61.5 172.5 12.0 264.0 12.0 309.0 12.0 353.5 -10.0 397.5 -32.5 430.0 -78.0 L430.0 0.0 560.5 0.0" fill-rule="evenodd" stroke="none"/>
    </g>
    <g id="font_Arial_p0">
      <path d="M208.5 -274.5 Q208.5 -352.5 242.5 -392.0 276.5 -432.0 328.0 -432.0 377.5 -432.0 411.0 -391.5 444.5 -351.0 444.5 -267.5 444.5 -178.0 412.0 -138.5 379.5 -99.5 330.5 -99.5 279.5 -99.5 244.0 -142.0 208.5 -185.0 208.5 -274.5 M69.5 -531.0 L69.5 202.0 210.0 202.0 210.0 -65.5 Q249.5 -23.0 285.5 -5.5 321.0 12.0 365.0 12.0 457.5 12.0 522.5 -61.5 587.5 -135.5 587.5 -268.5 587.5 -398.0 523.0 -470.5 458.5 -543.0 366.0 -543.0 313.0 -543.0 269.5 -518.0 226.0 -493.0 200.5 -453.0 L200.5 -531.0 69.5 -531.0" fill-rule="evenodd" stroke="none"/>
    </g>
    <g id="text2" transform="matrix(1.0, 0.0, 0.0, 1.0, 4.0, 2.0)">
      <g transform="matrix(1.0, 0.0, 0.0, 1.0, -4.0, -2.0)">
        <use fill="#00ff00" height="32.8" transform="matrix(0.0098, 0.0, 0.0, 0.0098, 18.85, 9.05)" width="76.6" xlink:href="#font_Arial_q0"/>
        <use fill="#00ff00" height="32.8" transform="matrix(0.0098, 0.0, 0.0, 0.0098, 24.95, 9.05)" width="76.6" xlink:href="#font_Arial_u0"/>
        <use fill="#00ff00" height="32.8" transform="matrix(0.0098, 0.0, 0.0, 0.0098, 31.05, 9.05)" width="76.6" xlink:href="#font_Arial_a0"/>
        <use fill="#00ff00" height="32.8" transform="matrix(0.0098, 0.0, 0.0, 0.0098, 36.6, 9.05)" width="76.6" xlink:href="#font_Arial_n0"/>
        <use fill="#00ff00" height="32.8" transform="matrix(0.0098, 0.0, 0.0, 0.0098, 42.7, 9.05)" width="76.6" xlink:href="#font_Arial_t0"/>
        <use fill="#00ff00" height="32.8" transform="matrix(0.0098, 0.0, 0.0, 0.0098, 46.05, 9.05)" width="76.6" xlink:href="#font_Arial_i0"/>
        <use fill="#00ff00" height="32.8" transform="matrix(0.0098, 0.0, 0.0, 0.0098, 48.85, 9.05)" width="76.6" xlink:href="#font_Arial_t0"/>
        <use fill="#00ff00" height="32.8" transform="matrix(0.0098, 0.0, 0.0, 0.0098, 52.2, 9.05)" width="76.6" xlink:href="#font_Arial_y0"/>
      </g>
    </g>
    <g id="font_Arial_q0">
      <path d="M425.0 -272.0 Q425.0 -186.0 388.5 -142.5 352.0 -99.0 303.5 -99.0 255.0 -99.0 222.0 -137.5 189.0 -176.5 189.0 -264.0 189.0 -352.0 223.5 -392.5 257.5 -433.0 308.5 -433.0 358.5 -433.0 392.0 -393.0 425.0 -353.5 425.0 -272.0 M420.5 202.0 L561.0 202.0 561.0 -531.0 431.5 -531.0 431.5 -452.5 Q401.5 -498.0 363.0 -520.5 324.0 -543.0 271.0 -543.0 175.0 -543.0 110.5 -471.0 45.5 -399.5 45.5 -271.5 45.5 -135.5 114.5 -56.0 173.0 12.0 263.5 12.0 311.0 12.0 352.0 -8.5 393.0 -29.5 420.5 -65.0 L420.5 202.0" fill-rule="evenodd" stroke="none"/>
    </g>
    <g id="text3" transform="matrix(1.0, 0.0, 0.0, 1.0, 4.0, 2.0)">
      <g transform="matrix(1.0, 0.0, 0.0, 1.0, -4.0, -2.0)">
        <use fill="#ffffff" height="26.8" transform="matrix(0.0098, 0.0, 0.0, 0.0098, 58.55, 9.05)" width="197.6" xlink:href="#font_Arial_b0"/>
        <use fill="#ffffff" height="26.8" transform="matrix(0.0098, 0.0, 0.0, 0.0098, 64.65, 9.05)" width="197.6" xlink:href="#font_Arial_a0"/>
        <use fill="#ffffff" height="26.8" transform="matrix(0.0098, 0.0, 0.0, 0.0098, 70.2, 9.05)" width="197.6" xlink:href="#font_Arial_n0"/>
        <use fill="#ffffff" height="26.8" transform="matrix(0.0098, 0.0, 0.0, 0.0098, 76.3, 9.05)" width="197.6" xlink:href="#font_Arial_k0"/>
        <use fill="#ffffff" height="26.8" transform="matrix(0.0098, 0.0, 0.0, 0.0098, 81.85, 9.05)" width="197.6" xlink:href="#font_Arial_n0"/>
        <use fill="#ffffff" height="26.8" transform="matrix(0.0098, 0.0, 0.0, 0.0098, 87.95, 9.05)" width="197.6" xlink:href="#font_Arial_u0"/>
        <use fill="#ffffff" height="26.8" transform="matrix(0.0098, 0.0, 0.0, 0.0098, 94.05, 9.05)" width="197.6" xlink:href="#font_Arial_m0"/>
        <use fill="#ffffff" height="26.8" transform="matrix(0.0098, 0.0, 0.0, 0.0098, 102.95, 9.05)" width="197.6" xlink:href="#font_Arial_b0"/>
        <use fill="#ffffff" height="26.8" transform="matrix(0.0098, 0.0, 0.0, 0.0098, 109.05, 9.05)" width="197.6" xlink:href="#font_Arial_e0"/>
        <use fill="#ffffff" height="26.8" transform="matrix(0.0098, 0.0, 0.0, 0.0098, 114.6, 9.05)" width="197.6" xlink:href="#font_Arial_r0"/>
        <use fill="#ffffff" height="26.8" transform="matrix(0.0098, 0.0, 0.0, 0.0098, 118.5, 9.05)" width="197.6" xlink:href="#font_Arial_d0"/>
        <use fill="#ffffff" height="26.8" transform="matrix(0.0098, 0.0, 0.0, 0.0098, 124.6, 9.05)" width="197.6" xlink:href="#font_Arial_i0"/>
        <use fill="#ffffff" height="26.8" transform="matrix(0.0098, 0.0, 0.0, 0.0098, 127.4, 9.05)" width="197.6" xlink:href="#font_Arial_s0"/>
        <use fill="#ffffff" height="26.8" transform="matrix(0.0098, 0.0, 0.0, 0.0098, 132.95, 9.05)" width="197.6" xlink:href="#font_Arial_p0"/>
      </g>
    </g>
    <g id="font_Arial_b0">
      <path d="M207.0 -277.0 Q207.0 -357.0 240.5 -396.0 274.0 -435.5 324.5 -435.5 376.0 -435.5 409.0 -395.0 442.0 -355.0 442.0 -264.0 442.0 -178.5 409.5 -138.5 376.5 -99.0 330.0 -99.0 269.5 -99.0 233.0 -155.0 207.0 -194.5 207.0 -277.0 M67.5 0.0 L198.0 0.0 198.0 -78.0 Q230.0 -33.5 274.5 -10.5 318.5 12.0 364.0 12.0 456.5 12.0 521.5 -61.5 586.0 -135.0 586.0 -271.0 586.0 -402.5 522.5 -472.5 459.0 -543.0 362.0 -543.0 273.0 -543.0 208.0 -469.0 L208.0 -733.0 67.5 -733.0 67.5 0.0" fill-rule="evenodd" stroke="none"/>
    </g>
    <g id="font_Arial_k0">
      <path d="M68.5 0.0 L209.0 0.0 209.0 -170.0 274.5 -238.5 408.0 0.0 559.5 0.0 365.0 -337.0 546.5 -531.0 373.5 -531.0 209.0 -344.0 209.0 -733.0 68.5 -733.0 68.5 0.0" fill-rule="evenodd" stroke="none"/>
    </g>
    <g id="font_Arial_m0">
      <path d="M63.0 -531.0 L63.0 0.0 203.5 0.0 203.5 -258.0 Q203.5 -334.5 215.0 -367.5 226.0 -400.5 252.0 -418.0 278.0 -435.5 310.5 -435.5 337.5 -435.5 353.5 -424.5 369.0 -413.5 376.5 -391.0 384.0 -368.5 384.0 -291.0 L384.0 0.0 524.5 0.0 524.5 -255.0 Q524.5 -330.0 536.0 -364.5 547.5 -399.5 573.5 -417.5 599.5 -435.5 629.0 -435.5 669.5 -435.5 689.0 -405.5 703.5 -382.5 703.5 -303.5 L703.5 0.0 844.0 0.0 844.0 -339.5 Q844.0 -415.5 829.5 -449.5 809.5 -495.5 769.0 -519.0 728.5 -543.0 670.0 -543.0 624.0 -543.0 583.5 -522.0 543.0 -501.0 508.0 -458.5 484.0 -501.0 446.5 -522.0 409.0 -543.0 358.0 -543.0 262.0 -543.0 192.5 -458.5 L192.5 -531.0 63.0 -531.0" fill-rule="evenodd" stroke="none"/>
    </g>
    <g id="font_Arial_e0">
      <path d="M389.0 -311.0 L179.0 -311.0 Q178.5 -368.5 208.5 -402.0 238.5 -435.5 284.5 -435.5 327.5 -435.5 357.5 -403.5 387.5 -372.0 389.0 -311.0 M381.0 -169.0 Q369.5 -129.0 347.0 -111.0 324.5 -93.0 291.5 -93.0 243.0 -93.0 210.5 -127.5 178.0 -162.5 176.5 -225.0 L528.5 -225.0 Q531.5 -386.5 463.0 -464.5 394.5 -543.0 276.0 -543.0 170.5 -543.0 101.5 -468.0 32.5 -393.5 32.5 -261.5 32.5 -151.0 85.0 -78.5 151.5 12.0 290.0 12.0 377.5 12.0 436.0 -28.0 494.0 -68.5 521.0 -145.5 L381.0 -169.0" fill-rule="evenodd" stroke="none"/>
    </g>
    <g id="font_Arial_r0">
      <path d="M208.0 0.0 L208.0 -164.0 Q208.0 -299.5 220.0 -342.0 231.5 -384.5 252.0 -400.5 272.5 -417.0 302.0 -417.0 332.5 -417.0 368.0 -394.0 L411.5 -516.5 Q367.0 -543.0 319.0 -543.0 285.0 -543.0 258.5 -526.0 231.5 -509.0 198.0 -455.5 L198.0 -531.0 67.5 -531.0 67.5 0.0 208.0 0.0" fill-rule="evenodd" stroke="none"/>
    </g>
    <g id="text4" transform="matrix(1.0, 0.0, 0.0, 1.0, 4.0, 2.0)">
      <g transform="matrix(1.0, 0.0, 0.0, 1.0, -4.0, -2.0)">
        <use fill="#33ffff" height="26.8" transform="matrix(0.0098, 0.0, 0.0, 0.0098, 42.7, 9.05)" width="160.45" xlink:href="#font_Arial_m0"/>
        <use fill="#33ffff" height="26.8" transform="matrix(0.0098, 0.0, 0.0, 0.0098, 51.6, 9.05)" width="160.45" xlink:href="#font_Arial_i0"/>
        <use fill="#33ffff" height="26.8" transform="matrix(0.0098, 0.0, 0.0, 0.0098, 54.4, 9.05)" width="160.45" xlink:href="#font_Arial_s0"/>
        <use fill="#33ffff" height="26.8" transform="matrix(0.0098, 0.0, 0.0, 0.0098, 59.95, 9.05)" width="160.45" xlink:href="#font_Arial_s0"/>
        <use fill="#33ffff" height="26.8" transform="matrix(0.0098, 0.0, 0.0, 0.0098, 65.5, 9.05)" width="160.45" xlink:href="#font_Arial_i0"/>
        <use fill="#33ffff" height="26.8" transform="matrix(0.0098, 0.0, 0.0, 0.0098, 68.3, 9.05)" width="160.45" xlink:href="#font_Arial_l0"/>
        <use fill="#33ffff" height="26.8" transform="matrix(0.0098, 0.0, 0.0, 0.0098, 71.1, 9.05)" width="160.45" xlink:href="#font_Arial_e0"/>
        <use fill="#33ffff" height="26.8" transform="matrix(0.0098, 0.0, 0.0, 0.0098, 76.65, 9.05)" width="160.45" xlink:href="#font_Arial_c0"/>
        <use fill="#33ffff" height="26.8" transform="matrix(0.0098, 0.0, 0.0, 0.0098, 82.2, 9.05)" width="160.45" xlink:href="#font_Arial_o0"/>
        <use fill="#33ffff" height="26.8" transform="matrix(0.0098, 0.0, 0.0, 0.0098, 88.3, 9.05)" width="160.45" xlink:href="#font_Arial_s0"/>
        <use fill="#33ffff" height="26.8" transform="matrix(0.0098, 0.0, 0.0, 0.0098, 93.85, 9.05)" width="160.45" xlink:href="#font_Arial_t0"/>
        <use fill="#33ffff" height="26.8" transform="matrix(0.0098, 0.0, 0.0, 0.0098, 97.2, 9.05)" width="160.45" xlink:href="#font_Arial_d0"/>
        <use fill="#33ffff" height="26.8" transform="matrix(0.0098, 0.0, 0.0, 0.0098, 103.3, 9.05)" width="160.45" xlink:href="#font_Arial_i0"/>
        <use fill="#33ffff" height="26.8" transform="matrix(0.0098, 0.0, 0.0, 0.0098, 106.1, 9.05)" width="160.45" xlink:href="#font_Arial_s0"/>
        <use fill="#33ffff" height="26.8" transform="matrix(0.0098, 0.0, 0.0, 0.0098, 111.65, 9.05)" width="160.45" xlink:href="#font_Arial_p0"/>
      </g>
    </g>
    <g id="font_Arial_l0">
      <path d="M73.5 0.0 L214.0 0.0 214.0 -733.0 73.5 -733.0 73.5 0.0" fill-rule="evenodd" stroke="none"/>
    </g>
    <g id="button0" transform="matrix(1.0, 0.0, 0.0, 1.0, 18.5, 13.5)">
      <use data-characterId="695" height="27.0" transform="matrix(1.0, 0.0, 0.0, 1.0, -18.5, -13.5)" width="37.0" xlink:href="#shape1"/>
      <use data-characterId="696" height="21.7" transform="matrix(1.1667, 0.0, 0.0, 1.25, -14.1333, -9.6625)" width="27.2" xlink:href="#text5"/>
    </g>
    <g id="shape1" transform="matrix(1.0, 0.0, 0.0, 1.0, 18.5, 13.5)">
      <path d="M17.5 12.5 L-17.5 12.5 -17.5 -12.5 17.5 -12.5 17.5 12.5" fill="#ffffff" fill-rule="evenodd" stroke="none"/>
      <path d="M14.2 -12.5 L-14.1 -12.5 Q-15.35 -12.4 -16.3 -11.45 -17.25 -10.5 -17.5 -9.25 L-17.5 9.2 Q-17.35 10.45 -16.4 11.4 -15.45 12.35 -14.2 12.5 L13.3 12.5 13.75 12.5 14.2 12.5 Q15.45 12.35 16.4 11.4 17.35 10.45 17.5 9.2 L17.5 8.75 17.5 8.3 17.5 -9.25 Q17.35 -10.5 16.4 -11.45 15.45 -12.4 14.2 -12.5 Z" fill="none" stroke="#000000" stroke-linecap="butt" stroke-linejoin="miter-clip" stroke-miterlimit="3.0" stroke-width="2.0"/>
    </g>
    <g id="text5" transform="matrix(1.0, 0.0, 0.0, 1.0, 2.0, 2.05)">
      <g transform="matrix(1.0, 0.0, 0.0, 1.0, -2.0, -2.0)">
        <use fill="#000000" height="21.7" transform="matrix(0.0098, 0.0, 0.0, 0.0098, 0.0, 9.0)" width="27.2" xlink:href="#font_Arial_Y0"/>
        <use fill="#000000" height="21.7" transform="matrix(0.0098, 0.0, 0.0, 0.0098, 6.65, 9.0)" width="27.2" xlink:href="#font_Arial_E0"/>
        <use fill="#000000" height="21.7" transform="matrix(0.0098, 0.0, 0.0, 0.0098, 13.3, 9.0)" width="27.2" xlink:href="#font_Arial_S0"/>
      </g>
    </g>
    <g id="font_Arial_Y0">
      <path d="M267.0 0.0 L414.5 0.0 414.5 -307.5 684.0 -733.0 513.5 -733.0 344.5 -443.0 172.0 -733.0 -1.5 -733.0 267.0 -308.5 267.0 0.0" fill-rule="evenodd" stroke="none"/>
    </g>
    <g id="font_Arial_E0">
      <path d="M74.5 0.0 L632.0 0.0 632.0 -123.5 222.5 -123.5 222.5 -323.0 590.5 -323.0 590.5 -446.5 222.5 -446.5 222.5 -609.0 618.0 -609.0 618.0 -733.0 74.5 -733.0 74.5 0.0" fill-rule="evenodd" stroke="none"/>
    </g>
    <g id="font_Arial_S0">
      <path d="M37.0 -238.5 Q51.5 -115.5 126.0 -51.0 200.5 13.0 339.5 13.0 435.0 13.0 499.0 -13.5 563.0 -40.5 598.0 -95.5 633.0 -150.5 633.0 -213.5 633.0 -283.0 604.0 -330.0 574.5 -377.5 523.0 -404.5 471.0 -432.0 363.0 -457.5 255.0 -483.0 227.0 -506.5 205.0 -525.0 205.0 -551.0 205.0 -579.5 228.5 -596.5 265.0 -623.0 329.5 -623.0 392.0 -623.0 423.5 -598.0 454.5 -573.5 464.0 -517.0 L612.0 -523.5 Q608.5 -624.5 539.0 -685.0 469.0 -745.5 331.0 -745.5 246.5 -745.5 187.0 -720.0 127.0 -694.5 95.5 -645.5 63.5 -597.0 63.5 -541.0 63.5 -454.0 131.0 -393.5 179.0 -350.5 298.0 -321.0 390.5 -298.0 416.5 -289.0 454.5 -275.5 470.0 -257.0 485.0 -239.0 485.0 -213.0 485.0 -172.5 449.0 -142.0 412.5 -112.0 341.0 -112.0 273.5 -112.0 234.0 -146.0 194.0 -180.0 181.0 -252.5 L37.0 -238.5" fill-rule="evenodd" stroke="none"/>
    </g>
    <g id="button1" transform="matrix(1.0, 0.0, 0.0, 1.0, 99.5, 13.5)">
      <use data-characterId="698" height="27.0" transform="matrix(1.0, 0.0, 0.0, 1.0, -99.5, -13.5)" width="37.0" xlink:href="#shape2"/>
      <use data-characterId="699" height="21.7" transform="matrix(1.1667, 0.0, 0.0, 1.25, -90.125, -9.6625)" width="21.5" xlink:href="#text6"/>
    </g>
    <g id="shape2" transform="matrix(1.0, 0.0, 0.0, 1.0, 99.5, 13.5)">
      <path d="M-98.5 -9.25 L-98.5 -12.5 -95.1 -12.5 Q-96.35 -12.4 -97.3 -11.45 -98.25 -10.5 -98.5 -9.25 -98.25 -10.5 -97.3 -11.45 -96.35 -12.4 -95.1 -12.5 L-66.8 -12.5 -63.5 -12.5 -63.5 -9.25 -63.5 8.3 -63.5 8.75 -63.5 9.2 -63.5 12.5 -66.8 12.5 -67.25 12.5 -67.7 12.5 -95.2 12.5 -98.5 12.5 -98.5 9.2 -98.5 -9.25 M-98.5 9.2 Q-98.35 10.45 -97.4 11.4 -96.45 12.35 -95.2 12.5 -96.45 12.35 -97.4 11.4 -98.35 10.45 -98.5 9.2 M-63.5 9.2 Q-63.65 10.45 -64.6 11.4 -65.55 12.35 -66.8 12.5 -65.55 12.35 -64.6 11.4 -63.65 10.45 -63.5 9.2 M-63.5 -9.25 Q-63.65 -10.5 -64.6 -11.45 -65.55 -12.4 -66.8 -12.5 -65.55 -12.4 -64.6 -11.45 -63.65 -10.5 -63.5 -9.25" fill="#ffffff" fill-rule="evenodd" stroke="none"/>
      <path d="M-98.5 -9.25 Q-98.25 -10.5 -97.3 -11.45 -96.35 -12.4 -95.1 -12.5 L-66.8 -12.5 Q-65.55 -12.4 -64.6 -11.45 -63.65 -10.5 -63.5 -9.25 L-63.5 8.3 -63.5 8.75 -63.5 9.2 Q-63.65 10.45 -64.6 11.4 -65.55 12.35 -66.8 12.5 L-67.25 12.5 -67.7 12.5 -95.2 12.5 Q-96.45 12.35 -97.4 11.4 -98.35 10.45 -98.5 9.2 L-98.5 -9.25 Z" fill="none" stroke="#000000" stroke-linecap="butt" stroke-linejoin="miter-clip" stroke-miterlimit="3.0" stroke-width="2.0"/>
    </g>
    <g id="text6" transform="matrix(1.0, 0.0, 0.0, 1.0, -0.75, 2.05)">
      <g transform="matrix(1.0, 0.0, 0.0, 1.0, 0.0, -2.0)">
        <use fill="#000000" height="21.7" transform="matrix(0.0098, 0.0, 0.0, 0.0098, 0.0, 9.0)" width="21.5" xlink:href="#font_Arial_N0"/>
        <use fill="#000000" height="21.7" transform="matrix(0.0098, 0.0, 0.0, 0.0098, 7.2, 9.0)" width="21.5" xlink:href="#font_Arial_O0"/>
      </g>
    </g>
    <g id="font_Arial_N0">
      <path d="M76.0 0.0 L213.5 0.0 213.5 -478.0 509.0 0.0 657.5 0.0 657.5 -733.0 520.0 -733.0 520.0 -243.5 220.0 -733.0 76.0 -733.0 76.0 0.0" fill-rule="evenodd" stroke="none"/>
    </g>
    <g id="font_Arial_O0">
      <path d="M197.0 -367.0 Q197.0 -493.5 253.0 -556.0 309.0 -619.0 400.5 -619.0 492.0 -619.0 547.5 -557.0 602.5 -495.0 602.5 -369.0 602.5 -241.5 546.0 -177.5 489.0 -114.0 400.5 -114.0 312.0 -114.0 254.5 -178.0 197.0 -242.5 197.0 -367.0 M44.5 -362.0 Q44.5 -187.0 141.0 -87.0 237.5 12.5 401.0 12.5 562.5 12.5 659.0 -87.5 755.5 -188.0 755.5 -365.5 755.5 -544.5 658.5 -645.0 561.0 -745.5 399.0 -745.5 309.5 -745.5 241.0 -716.5 189.5 -695.0 146.5 -650.5 103.0 -606.0 78.0 -550.0 44.5 -474.0 44.5 -362.0" fill-rule="evenodd" stroke="none"/>
    </g>
    <g id="text7" transform="matrix(1.0, 0.0, 0.0, 1.0, 4.0, 2.0)">
      <g transform="matrix(1.0, 0.0, 0.0, 1.0, -4.0, -2.0)">
        <use fill="#ffff00" height="26.8" transform="matrix(0.0098, 0.0, 0.0, 0.0098, 30.7, 9.05)" width="125.8" xlink:href="#font_Arial_m0"/>
        <use fill="#ffff00" height="26.8" transform="matrix(0.0098, 0.0, 0.0, 0.0098, 39.6, 9.05)" width="125.8" xlink:href="#font_Arial_a0"/>
        <use fill="#ffff00" height="26.8" transform="matrix(0.0098, 0.0, 0.0, 0.0098, 45.15, 9.05)" width="125.8" xlink:href="#font_Arial_x0"/>
        <use fill="#ffff00" height="26.8" transform="matrix(0.0098, 0.0, 0.0, 0.0098, 50.7, 9.05)" width="125.8" xlink:href="#font_Arial_p0"/>
        <use fill="#ffff00" height="26.8" transform="matrix(0.0098, 0.0, 0.0, 0.0098, 56.8, 9.05)" width="125.8" xlink:href="#font_Arial_u0"/>
        <use fill="#ffff00" height="26.8" transform="matrix(0.0098, 0.0, 0.0, 0.0098, 62.9, 9.05)" width="125.8" xlink:href="#font_Arial_r0"/>
        <use fill="#ffff00" height="26.8" transform="matrix(0.0098, 0.0, 0.0, 0.0098, 66.8, 9.05)" width="125.8" xlink:href="#font_Arial_c0"/>
        <use fill="#ffff00" height="26.8" transform="matrix(0.0098, 0.0, 0.0, 0.0098, 72.35, 9.05)" width="125.8" xlink:href="#font_Arial_h0"/>
        <use fill="#ffff00" height="26.8" transform="matrix(0.0098, 0.0, 0.0, 0.0098, 78.45, 9.05)" width="125.8" xlink:href="#font_Arial_a0"/>
        <use fill="#ffff00" height="26.8" transform="matrix(0.0098, 0.0, 0.0, 0.0098, 84.0, 9.05)" width="125.8" xlink:href="#font_Arial_s0"/>
        <use fill="#ffff00" height="26.8" transform="matrix(0.0098, 0.0, 0.0, 0.0098, 89.55, 9.05)" width="125.8" xlink:href="#font_Arial_e0"/>
      </g>
    </g>
    <g id="font_Arial_x0">
      <path d="M6.0 0.0 L170.5 0.0 279.5 -164.5 387.5 0.0 560.0 0.0 363.5 -279.5 543.5 -531.0 378.5 -531.0 279.5 -385.0 185.5 -531.0 14.0 -531.0 197.5 -273.5 6.0 0.0" fill-rule="evenodd" stroke="none"/>
    </g>
    <g id="font_Arial_h0">
      <path d="M213.5 -733.0 L73.0 -733.0 73.0 0.0 213.5 0.0 213.5 -266.0 Q213.5 -333.0 226.5 -367.0 239.0 -401.5 266.5 -418.5 294.0 -435.5 329.0 -435.5 359.5 -435.5 380.0 -422.0 400.0 -409.0 408.0 -386.5 416.0 -364.0 416.0 -280.5 L416.0 0.0 556.5 0.0 556.5 -311.5 Q556.5 -383.0 549.5 -417.0 542.0 -451.0 522.5 -479.0 502.5 -507.0 463.5 -525.0 424.5 -543.0 376.0 -543.0 281.5 -543.0 213.5 -463.5 L213.5 -733.0" fill-rule="evenodd" stroke="none"/>
    </g>
  </defs>
</svg>
