<?xml version="1.0" encoding="UTF-8" standalone="no"?>
<svg xmlns:xlink="http://www.w3.org/1999/xlink" height="122.25px" width="123.95px" xmlns="http://www.w3.org/2000/svg">
  <g transform="matrix(1.0, 0.0, 0.0, 1.0, 61.95, 61.1)">
    <use data-characterId="1428" height="122.25" transform="matrix(1.0, 0.0, 0.0, 1.0, -61.95, -61.1)" width="123.95" xlink:href="#shape0"/>
    <use data-characterId="1429" height="120.85" transform="matrix(0.2278, 0.0, 0.0, 0.2297, -14.9309, -14.2761)" width="121.0" xlink:href="#shape1"/>
  </g>
  <defs>
    <g id="shape0" transform="matrix(1.0, 0.0, 0.0, 1.0, 61.95, 61.1)">
      <path d="M61.95 -59.35 L62.0 61.15 -58.0 61.15 -58.0 59.4 -61.95 59.4 -61.95 -60.6 58.0 -61.1 58.0 -59.3 61.95 -59.35" fill="#000000" fill-rule="evenodd" stroke="none"/>
    </g>
    <g id="shape1" transform="matrix(1.0, 0.0, 0.0, 1.0, 60.5, 60.4)">
      <path d="M42.0 -42.55 Q59.7 -25.1 60.0 0.0 59.7 25.1 42.0 42.55 24.8 59.95 0.0 59.95 -25.1 59.95 -42.6 42.55 -60.05 25.1 -60.0 0.0 -60.05 -25.1 -42.6 -42.55 -25.1 -59.95 0.0 -59.9 24.8 -59.95 42.0 -42.55 Z" fill="none" stroke="#00ff00" stroke-linecap="round" stroke-linejoin="round" stroke-width="1.0"/>
    </g>
  </defs>
</svg>
