<?xml version="1.0" encoding="UTF-8" standalone="no"?>
<svg xmlns:xlink="http://www.w3.org/1999/xlink" height="122.25px" width="123.95px" xmlns="http://www.w3.org/2000/svg">
  <g transform="matrix(1.0, 0.0, 0.0, 1.0, 61.95, 61.1)">
    <use data-characterId="1428" height="122.25" transform="matrix(1.0, 0.0, 0.0, 1.0, -61.95, -61.1)" width="123.95" xlink:href="#shape0"/>
  </g>
  <defs>
    <g id="shape0" transform="matrix(1.0, 0.0, 0.0, 1.0, 61.95, 61.1)">
      <path d="M61.95 -59.35 L62.0 61.15 -58.0 61.15 -58.0 59.4 -61.95 59.4 -61.95 -60.6 58.0 -61.1 58.0 -59.3 61.95 -59.35" fill="#000000" fill-rule="evenodd" stroke="none"/>
    </g>
  </defs>
</svg>
