<?xml version="1.0" encoding="UTF-8" standalone="no"?>
<svg xmlns:xlink="http://www.w3.org/1999/xlink" height="121.65px" width="108.45px" xmlns="http://www.w3.org/2000/svg">
  <g transform="matrix(1.0, 0.0, 0.0, 1.0, 0.5, 1.5)">
    <use data-characterId="41" height="121.0" transform="matrix(1.0, 0.0, 0.0, 1.0, -0.5, -0.85)" width="108.45" xlink:href="#shape0"/>
    <use data-characterId="43" height="19.0" id="itemname" transform="matrix(1.0, 0.0, 0.0, 1.0, 2.25, -1.5)" width="104.75" xlink:href="#text0"/>
    <use data-characterId="44" height="19.0" id="itemcost" transform="matrix(1.0, 0.0, 0.0, 1.0, 3.5, 12.25)" width="100.0" xlink:href="#text1"/>
    <use data-characterId="45" height="91.0" id="itemspecs" transform="matrix(1.0, 0.0, 0.0, 1.0, 2.5, 28.75)" width="102.0" xlink:href="#text2"/>
  </g>
  <defs>
    <g id="shape0" transform="matrix(1.0, 0.0, 0.0, 1.0, 0.5, 0.85)">
      <path d="M107.45 -0.35 L107.45 119.65 0.0 119.65 0.0 -0.35 107.45 -0.35" fill="#333333" fill-rule="evenodd" stroke="none"/>
      <path d="M107.45 -0.35 L107.45 119.65 0.0 119.65 0.0 -0.35 107.45 -0.35 Z" fill="none" stroke="#000066" stroke-linecap="round" stroke-linejoin="round" stroke-width="1.0"/>
    </g>
    <g id="text0" transform="matrix(1.0, 0.0, 0.0, 1.0, 2.0, 2.0)">
      <g transform="matrix(1.0, 0.0, 0.0, 1.0, -2.0, -2.0)">
        <use fill="#ffffff" height="19.0" transform="matrix(0.0098, 0.0, 0.0, 0.0098, 52.35, 12.0)" width="104.75" xlink:href="#font_Trebuchet_MS_i0"/>
        <use fill="#ffffff" height="19.0" transform="matrix(0.0098, 0.0, 0.0, 0.0098, 52.35, 12.0)" width="104.75" xlink:href="#font_Trebuchet_MS_t0"/>
        <use fill="#ffffff" height="19.0" transform="matrix(0.0098, 0.0, 0.0, 0.0098, 52.35, 12.0)" width="104.75" xlink:href="#font_Trebuchet_MS_e0"/>
        <use fill="#ffffff" height="19.0" transform="matrix(0.0098, 0.0, 0.0, 0.0098, 52.35, 12.0)" width="104.75" xlink:href="#font_Trebuchet_MS_m0"/>
      </g>
      <g transform="matrix(1.0, 0.0, 0.0, 1.0, -2.0, -2.0)">
        <use fill="#ffffff" height="19.0" transform="matrix(0.0098, 0.0, 0.0, 0.0098, 52.35, 12.0)" width="104.75" xlink:href="#font_Trebuchet_MS_n0"/>
        <use fill="#ffffff" height="19.0" transform="matrix(0.0098, 0.0, 0.0, 0.0098, 52.35, 12.0)" width="104.75" xlink:href="#font_Trebuchet_MS_a0"/>
        <use fill="#ffffff" height="19.0" transform="matrix(0.0098, 0.0, 0.0, 0.0098, 52.35, 12.0)" width="104.75" xlink:href="#font_Trebuchet_MS_m0"/>
        <use fill="#ffffff" height="19.0" transform="matrix(0.0098, 0.0, 0.0, 0.0098, 52.35, 12.0)" width="104.75" xlink:href="#font_Trebuchet_MS_e0"/>
      </g>
    </g>
    <g id="font_Trebuchet_MS_i0">
      <path d="M113.5 0.0 L208.5 0.0 208.5 -535.5 40.0 -535.5 40.0 -455.5 113.5 -455.5 113.5 0.0 M165.5 -738.0 L165.5 -738.0 Q141.0 -738.0 124.0 -721.0 107.0 -704.0 107.0 -679.5 107.0 -655.0 124.5 -637.5 141.5 -620.5 165.5 -620.5 190.0 -620.5 207.5 -637.5 224.5 -655.0 224.5 -679.5 224.5 -703.5 207.5 -720.5 190.0 -738.0 165.5 -738.0" fill-rule="evenodd" stroke="none"/>
    </g>
    <g id="font_Trebuchet_MS_t0">
      <path d="M101.5 -460.5 L101.5 -156.5 Q101.5 -84.5 145.5 -37.0 189.0 10.0 252.5 10.0 323.0 10.0 382.0 -5.0 L368.0 -88.5 Q329.0 -70.0 292.5 -70.0 242.0 -70.0 219.5 -98.5 196.5 -127.0 196.5 -194.5 L196.5 -460.5 343.5 -460.5 343.5 -535.5 196.5 -535.5 196.5 -684.0 101.5 -647.5 101.5 -535.5 39.5 -535.5 39.5 -460.5 101.5 -460.5" fill-rule="evenodd" stroke="none"/>
    </g>
    <g id="font_Trebuchet_MS_e0">
      <path d="M288.0 -465.5 L288.0 -465.5 Q356.0 -465.5 395.5 -423.5 431.5 -385.0 431.5 -327.5 L135.0 -327.5 Q140.5 -385.5 181.5 -424.5 224.5 -465.5 288.0 -465.5 M518.5 -258.5 L518.5 -258.5 Q526.0 -285.0 526.0 -316.5 526.0 -419.0 463.0 -481.0 398.0 -545.5 283.5 -545.5 185.0 -545.5 113.0 -474.0 32.5 -394.0 32.5 -261.5 32.5 -134.0 111.0 -58.5 181.5 10.0 282.5 10.0 352.5 10.0 409.5 -11.0 455.0 -27.0 477.0 -49.0 L437.0 -117.5 Q382.5 -70.0 301.0 -70.0 229.5 -70.0 184.0 -114.0 132.5 -164.5 132.5 -258.5 L518.5 -258.5" fill-rule="evenodd" stroke="none"/>
    </g>
    <g id="font_Trebuchet_MS_m0">
      <path d="M687.5 0.0 L782.5 0.0 782.5 -358.0 Q782.5 -447.0 737.0 -496.0 691.5 -545.5 608.5 -545.5 562.5 -545.5 519.0 -525.0 475.5 -504.5 459.5 -474.0 413.5 -545.5 298.5 -545.5 216.0 -545.5 161.0 -473.5 L129.5 -535.5 67.5 -535.5 67.5 0.0 162.5 0.0 162.5 -395.0 Q176.0 -421.5 208.5 -443.5 240.5 -465.5 269.0 -465.5 318.0 -465.5 348.0 -442.5 377.5 -420.0 377.5 -380.5 L377.5 0.0 472.5 0.0 472.5 -396.0 Q483.5 -423.0 513.5 -444.0 543.5 -465.5 578.0 -465.5 687.5 -465.5 687.5 -339.0 L687.5 0.0" fill-rule="evenodd" stroke="none"/>
    </g>
    <g id="font_Trebuchet_MS_n0">
      <path d="M397.0 0.0 L492.0 0.0 492.0 -331.5 Q492.0 -545.5 316.0 -545.5 209.5 -545.5 162.5 -466.5 L132.5 -535.5 67.5 -535.5 67.5 0.0 162.5 0.0 162.5 -398.0 Q181.5 -426.5 217.0 -446.0 252.5 -465.5 285.0 -465.5 345.5 -465.5 371.5 -431.0 397.0 -397.0 397.0 -311.5 L397.0 0.0" fill-rule="evenodd" stroke="none"/>
    </g>
    <g id="font_Trebuchet_MS_a0">
      <path d="M361.0 -263.0 L361.0 -133.5 Q305.5 -65.0 233.5 -65.0 135.0 -65.0 135.0 -148.5 135.0 -199.0 180.5 -236.0 226.0 -273.0 298.0 -273.0 316.0 -273.0 361.0 -263.0 M370.0 -61.5 L370.0 -61.5 Q382.5 -23.5 411.5 -7.0 440.0 9.5 498.0 9.5 L498.0 -38.0 Q456.0 -61.5 456.0 -132.0 L456.0 -324.0 Q456.0 -439.5 403.5 -492.5 350.5 -545.5 234.0 -545.5 190.5 -545.5 143.0 -529.5 95.0 -514.0 68.0 -492.0 L108.0 -412.5 Q156.0 -460.5 245.0 -460.5 361.0 -460.5 361.0 -330.5 323.0 -343.5 293.0 -343.5 182.5 -343.5 111.5 -287.0 40.0 -231.0 40.0 -149.5 40.0 -81.5 86.5 -35.5 132.5 10.0 195.5 10.0 313.0 10.0 370.0 -61.5" fill-rule="evenodd" stroke="none"/>
    </g>
    <g id="text1" transform="matrix(1.0, 0.0, 0.0, 1.0, 2.0, 2.0)">
      <g transform="matrix(1.0, 0.0, 0.0, 1.0, -2.0, -2.0)">
        <use fill="#ffff00" height="19.0" transform="matrix(0.0098, 0.0, 0.0, 0.0098, 50.0, 12.0)" width="100.0" xlink:href="#font_Trebuchet_MS_c0"/>
        <use fill="#ffff00" height="19.0" transform="matrix(0.0098, 0.0, 0.0, 0.0098, 50.0, 12.0)" width="100.0" xlink:href="#font_Trebuchet_MS_o0"/>
        <use fill="#ffff00" height="19.0" transform="matrix(0.0098, 0.0, 0.0, 0.0098, 50.0, 12.0)" width="100.0" xlink:href="#font_Trebuchet_MS_s0"/>
        <use fill="#ffff00" height="19.0" transform="matrix(0.0098, 0.0, 0.0, 0.0098, 50.0, 12.0)" width="100.0" xlink:href="#font_Trebuchet_MS_t0"/>
      </g>
    </g>
    <g id="font_Trebuchet_MS_c0">
      <path d="M471.5 -492.0 L471.5 -492.0 Q448.5 -510.5 400.0 -528.0 351.5 -545.5 310.0 -545.5 181.0 -545.5 107.0 -468.0 32.5 -390.5 32.5 -262.5 32.5 -137.0 104.0 -63.5 175.5 10.0 285.0 10.0 398.0 10.0 474.5 -39.5 L437.0 -119.5 Q372.0 -70.0 308.0 -70.0 225.5 -70.0 179.0 -119.0 132.5 -168.5 132.5 -262.5 132.5 -357.0 178.0 -411.0 223.5 -465.5 301.0 -465.5 336.5 -465.5 373.5 -452.5 410.0 -439.5 424.5 -425.0 L471.5 -492.0" fill-rule="evenodd" stroke="none"/>
    </g>
    <g id="font_Trebuchet_MS_o0">
      <path d="M132.5 -269.0 L132.5 -269.0 Q132.5 -362.0 171.5 -415.0 210.0 -468.0 275.0 -468.0 417.0 -468.0 417.0 -269.0 417.0 -175.5 379.5 -121.5 341.5 -67.5 275.0 -67.5 132.5 -67.5 132.5 -269.0 M32.5 -269.0 L32.5 -269.0 Q32.5 -141.0 96.5 -65.5 160.5 10.0 275.0 10.0 387.0 10.0 452.0 -64.5 517.0 -139.5 517.0 -269.0 517.0 -399.0 453.5 -472.0 390.0 -545.5 275.0 -545.5 166.0 -545.5 99.5 -469.0 32.5 -393.0 32.5 -269.0" fill-rule="evenodd" stroke="none"/>
    </g>
    <g id="font_Trebuchet_MS_s0">
      <path d="M32.5 -32.0 L32.5 -32.0 Q107.0 10.0 191.5 10.0 281.0 10.0 331.5 -30.5 382.0 -71.5 382.0 -143.5 382.0 -198.5 353.5 -235.0 325.0 -271.5 262.5 -300.0 L194.5 -331.0 Q136.0 -357.5 136.0 -409.0 136.0 -433.5 159.5 -449.5 182.5 -465.5 216.5 -465.5 273.5 -465.5 330.0 -420.5 L357.0 -508.5 Q268.0 -545.5 209.5 -545.5 132.0 -545.5 84.0 -508.5 36.0 -471.5 36.0 -405.5 36.0 -380.0 44.5 -357.5 52.5 -335.5 69.5 -315.5 86.0 -296.0 109.0 -280.5 131.5 -265.0 197.0 -235.0 282.0 -197.0 282.0 -144.0 282.0 -70.0 194.0 -70.0 145.5 -70.0 66.0 -122.0 L32.5 -32.0" fill-rule="evenodd" stroke="none"/>
    </g>
    <g id="text2" transform="matrix(1.0, 0.0, 0.0, 1.0, 2.0, 2.0)">
      <g transform="matrix(1.0, 0.0, 0.0, 1.0, -2.0, -2.0)">
        <use fill="#33ff99" height="91.0" transform="matrix(0.0098, 0.0, 0.0, 0.0098, 0.0, 11.0)" width="102.0" xlink:href="#font_Trebuchet_MS_i0"/>
        <use fill="#33ff99" height="91.0" transform="matrix(0.0098, 0.0, 0.0, 0.0098, 0.0, 11.0)" width="102.0" xlink:href="#font_Trebuchet_MS_t0"/>
        <use fill="#33ff99" height="91.0" transform="matrix(0.0098, 0.0, 0.0, 0.0098, 0.0, 11.0)" width="102.0" xlink:href="#font_Trebuchet_MS_e0"/>
        <use fill="#33ff99" height="91.0" transform="matrix(0.0098, 0.0, 0.0, 0.0098, 0.0, 11.0)" width="102.0" xlink:href="#font_Trebuchet_MS_m0"/>
        <use fill="#33ff99" height="91.0" transform="matrix(0.0098, 0.0, 0.0, 0.0098, 0.0, 11.0)" width="102.0" xlink:href="#font_Trebuchet_MS_s0"/>
        <use fill="#33ff99" height="91.0" transform="matrix(0.0098, 0.0, 0.0, 0.0098, 0.0, 11.0)" width="102.0" xlink:href="#font_Trebuchet_MS_p0"/>
        <use fill="#33ff99" height="91.0" transform="matrix(0.0098, 0.0, 0.0, 0.0098, 0.0, 11.0)" width="102.0" xlink:href="#font_Trebuchet_MS_e0"/>
        <use fill="#33ff99" height="91.0" transform="matrix(0.0098, 0.0, 0.0, 0.0098, 0.0, 11.0)" width="102.0" xlink:href="#font_Trebuchet_MS_c0"/>
        <use fill="#33ff99" height="91.0" transform="matrix(0.0098, 0.0, 0.0, 0.0098, 0.0, 11.0)" width="102.0" xlink:href="#font_Trebuchet_MS_s0"/>
      </g>
    </g>
    <g id="font_Trebuchet_MS_p0">
      <path d="M162.5 -420.0 L162.5 -420.0 Q179.5 -437.5 208.5 -451.5 237.5 -465.5 257.5 -465.5 350.0 -465.5 392.0 -418.5 434.0 -371.5 434.0 -270.0 434.0 -70.0 257.0 -70.0 229.5 -70.0 200.5 -82.0 171.5 -94.5 162.5 -108.0 L162.5 -420.0 M162.5 -29.5 L162.5 -29.5 Q173.5 -14.0 212.5 -2.0 251.0 10.0 285.0 10.0 406.0 10.0 470.0 -67.0 534.0 -144.5 534.0 -266.5 534.0 -403.5 470.5 -474.5 407.0 -545.5 293.0 -545.5 216.5 -545.5 162.5 -491.5 L162.5 -535.5 67.5 -535.5 67.5 210.0 162.5 210.0 162.5 -29.5" fill-rule="evenodd" stroke="none"/>
    </g>
  </defs>
</svg>
