<?xml version="1.0" encoding="UTF-8" standalone="no"?>
<svg xmlns:xlink="http://www.w3.org/1999/xlink" height="100.0px" width="100.0px" xmlns="http://www.w3.org/2000/svg">
  <g transform="matrix(1.0, 0.0, 0.0, 1.0, 50.0, 50.0)">
    <use data-characterId="492" height="100.1" transform="matrix(1.0, 0.0, 0.0, 1.0, -50.05, -50.05)" width="100.1" xlink:href="#shape0"/>
  </g>
  <defs>
    <g id="shape0" transform="matrix(1.0, 0.0, 0.0, 1.0, 50.05, 50.05)">
      <path d="M21.5 -2.25 L20.1 -2.25 20.1 -4.65 20.1 -15.4 35.9 -17.4 43.9 -17.4 50.0 -17.4 48.5 -2.25 45.75 -2.25 45.75 -7.3 43.6 -7.3 43.6 -2.25 26.5 -2.25 26.5 -7.3 24.35 -7.3 24.35 -2.25 21.5 -2.25 M-1.5 -16.4 L-10.25 -14.65 -21.8 -14.65 -31.4 -14.65 -31.4 -17.9 -31.4 -27.75 -30.5 -29.8 -27.15 -29.8 -27.15 -24.75 -25.0 -24.75 -25.0 -29.8 -7.9 -29.8 -7.9 -25.0 -5.75 -25.0 -5.75 -29.8 -2.55 -29.8 -1.5 -29.8 -1.5 -27.25 -1.5 -16.4 M-10.25 14.65 L-1.5 16.4 -1.5 27.3 -1.5 29.8 -2.55 29.8 -5.75 29.8 -5.75 25.0 -7.9 25.0 -7.9 29.8 -25.0 29.8 -25.0 24.75 -27.15 24.75 -27.15 29.8 -30.5 29.8 -31.4 28.05 -31.4 18.2 -31.4 14.65 -21.8 14.65 -10.25 14.65 M20.1 4.7 L20.1 2.3 21.5 2.3 24.35 2.3 24.35 7.35 26.5 7.35 26.5 2.3 43.6 2.3 43.6 7.35 45.75 7.35 45.75 2.3 48.5 2.3 50.0 17.45 43.9 17.45 35.9 17.45 20.1 17.45 20.1 15.4 20.1 4.7 M-1.5 -45.7 L-1.5 -38.0 -2.55 -34.85 -5.75 -34.85 -5.75 -39.9 -7.9 -39.9 -7.9 -34.85 -25.0 -34.85 -25.0 -39.9 -27.15 -39.9 -27.15 -34.85 -30.5 -34.85 -31.4 -50.0 -1.5 -50.0 -1.5 -45.7 M-1.5 45.7 L-1.5 50.0 -31.4 50.0 -30.5 34.85 -27.15 34.85 -27.15 39.9 -25.0 39.9 -25.0 34.85 -7.9 34.85 -7.9 39.9 -5.75 39.9 -5.75 34.85 -2.55 34.85 -1.5 38.0 -1.5 45.7" fill="#00ccff" fill-rule="evenodd" stroke="none"/>
      <path d="M43.9 -17.4 L35.9 -17.4 Q35.9 -25.95 24.95 -31.95 14.0 -38.0 -1.5 -38.0 L-1.5 -45.7 Q17.3 -45.7 30.6 -37.4 43.9 -29.1 43.9 -17.4 M20.1 -15.4 L20.1 -4.65 4.3 -16.4 -1.5 -16.4 -1.5 -27.25 20.1 -15.4 M-10.25 -14.65 L-10.25 14.65 -21.8 14.65 -21.8 -14.65 -10.25 -14.65 M-1.5 16.4 L4.3 16.4 20.1 4.7 20.1 15.4 17.75 15.65 1.95 27.3 -1.5 27.3 -1.5 16.4 M35.9 17.45 L43.9 17.45 Q43.9 29.15 30.6 37.45 17.3 45.7 -1.5 45.7 L-1.5 38.0 Q14.0 38.0 24.95 32.0 35.9 25.95 35.9 17.45 M-31.4 28.05 L-41.45 28.3 Q-45.0 28.3 -47.5 25.3 -50.0 22.25 -50.0 17.95 L-49.75 -17.75 Q-49.75 -22.0 -47.25 -25.0 -44.75 -28.0 -41.25 -28.0 L-31.4 -27.75 -31.4 -17.9 -41.45 -8.35 -41.65 8.6 -31.4 18.2 -31.4 28.05" fill="#cccccc" fill-rule="evenodd" stroke="none"/>
      <path d="M21.5 -2.25 L24.35 -2.25 24.35 2.3 21.5 2.3 21.5 -2.25 M26.5 -2.25 L43.6 -2.25 43.6 2.3 26.5 2.3 26.5 -2.25 M45.75 -2.25 L48.5 -2.25 48.5 2.3 45.75 2.3 45.75 -2.25 M-2.55 -34.85 L-2.55 -29.8 -5.75 -29.8 -5.75 -34.85 -2.55 -34.85 M-30.5 34.85 L-30.5 29.8 -27.15 29.8 -27.15 34.85 -30.5 34.85 M-30.5 -29.8 L-30.5 -34.85 -27.15 -34.85 -27.15 -29.8 -30.5 -29.8 M-7.9 -29.8 L-25.0 -29.8 -25.0 -34.85 -7.9 -34.85 -7.9 -29.8 M-25.0 34.85 L-25.0 29.8 -7.9 29.8 -7.9 34.85 -25.0 34.85 M-5.75 29.8 L-2.55 29.8 -2.55 34.85 -5.75 34.85 -5.75 29.8" fill="#33ffff" fill-rule="evenodd" stroke="none"/>
      <path d="M24.35 -2.25 L24.35 -7.3 26.5 -7.3 26.5 -2.25 26.5 2.3 26.5 7.35 24.35 7.35 24.35 2.3 24.35 -2.25 M43.6 -2.25 L43.6 -7.3 45.75 -7.3 45.75 -2.25 45.75 2.3 45.75 7.35 43.6 7.35 43.6 2.3 43.6 -2.25 M-7.9 -34.85 L-7.9 -39.9 -5.75 -39.9 -5.75 -34.85 -5.75 -29.8 -5.75 -25.0 -7.9 -25.0 -7.9 -29.8 -7.9 -34.85 M-25.0 -29.8 L-25.0 -24.75 -27.15 -24.75 -27.15 -29.8 -27.15 -34.85 -27.15 -39.9 -25.0 -39.9 -25.0 -34.85 -25.0 -29.8 M-27.15 29.8 L-27.15 24.75 -25.0 24.75 -25.0 29.8 -25.0 34.85 -25.0 39.9 -27.15 39.9 -27.15 34.85 -27.15 29.8 M-7.9 29.8 L-7.9 25.0 -5.75 25.0 -5.75 29.8 -5.75 34.85 -5.75 39.9 -7.9 39.9 -7.9 34.85 -7.9 29.8" fill="#666666" fill-rule="evenodd" stroke="none"/>
      <path d="M20.1 -4.65 L20.1 -2.25 21.5 -2.25 24.35 -2.25 24.35 -7.3 26.5 -7.3 26.5 -2.25 43.6 -2.25 43.6 -7.3 45.75 -7.3 45.75 -2.25 48.5 -2.25 50.0 -17.4 43.9 -17.4 35.9 -17.4 20.1 -15.4 20.1 -4.65 4.3 -16.4 -1.5 -16.4 -10.25 -14.65 -10.25 14.65 -1.5 16.4 4.3 16.4 20.1 4.7 20.1 2.3 21.5 2.3 21.5 -2.25 M-1.5 -38.0 Q14.0 -38.0 24.95 -31.95 35.9 -25.95 35.9 -17.4 M43.9 -17.4 Q43.9 -29.1 30.6 -37.4 17.3 -45.7 -1.5 -45.7 L-1.5 -38.0 -2.55 -34.85 -2.55 -29.8 -1.5 -29.8 -1.5 -27.25 20.1 -15.4 M48.5 2.3 L45.75 2.3 45.75 7.35 43.6 7.35 43.6 2.3 26.5 2.3 26.5 7.35 24.35 7.35 24.35 2.3 21.5 2.3 M43.9 17.45 L50.0 17.45 48.5 2.3 48.5 -2.25 M-1.5 27.3 L1.95 27.3 17.75 15.65 20.1 15.4 20.1 4.7 M20.1 15.4 L20.1 17.45 35.9 17.45 43.9 17.45 Q43.9 29.15 30.6 37.45 17.3 45.7 -1.5 45.7 L-1.5 50.0 -31.4 50.0 -30.5 34.85 -30.5 29.8 -31.4 28.05 -41.45 28.3 Q-45.0 28.3 -47.5 25.3 -50.0 22.25 -50.0 17.95 L-49.75 -17.75 Q-49.75 -22.0 -47.25 -25.0 -44.75 -28.0 -41.25 -28.0 L-31.4 -27.75 -30.5 -29.8 -30.5 -34.85 -31.4 -50.0 -1.5 -50.0 -1.5 -45.7 M35.9 17.45 Q35.9 25.95 24.95 32.0 14.0 38.0 -1.5 38.0 L-1.5 45.7 M43.6 2.3 L43.6 -2.25 M24.35 2.3 L24.35 -2.25 M26.5 2.3 L26.5 -2.25 M45.75 2.3 L45.75 -2.25 M-7.9 -34.85 L-7.9 -39.9 -5.75 -39.9 -5.75 -34.85 -2.55 -34.85 M-5.75 -29.8 L-5.75 -25.0 -7.9 -25.0 -7.9 -29.8 -25.0 -29.8 -25.0 -24.75 -27.15 -24.75 -27.15 -29.8 -30.5 -29.8 M-2.55 -29.8 L-5.75 -29.8 -5.75 -34.85 M-7.9 -29.8 L-7.9 -34.85 -25.0 -34.85 -25.0 -29.8 M-27.15 -34.85 L-27.15 -39.9 -25.0 -39.9 -25.0 -34.85 M-27.15 -29.8 L-27.15 -34.85 -30.5 -34.85 M-31.4 -17.9 L-31.4 -14.65 -21.8 -14.65 -10.25 -14.65 M-31.4 -27.75 L-31.4 -17.9 -41.45 -8.35 -41.65 8.6 -31.4 18.2 -31.4 14.65 -21.8 14.65 -21.8 -14.65 M-1.5 -16.4 L-1.5 -27.25 M-25.0 29.8 L-25.0 24.75 -27.15 24.75 -27.15 29.8 -27.15 34.85 -27.15 39.9 -25.0 39.9 -25.0 34.85 -25.0 29.8 -7.9 29.8 -7.9 25.0 -5.75 25.0 -5.75 29.8 -2.55 29.8 -1.5 29.8 -1.5 27.3 -1.5 16.4 M-27.15 34.85 L-30.5 34.85 M-27.15 29.8 L-30.5 29.8 M-2.55 34.85 L-2.55 29.8 M-2.55 34.85 L-5.75 34.85 -5.75 39.9 -7.9 39.9 -7.9 34.85 -25.0 34.85 M-7.9 34.85 L-7.9 29.8 M-5.75 29.8 L-5.75 34.85 M-1.5 38.0 L-2.55 34.85 M-31.4 18.2 L-31.4 28.05 M-10.25 14.65 L-21.8 14.65" fill="none" stroke="#000000" stroke-linecap="round" stroke-linejoin="round" stroke-width="0.1"/>
    </g>
  </defs>
</svg>
