<?xml version="1.0" encoding="UTF-8" standalone="no"?>
<svg xmlns:xlink="http://www.w3.org/1999/xlink" height="179.2px" width="544.3px" xmlns="http://www.w3.org/2000/svg">
  <g transform="matrix(1.0, 0.0, 0.0, 1.0, -505.9, 142.2)">
    <use data-characterId="1553" height="175.1" transform="matrix(1.0, 0.0, 0.0, 1.0, 507.85, -142.2)" width="225.1" xlink:href="#shape0"/>
    <use data-characterId="1556" height="25.55" id="sendButton" transform="matrix(1.0, 0.0, 0.0, 1.0, 691.1, 3.55)" width="42.5" xlink:href="#button0"/>
    <use data-characterId="1557" height="138.95" id="textdisplay" transform="matrix(1.0, 0.0, 0.0, 1.0, 505.9, -133.95)" width="245.45" xlink:href="#text1"/>
    <use data-characterId="1552" data-characterName="sc346_fla.typingtextbordergraphic_32" height="18.6" id="textoutline" transform="matrix(1.1115, 0.0, 0.0, 1.0, 507.3646, 5.0)" width="162.0" xlink:href="#sprite0"/>
    <use data-characterId="1558" height="29.3" id="chatInput" transform="matrix(1.0, 0.0, 0.0, 1.0, 506.45, 6.0)" width="200.9" xlink:href="#text2"/>
    <use data-characterId="1559" height="78.5" id="miscOutPut" transform="matrix(1.0, 0.0, 0.0, 1.0, 765.7, -41.5)" width="284.5" xlink:href="#text3"/>
  </g>
  <defs>
    <g id="shape0" transform="matrix(1.0, 0.0, 0.0, 1.0, -507.85, 142.2)">
      <path d="M729.85 -142.15 Q732.9 -142.15 732.9 -139.7 L732.9 30.45 Q732.9 32.85 729.85 32.85 L510.95 32.85 Q507.9 32.85 507.9 30.45 L507.9 -139.7 Q507.9 -142.15 510.95 -142.15 L729.85 -142.15" fill="#000000" fill-opacity="0.34901962" fill-rule="evenodd" stroke="none"/>
      <path d="M729.85 -142.15 L510.95 -142.15 Q507.9 -142.15 507.9 -139.7 L507.9 30.45 Q507.9 32.85 510.95 32.85 L729.85 32.85 Q732.9 32.85 732.9 30.45 L732.9 -139.7 Q732.9 -142.15 729.85 -142.15 Z" fill="none" stroke="#333333" stroke-linecap="butt" stroke-linejoin="miter-clip" stroke-miterlimit="3.0" stroke-opacity="0.2" stroke-width="0.1"/>
    </g>
    <g id="button0" transform="matrix(1.0, 0.0, 0.0, 1.0, 20.25, 10.25)">
      <use data-characterId="1554" height="20.5" transform="matrix(1.0, 0.0, 0.0, 1.0, -20.25, -10.25)" width="40.55" xlink:href="#shape1"/>
      <use data-characterId="1555" height="23.2" transform="matrix(1.0, 0.0, 0.0, 1.0, -15.75, -7.9)" width="38.0" xlink:href="#text0"/>
    </g>
    <g id="shape1" transform="matrix(1.0, 0.0, 0.0, 1.0, 20.25, 10.25)">
      <path d="M14.8 -9.75 Q19.8 -9.75 19.8 -4.75 L19.8 4.75 Q19.8 9.75 14.8 9.75 L-14.75 9.75 Q-19.75 9.75 -19.75 4.75 L-19.75 -4.75 Q-19.75 -9.75 -14.75 -9.75 L14.8 -9.75" fill="#ff9900" fill-rule="evenodd" stroke="none"/>
      <path d="M14.8 -9.75 L-14.75 -9.75 Q-19.75 -9.75 -19.75 -4.75 L-19.75 4.75 Q-19.75 9.75 -14.75 9.75 L14.8 9.75 Q19.8 9.75 19.8 4.75 L19.8 -4.75 Q19.8 -9.75 14.8 -9.75 Z" fill="none" stroke="#333333" stroke-linecap="butt" stroke-linejoin="miter-clip" stroke-miterlimit="3.0" stroke-opacity="0.8" stroke-width="1.0"/>
    </g>
    <g id="text0" transform="matrix(1.0, 0.0, 0.0, 1.0, 1.5, 2.05)">
      <g transform="matrix(1.0, 0.0, 0.0, 1.0, -2.0, -1.9)">
        <use fill="#000000" height="23.2" transform="matrix(0.0107, 0.0, 0.0, 0.0107, 0.0, 10.0)" width="38.0" xlink:href="#font_Arial_S0"/>
        <use fill="#000000" height="23.2" transform="matrix(0.0107, 0.0, 0.0, 0.0107, 7.35, 10.0)" width="38.0" xlink:href="#font_Arial_E0"/>
        <use fill="#000000" height="23.2" transform="matrix(0.0107, 0.0, 0.0, 0.0107, 14.7, 10.0)" width="38.0" xlink:href="#font_Arial_N0"/>
        <use fill="#000000" height="23.2" transform="matrix(0.0107, 0.0, 0.0, 0.0107, 22.65, 10.0)" width="38.0" xlink:href="#font_Arial_D0"/>
      </g>
    </g>
    <g id="font_Arial_S0">
      <path d="M46.0 -235.5 Q48.0 -162.0 86.5 -103.5 124.5 -45.5 192.0 -16.5 259.0 12.5 358.5 12.5 437.0 12.5 500.0 -16.0 562.5 -45.0 596.0 -96.5 629.5 -148.5 629.5 -207.0 629.5 -266.0 599.0 -311.0 568.5 -356.5 504.5 -386.0 460.5 -406.0 342.5 -432.5 224.0 -459.5 196.0 -485.0 167.5 -510.5 167.5 -550.0 167.5 -595.5 208.0 -627.5 248.0 -660.0 336.0 -660.0 420.5 -660.0 464.0 -624.5 507.0 -589.0 514.5 -519.5 L607.5 -526.5 Q605.0 -591.0 571.5 -642.0 538.0 -693.0 476.0 -719.0 413.5 -745.5 332.0 -745.5 258.0 -745.5 197.5 -720.5 137.0 -695.5 105.5 -647.0 74.0 -599.0 74.0 -543.5 74.0 -493.0 100.0 -452.0 125.5 -411.5 178.0 -384.0 218.5 -362.5 319.5 -338.0 420.5 -314.0 450.0 -302.5 496.0 -285.0 516.0 -259.0 536.0 -233.5 536.0 -199.0 536.0 -165.0 515.5 -136.0 494.5 -107.5 452.0 -91.0 409.5 -74.5 354.0 -74.5 291.5 -74.5 241.5 -96.0 191.5 -118.0 168.0 -153.0 144.0 -188.5 137.5 -243.5 L46.0 -235.5" fill-rule="evenodd" stroke="none"/>
    </g>
    <g id="font_Arial_E0">
      <path d="M81.0 0.0 L628.0 0.0 628.0 -86.5 178.0 -86.5 178.0 -336.0 583.5 -336.0 583.5 -422.0 178.0 -422.0 178.0 -646.5 611.0 -646.5 611.0 -733.0 81.0 -733.0 81.0 0.0" fill-rule="evenodd" stroke="none"/>
    </g>
    <g id="font_Arial_N0">
      <path d="M78.0 0.0 L171.0 0.0 171.0 -576.0 556.0 0.0 655.5 0.0 655.5 -733.0 562.5 -733.0 562.5 -157.5 177.5 -733.0 78.0 -733.0 78.0 0.0" fill-rule="evenodd" stroke="none"/>
    </g>
    <g id="font_Arial_D0">
      <path d="M176.0 -86.5 L176.0 -646.5 330.0 -646.5 Q416.5 -646.5 455.5 -631.5 509.5 -610.5 547.5 -548.5 585.0 -487.0 585.0 -372.0 585.0 -289.0 566.0 -230.5 546.5 -172.5 512.0 -138.0 487.5 -113.5 446.5 -100.0 405.0 -86.5 332.5 -86.5 L176.0 -86.5 M79.0 0.0 L343.5 0.0 Q410.0 0.0 461.5 -12.5 512.5 -25.0 549.0 -49.0 585.0 -73.5 615.5 -115.5 646.0 -158.0 665.5 -222.5 685.0 -287.0 685.0 -370.5 685.0 -468.5 656.5 -544.5 627.5 -621.0 569.5 -670.0 525.0 -708.0 462.0 -722.5 417.0 -733.0 331.5 -733.0 L79.0 -733.0 79.0 0.0" fill-rule="evenodd" stroke="none"/>
    </g>
    <g id="text1" transform="matrix(1.0, 0.0, 0.0, 1.0, 4.0, 2.0)">
      <g transform="matrix(1.0, 0.0, 0.0, 1.0, -4.0, -2.0)">
        <use fill="#ffffff" height="138.95" transform="matrix(0.0107, 0.0, 0.0, 0.0107, 0.0, 9.95)" width="245.45" xlink:href="#font_Arial_T0"/>
        <use fill="#ffffff" height="138.95" transform="matrix(0.0107, 0.0, 0.0, 0.0107, 6.7, 9.95)" width="245.45" xlink:href="#font_Arial_E1"/>
        <use fill="#ffffff" height="138.95" transform="matrix(0.0107, 0.0, 0.0, 0.0107, 14.05, 9.95)" width="245.45" xlink:href="#font_Arial_S1"/>
        <use fill="#ffffff" height="138.95" transform="matrix(0.0107, 0.0, 0.0, 0.0107, 21.4, 9.95)" width="245.45" xlink:href="#font_Arial_T0"/>
        <use fill="#ffffff" height="138.95" transform="matrix(0.0107, 0.0, 0.0, 0.0107, 28.1, 9.95)" width="245.45" xlink:href="#font_Arial_I0"/>
        <use fill="#ffffff" height="138.95" transform="matrix(0.0107, 0.0, 0.0, 0.0107, 31.15, 9.95)" width="245.45" xlink:href="#font_Arial_N1"/>
        <use fill="#ffffff" height="138.95" transform="matrix(0.0107, 0.0, 0.0, 0.0107, 39.1, 9.95)" width="245.45" xlink:href="#font_Arial_G0"/>
      </g>
      <g transform="matrix(1.0, 0.0, 0.0, 1.0, -4.0, -2.0)">
        <use fill="#ffffff" height="138.95" transform="matrix(0.0107, 0.0, 0.0, 0.0107, 50.7, 9.95)" width="245.45" xlink:href="#font_Arial_10"/>
        <use fill="#ffffff" height="138.95" transform="matrix(0.0107, 0.0, 0.0, 0.0107, 56.8, 9.95)" width="245.45" xlink:href="#font_Arial_20"/>
        <use fill="#ffffff" height="138.95" transform="matrix(0.0107, 0.0, 0.0, 0.0107, 62.9, 9.95)" width="245.45" xlink:href="#font_Arial_30"/>
        <use fill="#ffffff" height="138.95" transform="matrix(0.0107, 0.0, 0.0, 0.0107, 69.0, 9.95)" width="245.45" xlink:href="#font_Arial_40"/>
      </g>
      <g transform="matrix(1.0, 0.0, 0.0, 1.0, -4.0, -2.0)">
        <use fill="#ffffff" height="138.95" transform="matrix(0.0107, 0.0, 0.0, 0.0107, 0.0, 22.25)" width="245.45" xlink:href="#font_Arial_s0"/>
        <use fill="#ffffff" height="138.95" transform="matrix(0.0107, 0.0, 0.0, 0.0107, 6.1, 22.25)" width="245.45" xlink:href="#font_Arial_d0"/>
      </g>
      <g transform="matrix(1.0, 0.0, 0.0, 1.0, -4.0, -2.0)">
        <use fill="#ffffff" height="138.95" transform="matrix(0.0107, 0.0, 0.0, 0.0107, 0.0, 34.55)" width="245.45" xlink:href="#font_Arial_s0"/>
        <use fill="#ffffff" height="138.95" transform="matrix(0.0107, 0.0, 0.0, 0.0107, 6.1, 34.55)" width="245.45" xlink:href="#font_Arial_d0"/>
      </g>
      <g transform="matrix(1.0, 0.0, 0.0, 1.0, -4.0, -2.0)">
        <use fill="#ffffff" height="138.95" transform="matrix(0.0107, 0.0, 0.0, 0.0107, 0.0, 46.85)" width="245.45" xlink:href="#font_Arial_d0"/>
        <use fill="#ffffff" height="138.95" transform="matrix(0.0107, 0.0, 0.0, 0.0107, 6.7, 46.85)" width="245.45" xlink:href="#font_Arial_s0"/>
      </g>
      <g transform="matrix(1.0, 0.0, 0.0, 1.0, -4.0, -2.0)">
        <use fill="#ffffff" height="138.95" transform="matrix(0.0107, 0.0, 0.0, 0.0107, 0.0, 59.15)" width="245.45" xlink:href="#font_Arial_s0"/>
        <use fill="#ffffff" height="138.95" transform="matrix(0.0107, 0.0, 0.0, 0.0107, 6.1, 59.15)" width="245.45" xlink:href="#font_Arial_d0"/>
      </g>
      <g transform="matrix(1.0, 0.0, 0.0, 1.0, -4.0, -2.0)">
        <use fill="#ffffff" height="138.95" transform="matrix(0.0107, 0.0, 0.0, 0.0107, 0.0, 71.45)" width="245.45" xlink:href="#font_Arial_s0"/>
        <use fill="#ffffff" height="138.95" transform="matrix(0.0107, 0.0, 0.0, 0.0107, 6.1, 71.45)" width="245.45" xlink:href="#font_Arial_d0"/>
      </g>
      <g transform="matrix(1.0, 0.0, 0.0, 1.0, -4.0, -2.0)">
        <use fill="#ffffff" height="138.95" transform="matrix(0.0107, 0.0, 0.0, 0.0107, 0.0, 83.75)" width="245.45" xlink:href="#font_Arial_d0"/>
        <use fill="#ffffff" height="138.95" transform="matrix(0.0107, 0.0, 0.0, 0.0107, 6.7, 83.75)" width="245.45" xlink:href="#font_Arial_s0"/>
      </g>
      <g transform="matrix(1.0, 0.0, 0.0, 1.0, -4.0, -2.0)">
        <use fill="#ffffff" height="138.95" transform="matrix(0.0107, 0.0, 0.0, 0.0107, 0.0, 96.05)" width="245.45" xlink:href="#font_Arial_d0"/>
        <use fill="#ffffff" height="138.95" transform="matrix(0.0107, 0.0, 0.0, 0.0107, 6.7, 96.05)" width="245.45" xlink:href="#font_Arial_s0"/>
      </g>
      <g transform="matrix(1.0, 0.0, 0.0, 1.0, -4.0, -2.0)">
        <use fill="#ffffff" height="138.95" transform="matrix(0.0107, 0.0, 0.0, 0.0107, 0.0, 108.35)" width="245.45" xlink:href="#font_Arial_d0"/>
        <use fill="#ffffff" height="138.95" transform="matrix(0.0107, 0.0, 0.0, 0.0107, 6.7, 108.35)" width="245.45" xlink:href="#font_Arial_s0"/>
      </g>
    </g>
    <g id="font_Arial_T0">
      <path d="M239.5 0.0 L387.5 0.0 387.5 -609.0 604.5 -609.0 604.5 -733.0 22.0 -733.0 22.0 -609.0 239.5 -609.0 239.5 0.0" fill-rule="evenodd" stroke="none"/>
    </g>
    <g id="font_Arial_E1">
      <path d="M74.5 0.0 L632.0 0.0 632.0 -123.5 222.5 -123.5 222.5 -323.0 590.5 -323.0 590.5 -446.5 222.5 -446.5 222.5 -609.0 618.0 -609.0 618.0 -733.0 74.5 -733.0 74.5 0.0" fill-rule="evenodd" stroke="none"/>
    </g>
    <g id="font_Arial_S1">
      <path d="M37.0 -238.5 Q51.5 -115.5 126.0 -51.0 200.5 13.0 339.5 13.0 435.0 13.0 499.0 -13.5 563.0 -40.5 598.0 -95.5 633.0 -150.5 633.0 -213.5 633.0 -283.0 604.0 -330.0 574.5 -377.5 523.0 -404.5 471.0 -432.0 363.0 -457.5 255.0 -483.0 227.0 -506.5 205.0 -525.0 205.0 -551.0 205.0 -579.5 228.5 -596.5 265.0 -623.0 329.5 -623.0 392.0 -623.0 423.5 -598.0 454.5 -573.5 464.0 -517.0 L612.0 -523.5 Q608.5 -624.5 539.0 -685.0 469.0 -745.5 331.0 -745.5 246.5 -745.5 187.0 -720.0 127.0 -694.5 95.5 -645.5 63.5 -597.0 63.5 -541.0 63.5 -454.0 131.0 -393.5 179.0 -350.5 298.0 -321.0 390.5 -298.0 416.5 -289.0 454.5 -275.5 470.0 -257.0 485.0 -239.0 485.0 -213.0 485.0 -172.5 449.0 -142.0 412.5 -112.0 341.0 -112.0 273.5 -112.0 234.0 -146.0 194.0 -180.0 181.0 -252.5 L37.0 -238.5" fill-rule="evenodd" stroke="none"/>
    </g>
    <g id="font_Arial_I0">
      <path d="M70.0 0.0 L218.0 0.0 218.0 -733.0 70.0 -733.0 70.0 0.0" fill-rule="evenodd" stroke="none"/>
    </g>
    <g id="font_Arial_N1">
      <path d="M76.0 0.0 L213.5 0.0 213.5 -478.0 509.0 0.0 657.5 0.0 657.5 -733.0 520.0 -733.0 520.0 -243.5 220.0 -733.0 76.0 -733.0 76.0 0.0" fill-rule="evenodd" stroke="none"/>
    </g>
    <g id="font_Arial_G0">
      <path d="M415.5 -269.5 L585.0 -269.5 585.0 -176.5 Q551.5 -150.5 505.0 -132.0 458.0 -114.0 411.5 -114.0 317.5 -114.0 259.5 -179.0 201.5 -244.5 201.5 -375.0 201.5 -496.0 259.0 -557.5 316.0 -619.0 413.0 -619.0 477.0 -619.0 520.0 -587.5 562.5 -556.5 578.0 -502.5 L725.0 -530.0 Q703.0 -631.0 626.5 -688.0 549.5 -745.5 413.0 -745.5 308.0 -745.5 237.5 -709.0 145.0 -661.5 97.0 -572.5 49.0 -483.5 49.0 -369.0 49.0 -263.5 92.0 -173.5 135.0 -84.0 220.5 -35.5 306.0 12.5 421.0 12.5 511.5 12.5 600.0 -21.5 688.0 -56.0 734.5 -101.0 L734.5 -393.0 415.5 -393.0 415.5 -269.5" fill-rule="evenodd" stroke="none"/>
    </g>
    <g id="font_Arial_10">
      <path d="M403.0 0.0 L403.0 -736.0 289.0 -736.0 Q265.0 -669.0 200.5 -618.5 136.0 -568.5 81.0 -550.5 L81.0 -423.0 Q185.5 -457.5 262.5 -529.5 L262.5 0.0 403.0 0.0" fill-rule="evenodd" stroke="none"/>
    </g>
    <g id="font_Arial_20">
      <path d="M518.0 -130.5 L239.0 -130.5 Q250.0 -149.5 268.0 -169.5 285.5 -189.5 352.0 -250.5 418.5 -311.5 444.0 -344.0 482.5 -393.0 500.5 -437.5 518.0 -482.5 518.0 -532.0 518.0 -619.0 456.0 -677.5 394.0 -736.0 285.5 -736.0 186.5 -736.0 120.5 -685.5 54.5 -635.0 42.0 -519.0 L182.0 -505.0 Q186.0 -566.5 212.0 -593.0 238.0 -619.5 282.0 -619.5 326.5 -619.5 352.0 -594.0 377.0 -569.0 377.0 -522.0 377.0 -479.5 348.0 -436.0 326.5 -404.5 231.5 -316.0 113.5 -206.5 73.5 -140.0 33.5 -74.0 25.5 0.0 L518.0 0.0 518.0 -130.5" fill-rule="evenodd" stroke="none"/>
    </g>
    <g id="font_Arial_30">
      <path d="M38.5 -194.5 Q49.0 -102.0 114.5 -44.5 180.0 12.5 279.5 12.5 384.5 12.5 455.0 -55.5 525.5 -123.5 525.5 -220.0 525.5 -286.5 488.0 -333.5 450.0 -380.5 387.0 -394.0 492.5 -451.5 492.5 -548.0 492.5 -616.0 441.0 -670.0 378.5 -736.0 275.0 -736.0 214.5 -736.0 166.0 -713.0 117.0 -690.5 90.0 -650.5 62.5 -611.0 49.0 -544.5 L178.5 -522.5 Q184.0 -570.5 209.5 -595.5 235.0 -620.5 271.0 -620.5 307.5 -620.5 329.5 -598.5 351.5 -576.5 351.5 -539.5 351.5 -496.0 321.5 -469.5 291.5 -443.5 234.5 -445.0 L219.0 -330.5 Q256.5 -341.0 283.5 -341.0 324.5 -341.0 353.0 -310.0 381.5 -279.0 381.5 -226.0 381.5 -170.0 352.0 -137.0 322.0 -104.0 278.5 -104.0 238.0 -104.0 209.5 -131.5 181.0 -159.0 174.5 -211.0 L38.5 -194.5" fill-rule="evenodd" stroke="none"/>
    </g>
    <g id="font_Arial_40">
      <path d="M319.0 -271.0 L150.5 -271.0 319.0 -521.5 319.0 -271.0 M319.0 0.0 L455.0 0.0 455.0 -147.5 546.0 -147.5 546.0 -271.0 455.0 -271.0 455.0 -736.0 337.0 -736.0 19.0 -270.5 19.0 -147.5 319.0 -147.5 319.0 0.0" fill-rule="evenodd" stroke="none"/>
    </g>
    <g id="font_Arial_s0">
      <path d="M24.0 -151.5 Q43.5 -76.0 107.0 -32.0 170.0 12.0 278.5 12.0 398.0 12.0 459.0 -40.5 520.0 -93.0 520.0 -166.0 520.0 -233.0 476.0 -270.5 431.5 -307.5 319.5 -333.0 207.0 -358.5 188.0 -372.5 174.0 -383.0 174.0 -398.0 174.0 -415.5 190.0 -426.5 214.0 -442.0 269.5 -442.0 313.5 -442.0 337.5 -425.5 361.0 -409.0 369.5 -378.0 L502.0 -402.5 Q482.0 -472.0 429.0 -507.5 376.0 -543.0 267.0 -543.0 152.5 -543.0 98.0 -496.0 43.5 -449.0 43.5 -380.0 43.5 -303.5 106.5 -260.5 152.0 -229.5 322.0 -192.0 358.5 -183.5 369.0 -173.5 379.0 -163.0 379.0 -147.0 379.0 -123.5 360.5 -109.5 333.0 -89.5 278.5 -89.5 229.0 -89.5 201.5 -110.5 174.0 -132.0 165.0 -173.0 L24.0 -151.5" fill-rule="evenodd" stroke="none"/>
    </g>
    <g id="font_Arial_d0">
      <path d="M185.5 -277.0 Q185.5 -356.0 219.5 -395.5 253.0 -435.5 303.0 -435.5 354.5 -435.5 387.5 -395.0 420.5 -355.0 420.5 -263.5 420.5 -181.5 386.5 -140.0 352.5 -99.0 304.0 -99.0 243.0 -99.0 209.0 -154.0 185.5 -192.0 185.5 -277.0 M560.5 0.0 L560.5 -733.0 420.0 -733.0 420.0 -469.0 Q355.0 -543.0 266.0 -543.0 169.0 -543.0 105.5 -472.5 42.0 -402.5 42.0 -267.5 42.0 -135.5 107.5 -61.5 172.5 12.0 264.0 12.0 309.0 12.0 353.5 -10.0 397.5 -32.5 430.0 -78.0 L430.0 0.0 560.5 0.0" fill-rule="evenodd" stroke="none"/>
    </g>
    <g id="sprite0" transform="matrix(1.0, 0.0, 0.0, 1.0, 169.9, 12.5)">
      <use data-characterId="1550" height="18.6" transform="matrix(1.0, 0.0, 0.0, 1.0, -169.9, -12.5)" width="162.0" xlink:href="#shape2"/>
    </g>
    <g id="shape2" transform="matrix(1.0, 0.0, 0.0, 1.0, 169.9, 12.5)">
      <path d="M-169.45 -11.35 Q-169.0 -12.5 -168.4 -12.5 L-9.35 -12.5 Q-8.75 -12.5 -8.3 -11.35 L-7.9 -9.7 -7.9 2.7 Q-8.0 4.0 -8.35 4.95 -8.7 5.8 -9.15 6.05 L-168.8 6.05 -169.45 5.05 Q-169.9 3.9 -169.9 2.35 L-169.9 -8.7 Q-169.9 -10.25 -169.45 -11.35 Z" fill="none" stroke="#999944" stroke-linecap="butt" stroke-linejoin="miter-clip" stroke-miterlimit="3.0" stroke-width="0.05"/>
    </g>
    <g id="text2" transform="matrix(1.0, 0.0, 0.0, 1.0, 4.0, 2.0)">
      <g transform="matrix(1.0, 0.0, 0.0, 1.0, -4.0, -2.0)">
        <use fill="#ffffff" height="29.3" transform="matrix(0.0107, 0.0, 0.0, 0.0107, 0.0, 9.95)" width="200.9" xlink:href="#font_Arial_I1"/>
        <use fill="#ffffff" height="29.3" transform="matrix(0.0107, 0.0, 0.0, 0.0107, 3.05, 9.95)" width="200.9" xlink:href="#font_Arial_n0"/>
        <use fill="#ffffff" height="29.3" transform="matrix(0.0107, 0.0, 0.0, 0.0107, 9.15, 9.95)" width="200.9" xlink:href="#font_Arial_p0"/>
        <use fill="#ffffff" height="29.3" transform="matrix(0.0107, 0.0, 0.0, 0.0107, 15.25, 9.95)" width="200.9" xlink:href="#font_Arial_u0"/>
        <use fill="#ffffff" height="29.3" transform="matrix(0.0107, 0.0, 0.0, 0.0107, 21.35, 9.95)" width="200.9" xlink:href="#font_Arial_t0"/>
      </g>
      <g transform="matrix(1.0, 0.0, 0.0, 1.0, -4.0, -2.0)">
        <use fill="#ffffff" height="29.3" transform="matrix(0.0107, 0.0, 0.0, 0.0107, 27.45, 9.95)" width="200.9" xlink:href="#font_Arial_c0"/>
        <use fill="#ffffff" height="29.3" transform="matrix(0.0107, 0.0, 0.0, 0.0107, 32.95, 9.95)" width="200.9" xlink:href="#font_Arial_h0"/>
        <use fill="#ffffff" height="29.3" transform="matrix(0.0107, 0.0, 0.0, 0.0107, 39.05, 9.95)" width="200.9" xlink:href="#font_Arial_a0"/>
        <use fill="#ffffff" height="29.3" transform="matrix(0.0107, 0.0, 0.0, 0.0107, 45.15, 9.95)" width="200.9" xlink:href="#font_Arial_t0"/>
      </g>
    </g>
    <g id="font_Arial_I1">
      <path d="M95.5 0.0 L192.5 0.0 192.5 -733.0 95.5 -733.0 95.5 0.0" fill-rule="evenodd" stroke="none"/>
    </g>
    <g id="font_Arial_n0">
      <path d="M67.5 0.0 L157.5 0.0 157.5 -290.0 Q157.5 -392.0 199.5 -428.5 241.0 -465.0 298.5 -465.0 334.5 -465.0 361.5 -448.5 388.0 -432.5 398.5 -405.0 409.0 -378.0 409.0 -323.0 L409.0 0.0 499.0 0.0 499.0 -326.5 Q499.0 -389.0 494.0 -414.0 486.0 -452.5 466.0 -480.5 446.0 -508.5 406.0 -525.5 365.5 -543.0 317.5 -543.0 207.0 -543.0 148.5 -455.5 L148.5 -531.0 67.5 -531.0 67.5 0.0" fill-rule="evenodd" stroke="none"/>
    </g>
    <g id="font_Arial_p0">
      <path d="M149.0 -262.5 Q149.0 -365.0 193.5 -418.5 237.5 -472.5 295.0 -472.5 353.0 -472.5 395.0 -422.0 436.5 -371.5 436.5 -270.0 436.5 -163.5 394.0 -112.5 351.0 -62.0 291.0 -62.0 232.0 -62.0 190.5 -111.0 149.0 -160.0 149.0 -262.5 M67.5 203.5 L157.5 203.5 157.5 -55.0 Q180.5 -26.0 216.5 -7.0 252.0 12.0 297.0 12.0 358.5 12.0 414.5 -22.5 470.0 -57.5 499.5 -122.5 528.5 -188.0 528.5 -269.5 528.5 -345.5 502.0 -409.0 475.5 -473.0 423.5 -508.0 371.5 -543.0 303.5 -543.0 251.5 -543.0 215.0 -522.5 178.5 -502.5 149.5 -462.0 L149.5 -531.0 67.5 -531.0 67.5 203.5" fill-rule="evenodd" stroke="none"/>
    </g>
    <g id="font_Arial_u0">
      <path d="M415.5 0.0 L496.0 0.0 496.0 -531.0 406.0 -531.0 406.0 -246.5 Q406.0 -178.5 391.5 -142.5 376.5 -107.0 341.0 -86.0 305.5 -65.5 265.0 -65.5 224.5 -65.5 197.0 -85.5 169.5 -106.0 161.0 -141.5 155.5 -166.0 155.5 -236.5 L155.5 -531.0 65.5 -531.0 65.5 -202.0 Q65.5 -144.5 71.0 -118.0 79.0 -78.5 99.0 -51.0 118.5 -24.0 159.5 -6.0 200.0 12.0 247.0 12.0 353.5 12.0 415.5 -78.0 L415.5 0.0" fill-rule="evenodd" stroke="none"/>
    </g>
    <g id="font_Arial_t0">
      <path d="M264.0 -80.5 Q239.5 -77.0 224.5 -77.0 204.5 -77.0 194.0 -83.5 183.0 -90.0 178.5 -101.0 173.5 -112.0 173.5 -150.5 L173.5 -461.0 264.0 -461.0 264.0 -531.0 173.5 -531.0 173.5 -716.5 84.0 -662.5 84.0 -531.0 18.0 -531.0 18.0 -461.0 84.0 -461.0 84.0 -155.5 Q84.0 -74.5 95.0 -49.0 106.0 -24.0 133.0 -8.5 160.0 7.0 209.0 7.0 239.0 7.0 277.0 -1.0 L264.0 -80.5" fill-rule="evenodd" stroke="none"/>
    </g>
    <g id="font_Arial_c0">
      <path d="M414.0 -194.5 Q404.5 -127.0 369.0 -94.5 333.5 -62.0 280.5 -62.0 214.5 -62.0 173.5 -110.5 132.5 -159.0 132.5 -266.0 132.5 -371.5 175.0 -420.0 217.5 -469.0 285.5 -469.0 330.5 -469.0 362.5 -442.0 394.0 -415.0 406.5 -361.5 L494.0 -375.0 Q478.5 -455.5 423.5 -499.0 368.5 -543.0 282.0 -543.0 213.5 -543.0 155.5 -510.5 97.0 -478.5 68.5 -414.0 40.0 -349.5 40.0 -263.5 40.0 -130.5 106.5 -59.0 172.5 12.0 281.5 12.0 368.5 12.0 428.5 -39.5 488.0 -91.5 502.5 -183.0 L414.0 -194.5" fill-rule="evenodd" stroke="none"/>
    </g>
    <g id="font_Arial_h0">
      <path d="M67.5 0.0 L157.5 0.0 157.5 -290.5 Q157.5 -353.0 172.5 -388.5 187.5 -424.0 223.0 -444.5 258.0 -465.5 298.0 -465.5 351.5 -465.5 381.0 -434.5 410.0 -404.0 410.0 -336.5 L410.0 0.0 500.0 0.0 500.0 -336.5 Q500.0 -414.5 481.5 -455.5 462.5 -496.5 419.0 -519.5 375.5 -543.0 316.5 -543.0 220.5 -543.0 157.5 -470.0 L157.5 -733.0 67.5 -733.0 67.5 0.0" fill-rule="evenodd" stroke="none"/>
    </g>
    <g id="font_Arial_a0">
      <path d="M406.5 -266.5 L406.5 -233.5 Q406.5 -174.0 392.0 -143.5 373.0 -104.0 332.5 -81.0 292.0 -58.5 240.0 -58.5 187.5 -58.5 160.5 -82.5 133.0 -106.5 133.0 -142.5 133.0 -166.0 145.5 -185.0 158.0 -204.5 181.0 -214.5 204.0 -224.5 259.5 -232.5 357.5 -246.5 406.5 -266.5 M414.0 -65.5 Q418.0 -28.0 432.0 0.0 L526.0 0.0 Q509.0 -30.5 503.5 -63.5 497.5 -97.0 497.5 -222.5 L497.5 -342.5 Q497.5 -402.5 493.0 -425.5 485.0 -462.5 465.0 -486.5 445.0 -511.0 402.5 -527.0 360.0 -543.0 292.0 -543.0 223.5 -543.0 171.5 -524.0 119.5 -505.5 92.0 -470.5 64.5 -436.0 52.5 -379.5 L140.5 -367.5 Q155.0 -424.0 185.5 -446.0 215.5 -468.5 279.0 -468.5 347.0 -468.5 381.5 -438.0 407.0 -415.5 407.0 -360.5 407.0 -355.5 406.5 -337.0 355.0 -319.0 246.0 -306.0 192.5 -299.5 166.0 -292.5 130.0 -282.5 101.5 -263.0 72.5 -243.5 55.0 -211.0 37.0 -179.0 37.0 -140.0 37.0 -73.5 84.0 -30.5 131.0 12.0 218.5 12.0 271.5 12.0 318.0 -5.5 364.0 -23.0 414.0 -65.5" fill-rule="evenodd" stroke="none"/>
    </g>
    <g id="text3" transform="matrix(1.0, 0.0, 0.0, 1.0, 4.0, 2.0)">
      <g transform="matrix(1.0, 0.0, 0.0, 1.0, -4.0, -2.0)">
        <use fill="#ffffff" height="78.5" transform="matrix(0.0098, 0.0, 0.0, 0.0098, 0.0, 9.05)" width="284.5" xlink:href="#font_Arial_m0"/>
        <use fill="#ffffff" height="78.5" transform="matrix(0.0098, 0.0, 0.0, 0.0098, 8.9, 9.05)" width="284.5" xlink:href="#font_Arial_i0"/>
        <use fill="#ffffff" height="78.5" transform="matrix(0.0098, 0.0, 0.0, 0.0098, 11.7, 9.05)" width="284.5" xlink:href="#font_Arial_s0"/>
        <use fill="#ffffff" height="78.5" transform="matrix(0.0098, 0.0, 0.0, 0.0098, 17.25, 9.05)" width="284.5" xlink:href="#font_Arial_c1"/>
        <use fill="#ffffff" height="78.5" transform="matrix(0.0098, 0.0, 0.0, 0.0098, 22.8, 9.05)" width="284.5" xlink:href="#font_Arial_o0"/>
        <use fill="#ffffff" height="78.5" transform="matrix(0.0098, 0.0, 0.0, 0.0098, 28.9, 9.05)" width="284.5" xlink:href="#font_Arial_u1"/>
        <use fill="#ffffff" height="78.5" transform="matrix(0.0098, 0.0, 0.0, 0.0098, 35.0, 9.05)" width="284.5" xlink:href="#font_Arial_t1"/>
        <use fill="#ffffff" height="78.5" transform="matrix(0.0098, 0.0, 0.0, 0.0098, 38.35, 9.05)" width="284.5" xlink:href="#font_Arial_p1"/>
        <use fill="#ffffff" height="78.5" transform="matrix(0.0098, 0.0, 0.0, 0.0098, 44.45, 9.05)" width="284.5" xlink:href="#font_Arial_u1"/>
        <use fill="#ffffff" height="78.5" transform="matrix(0.0098, 0.0, 0.0, 0.0098, 50.55, 9.05)" width="284.5" xlink:href="#font_Arial_t1"/>
      </g>
      <g transform="matrix(1.0, 0.0, 0.0, 1.0, -4.0, -2.0)">
        <use fill="#ffffff" height="78.5" transform="matrix(0.0098, 0.0, 0.0, 0.0098, 0.0, 20.2)" width="284.5" xlink:href="#font_Arial_10"/>
      </g>
      <g transform="matrix(1.0, 0.0, 0.0, 1.0, -4.0, -2.0)">
        <use fill="#ffffff" height="78.5" transform="matrix(0.0098, 0.0, 0.0, 0.0098, 0.0, 31.35)" width="284.5" xlink:href="#font_Arial_20"/>
      </g>
      <g transform="matrix(1.0, 0.0, 0.0, 1.0, -4.0, -2.0)">
        <use fill="#ffffff" height="78.5" transform="matrix(0.0098, 0.0, 0.0, 0.0098, 0.0, 42.5)" width="284.5" xlink:href="#font_Arial_30"/>
      </g>
    </g>
    <g id="font_Arial_m0">
      <path d="M63.0 -531.0 L63.0 0.0 203.5 0.0 203.5 -258.0 Q203.5 -334.5 215.0 -367.5 226.0 -400.5 252.0 -418.0 278.0 -435.5 310.5 -435.5 337.5 -435.5 353.5 -424.5 369.0 -413.5 376.5 -391.0 384.0 -368.5 384.0 -291.0 L384.0 0.0 524.5 0.0 524.5 -255.0 Q524.5 -330.0 536.0 -364.5 547.5 -399.5 573.5 -417.5 599.5 -435.5 629.0 -435.5 669.5 -435.5 689.0 -405.5 703.5 -382.5 703.5 -303.5 L703.5 0.0 844.0 0.0 844.0 -339.5 Q844.0 -415.5 829.5 -449.5 809.5 -495.5 769.0 -519.0 728.5 -543.0 670.0 -543.0 624.0 -543.0 583.5 -522.0 543.0 -501.0 508.0 -458.5 484.0 -501.0 446.5 -522.0 409.0 -543.0 358.0 -543.0 262.0 -543.0 192.5 -458.5 L192.5 -531.0 63.0 -531.0" fill-rule="evenodd" stroke="none"/>
    </g>
    <g id="font_Arial_i0">
      <path d="M73.5 0.0 L214.0 0.0 214.0 -531.0 73.5 -531.0 73.5 0.0 M73.5 -603.0 L214.0 -603.0 214.0 -733.0 73.5 -733.0 73.5 -603.0" fill-rule="evenodd" stroke="none"/>
    </g>
    <g id="font_Arial_c1">
      <path d="M536.5 -374.0 Q511.5 -459.5 454.5 -501.0 397.0 -543.0 300.0 -543.0 181.5 -543.0 112.0 -469.5 42.5 -396.5 42.5 -265.0 42.5 -135.0 112.0 -61.5 181.0 12.0 297.5 12.0 400.0 12.0 461.0 -36.5 522.0 -85.0 543.5 -180.0 L405.5 -203.5 Q395.0 -148.0 369.5 -125.0 344.0 -102.5 304.0 -102.5 250.5 -102.5 219.0 -141.5 187.0 -180.5 187.0 -275.0 187.0 -360.0 218.5 -396.0 249.5 -432.5 302.0 -432.5 341.5 -432.5 366.5 -411.5 391.0 -390.5 398.0 -349.0 L536.5 -374.0" fill-rule="evenodd" stroke="none"/>
    </g>
    <g id="font_Arial_o0">
      <path d="M185.0 -265.5 Q185.0 -344.5 222.5 -386.5 260.0 -428.5 315.0 -428.5 370.0 -428.5 407.5 -386.5 444.5 -344.5 444.5 -266.5 444.5 -186.5 407.5 -144.5 370.0 -102.5 315.0 -102.5 260.0 -102.5 222.5 -144.5 185.0 -186.5 185.0 -265.5 M41.0 -273.0 Q41.0 -181.5 75.5 -117.5 110.0 -54.0 176.5 -21.0 242.5 12.0 315.5 12.0 433.5 12.0 511.5 -67.0 589.0 -146.5 589.0 -267.0 589.0 -386.5 512.0 -464.5 435.0 -543.0 314.5 -543.0 236.5 -543.0 173.5 -508.5 110.0 -474.0 75.5 -408.5 41.0 -343.0 41.0 -273.0" fill-rule="evenodd" stroke="none"/>
    </g>
    <g id="font_Arial_u1">
      <path d="M423.0 0.0 L553.5 0.0 553.5 -531.0 413.0 -531.0 413.0 -307.0 Q413.0 -193.0 402.5 -163.5 392.0 -134.5 363.5 -114.5 335.0 -95.0 299.0 -95.0 267.5 -95.0 247.0 -109.5 226.5 -124.5 219.0 -149.5 211.0 -175.0 211.0 -287.0 L211.0 -531.0 70.5 -531.0 70.5 -195.0 Q70.5 -120.0 89.5 -77.5 108.5 -35.0 151.0 -11.5 193.5 12.0 247.0 12.0 299.5 12.0 347.0 -12.5 394.0 -37.0 423.0 -79.5 L423.0 0.0" fill-rule="evenodd" stroke="none"/>
    </g>
    <g id="font_Arial_t1">
      <path d="M317.0 -531.0 L221.0 -531.0 221.0 -718.5 80.0 -636.5 80.0 -531.0 15.5 -531.0 15.5 -419.0 80.0 -419.0 80.0 -187.5 Q80.0 -113.0 84.5 -88.5 90.0 -54.0 104.5 -33.5 118.5 -13.5 149.0 -0.5 179.5 12.0 217.5 12.0 279.5 12.0 328.5 -9.0 L316.5 -118.0 Q279.5 -104.5 260.0 -104.5 246.0 -104.5 236.5 -111.5 226.5 -118.5 224.0 -129.0 221.0 -140.0 221.0 -205.0 L221.0 -419.0 317.0 -419.0 317.0 -531.0" fill-rule="evenodd" stroke="none"/>
    </g>
    <g id="font_Arial_p1">
      <path d="M208.5 -274.5 Q208.5 -352.5 242.5 -392.0 276.5 -432.0 328.0 -432.0 377.5 -432.0 411.0 -391.5 444.5 -351.0 444.5 -267.5 444.5 -178.0 412.0 -138.5 379.5 -99.5 330.5 -99.5 279.5 -99.5 244.0 -142.0 208.5 -185.0 208.5 -274.5 M69.5 -531.0 L69.5 202.0 210.0 202.0 210.0 -65.5 Q249.5 -23.0 285.5 -5.5 321.0 12.0 365.0 12.0 457.5 12.0 522.5 -61.5 587.5 -135.5 587.5 -268.5 587.5 -398.0 523.0 -470.5 458.5 -543.0 366.0 -543.0 313.0 -543.0 269.5 -518.0 226.0 -493.0 200.5 -453.0 L200.5 -531.0 69.5 -531.0" fill-rule="evenodd" stroke="none"/>
    </g>
  </defs>
</svg>
