<?xml version="1.0" encoding="UTF-8" standalone="no"?>
<svg xmlns:xlink="http://www.w3.org/1999/xlink" height="1265.9px" width="1823.95px" xmlns="http://www.w3.org/2000/svg">
  <g transform="matrix(1.0, 0.0, 0.0, 1.0, 429.0, 496.1)">
    <use data-characterId="1317" data-characterName="sc346_fla.login_m_guestlogin_61" height="454.0" transform="matrix(0.3, 0.0, 0.0, 0.3, 274.6997, -110.4011)" width="924.6" xlink:href="#sprite0"/>
    <use data-characterId="1350" data-characterName="sc346_fla.login_m_memberlogin_52" height="454.0" id="mov_members" transform="matrix(0.3, 0.0, 0.0, 0.3, -165.3003, -110.4011)" width="968.6" xlink:href="#sprite1"/>
    <use data-characterId="1339" data-characterName="sc346_fla.login_m_signup_59" height="524.0" id="mov_signup" transform="matrix(1.0, 0.0, 0.0, 1.0, -316.0, -427.5)" width="934.6" xlink:href="#sprite2"/>
    <use data-characterId="1366" height="33.0" transform="matrix(1.0, 0.0, 0.0, 1.0, 887.15, 10.45)" width="118.4" xlink:href="#text6"/>
    <use data-characterId="1351" height="65.05" id="RelayMessage" transform="matrix(1.0, 0.0, 0.0, 1.0, -90.8, 22.4)" width="451.3" xlink:href="#text7"/>
  </g>
  <defs>
    <g id="sprite0" transform="matrix(1.0, 0.0, 0.0, 1.0, 101.0, 353.0)">
      <use data-characterId="1249" height="202.0" transform="matrix(1.0, 0.0, 0.0, 1.0, -101.0, -101.0)" width="202.0" xlink:href="#shape0"/>
      <use data-characterId="1250" height="19.6" transform="matrix(1.0, 0.0, 0.0, 1.0, 69.8, 70.05)" width="20.15" xlink:href="#shape1"/>
      <use data-characterId="738" height="550.0" transform="matrix(0.2858, 0.0, 0.0, 0.0038, -100.013, -76.1032)" width="700.0" xlink:href="#shape2"/>
      <use data-characterId="738" height="550.0" transform="matrix(0.2858, 0.0, 0.0, 0.0038, -100.013, -75.1032)" width="700.0" xlink:href="#shape2"/>
      <use data-characterId="1250" height="19.6" transform="matrix(1.0, 0.0, 0.0, 1.0, -90.2, 70.05)" width="20.15" xlink:href="#shape1"/>
      <use data-characterId="1292" height="47.3" transform="matrix(1.0, 0.0, 0.0, 1.0, -56.15, 41.05)" width="113.35" xlink:href="#text0"/>
      <use data-characterId="1293" height="47.3" transform="matrix(1.0, 0.0, 0.0, 1.0, -57.15, 40.05)" width="113.35" xlink:href="#text1"/>
      <use data-characterId="1298" height="120.0" id="thebutton" transform="matrix(1.0, 0.0, 0.0, 1.0, -58.95, -86.9)" width="120.0" xlink:href="#button0"/>
    </g>
    <g id="shape0" transform="matrix(1.0, 0.0, 0.0, 1.0, 101.0, 101.0)">
      <path d="M95.0 -95.0 Q99.95 -90.0 100.0 -82.9 L100.0 82.95 Q99.95 90.0 95.0 95.0 90.0 100.0 82.9 100.0 L-82.95 100.0 Q-90.05 100.0 -95.05 95.0 -100.05 90.0 -100.0 82.95 L-100.0 -82.9 Q-100.05 -90.0 -95.05 -95.0 -90.05 -100.0 -82.95 -100.0 L82.9 -100.0 Q90.0 -100.0 95.0 -95.0" fill="url(#gradient0)" fill-rule="evenodd" stroke="none"/>
      <path d="M95.0 -95.0 Q90.0 -100.0 82.9 -100.0 L-82.95 -100.0 Q-90.05 -100.0 -95.05 -95.0 -100.05 -90.0 -100.0 -82.9 L-100.0 82.95 Q-100.05 90.0 -95.05 95.0 -90.05 100.0 -82.95 100.0 L82.9 100.0 Q90.0 100.0 95.0 95.0 99.95 90.0 100.0 82.95 L100.0 -82.9 Q99.95 -90.0 95.0 -95.0 Z" fill="none" stroke="#000000" stroke-linecap="butt" stroke-linejoin="miter-clip" stroke-miterlimit="3.0" stroke-width="2.0"/>
    </g>
    <linearGradient gradientTransform="matrix(0.0, 0.1221, -0.1221, 0.0, 0.0, 0.0)" gradientUnits="userSpaceOnUse" id="gradient0" spreadMethod="pad" x1="-819.2" x2="819.2">
      <stop offset="0.0" stop-color="#282828"/>
      <stop offset="0.058823529411764705" stop-color="#323232"/>
      <stop offset="0.12549019607843137" stop-color="#282828"/>
      <stop offset="0.4117647058823529" stop-color="#141414"/>
      <stop offset="0.8470588235294118" stop-color="#0a0a0a"/>
      <stop offset="0.9254901960784314" stop-color="#141414"/>
      <stop offset="1.0" stop-color="#0a0a0a"/>
    </linearGradient>
    <g id="shape1" transform="matrix(1.0, 0.0, 0.0, 1.0, 10.05, 9.8)">
      <path d="M3.05 -7.55 Q5.3 -5.35 5.3 -2.15 5.3 1.0 3.05 3.25 0.8 5.5 -2.35 5.5 -5.5 5.5 -7.8 3.25 -10.05 1.0 -10.05 -2.15 -10.05 -5.35 -7.8 -7.55 -5.5 -9.8 -2.35 -9.8 0.8 -9.8 3.05 -7.55" fill="#171717" fill-rule="evenodd" stroke="none"/>
      <path d="M2.45 -5.5 Q5.6 -5.5 7.85 -3.25 10.1 -1.0 10.1 2.15 10.1 5.3 7.85 7.55 5.6 9.8 2.45 9.8 -0.7 9.8 -2.95 7.55 -5.2 5.3 -5.2 2.15 -5.2 -1.0 -2.95 -3.25 -0.7 -5.5 2.45 -5.5" fill="#272727" fill-rule="evenodd" stroke="none"/>
      <path d="M-5.45 -5.2 Q-3.25 -7.5 -0.05 -7.5 3.1 -7.5 5.35 -5.2 7.55 -2.95 7.55 0.2 7.55 3.35 5.35 5.6 3.1 7.85 -0.05 7.85 -3.25 7.85 -5.45 5.6 -7.7 3.35 -7.7 0.2 -7.7 -2.95 -5.45 -5.2" fill="#000000" fill-rule="evenodd" stroke="none"/>
      <path d="M0.0 -5.0 Q2.15 -5.0 3.65 -3.45 5.2 -1.95 5.2 0.2 5.2 2.35 3.65 3.85 2.15 5.35 0.0 5.35 -2.15 5.35 -3.65 3.85 -5.15 2.35 -5.15 0.2 -5.15 -1.95 -3.65 -3.45 -2.15 -5.0 0.0 -5.0" fill="#131313" fill-rule="evenodd" stroke="none"/>
      <path d="M2.7 -3.25 Q3.95 -2.0 3.95 -0.2 3.95 1.6 2.7 2.85 1.4 4.15 -0.4 4.15 -2.2 4.15 -3.45 2.85 -4.75 1.6 -4.75 -0.2 -4.75 -2.0 -3.45 -3.25 -2.2 -4.55 -0.4 -4.55 1.4 -4.55 2.7 -3.25" fill="#1b1b1b" fill-rule="evenodd" stroke="none"/>
      <path d="M-2.65 -1.0 Q-3.1 -1.0 -3.4 -1.3 L-3.7 -2.05 -3.4 -2.75 Q-3.0 -2.9 -2.65 -3.1 -2.25 -3.1 -1.95 -2.75 -1.65 -2.5 -1.65 -2.05 -1.65 -1.65 -1.95 -1.3 -2.25 -1.0 -2.65 -1.0" fill="#272727" fill-rule="evenodd" stroke="none"/>
      <path d="M1.8 1.2 Q1.55 1.2 1.4 1.05 L1.25 0.6 Q1.25 0.35 1.4 0.2 1.55 0.0 1.8 0.0 L2.2 0.2 2.4 0.6 2.2 1.05 1.8 1.2" fill="#272727" fill-rule="evenodd" stroke="none"/>
      <path d="M4.6 -2.7 L0.8 0.25 3.05 4.3 -0.45 0.95 -4.55 3.0 -1.0 -0.2 -2.55 -4.65 0.2 -0.9 4.6 -2.7" fill="#000000" fill-rule="evenodd" stroke="none"/>
    </g>
    <g id="shape2" transform="matrix(1.0, 0.0, 0.0, 1.0, 350.0, 275.0)">
      <path d="M350.0 -275.0 L350.0 275.0 -350.0 275.0 -350.0 -275.0 350.0 -275.0" fill="#656565" fill-rule="evenodd" stroke="none"/>
    </g>
    <g id="text0" transform="matrix(1.0, 0.0, 0.0, 1.0, 0.7, -0.7)">
      <g transform="matrix(1.0, 0.0, 0.0, 1.0, -2.0, -1.6)">
        <use fill="#1e1e1e" height="47.3" transform="matrix(0.0234, 0.0, 0.0, 0.0234, 0.0, 22.0)" width="113.35" xlink:href="#font_Arial_G0"/>
        <use fill="#1e1e1e" height="47.3" transform="matrix(0.0234, 0.0, 0.0, 0.0234, 18.65, 22.0)" width="113.35" xlink:href="#font_Arial_U0"/>
        <use fill="#1e1e1e" height="47.3" transform="matrix(0.0234, 0.0, 0.0, 0.0234, 36.0, 22.0)" width="113.35" xlink:href="#font_Arial_E0"/>
        <use fill="#1e1e1e" height="47.3" transform="matrix(0.0234, 0.0, 0.0, 0.0234, 52.0, 22.0)" width="113.35" xlink:href="#font_Arial_S0"/>
        <use fill="#1e1e1e" height="47.3" transform="matrix(0.0234, 0.0, 0.0, 0.0234, 68.0, 22.0)" width="113.35" xlink:href="#font_Arial_T0"/>
        <use fill="#1e1e1e" height="47.3" transform="matrix(0.0234, 0.0, 0.0, 0.0234, 82.65, 22.0)" width="113.35" xlink:href="#font_Arial_S0"/>
      </g>
    </g>
    <g id="font_Arial_G0">
      <path d="M422.0 -287.5 L637.5 -287.5 637.5 -151.0 Q606.5 -123.5 546.5 -99.0 486.5 -75.0 423.5 -75.0 351.0 -75.0 286.5 -107.0 222.0 -139.0 188.5 -205.0 154.5 -271.0 154.5 -369.0 154.5 -448.5 182.5 -516.5 199.0 -556.0 229.0 -589.0 258.5 -622.0 307.0 -642.0 355.5 -662.5 422.0 -662.5 477.5 -662.5 523.0 -643.0 568.5 -624.0 593.0 -592.0 617.5 -560.0 634.0 -504.0 L721.5 -528.0 Q702.5 -602.0 666.0 -648.0 629.5 -694.0 565.5 -719.5 501.0 -745.5 421.5 -745.5 312.0 -745.5 228.0 -700.5 144.0 -655.5 99.5 -562.5 54.5 -470.0 54.5 -363.0 54.5 -255.0 99.5 -167.5 144.5 -80.0 233.0 -33.5 321.0 12.5 429.0 12.5 509.0 12.5 585.0 -16.0 661.0 -45.0 732.5 -102.0 L732.5 -374.0 422.0 -373.5 422.0 -287.5" fill-rule="evenodd" stroke="none"/>
    </g>
    <g id="font_Arial_U0">
      <path d="M560.0 -733.0 L560.0 -310.0 Q560.0 -172.0 514.5 -123.5 469.0 -75.0 362.0 -75.0 299.5 -75.0 256.5 -99.5 213.0 -124.0 195.5 -169.0 177.5 -214.5 177.5 -310.0 L177.5 -733.0 80.5 -733.0 80.5 -309.5 Q80.5 -193.0 108.5 -125.5 136.5 -58.5 202.0 -23.0 267.5 12.5 370.5 12.5 476.5 12.5 542.0 -28.0 607.0 -69.0 632.0 -134.0 657.0 -199.0 657.0 -309.5 L657.0 -733.0 560.0 -733.0" fill-rule="evenodd" stroke="none"/>
    </g>
    <g id="font_Arial_E0">
      <path d="M81.0 0.0 L628.0 0.0 628.0 -86.5 178.0 -86.5 178.0 -336.0 583.5 -336.0 583.5 -422.0 178.0 -422.0 178.0 -646.5 611.0 -646.5 611.0 -733.0 81.0 -733.0 81.0 0.0" fill-rule="evenodd" stroke="none"/>
    </g>
    <g id="font_Arial_S0">
      <path d="M46.0 -235.5 Q48.0 -162.0 86.5 -103.5 124.5 -45.5 192.0 -16.5 259.0 12.5 358.5 12.5 437.0 12.5 500.0 -16.0 562.5 -45.0 596.0 -96.5 629.5 -148.5 629.5 -207.0 629.5 -266.0 599.0 -311.0 568.5 -356.5 504.5 -386.0 460.5 -406.0 342.5 -432.5 224.0 -459.5 196.0 -485.0 167.5 -510.5 167.5 -550.0 167.5 -595.5 208.0 -627.5 248.0 -660.0 336.0 -660.0 420.5 -660.0 464.0 -624.5 507.0 -589.0 514.5 -519.5 L607.5 -526.5 Q605.0 -591.0 571.5 -642.0 538.0 -693.0 476.0 -719.0 413.5 -745.5 332.0 -745.5 258.0 -745.5 197.5 -720.5 137.0 -695.5 105.5 -647.0 74.0 -599.0 74.0 -543.5 74.0 -493.0 100.0 -452.0 125.5 -411.5 178.0 -384.0 218.5 -362.5 319.5 -338.0 420.5 -314.0 450.0 -302.5 496.0 -285.0 516.0 -259.0 536.0 -233.5 536.0 -199.0 536.0 -165.0 515.5 -136.0 494.5 -107.5 452.0 -91.0 409.5 -74.5 354.0 -74.5 291.5 -74.5 241.5 -96.0 191.5 -118.0 168.0 -153.0 144.0 -188.5 137.5 -243.5 L46.0 -235.5" fill-rule="evenodd" stroke="none"/>
    </g>
    <g id="font_Arial_T0">
      <path d="M265.5 0.0 L362.5 0.0 362.5 -646.5 605.0 -646.5 605.0 -733.0 24.0 -733.0 24.0 -646.5 265.5 -646.5 265.5 0.0" fill-rule="evenodd" stroke="none"/>
    </g>
    <g id="text1" transform="matrix(1.0, 0.0, 0.0, 1.0, 0.7, -0.7)">
      <g transform="matrix(1.0, 0.0, 0.0, 1.0, -2.0, -1.6)">
        <use fill="#000000" height="47.3" transform="matrix(0.0234, 0.0, 0.0, 0.0234, 0.0, 22.0)" width="113.35" xlink:href="#font_Arial_G0"/>
        <use fill="#000000" height="47.3" transform="matrix(0.0234, 0.0, 0.0, 0.0234, 18.65, 22.0)" width="113.35" xlink:href="#font_Arial_U0"/>
        <use fill="#000000" height="47.3" transform="matrix(0.0234, 0.0, 0.0, 0.0234, 36.0, 22.0)" width="113.35" xlink:href="#font_Arial_E0"/>
        <use fill="#000000" height="47.3" transform="matrix(0.0234, 0.0, 0.0, 0.0234, 52.0, 22.0)" width="113.35" xlink:href="#font_Arial_S0"/>
        <use fill="#000000" height="47.3" transform="matrix(0.0234, 0.0, 0.0, 0.0234, 68.0, 22.0)" width="113.35" xlink:href="#font_Arial_T0"/>
        <use fill="#000000" height="47.3" transform="matrix(0.0234, 0.0, 0.0, 0.0234, 82.65, 22.0)" width="113.35" xlink:href="#font_Arial_S0"/>
      </g>
    </g>
    <g id="button0" transform="matrix(1.0, 0.0, 0.0, 1.0, 60.0, 60.0)">
      <use data-characterId="1294" height="115.6" transform="matrix(1.0, 0.0, 0.0, 1.0, -57.75, -57.7)" width="115.35" xlink:href="#shape3"/>
      <use data-characterId="1295" height="120.0" transform="matrix(1.0, 0.0, 0.0, 1.0, -60.0, -60.0)" width="120.0" xlink:href="#shape4"/>
    </g>
    <g id="shape3" transform="matrix(1.0, 0.0, 0.0, 1.0, 57.75, 57.7)">
      <path d="M-37.4 -43.9 L-38.15 -43.25 26.85 -51.05 Q24.25 -52.5 21.55 -53.55 L-14.35 -55.75 -14.55 -55.9 Q-11.45 -56.75 -8.15 -57.2 L-5.45 -57.5 Q22.15 -59.6 41.3 -40.15 29.2 -39.65 17.1 -39.95 L-38.7 -42.8 -37.4 -43.9 M44.55 -36.45 L43.85 -37.45 Q55.8 -23.9 57.5 -5.7 L56.95 -9.6 50.7 -7.5 35.1 -6.45 36.3 -8.0 Q38.05 -10.2 39.0 -12.85 L39.5 -13.0 Q48.1 -15.55 53.1 -22.6 L51.9 -25.25 46.35 -33.8 46.7 -33.9 44.55 -36.45 M30.1 -1.55 L29.55 -2.05 31.95 -2.5 30.1 -1.55 M55.75 15.1 Q49.85 37.05 29.45 49.55 14.7 58.55 -2.6 57.85 -11.2 57.45 -18.85 54.85 L-18.6 54.4 41.2 37.15 -33.95 46.7 -33.25 47.2 -33.35 47.25 -35.5 45.55 -12.75 39.2 Q2.0 43.25 14.85 35.45 18.2 33.4 19.95 30.05 L53.9 20.6 49.95 21.1 Q52.6 19.75 54.4 17.0 L55.4 15.3 55.75 15.1 M-55.0 -17.55 L-54.0 -20.55 -53.9 -20.6 -54.25 -19.75 -33.7 -23.4 -36.45 -19.9 -40.0 -19.25 Q-47.45 -18.0 -55.0 -17.55 M-57.65 -2.9 L-47.2 -4.75 -46.95 -1.3 -57.75 -0.6 -57.65 -2.9 M-47.4 32.9 L-49.35 30.15 -49.3 30.05 -49.0 30.5 -33.3 27.0 -32.05 28.5 -29.6 30.75 -47.4 32.9 M-56.45 12.95 L-56.3 12.85 -56.2 13.4 -41.7 10.75 -41.55 13.4 -55.9 14.45 -55.6 15.5 -55.8 15.45 -56.45 12.95" fill="#291c00" fill-rule="evenodd" stroke="none"/>
      <path d="M20.4 -32.4 L15.9 -34.75 12.3 -36.2 Q24.9 -41.1 33.7 -31.0 38.55 -25.45 37.7 -18.05 36.5 -7.9 27.2 -3.4 L24.05 -4.35 Q21.65 -5.05 19.25 -5.35 26.95 -12.8 25.85 -23.0 25.6 -25.35 24.35 -27.3 L20.4 -32.4 M21.35 -36.55 Q18.75 -36.55 19.4 -34.3 19.7 -33.05 20.8 -32.45 23.35 -31.2 25.5 -32.75 26.2 -36.6 21.35 -36.55 M44.55 -36.45 Q40.4 -38.0 36.9 -36.1 35.7 -35.5 36.55 -34.35 38.15 -32.15 41.05 -32.65 43.65 -33.05 46.35 -33.8 L51.9 -25.25 51.25 -24.05 Q46.95 -17.9 39.75 -15.4 42.05 -29.65 30.0 -37.5 L31.05 -37.7 Q37.3 -38.6 43.75 -37.6 L43.85 -37.45 44.55 -36.45 M11.85 -34.35 Q21.9 -31.5 24.3 -21.85 24.6 -20.55 24.3 -19.2 22.3 -11.25 16.4 -5.3 L12.2 -4.6 Q0.75 -1.35 -5.7 8.25 -8.2 11.85 -8.05 16.25 -7.85 22.65 -2.7 25.9 2.3 29.05 8.15 29.15 L17.9 29.3 Q9.75 39.65 -3.8 38.35 -13.55 37.75 -22.0 33.15 -29.8 29.0 -35.0 22.0 L-36.0 21.05 Q-39.85 18.55 -39.7 13.45 -39.6 8.85 -39.95 4.25 -41.05 -10.1 -32.4 -21.05 -29.5 -24.75 -25.4 -27.0 -11.1 -35.05 5.3 -35.3 8.65 -35.35 11.85 -34.35 M-21.9 -7.8 Q-19.5 -17.8 -9.25 -21.4 -0.45 -24.7 6.35 -30.7 4.75 -34.15 0.25 -33.35 -13.85 -31.15 -26.1 -23.75 -33.65 -19.2 -34.0 -10.85 -36.8 -10.35 -37.6 -6.35 -39.35 2.5 -24.95 6.25 -18.15 8.05 -12.5 4.4 -7.2 0.95 -7.2 -4.15 -7.2 -7.8 -13.7 -7.4 L-21.9 -7.8 M-36.15 -38.95 Q-35.4 -39.7 -34.3 -39.7 -33.25 -39.7 -32.45 -38.95 -31.7 -38.2 -31.7 -37.15 -31.7 -36.05 -32.45 -35.25 -33.25 -34.5 -34.3 -34.5 -35.4 -34.5 -36.15 -35.25 -36.9 -36.05 -36.9 -37.15 -36.9 -38.2 -36.15 -38.95 M-38.4 -16.7 Q-42.0 -9.35 -42.05 -1.0 L-42.0 3.8 Q-45.3 0.6 -45.2 -4.2 -45.05 -12.35 -38.4 -16.7 M-4.05 21.35 Q-7.1 15.1 -3.65 9.25 -1.15 4.8 3.0 1.85 15.15 -6.8 28.05 -0.35 24.55 1.6 22.35 4.9 16.8 5.0 14.05 9.8 11.65 14.1 14.35 18.2 19.45 26.05 28.45 22.35 L30.75 22.85 28.75 24.0 Q15.4 29.9 1.1 25.7 -2.5 24.7 -4.05 21.35 M30.7 7.95 Q35.65 9.55 33.95 14.9 31.6 18.95 27.05 20.65 21.5 22.8 17.4 18.8 14.1 15.65 15.85 11.45 16.3 10.25 17.3 9.6 23.4 5.4 30.7 7.95 M50.85 1.4 Q56.2 6.85 53.2 13.8 50.05 20.95 41.9 21.1 L31.55 20.65 Q36.6 17.7 36.55 12.1 36.55 10.35 35.6 8.95 32.15 3.85 25.35 4.7 L26.85 3.35 Q35.65 -4.65 46.65 -1.6 48.95 -0.5 50.85 1.4" fill="#322300" fill-rule="evenodd" stroke="none"/>
      <path d="M21.35 -36.55 Q26.2 -36.6 25.5 -32.75 23.35 -31.2 20.8 -32.45 19.7 -33.05 19.4 -34.3 18.75 -36.55 21.35 -36.55 M46.35 -33.8 Q43.65 -33.05 41.05 -32.65 38.15 -32.15 36.55 -34.35 35.7 -35.5 36.9 -36.1 40.4 -38.0 44.55 -36.45 L46.7 -33.9 46.35 -33.8 M-34.0 -10.85 Q-33.65 -19.2 -26.1 -23.75 -13.85 -31.15 0.25 -33.35 4.75 -34.15 6.35 -30.7 -0.45 -24.7 -9.25 -21.4 -19.5 -17.8 -21.9 -7.8 -27.6 -10.1 -33.7 -10.9 L-34.0 -10.85 M49.2 -2.85 L46.7 -3.85 44.25 -4.7 50.7 -7.5 56.95 -9.6 57.5 -5.7 49.2 -2.85 M57.4 5.95 L57.25 7.75 Q56.7 11.45 55.75 15.1 L55.4 15.3 Q56.9 12.05 56.6 8.6 L56.4 6.8 57.4 5.95 M-32.6 -4.1 Q-36.3 -6.8 -32.35 -8.3 L-27.05 -7.8 Q-22.9 -6.4 -23.9 -2.9 -28.55 -1.2 -32.6 -4.1" fill="#322914" fill-rule="evenodd" stroke="none"/>
      <path d="M57.5 -5.7 L57.5 -5.45 57.5 -5.05 57.55 -4.8 57.6 3.05 57.4 5.95 56.4 6.8 Q55.05 1.6 51.0 -1.55 L49.2 -2.85 57.5 -5.7" fill="#323232" fill-rule="evenodd" stroke="none"/>
    </g>
    <g id="shape4" transform="matrix(1.0, 0.0, 0.0, 1.0, 60.0, 60.0)">
      <path d="M21.55 -53.55 Q24.25 -52.5 26.85 -51.05 L-38.15 -43.25 Q-27.95 -52.35 -14.85 -55.8 L21.55 -53.55 M30.0 -37.5 Q42.05 -29.65 39.75 -15.4 46.95 -17.9 51.25 -24.05 L51.9 -25.25 53.1 -22.6 Q48.1 -15.55 39.5 -13.0 L39.0 -12.85 Q38.05 -10.2 36.3 -8.0 L35.1 -6.45 50.7 -7.5 44.25 -4.7 46.7 -3.85 49.2 -2.85 51.0 -1.55 Q55.05 1.6 56.4 6.8 L56.6 8.6 Q56.9 12.05 55.4 15.3 L54.4 17.0 Q52.6 19.75 49.95 21.1 L53.9 20.6 19.95 30.05 Q18.2 33.4 14.85 35.45 2.0 43.25 -12.75 39.2 L-35.5 45.55 -36.9 44.45 Q-22.05 57.0 -2.6 57.85 14.7 58.55 29.45 49.55 49.85 37.05 55.75 15.1 56.7 11.45 57.25 7.75 L57.4 5.95 57.6 3.05 57.55 -4.8 57.5 -5.45 57.5 -5.7 Q55.8 -23.9 43.85 -37.45 L43.75 -37.6 Q37.3 -38.6 31.05 -37.7 L30.0 -37.5 M11.85 -34.35 Q8.65 -35.35 5.3 -35.3 -11.1 -35.05 -25.4 -27.0 -29.5 -24.75 -32.4 -21.05 -41.05 -10.1 -39.95 4.25 -39.6 8.85 -39.7 13.45 -39.85 18.55 -36.0 21.05 L-35.0 22.0 Q-29.8 29.0 -22.0 33.15 -13.55 37.75 -3.8 38.35 9.75 39.65 17.9 29.3 L8.15 29.15 Q2.3 29.05 -2.7 25.9 -7.85 22.65 -8.05 16.25 -8.2 11.85 -5.7 8.25 0.75 -1.35 12.2 -4.6 L16.4 -5.3 Q22.3 -11.25 24.3 -19.2 24.6 -20.55 24.3 -21.85 21.9 -31.5 11.85 -34.35 M20.4 -32.4 L24.35 -27.3 Q25.6 -25.35 25.85 -23.0 26.95 -12.8 19.25 -5.35 21.65 -5.05 24.05 -4.35 L27.2 -3.4 Q36.5 -7.9 37.7 -18.05 38.55 -25.45 33.7 -31.0 24.9 -41.1 12.3 -36.2 L15.9 -34.75 20.4 -32.4 M30.1 -1.55 L31.95 -2.5 29.55 -2.05 30.1 -1.55 M42.4 -42.4 Q60.0 -24.75 60.0 0.0 60.0 24.8 42.4 42.4 24.75 60.0 0.0 60.0 -24.8 60.0 -42.4 42.4 -60.0 24.8 -60.0 0.0 -60.0 -24.75 -42.4 -42.4 -24.8 -60.0 0.0 -60.0 24.75 -60.0 42.4 -42.4 M-36.9 -37.15 Q-36.9 -36.05 -36.15 -35.25 -35.4 -34.5 -34.3 -34.5 -33.25 -34.5 -32.45 -35.25 -31.7 -36.05 -31.7 -37.15 -31.7 -38.2 -32.45 -38.95 -33.25 -39.7 -34.3 -39.7 -35.4 -39.7 -36.15 -38.95 -36.9 -38.2 -36.9 -37.15 M-55.6 -15.7 L-55.0 -17.55 Q-47.45 -18.0 -40.0 -19.25 L-36.45 -19.9 -33.7 -23.4 -54.25 -19.75 -50.6 -27.9 Q-53.85 -22.1 -55.6 -15.7 M-57.65 -2.9 L-57.75 -0.6 -46.95 -1.3 -47.2 -4.75 -57.65 -2.9 M17.1 -39.95 Q29.2 -39.65 41.3 -40.15 22.15 -59.6 -5.45 -57.5 L-8.15 -57.2 Q-25.7 -54.7 -38.7 -42.8 L17.1 -39.95 M-33.7 -10.9 Q-27.6 -10.1 -21.9 -7.8 L-13.7 -7.4 Q-7.2 -7.8 -7.2 -4.15 -7.2 0.95 -12.5 4.4 -18.15 8.05 -24.95 6.25 -39.35 2.5 -37.6 -6.35 -36.8 -10.35 -34.0 -10.85 L-33.7 -10.9 M-32.6 -4.1 Q-28.55 -1.2 -23.9 -2.9 -22.9 -6.4 -27.05 -7.8 L-32.35 -8.3 Q-36.3 -6.8 -32.6 -4.1 M-42.05 -1.0 Q-42.0 -9.35 -38.4 -16.7 -45.05 -12.35 -45.2 -4.2 -45.3 0.6 -42.0 3.8 L-42.05 -1.0 M-4.05 21.35 Q-2.5 24.7 1.1 25.7 15.4 29.9 28.75 24.0 L30.75 22.85 28.45 22.35 Q19.45 26.05 14.35 18.2 11.65 14.1 14.05 9.8 16.8 5.0 22.35 4.9 24.55 1.6 28.05 -0.35 15.15 -6.8 3.0 1.85 -1.15 4.8 -3.65 9.25 -7.1 15.1 -4.05 21.35 M-19.05 54.5 Q-27.0 51.75 -33.95 46.7 L41.2 37.15 -19.05 54.5 M-29.6 30.75 L-32.05 28.5 -33.3 27.0 -49.0 30.5 Q-53.75 22.95 -55.9 14.45 L-41.55 13.4 -41.7 10.75 -56.2 13.4 -57.4 6.95 Q-55.65 22.75 -45.75 35.25 L-47.45 32.9 -29.6 30.75 M53.2 13.8 Q56.2 6.85 50.85 1.4 48.95 -0.5 46.65 -1.6 35.65 -4.65 26.85 3.35 L25.35 4.7 Q32.15 3.85 35.6 8.95 36.55 10.35 36.55 12.1 36.6 17.7 31.55 20.65 L41.9 21.1 Q50.05 20.95 53.2 13.8 M30.7 7.95 Q23.4 5.4 17.3 9.6 16.3 10.25 15.85 11.45 14.1 15.65 17.4 18.8 21.5 22.8 27.05 20.65 31.6 18.95 33.95 14.9 35.65 9.55 30.7 7.95" fill="#000000" fill-rule="evenodd" stroke="none"/>
    </g>
    <g id="sprite1" transform="matrix(1.0, 0.0, 0.0, 1.0, 101.0, 353.0)">
      <use data-characterId="1249" height="202.0" transform="matrix(1.0, 0.0, 0.0, 1.0, -101.0, -101.0)" width="202.0" xlink:href="#shape0"/>
      <use data-characterId="1250" height="19.6" transform="matrix(1.0, 0.0, 0.0, 1.0, 69.8, 70.05)" width="20.15" xlink:href="#shape1"/>
      <use data-characterId="738" height="550.0" transform="matrix(0.2858, 0.0, 0.0, 0.0038, -100.013, -76.1032)" width="700.0" xlink:href="#shape2"/>
      <use data-characterId="738" height="550.0" transform="matrix(0.2858, 0.0, 0.0, 0.0038, -100.013, -75.1032)" width="700.0" xlink:href="#shape2"/>
      <use data-characterId="1250" height="19.6" transform="matrix(1.0, 0.0, 0.0, 1.0, -90.2, 70.05)" width="20.15" xlink:href="#shape1"/>
      <use data-characterId="1340" height="47.3" transform="matrix(1.0, 0.0, 0.0, 1.0, -70.3, 41.05)" width="135.55" xlink:href="#text2"/>
      <use data-characterId="1341" height="47.3" transform="matrix(1.0, 0.0, 0.0, 1.0, -71.3, 40.05)" width="135.55" xlink:href="#text3"/>
      <use data-characterId="1346" height="120.0" id="thebutton" transform="matrix(1.0, 0.0, 0.0, 1.0, -60.2, -86.85)" width="120.0" xlink:href="#button1"/>
    </g>
    <g id="text2" transform="matrix(1.0, 0.0, 0.0, 1.0, 0.2, -0.7)">
      <g transform="matrix(1.0, 0.0, 0.0, 1.0, -2.0, -1.6)">
        <use fill="#1e1e1e" height="47.3" transform="matrix(0.0234, 0.0, 0.0, 0.0234, 0.0, 22.0)" width="135.55" xlink:href="#font_Arial_M0"/>
        <use fill="#1e1e1e" height="47.3" transform="matrix(0.0234, 0.0, 0.0, 0.0234, 20.0, 22.0)" width="135.55" xlink:href="#font_Arial_E0"/>
        <use fill="#1e1e1e" height="47.3" transform="matrix(0.0234, 0.0, 0.0, 0.0234, 36.0, 22.0)" width="135.55" xlink:href="#font_Arial_M0"/>
        <use fill="#1e1e1e" height="47.3" transform="matrix(0.0234, 0.0, 0.0, 0.0234, 56.0, 22.0)" width="135.55" xlink:href="#font_Arial_B0"/>
        <use fill="#1e1e1e" height="47.3" transform="matrix(0.0234, 0.0, 0.0, 0.0234, 72.0, 22.0)" width="135.55" xlink:href="#font_Arial_E0"/>
        <use fill="#1e1e1e" height="47.3" transform="matrix(0.0234, 0.0, 0.0, 0.0234, 88.0, 22.0)" width="135.55" xlink:href="#font_Arial_R0"/>
        <use fill="#1e1e1e" height="47.3" transform="matrix(0.0234, 0.0, 0.0, 0.0234, 105.35, 22.0)" width="135.55" xlink:href="#font_Arial_S0"/>
      </g>
    </g>
    <g id="font_Arial_M0">
      <path d="M76.0 0.0 L169.5 0.0 169.5 -624.0 381.5 0.0 469.0 0.0 682.0 -613.5 682.0 0.0 775.5 0.0 775.5 -733.0 645.0 -733.0 469.5 -223.0 Q443.0 -145.5 430.5 -105.5 419.5 -141.5 395.5 -214.0 L222.0 -733.0 76.0 -733.0 76.0 0.0" fill-rule="evenodd" stroke="none"/>
    </g>
    <g id="font_Arial_B0">
      <path d="M172.0 -86.5 L172.0 -338.5 341.5 -338.5 Q411.5 -338.5 449.0 -326.0 486.0 -314.0 507.0 -283.5 528.0 -253.5 528.0 -212.5 528.0 -177.5 513.5 -150.5 499.0 -124.0 476.5 -110.0 454.0 -96.0 420.5 -90.0 401.5 -86.5 354.5 -86.5 L172.0 -86.5 M172.0 -425.0 L172.0 -646.5 318.5 -646.5 Q397.5 -646.5 430.0 -636.0 462.5 -626.0 480.0 -598.0 497.5 -570.5 497.5 -534.0 497.5 -495.5 479.0 -470.0 460.0 -444.5 423.0 -433.5 395.0 -425.0 330.5 -425.0 L172.0 -425.0 M75.0 0.0 L354.5 0.0 Q424.5 0.0 473.0 -12.0 521.0 -24.5 553.0 -48.5 585.0 -72.5 607.0 -116.5 628.5 -161.0 628.5 -212.5 628.5 -276.5 593.0 -323.5 557.0 -370.5 490.5 -390.0 542.0 -415.5 567.5 -457.0 593.0 -498.5 593.0 -545.5 593.0 -596.0 564.5 -642.0 535.5 -688.5 485.0 -710.5 434.0 -733.0 350.0 -733.0 L75.0 -733.0 75.0 0.0" fill-rule="evenodd" stroke="none"/>
    </g>
    <g id="font_Arial_R0">
      <path d="M177.5 -409.5 L177.5 -652.0 409.5 -652.0 Q491.0 -652.0 529.0 -618.5 566.5 -585.0 566.5 -533.0 566.5 -497.5 547.0 -467.0 527.5 -437.0 490.0 -423.0 452.5 -409.5 386.0 -409.5 L177.5 -409.5 M80.5 0.0 L177.5 0.0 177.5 -325.5 290.0 -325.5 Q327.5 -325.5 344.0 -322.0 366.5 -316.5 388.5 -302.5 410.0 -288.5 437.5 -253.5 465.0 -218.5 507.5 -152.5 L604.5 0.0 726.5 0.0 599.0 -199.5 Q561.0 -258.0 518.5 -297.0 498.5 -315.0 460.0 -333.5 565.5 -348.0 616.0 -401.5 666.5 -455.0 666.5 -533.0 666.5 -593.5 636.0 -643.5 605.5 -693.5 554.5 -713.0 503.5 -733.0 405.5 -733.0 L80.5 -733.0 80.5 0.0" fill-rule="evenodd" stroke="none"/>
    </g>
    <g id="text3" transform="matrix(1.0, 0.0, 0.0, 1.0, 0.2, -0.7)">
      <g transform="matrix(1.0, 0.0, 0.0, 1.0, -2.0, -1.6)">
        <use fill="#000000" height="47.3" transform="matrix(0.0234, 0.0, 0.0, 0.0234, 0.0, 22.0)" width="135.55" xlink:href="#font_Arial_M0"/>
        <use fill="#000000" height="47.3" transform="matrix(0.0234, 0.0, 0.0, 0.0234, 20.0, 22.0)" width="135.55" xlink:href="#font_Arial_E0"/>
        <use fill="#000000" height="47.3" transform="matrix(0.0234, 0.0, 0.0, 0.0234, 36.0, 22.0)" width="135.55" xlink:href="#font_Arial_M0"/>
        <use fill="#000000" height="47.3" transform="matrix(0.0234, 0.0, 0.0, 0.0234, 56.0, 22.0)" width="135.55" xlink:href="#font_Arial_B0"/>
        <use fill="#000000" height="47.3" transform="matrix(0.0234, 0.0, 0.0, 0.0234, 72.0, 22.0)" width="135.55" xlink:href="#font_Arial_E0"/>
        <use fill="#000000" height="47.3" transform="matrix(0.0234, 0.0, 0.0, 0.0234, 88.0, 22.0)" width="135.55" xlink:href="#font_Arial_R0"/>
        <use fill="#000000" height="47.3" transform="matrix(0.0234, 0.0, 0.0, 0.0234, 105.35, 22.0)" width="135.55" xlink:href="#font_Arial_S0"/>
      </g>
    </g>
    <g id="button1" transform="matrix(1.0, 0.0, 0.0, 1.0, 59.95, 59.95)">
      <use data-characterId="1342" height="114.95" transform="matrix(1.0, 0.0, 0.0, 1.0, -57.75, -57.7)" width="115.55" xlink:href="#shape5"/>
      <use data-characterId="1343" height="120.0" transform="matrix(1.0, 0.0, 0.0, 1.0, -59.95, -59.95)" width="120.0" xlink:href="#shape6"/>
    </g>
    <g id="shape5" transform="matrix(1.0, 0.0, 0.0, 1.0, 57.75, 57.7)">
      <path d="M-28.8 -49.95 L-29.5 -49.65 Q-22.9 -53.6 -15.45 -55.6 -7.95 -57.7 0.05 -57.7 5.8 -57.75 11.55 -56.65 18.4 -55.3 24.7 -52.25 31.15 -49.2 36.5 -44.7 L43.05 -38.45 -10.75 -55.3 52.55 -24.0 Q50.0 -29.45 46.6 -34.1 50.9 -28.55 53.6 -22.1 56.25 -15.65 57.3 -8.65 57.9 -4.35 57.8 0.05 L57.75 -1.1 43.45 -6.6 44.55 -6.2 45.5 -6.0 47.9 -6.3 49.5 -7.3 50.75 -8.8 51.3 -9.95 57.4 -6.45 Q56.8 -12.7 54.65 -18.6 L53.2 -22.5 25.9 -33.6 21.8 -36.75 Q20.2 -37.8 18.5 -38.35 L15.45 -38.55 14.75 -38.35 -13.75 -49.7 -21.2 -53.7 -23.85 -52.4 -24.0 -52.45 -28.8 -49.95 M-55.3 -16.55 L-56.1 -13.8 Q-54.05 -22.5 -49.3 -29.85 L-48.95 -30.45 -47.8 -32.15 -48.15 -31.5 -48.95 -30.45 -48.15 -31.5 -50.95 -26.95 Q-53.0 -23.3 -54.4 -19.25 L-54.75 -18.2 -55.3 -16.55 M7.45 -35.3 L5.15 -34.2 -0.5 -39.85 7.45 -35.3 M-41.65 -39.85 L-42.6 -38.85 -42.2 -39.3 -41.65 -39.85 M-38.35 30.35 L-34.4 30.35 -16.85 37.05 12.8 56.35 Q25.55 53.45 35.85 45.25 L-8.8 28.4 -7.35 28.1 -3.6 26.9 14.1 33.65 14.6 33.75 15.55 33.8 16.55 33.7 17.05 33.55 17.9 33.2 18.7 32.6 19.35 31.9 38.5 43.05 Q44.0 38.1 48.05 32.05 L16.3 18.3 19.05 16.2 21.25 14.1 21.45 13.9 49.4 29.95 Q52.95 24.0 55.1 17.4 L25.45 4.6 25.35 2.7 24.25 -1.55 55.5 16.05 Q56.65 12.15 57.25 8.25 54.8 26.9 40.85 40.85 27.4 54.3 9.55 57.05 L12.65 56.4 -39.35 30.2 -38.35 30.35 M-46.7 29.45 L-10.5 56.8 -7.8 57.25 Q-26.65 54.9 -40.75 40.85 -49.05 32.55 -53.25 22.55 -51.75 25.9 -49.8 29.15 L-46.7 29.45" fill="#291c00" fill-rule="evenodd" stroke="none"/>
      <path d="M-28.8 -49.95 L-24.0 -52.45 -23.85 -52.4 Q-6.75 -45.05 6.05 -30.15 19.2 -14.85 23.15 3.15 24.95 11.55 11.45 18.7 L7.8 20.5 -20.05 9.8 -20.4 8.95 -21.3 7.2 -23.15 4.7 -26.4 1.7 -30.25 -0.9 -34.3 -2.75 -36.35 -3.35 -38.45 -3.6 -40.35 -3.55 Q-48.7 -8.75 -56.45 -11.95 L-55.3 -16.55 -54.75 -18.2 -54.4 -19.25 Q-53.0 -23.3 -50.95 -26.95 L-48.15 -31.5 -46.15 -34.3 -42.6 -38.85 -41.65 -39.85 -41.5 -40.0 Q-35.85 -45.9 -28.8 -49.95 M-46.4 -34.0 L-47.55 -32.45 -46.9 -33.4 -46.4 -34.0 M-45.4 -35.35 L-44.9 -36.1 -44.65 -36.35 -45.4 -35.35 M6.8 -32.55 Q10.15 -34.45 15.4 -36.2 19.45 -37.55 23.8 -32.65 28.15 -27.7 25.6 -24.35 L23.8 -22.0 18.6 -15.35 14.5 -22.65 7.8 -31.55 6.8 -32.55 M13.3 -15.75 Q10.05 -23.35 -0.3 -33.85 -12.0 -45.75 -19.55 -46.05 -26.9 -46.35 -32.15 -41.7 -37.4 -37.0 -32.15 -34.1 -24.3 -29.75 -17.1 -21.3 -9.4 -12.3 -8.4 -4.9 L-41.4 -20.65 -10.35 -1.95 -7.9 -3.35 Q-7.0 -2.25 -4.25 -2.5 -0.75 -2.85 3.85 -5.05 8.6 -7.35 11.3 -10.1 14.4 -13.25 13.3 -15.75 M23.15 -4.65 L20.5 -11.65 42.6 -3.2 Q45.25 -2.3 44.2 0.4 43.2 3.05 40.55 2.0 L23.15 -4.65 M22.7 -17.0 L26.25 -21.65 47.35 -13.6 Q50.0 -12.6 48.95 -9.95 47.95 -7.4 45.3 -8.35 L22.7 -17.0 M-43.5 -2.45 Q-47.2 -0.8 -50.7 1.2 -54.15 3.15 -57.45 5.4 L-57.1 8.0 Q-49.75 2.05 -40.8 -0.9 L-37.8 -1.4 Q-34.05 -1.0 -30.8 1.2 -28.1 2.95 -25.5 5.45 -23.95 6.95 -22.65 8.8 L-24.75 8.65 Q-27.05 8.95 -28.3 11.0 -29.15 12.3 -29.1 13.85 -29.1 15.5 -27.95 16.95 L-33.85 19.75 Q-37.4 18.45 -41.05 17.65 L-43.3 17.8 Q-45.6 18.65 -46.15 21.0 -46.55 22.4 -46.15 23.75 L-51.85 25.25 -53.7 21.2 -55.3 16.7 Q-56.75 11.95 -57.3 6.95 -58.35 -1.4 -56.9 -9.7 L-43.5 -2.45 M-25.1 16.3 Q-27.7 15.3 -26.7 12.65 -25.75 10.1 -23.05 11.05 L16.4 26.15 Q19.0 27.1 18.05 29.8 L17.45 30.8 Q16.4 32.15 14.45 31.4 L-25.1 16.3 M-25.15 14.2 L3.85 23.1 -22.75 12.1 -25.15 14.2 M-30.8 20.9 L-25.85 18.45 -6.75 25.7 Q-10.35 26.7 -13.95 27.3 L-30.8 20.9 M-40.25 19.7 L-0.75 34.75 Q1.8 35.75 0.85 38.4 -0.15 41.05 -2.8 40.0 L-42.3 24.9 -42.55 24.85 Q-44.9 23.75 -43.9 21.3 -42.95 18.7 -40.25 19.7 M-43.05 23.15 L-14.05 32.1 -40.65 21.1 -43.05 23.15 M-43.5 26.65 L-40.65 27.95 -49.2 26.95 -45.05 25.65 -43.5 26.65" fill="#322300" fill-rule="evenodd" stroke="none"/>
      <path d="M-2.8 -10.55 Q-5.3 -8.55 -7.65 -13.5 -9.5 -20.65 -15.3 -26.95 -20.65 -32.75 -29.65 -37.95 -20.1 -34.2 -13.6 -29.45 -6.1 -24.15 -1.85 -17.15 -0.3 -12.55 -2.8 -10.55 M-25.15 14.2 L-22.75 12.1 3.85 23.1 -25.15 14.2 M-43.05 23.15 L-40.65 21.1 -14.05 32.1 -43.05 23.15" fill="#322b19" fill-rule="evenodd" stroke="none"/>
    </g>
    <g id="shape6" transform="matrix(1.0, 0.0, 0.0, 1.0, 59.95, 59.95)">
      <path d="M-47.1 -33.0 L-48.95 -30.45 -49.3 -29.85 Q-54.05 -22.5 -56.1 -13.8 L-55.3 -16.55 -56.45 -11.95 Q-48.7 -8.75 -40.35 -3.55 L-38.45 -3.6 -36.35 -3.35 -34.3 -2.75 -30.25 -0.9 -26.4 1.7 -23.15 4.7 -21.3 7.2 -20.4 8.95 -20.05 9.8 7.8 20.5 11.45 18.7 Q24.95 11.55 23.15 3.15 19.2 -14.85 6.05 -30.15 -6.75 -45.05 -23.85 -52.4 L-21.2 -53.7 -13.75 -49.7 14.75 -38.35 15.45 -38.55 18.5 -38.35 Q20.2 -37.8 21.8 -36.75 L25.9 -33.6 53.2 -22.5 54.65 -18.6 Q56.8 -12.7 57.4 -6.45 L51.3 -9.95 50.75 -8.8 49.5 -7.3 47.9 -6.3 45.5 -6.0 44.55 -6.2 43.45 -6.6 57.75 -1.1 57.8 0.05 Q57.9 -4.35 57.3 -8.65 56.25 -15.65 53.6 -22.1 50.9 -28.55 46.6 -34.1 50.0 -29.45 52.55 -24.0 L-10.75 -55.3 43.05 -38.45 36.5 -44.7 Q31.15 -49.2 24.7 -52.25 18.4 -55.3 11.55 -56.65 5.8 -57.75 0.05 -57.7 -7.95 -57.7 -15.45 -55.6 -22.9 -53.6 -29.5 -49.65 L-28.8 -49.95 Q-35.85 -45.9 -41.5 -40.0 L-41.65 -39.85 -42.2 -39.3 -42.6 -38.85 -46.2 -34.3 -46.9 -33.4 -47.55 -32.45 -47.1 -33.0 M-45.4 -35.35 L-45.95 -34.6 -46.2 -34.3 -45.95 -34.6 -45.4 -35.35 -44.65 -36.35 -44.9 -36.1 -45.4 -35.35 M-44.45 -36.7 L-44.65 -36.35 -44.45 -36.7 M6.8 -32.55 L7.8 -31.55 14.5 -22.65 18.6 -15.35 23.8 -22.0 25.6 -24.35 Q28.15 -27.7 23.8 -32.65 19.45 -37.55 15.4 -36.2 10.15 -34.45 6.8 -32.55 M7.45 -35.3 L-0.5 -39.85 5.15 -34.2 7.45 -35.3 M13.3 -15.75 Q14.4 -13.25 11.3 -10.1 8.6 -7.35 3.85 -5.05 -0.75 -2.85 -4.25 -2.5 -7.0 -2.25 -7.9 -3.35 L-10.35 -1.95 -41.4 -20.65 -8.4 -4.9 Q-9.4 -12.3 -17.1 -21.3 -24.3 -29.75 -32.15 -34.1 -37.4 -37.0 -32.15 -41.7 -26.9 -46.35 -19.55 -46.05 -12.0 -45.75 -0.3 -33.85 10.05 -23.35 13.3 -15.75 M22.7 -17.0 L45.3 -8.35 Q47.95 -7.4 48.95 -9.95 50.0 -12.6 47.35 -13.6 L26.25 -21.65 22.7 -17.0 M23.15 -4.65 L40.55 2.0 Q43.2 3.05 44.2 0.4 45.25 -2.3 42.6 -3.2 L20.5 -11.65 23.15 -4.65 M42.45 -42.35 Q60.05 -24.75 60.05 0.05 60.05 24.8 42.45 42.45 24.8 60.05 0.05 60.05 -24.75 60.05 -42.35 42.45 -60.0 24.8 -59.95 0.05 -60.0 -24.75 -42.35 -42.35 -24.75 -60.0 0.05 -59.95 24.8 -60.0 42.45 -42.35 M-7.65 -13.5 Q-5.3 -8.55 -2.8 -10.55 -0.3 -12.55 -1.85 -17.15 -6.1 -24.15 -13.6 -29.45 -20.1 -34.2 -29.65 -37.95 -20.65 -32.75 -15.3 -26.95 -9.5 -20.65 -7.65 -13.5 M-43.5 -2.45 L-56.9 -9.7 Q-58.35 -1.4 -57.3 6.95 -56.75 11.95 -55.3 16.7 L-53.7 21.2 -51.85 25.25 -46.15 23.75 Q-46.55 22.4 -46.15 21.0 -45.6 18.65 -43.3 17.8 L-41.05 17.65 Q-37.4 18.45 -33.85 19.75 L-27.95 16.95 Q-29.1 15.5 -29.1 13.85 -29.15 12.3 -28.3 11.0 -27.05 8.95 -24.75 8.65 L-22.65 8.8 Q-23.95 6.95 -25.5 5.45 -28.1 2.95 -30.8 1.2 -34.05 -1.0 -37.8 -1.4 L-40.8 -0.9 Q-49.75 2.05 -57.1 8.0 L-57.45 5.4 Q-54.15 3.15 -50.7 1.2 -47.2 -0.8 -43.5 -2.45 M-25.1 16.3 L14.45 31.4 Q16.4 32.15 17.45 30.8 L18.05 29.8 Q19.0 27.1 16.4 26.15 L-23.05 11.05 Q-25.75 10.1 -26.7 12.65 -27.7 15.3 -25.1 16.3 M-30.8 20.9 L-13.95 27.3 Q-10.35 26.7 -6.75 25.7 L-25.85 18.45 -30.8 20.9 M-38.35 30.35 L-39.35 30.2 12.65 56.4 9.55 57.05 Q27.4 54.3 40.85 40.85 54.8 26.9 57.25 8.25 56.65 12.15 55.5 16.05 L24.25 -1.55 25.35 2.7 25.45 4.6 55.1 17.4 Q52.95 24.0 49.4 29.95 L21.45 13.9 21.25 14.1 19.05 16.2 16.3 18.3 48.05 32.05 Q44.0 38.1 38.5 43.05 L19.35 31.9 18.7 32.6 17.9 33.2 17.05 33.55 16.55 33.7 15.55 33.8 14.6 33.75 14.1 33.65 -3.6 26.9 -7.35 28.1 -8.8 28.4 35.85 45.25 Q25.55 53.45 12.8 56.35 L-16.85 37.05 -34.4 30.35 -38.35 30.35 M-40.25 19.7 Q-42.95 18.7 -43.9 21.3 -44.9 23.75 -42.55 24.85 L-42.3 24.9 -2.8 40.0 Q-0.15 41.05 0.85 38.4 1.8 35.75 -0.75 34.75 L-40.25 19.7 M-45.05 25.65 L-49.2 26.95 -40.65 27.95 -43.5 26.65 -45.05 25.65 M-46.7 29.45 L-49.8 29.15 Q-51.75 25.9 -53.25 22.55 -49.05 32.55 -40.75 40.85 -26.65 54.9 -7.8 57.25 L-10.5 56.8 -46.7 29.45" fill="#000000" fill-rule="evenodd" stroke="none"/>
    </g>
    <g id="sprite2" transform="matrix(1.0, 0.0, 0.0, 1.0, 101.0, 423.0)">
      <use data-characterId="1249" height="202.0" transform="matrix(1.0, 0.0, 0.0, 1.0, -101.0, -101.0)" width="202.0" xlink:href="#shape0"/>
      <use data-characterId="1250" height="19.6" transform="matrix(1.0, 0.0, 0.0, 1.0, 69.8, 70.05)" width="20.15" xlink:href="#shape1"/>
      <use data-characterId="738" height="550.0" transform="matrix(0.2858, 0.0, 0.0, 0.0038, -100.013, -76.1032)" width="700.0" xlink:href="#shape2"/>
      <use data-characterId="738" height="550.0" transform="matrix(0.2858, 0.0, 0.0, 0.0038, -100.013, -75.1032)" width="700.0" xlink:href="#shape2"/>
      <use data-characterId="1250" height="19.6" transform="matrix(1.0, 0.0, 0.0, 1.0, -90.2, 70.05)" width="20.15" xlink:href="#shape1"/>
      <use data-characterId="1318" height="47.3" transform="matrix(1.0, 0.0, 0.0, 1.0, -56.8, 41.05)" width="113.55" xlink:href="#text4"/>
      <use data-characterId="1319" height="47.3" transform="matrix(1.0, 0.0, 0.0, 1.0, -57.8, 40.05)" width="113.55" xlink:href="#text5"/>
      <use data-characterId="1324" height="119.95" id="thebutton" transform="matrix(1.0, 0.0, 0.0, 1.0, -58.75, -86.9)" width="120.0" xlink:href="#button2"/>
    </g>
    <g id="text4" transform="matrix(1.0, 0.0, 0.0, 1.0, 0.9, -0.7)">
      <g transform="matrix(1.0, 0.0, 0.0, 1.0, -2.0, -1.6)">
        <use fill="#999999" height="47.3" transform="matrix(0.0234, 0.0, 0.0, 0.0234, 0.0, 22.0)" width="113.55" xlink:href="#font_Arial_S0"/>
        <use fill="#999999" height="47.3" transform="matrix(0.0234, 0.0, 0.0, 0.0234, 16.0, 22.0)" width="113.55" xlink:href="#font_Arial_I0"/>
        <use fill="#999999" height="47.3" transform="matrix(0.0234, 0.0, 0.0, 0.0234, 22.65, 22.0)" width="113.55" xlink:href="#font_Arial_G0"/>
        <use fill="#999999" height="47.3" transform="matrix(0.0234, 0.0, 0.0, 0.0234, 41.3, 22.0)" width="113.55" xlink:href="#font_Arial_N0"/>
        <use fill="#999999" height="47.3" transform="matrix(0.0234, 0.0, 0.0, 0.0234, 65.3, 22.0)" width="113.55" xlink:href="#font_Arial_U0"/>
        <use fill="#999999" height="47.3" transform="matrix(0.0234, 0.0, 0.0, 0.0234, 82.65, 22.0)" width="113.55" xlink:href="#font_Arial_P0"/>
      </g>
    </g>
    <g id="font_Arial_I0">
      <path d="M95.5 0.0 L192.5 0.0 192.5 -733.0 95.5 -733.0 95.5 0.0" fill-rule="evenodd" stroke="none"/>
    </g>
    <g id="font_Arial_N0">
      <path d="M78.0 0.0 L171.0 0.0 171.0 -576.0 556.0 0.0 655.5 0.0 655.5 -733.0 562.5 -733.0 562.5 -157.5 177.5 -733.0 78.0 -733.0 78.0 0.0" fill-rule="evenodd" stroke="none"/>
    </g>
    <g id="font_Arial_P0">
      <path d="M176.0 -384.5 L176.0 -646.5 363.5 -646.5 Q429.5 -646.5 454.0 -640.0 492.0 -629.5 515.5 -596.5 538.5 -564.0 538.5 -518.0 538.5 -454.5 499.0 -419.5 459.5 -384.5 365.5 -384.5 L176.0 -384.5 M79.0 0.0 L176.0 0.0 176.0 -298.0 364.0 -298.0 Q519.5 -298.0 579.0 -362.5 638.5 -427.5 638.5 -521.0 638.5 -575.5 616.5 -621.0 594.0 -666.5 557.5 -691.5 521.0 -717.0 467.0 -726.0 428.5 -733.0 355.5 -733.0 L79.0 -733.0 79.0 0.0" fill-rule="evenodd" stroke="none"/>
    </g>
    <g id="text5" transform="matrix(1.0, 0.0, 0.0, 1.0, 0.9, -0.7)">
      <g transform="matrix(1.0, 0.0, 0.0, 1.0, -2.0, -1.6)">
        <use fill="#000000" height="47.3" transform="matrix(0.0234, 0.0, 0.0, 0.0234, 0.0, 22.0)" width="113.55" xlink:href="#font_Arial_S0"/>
        <use fill="#000000" height="47.3" transform="matrix(0.0234, 0.0, 0.0, 0.0234, 16.0, 22.0)" width="113.55" xlink:href="#font_Arial_I0"/>
        <use fill="#000000" height="47.3" transform="matrix(0.0234, 0.0, 0.0, 0.0234, 22.65, 22.0)" width="113.55" xlink:href="#font_Arial_G0"/>
        <use fill="#000000" height="47.3" transform="matrix(0.0234, 0.0, 0.0, 0.0234, 41.3, 22.0)" width="113.55" xlink:href="#font_Arial_N0"/>
        <use fill="#000000" height="47.3" transform="matrix(0.0234, 0.0, 0.0, 0.0234, 65.3, 22.0)" width="113.55" xlink:href="#font_Arial_U0"/>
        <use fill="#000000" height="47.3" transform="matrix(0.0234, 0.0, 0.0, 0.0234, 82.65, 22.0)" width="113.55" xlink:href="#font_Arial_P0"/>
      </g>
    </g>
    <g id="button2" transform="matrix(1.0, 0.0, 0.0, 1.0, 60.0, 60.0)">
      <use data-characterId="1320" height="115.45" transform="matrix(1.0, 0.0, 0.0, 1.0, -57.75, -57.75)" width="115.55" xlink:href="#shape7"/>
      <use data-characterId="1321" height="119.95" transform="matrix(1.0, 0.0, 0.0, 1.0, -60.0, -60.0)" width="120.0" xlink:href="#shape8"/>
    </g>
    <g id="shape7" transform="matrix(1.0, 0.0, 0.0, 1.0, 57.75, 57.75)">
      <path d="M19.15 -54.5 L17.05 -51.95 13.7 -47.55 10.55 -42.8 9.55 -40.9 Q5.35 -32.85 6.55 -23.95 -1.3 -24.6 -6.3 -30.3 -7.1 -31.25 -7.6 -32.55 -9.25 -36.8 -9.65 -41.35 -4.2 -42.65 1.25 -45.65 L1.55 -45.8 Q8.9 -50.1 15.35 -55.7 L19.15 -54.5 M7.05 -21.5 Q8.6 -15.6 13.2 -10.75 15.9 -7.9 21.85 -3.6 L26.8 -0.15 28.9 1.3 37.15 7.45 27.95 3.75 25.8 2.85 19.5 0.45 Q14.1 -1.55 10.6 -2.35 2.45 -4.35 -5.25 -3.5 -6.85 -9.6 -4.15 -15.1 -3.3 -16.8 -1.8 -18.0 2.1 -21.1 7.05 -21.5 M-33.95 -46.65 Q-29.0 -43.4 -24.7 -41.9 L-22.4 -41.25 Q-18.4 -40.25 -14.4 -40.6 L-11.35 -41.0 Q-12.9 -29.0 -23.95 -24.25 -28.55 -22.25 -33.45 -21.15 L-33.45 -21.85 Q-33.5 -25.75 -34.35 -29.7 L-35.2 -32.95 Q-36.1 -35.8 -37.45 -38.65 L-39.35 -42.2 -36.25 -44.95 -34.5 -46.3 -34.15 -46.55 -33.95 -46.65 M-33.5 -19.7 Q-25.1 -19.55 -17.6 -15.8 -13.4 -13.75 -10.7 -10.05 -8.5 -6.95 -7.05 -3.3 L-8.95 -2.95 Q-22.8 0.1 -33.85 9.05 L-41.1 15.1 -51.9 24.7 -51.5 24.0 Q-44.25 12.25 -38.25 0.0 L-37.75 -1.3 Q-34.0 -10.45 -33.5 -19.7" fill="#ffd166" fill-rule="evenodd" stroke="none"/>
      <path d="M19.15 -54.5 L15.35 -55.7 9.35 -57.05 Q23.7 -54.8 35.15 -45.8 L32.75 -47.55 30.7 -24.3 27.35 -30.9 31.0 -48.75 Q25.45 -52.3 19.15 -54.5 M13.7 -47.55 L17.05 -51.95 16.25 -42.15 13.0 -44.1 13.7 -47.55 M0.3 -57.75 L1.25 -57.75 0.45 -48.05 -1.55 -48.2 0.3 -57.75 M56.1 -14.1 Q54.45 -20.35 51.45 -26.3 L47.75 -0.7 43.2 -1.25 51.35 -26.45 48.35 -31.7 Q53.85 -23.6 56.1 -14.1 M-36.25 -44.95 Q-24.25 -54.9 -9.1 -57.1 -13.25 -56.4 -17.25 -55.1 L-17.65 -46.0 -21.2 -44.5 -19.8 -54.3 Q-27.5 -51.5 -33.95 -46.65 L-34.15 -46.55 -34.5 -46.3 -36.25 -44.95 M-41.85 -6.45 L-41.5 -3.8 -42.2 -3.95 -41.85 -6.45 M-47.8 -4.0 Q-53.15 -3.5 -57.75 -0.6 -57.6 -19.6 -46.55 -34.15 L-48.35 -31.6 -47.8 -4.0 M-35.2 -32.95 L-35.2 -32.4 Q-37.75 -28.95 -39.3 -25.1 L-37.45 -38.65 Q-36.1 -35.8 -35.2 -32.95 M-22.0 22.7 L-20.5 23.45 -21.75 53.45 -21.05 53.75 -15.55 25.35 Q-10.85 26.8 -5.9 26.9 L-8.4 57.1 -7.4 57.25 -5.9 49.95 -5.15 53.0 Q-4.45 55.5 -2.8 57.65 L0.0 57.7 Q-22.85 57.75 -39.35 42.2 L-34.5 40.3 -34.3 46.35 -33.2 39.55 -32.3 39.0 Q-23.65 33.0 -22.0 22.7 M-4.35 42.0 L-1.25 26.8 Q5.05 26.3 10.6 23.9 L9.7 34.5 8.3 34.45 Q2.4 34.4 -1.75 38.6 -3.35 40.2 -4.35 42.0 M19.0 18.75 Q18.7 20.6 18.7 22.6 18.7 30.55 23.5 36.9 L25.25 39.05 24.1 52.4 26.2 51.45 29.15 42.35 Q32.05 44.3 35.6 45.4 L37.65 43.75 Q24.1 55.6 6.4 57.4 L7.75 57.2 Q14.95 56.2 21.8 53.45 22.65 51.05 22.65 48.7 22.65 42.8 18.45 38.6 16.3 36.45 13.75 35.45 L16.85 20.4 19.0 18.75 M57.8 0.0 Q57.75 18.8 47.2 33.3 L50.85 27.4 Q56.75 16.5 57.6 4.15 L56.65 3.4 57.8 -0.05 57.8 0.0 M-56.45 12.45 Q-55.2 18.0 -52.8 23.35 -51.1 27.2 -48.9 30.75 -54.45 22.3 -56.45 12.45" fill="#ce8f00" fill-rule="evenodd" stroke="none"/>
      <path d="M1.25 -45.65 Q-4.2 -42.65 -9.65 -41.35 L-10.2 -45.65 -4.45 -46.05 1.25 -45.65 M6.55 -23.95 Q5.35 -32.85 9.55 -40.9 L10.55 -42.8 Q15.95 -40.25 20.55 -35.65 30.9 -25.3 30.9 -10.7 30.9 -4.3 28.9 1.3 L26.8 -0.15 Q29.25 -8.4 28.0 -9.9 26.65 -11.45 21.85 -3.6 15.9 -7.9 13.2 -10.75 8.6 -15.6 7.05 -21.5 L17.75 -22.5 6.55 -23.95 M-5.25 -3.5 Q2.45 -4.35 10.6 -2.35 14.1 -1.55 19.5 0.45 L16.65 4.95 Q20.3 7.5 18.2 11.35 17.3 13.0 15.45 13.4 12.55 13.75 10.75 11.45 0.45 19.75 -13.1 19.5 L-20.0 18.9 Q-6.2 26.05 8.45 20.05 14.85 17.45 19.8 12.45 23.9 8.3 25.8 2.85 L27.95 3.75 Q25.35 9.45 20.55 14.3 10.15 24.7 -4.45 24.7 -19.1 24.7 -29.45 14.3 -31.95 11.8 -33.85 9.05 -22.8 0.1 -8.95 -2.95 L-7.05 -3.3 -4.15 3.8 -5.25 -3.5 M-22.4 -41.25 Q-16.95 -44.55 -10.55 -45.6 L-11.35 -41.0 -14.4 -40.6 Q-18.4 -40.25 -22.4 -41.25 M-33.45 -21.15 L-38.15 -20.0 -33.5 -19.7 Q-34.0 -10.45 -37.75 -1.3 L-38.25 0.0 Q-39.85 -5.05 -39.85 -10.7 -39.85 -21.35 -34.35 -29.7 -33.5 -25.75 -33.45 -21.85 L-33.45 -21.15" fill="#ffb200" fill-rule="evenodd" stroke="none"/>
      <path d="M-9.65 -41.35 Q-9.25 -36.8 -7.6 -32.55 -7.1 -31.25 -6.3 -30.3 -1.3 -24.6 6.55 -23.95 L17.75 -22.5 7.05 -21.5 Q2.1 -21.1 -1.8 -18.0 -3.3 -16.8 -4.15 -15.1 -6.85 -9.6 -5.25 -3.5 L-4.15 3.8 -7.05 -3.3 Q-8.5 -6.95 -10.7 -10.05 -13.4 -13.75 -17.6 -15.8 -25.1 -19.55 -33.5 -19.7 L-38.15 -20.0 -33.45 -21.15 Q-28.55 -22.25 -23.95 -24.25 -12.9 -29.0 -11.35 -41.0 L-10.55 -45.6 -10.4 -46.65 -10.2 -45.65 -9.65 -41.35" fill="#ffffff" fill-rule="evenodd" stroke="none"/>
    </g>
    <g id="shape8" transform="matrix(1.0, 0.0, 0.0, 1.0, 60.0, 60.0)">
      <path d="M0.3 -57.75 L-1.55 -48.2 0.45 -48.05 1.25 -57.75 0.3 -57.75 M15.35 -55.7 Q8.9 -50.1 1.55 -45.8 L1.25 -45.65 -4.45 -46.05 -10.2 -45.65 -10.4 -46.65 -10.55 -45.6 Q-16.95 -44.55 -22.4 -41.25 L-24.7 -41.9 Q-29.0 -43.4 -33.95 -46.65 -27.5 -51.5 -19.8 -54.3 L-21.2 -44.5 -17.65 -46.0 -17.25 -55.1 Q-13.25 -56.4 -9.1 -57.1 -24.25 -54.9 -36.25 -44.95 L-39.35 -42.2 -37.45 -38.65 -39.3 -25.1 Q-37.75 -28.95 -35.2 -32.4 L-35.2 -32.95 -34.35 -29.7 Q-39.85 -21.35 -39.85 -10.7 -39.85 -5.05 -38.25 0.0 -44.25 12.25 -51.5 24.0 L-51.9 24.7 -41.1 15.1 -33.85 9.05 Q-31.95 11.8 -29.45 14.3 -19.1 24.7 -4.45 24.7 10.15 24.7 20.55 14.3 25.35 9.45 27.95 3.75 L37.15 7.45 28.9 1.3 Q30.9 -4.3 30.9 -10.7 30.9 -25.3 20.55 -35.65 15.95 -40.25 10.55 -42.8 L13.7 -47.55 13.0 -44.1 16.25 -42.15 17.05 -51.95 19.15 -54.5 Q25.45 -52.3 31.0 -48.75 L27.35 -30.9 30.7 -24.3 32.75 -47.55 35.15 -45.8 Q23.7 -54.8 9.35 -57.05 L15.35 -55.7 M51.35 -31.1 Q53.85 -25.9 56.0 -20.45 61.65 -6.2 59.3 9.1 57.3 22.35 49.8 33.5 41.55 45.65 28.6 52.7 13.75 60.7 -3.05 59.9 -16.65 59.25 -28.55 52.7 -41.45 45.6 -49.7 33.5 -58.15 21.05 -59.7 6.1 -61.4 -10.8 -54.0 -25.95 -46.85 -40.65 -33.45 -49.65 -19.65 -59.05 -3.05 -59.95 13.65 -60.75 28.5 -52.65 42.85 -44.9 51.35 -31.1 M56.1 -14.1 Q53.85 -23.6 48.35 -31.7 L51.35 -26.45 43.2 -1.25 47.75 -0.7 51.45 -26.3 Q54.45 -20.35 56.1 -14.1 M28.0 -9.9 Q29.25 -8.4 26.8 -0.15 L21.85 -3.6 Q26.65 -11.45 28.0 -9.9 M57.8 0.0 L57.8 -0.05 56.65 3.4 57.6 4.15 Q56.75 16.5 50.85 27.4 L47.2 33.3 Q57.75 18.8 57.8 0.0 M19.0 18.75 L16.85 20.4 13.75 35.45 Q16.3 36.45 18.45 38.6 22.65 42.8 22.65 48.7 22.65 51.05 21.8 53.45 14.95 56.2 7.75 57.2 L6.4 57.4 Q24.1 55.6 37.65 43.75 L35.6 45.4 Q32.05 44.3 29.15 42.35 L26.2 51.45 24.1 52.4 25.25 39.05 23.5 36.9 Q18.7 30.55 18.7 22.6 18.7 20.6 19.0 18.75 M8.3 34.45 L9.7 34.5 10.6 23.9 Q5.05 26.3 -1.25 26.8 L-4.35 42.0 Q-3.35 40.2 -1.75 38.6 2.4 34.4 8.3 34.45 M10.75 11.45 Q12.55 13.75 15.45 13.4 17.3 13.0 18.2 11.35 20.3 7.5 16.65 4.95 L19.5 0.45 25.8 2.85 Q23.9 8.3 19.8 12.45 14.85 17.45 8.45 20.05 -6.2 26.05 -20.0 18.9 L-13.1 19.5 Q0.45 19.75 10.75 11.45 M-41.85 -6.45 L-42.2 -3.95 -41.5 -3.8 -41.85 -6.45 M-47.8 -4.0 L-48.35 -31.6 -46.55 -34.15 Q-57.6 -19.6 -57.75 -0.6 -53.15 -3.5 -47.8 -4.0 M-22.0 22.7 Q-23.65 33.0 -32.3 39.0 L-33.2 39.55 -34.3 46.35 -34.5 40.3 -39.35 42.2 Q-22.85 57.75 0.0 57.7 L-2.8 57.65 Q-4.45 55.5 -5.15 53.0 L-5.9 49.95 -7.4 57.25 -8.4 57.1 -5.9 26.9 Q-10.85 26.8 -15.55 25.35 L-21.05 53.75 -21.75 53.45 -20.5 23.45 -22.0 22.7 M-56.45 12.45 Q-54.45 22.3 -48.9 30.75 -51.1 27.2 -52.8 23.35 -55.2 18.0 -56.45 12.45" fill="#000000" fill-rule="evenodd" stroke="none"/>
    </g>
    <g id="text7" transform="matrix(1.0, 0.0, 0.0, 1.0, 4.0, 2.0)">
      <g transform="matrix(1.0, 0.0, 0.0, 1.0, -4.0, -2.0)">
        <use fill="#ff0000" height="65.05" transform="matrix(0.0176, 0.0, 0.0, 0.0176, 0.0, 16.3)" width="451.3" xlink:href="#font_Arial_R0"/>
        <use fill="#ff0000" height="65.05" transform="matrix(0.0176, 0.0, 0.0, 0.0176, 13.0, 16.3)" width="451.3" xlink:href="#font_Arial_e0"/>
        <use fill="#ff0000" height="65.05" transform="matrix(0.0176, 0.0, 0.0, 0.0176, 23.0, 16.3)" width="451.3" xlink:href="#font_Arial_l0"/>
        <use fill="#ff0000" height="65.05" transform="matrix(0.0176, 0.0, 0.0, 0.0176, 27.0, 16.3)" width="451.3" xlink:href="#font_Arial_a0"/>
        <use fill="#ff0000" height="65.05" transform="matrix(0.0176, 0.0, 0.0, 0.0176, 37.0, 16.3)" width="451.3" xlink:href="#font_Arial_y0"/>
        <use fill="#ff0000" height="65.05" transform="matrix(0.0176, 0.0, 0.0, 0.0176, 46.0, 16.3)" width="451.3" xlink:href="#font_Arial_M0"/>
        <use fill="#ff0000" height="65.05" transform="matrix(0.0176, 0.0, 0.0, 0.0176, 61.0, 16.3)" width="451.3" xlink:href="#font_Arial_e0"/>
        <use fill="#ff0000" height="65.05" transform="matrix(0.0176, 0.0, 0.0, 0.0176, 71.0, 16.3)" width="451.3" xlink:href="#font_Arial_s0"/>
        <use fill="#ff0000" height="65.05" transform="matrix(0.0176, 0.0, 0.0, 0.0176, 80.0, 16.3)" width="451.3" xlink:href="#font_Arial_s0"/>
        <use fill="#ff0000" height="65.05" transform="matrix(0.0176, 0.0, 0.0, 0.0176, 89.0, 16.3)" width="451.3" xlink:href="#font_Arial_a0"/>
        <use fill="#ff0000" height="65.05" transform="matrix(0.0176, 0.0, 0.0, 0.0176, 99.0, 16.3)" width="451.3" xlink:href="#font_Arial_g0"/>
        <use fill="#ff0000" height="65.05" transform="matrix(0.0176, 0.0, 0.0, 0.0176, 109.0, 16.3)" width="451.3" xlink:href="#font_Arial_e0"/>
      </g>
    </g>
    <g id="font_Arial_e0">
      <path d="M135.5 -316.5 Q140.0 -386.0 182.5 -427.5 224.5 -469.0 286.5 -469.0 355.0 -469.0 398.0 -417.0 426.0 -383.5 432.0 -316.5 L135.5 -316.5 M431.0 -171.0 Q410.5 -114.0 375.5 -88.0 340.5 -62.0 291.0 -62.0 224.5 -62.0 180.0 -108.5 135.5 -155.0 130.5 -242.5 L526.5 -242.5 Q527.0 -258.5 527.0 -266.5 527.0 -398.0 459.5 -470.5 392.0 -543.0 285.5 -543.0 175.5 -543.0 106.5 -469.0 37.5 -395.0 37.5 -261.0 37.5 -131.5 106.0 -59.5 174.0 12.0 290.5 12.0 383.0 12.0 442.5 -33.0 502.0 -78.0 524.0 -159.5 L431.0 -171.0" fill-rule="evenodd" stroke="none"/>
    </g>
    <g id="font_Arial_l0">
      <path d="M65.5 0.0 L155.5 0.0 155.5 -733.0 65.5 -733.0 65.5 0.0" fill-rule="evenodd" stroke="none"/>
    </g>
    <g id="font_Arial_a0">
      <path d="M406.5 -266.5 L406.5 -233.5 Q406.5 -174.0 392.0 -143.5 373.0 -104.0 332.5 -81.0 292.0 -58.5 240.0 -58.5 187.5 -58.5 160.5 -82.5 133.0 -106.5 133.0 -142.5 133.0 -166.0 145.5 -185.0 158.0 -204.5 181.0 -214.5 204.0 -224.5 259.5 -232.5 357.5 -246.5 406.5 -266.5 M414.0 -65.5 Q418.0 -28.0 432.0 0.0 L526.0 0.0 Q509.0 -30.5 503.5 -63.5 497.5 -97.0 497.5 -222.5 L497.5 -342.5 Q497.5 -402.5 493.0 -425.5 485.0 -462.5 465.0 -486.5 445.0 -511.0 402.5 -527.0 360.0 -543.0 292.0 -543.0 223.5 -543.0 171.5 -524.0 119.5 -505.5 92.0 -470.5 64.5 -436.0 52.5 -379.5 L140.5 -367.5 Q155.0 -424.0 185.5 -446.0 215.5 -468.5 279.0 -468.5 347.0 -468.5 381.5 -438.0 407.0 -415.5 407.0 -360.5 407.0 -355.5 406.5 -337.0 355.0 -319.0 246.0 -306.0 192.5 -299.5 166.0 -292.5 130.0 -282.5 101.5 -263.0 72.5 -243.5 55.0 -211.0 37.0 -179.0 37.0 -140.0 37.0 -73.5 84.0 -30.5 131.0 12.0 218.5 12.0 271.5 12.0 318.0 -5.5 364.0 -23.0 414.0 -65.5" fill-rule="evenodd" stroke="none"/>
    </g>
    <g id="font_Arial_y0">
      <path d="M63.5 204.5 Q95.5 215.5 121.5 215.5 164.5 215.5 195.5 195.0 226.5 174.0 250.5 129.5 268.5 96.5 301.0 9.0 L503.0 -531.0 413.0 -531.0 299.5 -221.5 Q278.0 -162.5 262.5 -100.5 245.5 -165.0 224.0 -223.5 L113.5 -531.0 16.5 -531.0 218.0 1.0 Q212.5 15.5 210.0 23.0 191.0 76.5 182.5 90.0 171.0 108.0 153.0 118.0 135.0 128.0 105.0 128.0 83.0 128.0 53.5 120.0 L63.5 204.5" fill-rule="evenodd" stroke="none"/>
    </g>
    <g id="font_Arial_s0">
      <path d="M31.5 -158.5 Q46.5 -74.0 101.0 -31.0 155.0 12.0 258.5 12.0 321.0 12.0 370.5 -9.5 420.0 -31.5 446.5 -71.0 472.5 -111.0 472.5 -156.0 472.5 -202.0 451.0 -233.0 429.5 -264.0 392.0 -280.0 354.0 -296.5 258.5 -322.0 192.5 -340.0 179.0 -345.0 155.5 -354.5 144.5 -369.0 133.5 -383.0 133.5 -400.5 133.5 -428.0 160.0 -448.5 186.5 -469.0 248.5 -469.0 301.0 -469.0 330.0 -446.0 358.5 -423.0 364.5 -382.0 L452.5 -394.0 Q444.0 -445.5 421.5 -476.0 399.0 -507.0 352.0 -525.0 304.5 -543.0 242.0 -543.0 200.5 -543.0 164.5 -532.0 128.0 -521.5 107.0 -506.0 79.0 -486.0 63.0 -455.5 46.5 -425.5 46.5 -390.0 46.5 -351.0 66.5 -318.5 86.0 -286.5 124.5 -268.0 162.5 -250.0 261.5 -225.0 335.0 -206.5 353.5 -194.5 380.0 -177.0 380.0 -146.5 380.0 -112.5 350.0 -87.0 320.0 -62.0 258.0 -62.0 196.5 -62.0 162.5 -90.5 128.0 -119.0 120.5 -172.5 L31.5 -158.5" fill-rule="evenodd" stroke="none"/>
    </g>
    <g id="font_Arial_g0">
      <path d="M125.5 -275.0 Q125.5 -371.0 167.5 -419.5 209.5 -468.5 269.5 -468.5 330.5 -468.5 374.0 -419.0 417.0 -369.5 417.0 -272.0 417.0 -170.0 375.0 -122.0 333.0 -74.5 271.0 -74.5 208.5 -74.5 167.0 -122.5 125.5 -170.5 125.5 -275.0 M51.0 44.0 Q49.0 130.0 107.5 173.0 166.0 215.5 261.0 215.5 341.0 215.5 396.0 185.5 450.5 155.5 476.0 104.0 501.0 52.0 501.0 -72.0 L501.0 -531.0 418.0 -531.0 418.0 -467.0 Q357.0 -543.0 263.0 -543.0 192.5 -543.0 140.5 -508.0 88.0 -473.0 60.5 -408.5 33.0 -344.5 33.0 -268.5 33.0 -158.0 93.0 -79.0 153.0 0.0 262.5 0.0 350.5 0.0 409.5 -69.5 410.0 18.5 403.0 46.0 391.0 91.0 357.0 116.0 323.0 141.0 260.5 141.0 202.5 141.0 169.0 116.0 144.0 97.5 138.5 57.0 L51.0 44.0" fill-rule="evenodd" stroke="none"/>
    </g>
  </defs>
</svg>
