<?xml version="1.0" encoding="utf-8"?>
<svg version="1.1" id="Layer_1"
xmlns="http://www.w3.org/2000/svg"
xmlns:xlink="http://www.w3.org/1999/xlink"
xmlns:author="http://www.sothink.com"
width="89px" height="98px"
xml:space="preserve">
<g id="129" transform="matrix(1, 0, 0, 1, 44.8, 49.55)">
<path style="fill:none;stroke-width:1;stroke-linecap:round;stroke-linejoin:round;stroke-miterlimit:3;stroke:#3366FF;stroke-opacity:1" d="M-44.3,-27.1L-44.3 31.4Q-43.2 42.95 -25.75 47.45L24.9 47.45Q42.35 42.95 43.5 31.4L43.5 -27.1Q33.7 -49.5 -0.4 -49.05Q-34.55 -49.5 -44.3 -27.1z" />
</g>
</svg>
