<?xml version="1.0" encoding="utf-8"?>
<svg version="1.1" id="Layer_1"
xmlns="http://www.w3.org/2000/svg"
xmlns:xlink="http://www.w3.org/1999/xlink"
xmlns:author="http://www.sothink.com"
width="116px" height="115px"
xml:space="preserve">
<g id="495" transform="matrix(1, 0, 0, 1, 57.75, 57.7)">
<path style="fill:#CE8F00;fill-opacity:1" d="M-55.3,-16.55L-56.1 -13.8Q-54.05 -22.5 -49.3 -29.85L-48.95 -30.45L-47.8 -32.15L-50.95 -26.95Q-53 -23.3 -54.4 -19.25L-54.75 -18.2L-55.3 -16.55M-42.6,-38.85L-42.2 -39.3L-41.65 -39.85L-42.6 -38.85" />
<path style="fill:#0066CC;fill-opacity:1" d="M-24,-52.45L-28.8 -49.95L-29.5 -49.65Q-22.9 -53.6 -15.45 -55.6Q-7.95 -57.7 0.05 -57.7Q5.8 -57.75 11.55 -56.65Q18.4 -55.3 24.7 -52.25Q31.15 -49.2 36.5 -44.7L43.05 -38.45L-10.75 -55.3L52.55 -24Q50 -29.45 46.6 -34.1Q50.9 -28.55 53.6 -22.1Q56.25 -15.65 57.3 -8.65Q57.9 -4.35 57.8 0.05L57.75 -1.1L43.45 -6.6L44.55 -6.2L45.5 -6L47.9 -6.3L49.5 -7.3L50.75 -8.8L51.3 -9.95L57.4 -6.45Q56.8 -12.7 54.65 -18.6L53.2 -22.5L25.9 -33.6L21.8 -36.75Q20.2 -37.8 18.5 -38.35L15.45 -38.55L14.75 -38.35L-13.75 -49.7L-21.2 -53.7L-23.85 -52.4L-24 -52.45M5.15,-34.2L-0.5 -39.85L7.45 -35.3L5.15 -34.2M-38.35,30.35L-34.4 30.35L-16.85 37.05L12.8 56.35Q25.55 53.45 35.85 45.25L-8.8 28.4L-7.35 28.1L-3.6 26.9L14.1 33.65L14.6 33.75L15.55 33.8L16.55 33.7L17.05 33.55L17.9 33.2L18.7 32.6L19.35 31.9L38.5 43.05Q44 38.1 48.05 32.05L16.3 18.3L19.05 16.2L21.25 14.1L21.45 13.9L49.4 29.95Q52.95 24 55.1 17.4L25.45 4.6L25.35 2.7L24.25 -1.55L55.5 16.05Q56.65 12.15 57.25 8.25Q54.8 26.9 40.85 40.85Q27.4 54.3 9.55 57.05L12.65 56.4L-39.35 30.2L-38.35 30.35M-46.7,29.45L-10.5 56.8L-7.8 57.25Q-26.65 54.9 -40.75 40.85Q-49.05 32.55 -53.25 22.55Q-51.75 25.9 -49.8 29.15L-46.7 29.45" />
<path style="fill:#0099FF;fill-opacity:1" d="M-54.75,-18.2L-54.4 -19.25Q-53 -23.3 -50.95 -26.95L-47.8 -32.15L-48.95 -30.45L-44.9 -36.1L-44.45 -36.7L-47.55 -32.45L-46.9 -33.4L-42.6 -38.85L-41.65 -39.85L-41.5 -40Q-35.85 -45.9 -28.8 -49.95L-24 -52.45L-23.85 -52.4Q-6.75 -45.05 6.05 -30.15Q19.2 -14.85 23.15 3.15Q24.95 11.55 11.45 18.7L7.8 20.5L-20.05 9.8L-20.4 8.95L-21.3 7.2L-23.15 4.7L-26.4 1.7L-30.25 -0.9L-34.3 -2.75L-36.35 -3.35L-38.45 -3.6L-40.35 -3.55Q-48.7 -8.75 -56.45 -11.95L-55.3 -16.55L-54.75 -18.2M6.8,-32.55Q10.15 -34.45 15.4 -36.2Q19.45 -37.55 23.8 -32.65Q28.15 -27.7 25.6 -24.35L23.8 -22L18.6 -15.35L14.5 -22.65L7.8 -31.55L6.8 -32.55M13.3,-15.75Q10.05 -23.35 -0.3 -33.85Q-12 -45.75 -19.55 -46.05Q-26.9 -46.35 -32.15 -41.7Q-37.4 -37 -32.15 -34.1Q-24.3 -29.75 -17.1 -21.3Q-9.4 -12.3 -8.4 -4.9L-41.4 -20.65L-10.35 -1.95L-7.9 -3.35Q-7 -2.25 -4.25 -2.5Q-0.75 -2.85 3.85 -5.05Q8.6 -7.35 11.3 -10.1Q14.4 -13.25 13.3 -15.75M26.25,-21.65L47.35 -13.6Q50 -12.6 48.95 -9.95Q47.95 -7.4 45.3 -8.35L22.7 -17L26.25 -21.65M20.5,-11.65L42.6 -3.2Q45.25 -2.3 44.2 0.4Q43.2 3.05 40.55 2L23.15 -4.65L20.5 -11.65M-43.5,-2.45Q-47.2 -0.8 -50.7 1.2Q-54.15 3.15 -57.45 5.4L-57.1 8Q-49.75 2.05 -40.8 -0.9L-37.8 -1.4Q-34.05 -1 -30.8 1.2Q-28.1 2.95 -25.5 5.45Q-23.95 6.95 -22.65 8.8L-24.75 8.65Q-27.05 8.95 -28.3 11Q-29.15 12.3 -29.1 13.85Q-29.1 15.5 -27.95 16.95L-33.85 19.75Q-37.4 18.45 -41.05 17.65L-43.3 17.8Q-45.6 18.65 -46.15 21Q-46.55 22.4 -46.15 23.75L-51.85 25.25L-53.7 21.2L-55.3 16.7Q-56.75 11.95 -57.3 6.95Q-58.35 -1.4 -56.9 -9.7L-43.5 -2.45M-26.7,12.65Q-25.75 10.1 -23.05 11.05L16.4 26.15Q19 27.1 18.05 29.8L17.45 30.8Q16.4 32.15 14.45 31.4L-25.1 16.3Q-27.7 15.3 -26.7 12.65M-25.15,14.2L3.85 23.1L-22.75 12.1L-25.15 14.2M-25.85,18.45L-6.75 25.7Q-10.35 26.7 -13.95 27.3L-30.8 20.9L-25.85 18.45M-0.75,34.75Q1.8 35.75 0.85 38.4Q-0.15 41.05 -2.8 40L-42.3 24.9L-42.55 24.85Q-44.9 23.75 -43.9 21.3Q-42.95 18.7 -40.25 19.7L-0.75 34.75M-43.05,23.15L-14.05 32.1L-40.65 21.1L-43.05 23.15M-40.65,27.95L-49.2 26.95L-45.05 25.65L-43.5 26.65L-40.65 27.95" />
<path style="fill:#00CCFF;fill-opacity:1" d="M-2.8,-10.55Q-5.3 -8.55 -7.65 -13.5Q-9.5 -20.65 -15.3 -26.95Q-20.65 -32.75 -29.65 -37.95Q-20.1 -34.2 -13.6 -29.45Q-6.1 -24.15 -1.85 -17.15Q-0.3 -12.55 -2.8 -10.55M-22.75,12.1L3.85 23.1L-25.15 14.2L-22.75 12.1M-40.65,21.1L-14.05 32.1L-43.05 23.15L-40.65 21.1" />
</g>
</svg>
