<?xml version="1.0" encoding="utf-8"?>
<svg version="1.1" id="Layer_1"
xmlns="http://www.w3.org/2000/svg"
xmlns:xlink="http://www.w3.org/1999/xlink"
xmlns:author="http://www.sothink.com"
width="321px" height="221px"
xml:space="preserve">
<g id="619" transform="matrix(1, 0, 0, 1, 90.25, 110.5)">
<path style="fill:#000000;fill-opacity:1" d="M-28.9,17.85Q-55.9 7.25 -89.75 0L-89.75 -110L230.25 -110L230.25 110L70.25 110Q53.85 58.35 -6.35 27.9L53.8 -0.45Q50.7 -10.3 39.9 -14.35L-28.9 17.85" />
<path style="fill:#FF0000;fill-opacity:1" d="M-89.75,110L-89.75 98L-63.95 98L-63.95 98.05L-63.85 98L-11.75 75L-30.15 39.05L-6.35 27.9Q53.85 58.35 70.25 110L-89.75 110M-89.75,0Q-55.9 7.25 -28.9 17.85L-45.05 25.4L-80.75 13L-89.75 13L-89.75 0" />
<path style="fill:#CCCCCC;fill-opacity:1" d="M-89.75,13L-80.75 13L-45.05 25.4L-34.75 30L-30.15 39.05L-11.75 75L-63.85 98L-63.95 98.05L-63.95 98L-89.75 98L-89.75 50L-89.75 13" />
<path style="fill:#666666;fill-opacity:1" d="M-28.9,17.85L39.9 -14.35Q50.7 -10.3 53.8 -0.45L-6.35 27.9L-30.15 39.05L-34.75 30L-45.05 25.4L-28.9 17.85" />
<path style="fill:none;stroke-width:1;stroke-linecap:round;stroke-linejoin:round;stroke-miterlimit:3;stroke:#CCCCCC;stroke-opacity:1" d="M-6.35,27.9Q53.85 58.35 70.25 110L230.25 110L230.25 -110L-89.75 -110L-89.75 0Q-55.9 7.25 -28.9 17.85M-89.75,0L-89.75 13L-89.75 50L-89.75 98L-89.75 110L70.25 110" />
<path style="fill:none;stroke-width:1;stroke-linecap:round;stroke-linejoin:round;stroke-miterlimit:3;stroke:#999999;stroke-opacity:1" d="M39.9,-14.35Q50.7 -10.3 53.8 -0.45M-89.75,13L-80.75 13L-45.05 25.4L-34.75 30L-30.15 39.05L-11.75 75L-63.85 98L-63.95 98.05L-63.95 98L-89.75 98M-45.05,25.4L-28.9 17.85M-63.85,98L-63.95 98L-75.75 50L-34.75 30" />
<path style="fill:none;stroke-width:1;stroke-linecap:round;stroke-linejoin:round;stroke-miterlimit:3;stroke:#999999;stroke-opacity:1" d="M53.8,-0.45L-6.35 27.9M-28.9,17.85L39.9 -14.35M-30.15,39.05L-6.35 27.9M-75.75,50L-89.75 50" />
</g>
</svg>
