<?xml version="1.0" encoding="utf-8"?>
<svg version="1.1" id="Layer_1"
xmlns="http://www.w3.org/2000/svg"
xmlns:xlink="http://www.w3.org/1999/xlink"
xmlns:author="http://www.sothink.com"
width="17px" height="17px"
xml:space="preserve">
<g id="207" transform="matrix(1, 0, 0, 1, 8.2, -2.15)">
<path style="fill:#FF9900;fill-opacity:1" d="M0.45,10.65L0.5 10.65L0.3 10.5L-4.1 3.95L-3.05 3.35Q-1.5 2.65 0.3 2.65Q1.85 2.65 3.2 3.2Q4.05 3.5 4.85 4.1L0.5 10.65L8.3 10.65M8.3,10.65Q8.3 13.8 6.15 16.1L5.95 16.3L5.55 16.7L4.9 17.25L0.5 10.7L0.45 10.7L0.45 10.65M0.45,10.7L-0.05 11.5L-3.75 16.95L-4.05 17.4L-5.35 16.3Q-7.7 13.95 -7.7 10.65L0.45 10.7" />
<path style="fill:#666666;fill-opacity:1" d="M-7.7,10.65Q-7.7 7.35 -5.35 5L-4.25 4.05L-4.1 3.95L0.3 10.5L0.5 10.65L4.85 4.1L5.95 5Q8.3 7.35 8.3 10.65L0.5 10.65L0.45 10.65L0.45 10.7L0.5 10.7L4.9 17.25L4.55 17.45L4.5 17.5L4.45 17.55L2.7 18.3L0.3 18.65Q-2.1 18.65 -4 17.4L-4.05 17.4L-3.75 16.95L-0.05 11.5L0.45 10.7L-7.7 10.65" />
<path style="fill:none;stroke-width:0.05;stroke-linecap:round;stroke-linejoin:round;stroke-miterlimit:3;stroke:#CCCCCC;stroke-opacity:1" d="M-4.1,3.95L0.3 10.5M0.5,10.65L0.45 10.65L0.5 10.65L4.85 4.1M-7.7,10.65L0.45 10.7L0.5 10.7L0.45 10.65L0.45 10.7L-0.05 11.5M-0.05,11.5L-3.75 16.95M0.5,10.65L8.3 10.65M0.5,10.7L4.9 17.25" />
<path style="fill:none;stroke-width:1;stroke-linecap:round;stroke-linejoin:round;stroke-miterlimit:3;stroke:#999999;stroke-opacity:1" d="M-4.1,3.95L-3.05 3.35Q-1.5 2.65 0.3 2.65Q1.85 2.65 3.2 3.2Q4.05 3.5 4.85 4.1L5.95 5Q8.3 7.35 8.3 10.65Q8.3 13.8 6.15 16.1L5.95 16.3L5.55 16.7L4.9 17.25L4.55 17.45L4.5 17.5L4.45 17.55L2.7 18.3L0.3 18.65Q-2.1 18.65 -4 17.4L-4.05 17.4L-5.35 16.3Q-7.7 13.95 -7.7 10.65Q-7.7 7.35 -5.35 5L-4.25 4.05L-4.1 3.95z" />
</g>
</svg>
