<?xml version="1.0" encoding="utf-8"?>
<svg version="1.1" id="Layer_1"
xmlns="http://www.w3.org/2000/svg"
xmlns:xlink="http://www.w3.org/1999/xlink"
xmlns:author="http://www.sothink.com"
width="51px" height="46px"
xml:space="preserve">
<g id="135" transform="matrix(1, 0, 0, 1, 25.5, 22.4)">
<path style="fill:none;stroke-width:1;stroke-linecap:round;stroke-linejoin:round;stroke-miterlimit:3;stroke:#3366FF;stroke-opacity:1" d="M-12.5,22.55L-25 11.7L-25 -5.7L-12.95 -21.9L-10.3 -21.9L5.45 -21.9L12.5 -21.9L24.95 -5.65L24.95 11.7L12.45 22.55L-11.85 22.55" />
</g>
</svg>
