<?xml version="1.0" encoding="utf-8"?>
<svg version="1.1" id="Layer_1"
xmlns="http://www.w3.org/2000/svg"
xmlns:xlink="http://www.w3.org/1999/xlink"
xmlns:author="http://www.sothink.com"
width="46px" height="41px"
xml:space="preserve">
<g id="153" transform="matrix(1, 0, 0, 1, 22.6, 20.5)">
<path style="fill:none;stroke-width:1;stroke-linecap:round;stroke-linejoin:round;stroke-miterlimit:3;stroke:#3366FF;stroke-opacity:1" d="M18.25,-9.25Q22.85 0.25 21.7 9.8L18.85 17.5L6.7 20L-6.7 20L-18.7 17.5L-21.45 9.8Q-23.75 0.25 -18.1 -9.25L-3.15 -20L3.1 -19.95L18.25 -9.25z" />
</g>
</svg>
