<?xml version="1.0" encoding="utf-8"?>
<svg version="1.1" id="Layer_1"
xmlns="http://www.w3.org/2000/svg"
xmlns:xlink="http://www.w3.org/1999/xlink"
xmlns:author="http://www.sothink.com"
width="12px" height="66px"
xml:space="preserve">
<g id="414" transform="matrix(1, 0, 0, 1, 5.5, 32)">
<path style="fill:#00FF00;fill-opacity:1" d="M3,-31.4L6 -31.4L6 -21.9L-2 -21.9L-2 -22L3 -22L3 -31.4M3,22.6L6 22.6L6 32.6L-1 32.6L-1 32.5L3 32.5L3 22.6" />
<path style="fill:#FFFF00;fill-opacity:1" d="M3,-22L-2 -22L-5 -22L-5 -31.5L3 -31.5L3 -31.4L3 -22M3,32.5L-1 32.5L-4 32.5L-4 22.5L3 22.5L3 22.6L3 32.5" />
<path style="fill:none;stroke-width:1;stroke-linecap:round;stroke-linejoin:round;stroke-miterlimit:3;stroke:#00FF00;stroke-opacity:1" d="M3,-31.4L6 -31.4L6 -21.9L-2 -21.9L-2 -22M3,22.6L6 22.6L6 32.6L-1 32.6L-1 32.5" />
<path style="fill:none;stroke-width:1;stroke-linecap:round;stroke-linejoin:round;stroke-miterlimit:3;stroke:#FFFF00;stroke-opacity:1" d="M-2,-22L-5 -22L-5 -31.5L3 -31.5L3 -31.4M-2,-22L3 -22L3 -31.4M-1,32.5L-4 32.5L-4 22.5L3 22.5L3 22.6M-1,32.5L3 32.5L3 22.6" />
</g>
</svg>
