<?xml version="1.0" encoding="utf-8"?>
<svg version="1.1" id="Layer_1"
xmlns="http://www.w3.org/2000/svg"
xmlns:xlink="http://www.w3.org/1999/xlink"
xmlns:author="http://www.sothink.com"
width="56px" height="50px"
xml:space="preserve">
<g id="339" transform="matrix(1, 0, 0, 1, 16, 20.5)">
<path style="fill:none;stroke-width:1;stroke-linecap:round;stroke-linejoin:round;stroke-miterlimit:3;stroke:#FFFFFF;stroke-opacity:1" d="M38.5,-9L39 -9L39 -9.5M39.5,-9L39 -9L39 -8.5" />
<path style="fill:none;stroke-width:1;stroke-linecap:round;stroke-linejoin:round;stroke-miterlimit:3;stroke:#99FFCC;stroke-opacity:1" d="M-12.5,-19.5L-12 -19.5L-12 -20M-11.5,-19.5L-12 -19.5L-12 -19" />
<path style="fill:none;stroke-width:1;stroke-linecap:round;stroke-linejoin:round;stroke-miterlimit:3;stroke:#FFFFFF;stroke-opacity:1" d="M-14.5,28.5L-15 28.5L-15 29M-15.5,28.5L-15 28.5L-15 28" />
</g>
</svg>
