<?xml version="1.0" encoding="utf-8"?>
<svg version="1.1" id="Layer_1"
xmlns="http://www.w3.org/2000/svg"
xmlns:xlink="http://www.w3.org/1999/xlink"
xmlns:author="http://www.sothink.com"
width="39px" height="18px"
xml:space="preserve">
<g id="202" transform="matrix(1, 0, 0, 1, 18.55, 9.35)">
<path style="fill:#FFFFFF;fill-opacity:1" d="M-17.55,-8.35L-17.55 -8.4L18.95 -8.4L18.95 -8.35L-17.55 -8.35" />
<path style="fill:#0099FF;fill-opacity:1" d="M-17.55,6.4L-17.55 -8.35L18.95 -8.35L18.95 6.4L-17.55 6.4" />
<path style="fill:none;stroke-width:2;stroke-linecap:round;stroke-linejoin:round;stroke-miterlimit:3;stroke:#999999;stroke-opacity:1" d="M18.95,-8.35L18.95 6.4L18.95 7L-17.55 7L-17.55 6.4L-17.55 -8.35L18.95 -8.35z" />
</g>
</svg>
