<?xml version="1.0" encoding="utf-8"?>
<svg version="1.1" id="Layer_1"
xmlns="http://www.w3.org/2000/svg"
xmlns:xlink="http://www.w3.org/1999/xlink"
xmlns:author="http://www.sothink.com"
width="80px" height="71px"
xml:space="preserve">
<g id="117" transform="matrix(1, 0, 0, 1, 39.95, 35.5)">
<path style="fill:none;stroke-width:1;stroke-linecap:round;stroke-linejoin:round;stroke-miterlimit:3;stroke:#3366FF;stroke-opacity:1" d="M30.8,-3.35L39.55 34.25L-39.45 34.25L-30.7 -3.35Q-23.3 -35.35 0.05 -35Q23.4 -35.35 30.8 -3.35z" />
</g>
</svg>
