<?xml version="1.0" encoding="utf-8"?>
<svg version="1.1" id="Layer_1"
xmlns="http://www.w3.org/2000/svg"
xmlns:xlink="http://www.w3.org/1999/xlink"
xmlns:author="http://www.sothink.com"
width="174px" height="169px"
xml:space="preserve">
<g id="243" transform="matrix(1, 0, 0, 1, 87, 85.95)">
<path style="fill:none;stroke-width:1;stroke-linecap:round;stroke-linejoin:round;stroke-miterlimit:3;stroke:#CCCCCC;stroke-opacity:1" d="M86.5,82.1L-86.5 82.1L-86.5 -85.45L86.5 -85.45L86.5 82.1z" />
</g>
</svg>
