<?xml version="1.0" encoding="utf-8"?>
<svg version="1.1" id="Layer_1"
xmlns="http://www.w3.org/2000/svg"
xmlns:xlink="http://www.w3.org/1999/xlink"
xmlns:author="http://www.sothink.com"
width="34px" height="14px"
xml:space="preserve">
<g id="596" transform="matrix(1, 0, 0, 1, 16.55, 6.75)">
<path style="fill:#FF0000;fill-opacity:1" d="M-16.55,-6.75L16.6 -6.75L16.6 6.8L-16.55 6.8L-16.55 -6.75" />
</g>
</svg>
