<?xml version="1.0" encoding="utf-8"?>
<svg version="1.1" id="Layer_1"
xmlns="http://www.w3.org/2000/svg"
xmlns:xlink="http://www.w3.org/1999/xlink"
xmlns:author="http://www.sothink.com"
width="21px" height="21px"
xml:space="preserve">
<g id="399" transform="matrix(1, 0, 0, 1, 10.25, 10.25)">
<path style="fill:none;stroke-width:0.5;stroke-linecap:round;stroke-linejoin:round;stroke-miterlimit:3;stroke:#00FF00;stroke-opacity:1" d="M9.3,-3.75Q9.95 -2 10 0Q9.95 4.15 7.05 7.05Q4.1 10 0 10Q-4.15 10 -7.1 7.05Q-10.05 4.15 -10 0Q-10.05 -4.15 -7.1 -7.1Q-4.15 -10 0 -10Q2.6 -10 4.75 -8.8Q5.95 -8.15 7.05 -7.1Q8.55 -5.6 9.3 -3.75z" />
</g>
</svg>
