<?xml version="1.0" encoding="utf-8"?>
<svg version="1.1" id="Layer_1"
xmlns="http://www.w3.org/2000/svg"
xmlns:xlink="http://www.w3.org/1999/xlink"
xmlns:author="http://www.sothink.com"
width="116px" height="116px"
xml:space="preserve">
<g id="511" transform="matrix(1, 0, 0, 1, 57.75, 57.7)">
<path style="fill:#CE8F00;fill-opacity:1" d="M21.55,-53.55L-14.35 -55.75L-14.55 -55.9Q-11.45 -56.75 -8.15 -57.2L-5.45 -57.5Q22.15 -59.6 41.3 -40.15Q29.2 -39.65 17.1 -39.95L-38.7 -42.8L-36.2 -44.95L-38.15 -43.25L26.85 -51.05Q24.25 -52.5 21.55 -53.55M56.95,-9.6L50.7 -7.5L35.1 -6.45L36.3 -8Q38.05 -10.2 39 -12.85L39.5 -13Q48.1 -15.55 53.1 -22.6L51.9 -25.25L46.35 -33.8L46.7 -33.9L44.55 -36.45L43.85 -37.45Q55.8 -23.9 57.5 -5.7L56.95 -9.6M55.75,15.1Q49.85 37.05 29.45 49.55Q14.7 58.55 -2.6 57.85Q-11.2 57.45 -18.85 54.85L-18.6 54.4L41.2 37.15L-33.95 46.7L-33.25 47.2L-33.35 47.25L-36.9 44.45L-35.5 45.55L-12.75 39.2Q2 43.25 14.85 35.45Q18.2 33.4 19.95 30.05L53.9 20.6L49.95 21.1Q52.6 19.75 54.4 17L55.4 15.3L55.75 15.1M29.55,-2.05L31.95 -2.5L30.1 -1.55L29.55 -2.05M-54.25,-19.75L-33.7 -23.4L-36.45 -19.9L-40 -19.25Q-47.45 -18 -55 -17.55L-55.6 -15.7L-54 -20.55L-53.9 -20.6L-54.25 -19.75M-57.65,-2.9L-47.2 -4.75L-46.95 -1.3L-57.75 -0.6L-57.65 -2.9M-32.05,28.5L-29.6 30.75L-47.45 32.9L-45.75 35.25L-49.35 30.15L-49.3 30.05L-49 30.5L-33.3 27L-32.05 28.5M-56.3,12.85L-56.2 13.4L-41.7 10.75L-41.55 13.4L-55.9 14.45L-55.6 15.5L-55.8 15.45L-56.45 12.95L-56.3 12.85" />
<path style="fill:#FFB200;fill-opacity:1" d="M44.55,-36.45Q40.4 -38 36.9 -36.1Q35.7 -35.5 36.55 -34.35Q38.15 -32.15 41.05 -32.65Q43.65 -33.05 46.35 -33.8L51.9 -25.25L51.25 -24.05Q46.95 -17.9 39.75 -15.4Q42.05 -29.65 30 -37.5L31.05 -37.7Q37.3 -38.6 43.75 -37.6L43.85 -37.45L44.55 -36.45M21.35,-36.55Q18.75 -36.55 19.4 -34.3Q19.7 -33.05 20.8 -32.45Q23.35 -31.2 25.5 -32.75Q26.2 -36.6 21.35 -36.55M20.4,-32.4L15.9 -34.75L12.3 -36.2Q24.9 -41.1 33.7 -31Q38.55 -25.45 37.7 -18.05Q36.5 -7.9 27.2 -3.4L24.05 -4.35Q21.65 -5.05 19.25 -5.35Q26.95 -12.8 25.85 -23Q25.6 -25.35 24.35 -27.3L20.4 -32.4M-37.6,-6.35Q-39.35 2.5 -24.95 6.25Q-18.15 8.05 -12.5 4.4Q-7.2 0.95 -7.2 -4.15Q-7.2 -7.8 -13.7 -7.4L-21.9 -7.8Q-19.5 -17.8 -9.25 -21.4Q-0.45 -24.7 6.35 -30.7Q4.75 -34.15 0.25 -33.35Q-13.85 -31.15 -26.1 -23.75Q-33.65 -19.2 -34 -10.85Q-36.8 -10.35 -37.6 -6.35M11.85,-34.35Q21.9 -31.5 24.3 -21.85Q24.6 -20.55 24.3 -19.2Q22.3 -11.25 16.4 -5.3L12.2 -4.6Q0.75 -1.35 -5.7 8.25Q-8.2 11.85 -8.05 16.25Q-7.85 22.65 -2.7 25.9Q2.3 29.05 8.15 29.15L17.9 29.3Q9.75 39.65 -3.8 38.35Q-13.55 37.75 -22 33.15Q-29.8 29 -35 22L-36 21.05Q-39.85 18.55 -39.7 13.45Q-39.6 8.85 -39.95 4.25Q-41.05 -10.1 -32.4 -21.05Q-29.5 -24.75 -25.4 -27Q-11.1 -35.05 5.3 -35.3Q8.65 -35.35 11.85 -34.35M-36.15,-38.95Q-35.4 -39.7 -34.3 -39.7Q-33.25 -39.7 -32.45 -38.95Q-31.7 -38.2 -31.7 -37.15Q-31.7 -36.05 -32.45 -35.25Q-33.25 -34.5 -34.3 -34.5Q-35.4 -34.5 -36.15 -35.25Q-36.9 -36.05 -36.9 -37.15Q-36.9 -38.2 -36.15 -38.95M-38.4,-16.7Q-42 -9.35 -42.05 -1L-42 3.8Q-45.3 0.6 -45.2 -4.2Q-45.05 -12.35 -38.4 -16.7M-3.65,9.25Q-1.15 4.8 3 1.85Q15.15 -6.8 28.05 -0.35Q24.55 1.6 22.35 4.9Q16.8 5 14.05 9.8Q11.65 14.1 14.35 18.2Q19.45 26.05 28.45 22.35L30.75 22.85L28.75 24Q15.4 29.9 1.1 25.7Q-2.5 24.7 -4.05 21.35Q-7.1 15.1 -3.65 9.25M53.2,13.8Q50.05 20.95 41.9 21.1L31.55 20.65Q36.6 17.7 36.55 12.1Q36.55 10.35 35.6 8.95Q32.15 3.85 25.35 4.7L26.85 3.35Q35.65 -4.65 46.65 -1.6Q48.95 -0.5 50.85 1.4Q56.2 6.85 53.2 13.8M33.95,14.9Q31.6 18.95 27.05 20.65Q21.5 22.8 17.4 18.8Q14.1 15.65 15.85 11.45Q16.3 10.25 17.3 9.6Q23.4 5.4 30.7 7.95Q35.65 9.55 33.95 14.9" />
<path style="fill:#FFD066;fill-opacity:1" d="M46.35,-33.8Q43.65 -33.05 41.05 -32.65Q38.15 -32.15 36.55 -34.35Q35.7 -35.5 36.9 -36.1Q40.4 -38 44.55 -36.45L46.7 -33.9L46.35 -33.8M49.2,-2.85L46.7 -3.85L44.25 -4.7L50.7 -7.5L56.95 -9.6L57.5 -5.7L57.5 -5.45L57.5 -5.05L57.5 -5.7L49.2 -2.85M55.4,15.3Q56.9 12.05 56.6 8.6L56.4 6.8L57.4 5.95L57.25 7.75Q56.7 11.45 55.75 15.1L55.4 15.3M25.5,-32.75Q23.35 -31.2 20.8 -32.45Q19.7 -33.05 19.4 -34.3Q18.75 -36.55 21.35 -36.55Q26.2 -36.6 25.5 -32.75M-33.7,-10.9L-34 -10.85Q-33.65 -19.2 -26.1 -23.75Q-13.85 -31.15 0.25 -33.35Q4.75 -34.15 6.35 -30.7Q-0.45 -24.7 -9.25 -21.4Q-19.5 -17.8 -21.9 -7.8Q-27.6 -10.1 -33.7 -10.9M-32.35,-8.3L-27.05 -7.8Q-22.9 -6.4 -23.9 -2.9Q-28.55 -1.2 -32.6 -4.1Q-36.3 -6.8 -32.35 -8.3" />
<path style="fill:#FFFFFF;fill-opacity:1" d="M56.4,6.8Q55.05 1.6 51 -1.55L49.2 -2.85L57.5 -5.7L57.5 -5.05L57.55 -4.8L57.6 3.05L57.4 5.95L56.4 6.8" />
</g>
</svg>
