<?xml version="1.0" encoding="utf-8"?>
<svg version="1.1" id="Layer_1"
xmlns="http://www.w3.org/2000/svg"
xmlns:xlink="http://www.w3.org/1999/xlink"
xmlns:author="http://www.sothink.com"
width="302px" height="292px"
xml:space="preserve">
<g id="182" transform="matrix(1, 0, 0, 1, 151, 145.5)">
<path style="fill:none;stroke-width:1;stroke-linecap:round;stroke-linejoin:round;stroke-miterlimit:3;stroke:#CCCCCC;stroke-opacity:1" d="M23.95,-144.5L24.3 -144.5L24 -145L23.95 -144.5L17.4 -103L17.4 -102.95L17.4 -102.9L17.35 -102.9L14.95 -86.2L0.15 -93.8M17.4,-102.95L17.35 -102.9L10 -115L-10.5 -115L-17.85 -102.9L-15.25 -86.1L-0.5 -93.7M17.4,-103L17.35 -102.9M8,-30L0 -11L-0.25 12.65L-0.5 115L8 103L8.1 -29.55L49.6 -48.8L32.5 -75L-0.5 -86L-33.5 -75L-50.5 -49L-8.55 -29.55L-8.5 103L-0.5 115L66 115L50 103L8 103M49.6,-48.8L50 -49L70 -28L84 42L66 115M-17.85,-102.9L-24.4 -144.5L-24.8 -144.5L-79.5 -43L-99 -1L-121.5 -23L-150.5 -29L-150.5 13L-125.5 97L-81.5 131L-75.5 131L-33.5 131L32.5 131L75.5 131L81 131L125 97L150 13L150 -29L121 -23L98.5 -1L79 -43L24.3 -144.5M32.5,131L25.85 145L82.65 145L75.5 131M82.9,145.5L82.65 145M50,103L50 -49M-24.4,-144.5L-24.5 -145L-24.8 -144.5M-15.5,-86L-15.25 -86.1M-0.5,115L-66.5 115L-84.5 42L-70.5 -28L-50.5 -49L-50.5 103L-8.5 103M-0.25,12.65L-0.5 -11L-8.5 -30M-33.5,131L-27.1 145L-83.9 145L-84.15 145.5M-50.5,103L-66.5 115M-75.5,131L-83.9 145" />
<path style="fill:none;stroke-width:0.1;stroke-linecap:round;stroke-linejoin:round;stroke-miterlimit:3;stroke:#CCCCCC;stroke-opacity:1" d="M15.2,-72.65Q8.65 -78.35 -0.5 -78.5L-1 -78.5Q-10.45 -78.5 -17.15 -72.65Q-23.85 -66.8 -23.85 -58.5Q-23.85 -50.2 -17.15 -44.35Q-10.45 -38.5 -1 -38.5L-0.5 -38.5Q8.65 -38.65 15.2 -44.35Q21.85 -50.2 21.85 -58.5Q21.85 -66.8 15.2 -72.65M129.6,42.4Q122.9 48.25 113.45 48.25Q103.95 48.25 97.3 42.4Q90.6 36.55 90.6 28.25Q90.6 19.95 97.3 14.1Q103.95 8.25 113.45 8.25Q122.9 8.25 129.6 14.1Q136.3 19.95 136.3 28.25Q136.3 36.55 129.6 42.4" />
<path style="fill:none;stroke-width:0.1;stroke-linecap:round;stroke-linejoin:round;stroke-miterlimit:3;stroke:#CCCCCC;stroke-opacity:1" d="M-113.95,8.25Q-123.4 8.25 -130.1 14.1Q-136.8 19.95 -136.8 28.25Q-136.8 36.55 -130.1 42.4Q-123.4 48.25 -113.95 48.25Q-104.45 48.25 -97.75 42.4Q-91.1 36.55 -91.1 28.25Q-91.1 19.95 -97.75 14.1Q-104.45 8.25 -113.95 8.25z" />
</g>
</svg>
