<?xml version="1.0" encoding="utf-8"?>
<svg version="1.1" id="Layer_1"
xmlns="http://www.w3.org/2000/svg"
xmlns:xlink="http://www.w3.org/1999/xlink"
xmlns:author="http://www.sothink.com"
width="60px" height="85px"
xml:space="preserve">
<g id="626" transform="matrix(1, 0, 0, 1, 33.15, 56.5)">
<path style="fill:none;stroke-width:1;stroke-linecap:round;stroke-linejoin:round;stroke-miterlimit:3;stroke:#CCCCCC;stroke-opacity:1" d="M26.3,-35L-32.65 -35L-32.65 -56L26.3 -56L26.3 -35M-29.75,3.5L22.25 3.5L22.25 27.5L-29.75 27.5L-29.75 3.5" />
</g>
</svg>
