<?xml version="1.0" encoding="utf-8"?>
<svg version="1.1" id="Layer_1"
xmlns="http://www.w3.org/2000/svg"
xmlns:xlink="http://www.w3.org/1999/xlink"
xmlns:author="http://www.sothink.com"
width="64px" height="75px"
xml:space="preserve">
<g id="386" transform="matrix(1, 0, 0, 1, 35.25, 38.1)">
<path style="fill:#CCCCCC;fill-opacity:1" d="M-24.8,-24.7Q-9.35 -45.1 12.75 -33.3Q14.7 -32.3 16.5 -30.95L25.5 -17.5Q31.45 0.8 22.15 21.55Q11.8 44.55 -14.5 31.2Q-36.2 20.2 -34.65 -3.9L-34.25 -7.65Q-32.2 -17.3 -24.8 -24.7" />
<path style="fill:none;stroke-width:1;stroke-linecap:round;stroke-linejoin:round;stroke-miterlimit:3;stroke:#999999;stroke-opacity:1" d="M25.5,-17.5Q22.2 -17.1 17.3 -19.5Q12.4 -21.9 16.5 -30.95Q14.7 -32.3 12.75 -33.3Q-9.35 -45.1 -24.8 -24.7Q-24.8 -17.65 -27.55 -12.65Q-30.35 -7.65 -34.25 -7.65L-34.65 -3.9Q-36.2 20.2 -14.5 31.2Q11.8 44.55 22.15 21.55Q31.45 0.8 25.5 -17.5L16.5 -30.95" />
<path style="fill:#CCCCCC;fill-opacity:1" d="M10.85,8.1L9.9 5.75Q3.9 -12.05 18.8 -16L18.95 -15.8Q34.15 9.6 11.5 9.1L10.85 8.1M-9.8,-23.25Q-8.1 -26.75 -5.65 -26.75Q-3.25 -26.75 -1.55 -23.25Q0.15 -19.7 0.15 -14.7Q0.15 -9.7 -1.55 -6.2Q-3.25 -2.65 -5.65 -2.65Q-8.1 -2.65 -9.8 -6.2Q-11.5 -9.7 -11.45 -14.7Q-11.5 -19.7 -9.8 -23.25M-6.4,25Q-21.9 18.6 -21.7 3.2L-19.3 0.75Q0.55 1.5 3.15 22.15L-0.35 25.65L-6.4 25" />
<path style="fill:none;stroke-width:1;stroke-linecap:round;stroke-linejoin:round;stroke-miterlimit:3;stroke:#999999;stroke-opacity:1" d="M10.85,8.1Q26.35 3.55 19.4 -14.8L18.95 -15.8L18.8 -16M10.85,8.1Q-3.2 -8.05 12.9 -20.1L18.8 -16M-11.45,-14.7Q-11.5 -9.7 -9.8 -6.2Q-8.1 -2.65 -5.65 -2.65Q-3.25 -2.65 -1.55 -6.2Q0.15 -9.7 0.15 -14.7Q0.15 -19.7 -1.55 -23.25Q-3.25 -26.75 -5.65 -26.75Q-8.1 -26.75 -9.8 -23.25Q-11.5 -19.7 -11.45 -14.7M-6.4,25L-3.95 22.65Q-3.9 7.2 -19.3 0.75M-6.4,25Q-29.65 23 -27.55 1.45L-19.3 0.75" />
</g>
</svg>
