<?xml version="1.0" encoding="utf-8"?>
<svg version="1.1" id="Layer_1"
xmlns="http://www.w3.org/2000/svg"
xmlns:xlink="http://www.w3.org/1999/xlink"
xmlns:author="http://www.sothink.com"
width="8px" height="16px"
xml:space="preserve">
<g id="364" transform="matrix(1, 0, 0, 1, 4.1, 10.5)">
<path style="fill:#CCCCCC;fill-opacity:1" d="M2.45,-1.8Q3.45 -0.75 3.4 0.75Q3.35 2.2 2.3 3.15Q1.2 4.15 -0.2 4.1Q-1.7 4.05 -2.65 3Q-3.65 1.95 -3.6 0.5Q-3.55 -1 -2.5 -1.95Q-1.45 -2.95 0.05 -2.9Q1.45 -2.85 2.45 -1.8" />
<path style="fill:none;stroke-width:1;stroke-linecap:round;stroke-linejoin:round;stroke-miterlimit:3;stroke:#000000;stroke-opacity:1" d="M0.05,-2.9Q-1.45 -2.95 -2.5 -1.95Q-3.55 -1 -3.6 0.5Q-3.65 1.95 -2.65 3Q-1.7 4.05 -0.2 4.1Q1.2 4.15 2.3 3.15Q3.35 2.2 3.4 0.75Q3.45 -0.75 2.45 -1.8Q1.45 -2.85 0.05 -2.9z" />
<path style="fill:none;stroke-width:2;stroke-linecap:round;stroke-linejoin:round;stroke-miterlimit:3;stroke:#888888;stroke-opacity:1" d="M-0.05,-9.5L-0.05 -0.3L0 -0.3L-0.1 1.95" />
</g>
</svg>
