<?xml version="1.0" encoding="utf-8"?>
<svg version="1.1" id="Layer_1"
xmlns="http://www.w3.org/2000/svg"
xmlns:xlink="http://www.w3.org/1999/xlink"
xmlns:author="http://www.sothink.com"
width="201px" height="121px"
xml:space="preserve">
<g id="224" transform="matrix(1, 0, 0, 1, 67, 40)">
<path style="fill:#FF0000;fill-opacity:1" d="M133.5,80.5L-66.5 80.5L-66.5 -39.5L133.5 -39.5L133.5 80.5" />
<path style="fill:none;stroke-width:1;stroke-linecap:round;stroke-linejoin:round;stroke-miterlimit:3;stroke:#999999;stroke-opacity:1" d="M133.5,80.5L-66.5 80.5L-66.5 -39.5L133.5 -39.5L133.5 80.5z" />
</g>
</svg>
