<?xml version="1.0" encoding="utf-8"?>
<svg version="1.1" id="Layer_1"
xmlns="http://www.w3.org/2000/svg"
xmlns:xlink="http://www.w3.org/1999/xlink"
xmlns:author="http://www.sothink.com"
width="301px" height="301px"
xml:space="preserve">
<g id="186" transform="matrix(1, 0, 0, 1, 150.05, 150.05)">
<path style="fill:none;stroke-width:0.1;stroke-linecap:round;stroke-linejoin:round;stroke-miterlimit:3;stroke:#CCCCCC;stroke-opacity:1" d="M20.1,-118.9L16.5 -135.45L36.8 52.35L37.55 52.35L37.55 -33.9L37.55 -37.5L23.85 -101.6L20.1 -118.9L60.1 -75.1L57.05 -63.45L52.55 -45L37.55 -37.5M15.2,-142.95L15.75 -142.55L16.5 -135.45L15.2 -142.95L-0.1 -150L-15.2 -142.95L-16.5 -135.45L-36.8 52.35L-7.5 52.35L-7.5 112.5L7.5 112.5L7.5 52.35L36.8 52.35M37.55,-33.9L45.05 -26.4L45.05 -0.1L67.6 -0.1Q77.5 31.65 90.1 52.15L90.1 37.5L93.85 33.75L93.85 -6.2L90.1 -6.2L92.2 -36.25L103.05 -36.25L105.15 -6.2L101.4 -6.2L101.4 33.75L105.15 37.5L105.15 71.9Q118.55 85.5 134.4 89L134.4 74.9Q142.15 96.9 150 100.1L146.6 136.75L134.4 142.4L134.4 127.35L60.1 127.35L52.55 134.85L52.55 138.65L50.7 138.65L45.05 150.65L37.55 150.65L33.8 150.65L30.05 150.65L22.55 150.65L16.9 138.65L-16.9 138.65L-22.55 150.65L-30.05 150.65L-33.8 150.65L-37.55 150.65L-45.05 150.65L-50.7 138.65L-52.55 138.65L-52.55 134.85L-60.05 127.35L-134.4 127.35L-134.4 142.4L-146.6 136.75L-150 100.1Q-142.2 96.9 -134.4 74.9L-134.4 89Q-118.55 85.5 -105.15 71.9L-105.15 37.5L-101.4 33.75L-101.4 -6.2L-105.15 -6.2L-103.05 -36.25L-92.2 -36.25L-90.1 -6.2L-93.85 -6.2L-93.85 33.75L-90.1 37.5L-90.1 52.15Q-77.5 31.65 -67.6 -0.1L-45.05 -0.1L-45.05 -26.4L-37.55 -33.9L-37.55 -37.5L-52.55 -45L-57.05 -63.45L-60.05 -75.1L-20.1 -118.9L-16.5 -135.45L-15.75 -142.55L-15.2 -142.95M93.85,-6.2L101.4 -6.2M57.05,-63.45L23.85 -101.6M101.4,33.75L93.85 33.75M45.05,-0.1L45.05 37.5L75.1 37.5L75.1 44.85L75.1 112.5L134.4 112.5L134.4 89M45.05,37.5L45.05 44.85L37.55 52.35M75.1,44.85L60.1 59.85L60.1 127.35L75.1 112.5M60.1,59.85L15 59.85L15 134.85L52.55 134.85M33.8,150.65L34.15 138.65L27.4 138.65L30.05 150.65M27.4,138.65L16.9 138.65M37.55,150.65L38.1 148.05Q39.15 143.2 40.35 138.65L34.15 138.65M50.7,138.65L40.35 138.65M134.4,127.35L134.4 112.5M105.15,37.5Q97.6 42.5 90.1 37.5M90.1,52.15Q97.2 63.8 105.15 71.9M-20.1,-118.9L-23.85 -101.6L-37.55 -37.5M-101.4,-6.2L-93.85 -6.2M0,-52.55L-2.65 -52.35Q-11.95 -51.3 -15 -45Q-11.65 -86.05 -2.65 -89.75Q-1.4 -90.35 0 -90.15Q1.35 -90.35 2.65 -89.75Q11.65 -86.05 15 -45Q11.95 -51.3 2.65 -52.35L0 -52.55M-23.85,-101.6L-57.05 -63.45M-36.8,52.35L-37.55 52.35L-45.05 44.85L-45.05 37.5L-75.1 37.5L-75.1 44.85L-60.05 59.85L-15 59.85L-7.5 52.35M-45.05,37.5L-45.05 -0.1M-93.85,33.75L-101.4 33.75M-105.15,37.5Q-97.65 42.5 -90.1 37.5M-105.15,71.9Q-97.2 63.8 -90.1 52.15M-60.05,127.35L-75.1 112.5L-134.4 112.5L-134.4 127.35M-16.9,138.65L-27.4 138.65L-30.05 150.65M-15,59.85L-15 134.85L-7.5 127.35L-7.5 112.5M7.5,112.5L7.5 127.35L15 134.85M-37.55,150.65L-38.1 148.05L-40.35 138.65L-50.7 138.65M-33.8,150.65L-34.15 138.65L-40.35 138.65M-27.4,138.65L-34.15 138.65M-52.55,134.85L-15 134.85M-60.05,127.35L-60.05 59.85M-75.1,112.5L-75.1 44.85M-134.4,89L-134.4 112.5M-37.55,52.35L-37.55 -33.9M15,59.85L7.5 52.35" />
</g>
</svg>
