<?xml version="1.0" encoding="utf-8"?>
<svg version="1.1" id="Layer_1"
xmlns="http://www.w3.org/2000/svg"
xmlns:xlink="http://www.w3.org/1999/xlink"
xmlns:author="http://www.sothink.com"
width="72px" height="71px"
xml:space="preserve">
<g id="363" transform="matrix(1, 0, 0, 1, 36.9, 35.75)">
<path style="fill:#6600CC;fill-opacity:1" d="M4.6,-18.3L8.35 -26.8L6.1 -35.25L11.05 -32.95L15.9 -30.65L20.75 -28.3L25.65 -26L16 -23.4L12.25 -14.9L14 -13.4L14.55 -12.85Q20.35 -7.05 20.4 1.15L20.4 1.3Q20.4 6.9 17.75 11.4L25.05 17.3L33.8 17.3L30.3 21.45L26.8 25.55L23.3 29.65L19.8 33.8L19.8 23.8L12.1 17.6Q7.3 21.1 1.2 21.3L0.4 21.3Q-6.3 21.3 -11.35 17.45L-13.7 15.45Q-15.2 13.95 -16.3 12.3L-24.75 15.6L-29.1 23.15L-30.95 18L-32.75 13L-34.55 7.9L-36.4 2.8L-27.75 7.75L-19.35 4.55L-19.6 1.3L-19.6 0.75Q-19.4 -7.2 -13.7 -12.85L-11.3 -14.9Q-6.25 -18.7 0.4 -18.7L1.2 -18.7L4.6 -18.3" />
<path style="fill:none;stroke-width:1;stroke-linecap:round;stroke-linejoin:round;stroke-miterlimit:3;stroke:#9900CC;stroke-opacity:1" d="M4.6,-18.3L8.35 -26.8L6.1 -35.25L11.05 -32.95L15.9 -30.65L20.75 -28.3L25.65 -26L16 -23.4L12.25 -14.9M17.75,11.4L25.05 17.3L33.8 17.3L30.3 21.45L26.8 25.55L23.3 29.65L19.8 33.8L19.8 23.8L12.1 17.6M-16.3,12.3L-24.75 15.6L-29.1 23.15L-30.95 18L-32.75 13L-34.55 7.9L-36.4 2.8L-27.75 7.75L-19.35 4.55M11.05,-32.95L10.45 -25.9L12.2 -25.1L15.9 -30.65M8.35,-26.8L10.45 -25.9M16,-23.4L13.95 -24.35L12.2 -25.1M13.95,-24.35L20.75 -28.3M30.3,21.45L23.65 19.1L22.45 20.6L26.8 25.55M23.65,19.1L25.05 17.3M19.8,23.8L21.25 22.05L22.45 20.6M23.3,29.65L21.25 22.05M-32.75,13L-26.25 11.65L-26.95 9.85L-34.55 7.9M-26.95,9.85L-27.75 7.75M-24.75,15.6L-25.55 13.45L-30.95 18M-25.55,13.45L-26.25 11.65" />
<path style="fill:none;stroke-width:1;stroke-linecap:round;stroke-linejoin:round;stroke-miterlimit:3;stroke:#66FF00;stroke-opacity:1" d="M-19.35,4.55L-19.6 1.3L-19.6 0.75Q-19.4 -7.2 -13.7 -12.85L-11.3 -14.9Q-6.25 -18.7 0.4 -18.7L1.2 -18.7L4.6 -18.3Q8.75 -17.45 12.25 -14.9L14 -13.4L14.55 -12.85Q20.35 -7.05 20.4 1.15L20.4 1.3Q20.4 6.9 17.75 11.4M12.1,17.6Q7.3 21.1 1.2 21.3L0.4 21.3Q-6.3 21.3 -11.35 17.45L-13.7 15.45Q-15.2 13.95 -16.3 12.3M-11.3,-14.9L-3.5 -5.45Q-1.95 -6.5 0.1 -6.45L1.2 -6.4L1.2 -18.7M1.2,-6.4Q3.3 -6.1 4.95 -4.45L5.3 -4.1Q6.95 -2.25 6.95 0.4L6.9 1Q6.7 3.45 4.95 5.25L4.55 5.65Q3.05 6.85 1.2 7.15L1.2 21.3M14,-13.4L6.4 -4.1M1.2,7.15L0.1 7.25L-2.4 6.8L-2.55 6.75L-11.35 17.45M12.1,17.6L14.1 15.9L5.65 5.65M14.1,15.9L14.55 15.45Q16.45 13.55 17.75 11.4M20.4,1.15L8 1M-19.6,0.75L-6.75 0.9L-6.75 0.4Q-6.8 -2.5 -4.75 -4.45L-4.2 -4.95L-3.5 -5.45M-2.55,6.75L-3.3 6.35Q-4.1 5.9 -4.75 5.25Q-6.6 3.4 -6.75 0.9M-19.35,4.55Q-18.7 8.8 -16.3 12.3" />
</g>
</svg>
