<?xml version="1.0" encoding="utf-8"?>
<svg version="1.1" id="Layer_1"
xmlns="http://www.w3.org/2000/svg"
xmlns:xlink="http://www.w3.org/1999/xlink"
xmlns:author="http://www.sothink.com"
width="102px" height="77px"
xml:space="preserve">
<g id="251" transform="matrix(1, 0, 0, 1, 51, 38.5)">
<path style="fill:#FF0066;fill-opacity:1" d="M-50,-37.5L50 -37.5L50 37.5L-50 37.5L-50 -37.5" />
<path style="fill:none;stroke-width:2;stroke-linecap:round;stroke-linejoin:round;stroke-miterlimit:3;stroke:#000000;stroke-opacity:1" d="M-50,-37.5L50 -37.5L50 37.5L-50 37.5L-50 -37.5z" />
</g>
</svg>
