<?xml version="1.0" encoding="utf-8"?>
<svg version="1.1" id="Layer_1"
xmlns="http://www.w3.org/2000/svg"
xmlns:xlink="http://www.w3.org/1999/xlink"
xmlns:author="http://www.sothink.com"
width="40px" height="40px"
xml:space="preserve">
<g id="177" transform="matrix(1, 0, 0, 1, 19.95, 19.95)">
<path style="fill:#000099;fill-opacity:1" d="M19.9,1.85L20.05 1.75L20 1.95L19.9 1.85M-19.9,1.9L-19.95 1.75L-19.85 1.85L-19.9 1.9" />
<path style="fill:#555500;fill-opacity:1" d="M1.15,-4.05L1.15 14.15L6.7 14.15L6.7 -6.75L6.7 -6.8L9.4 -3.9L11.25 5.75L8.85 15.8L0 15.8L-8.8 15.8L-11.2 5.75L-9.3 -3.9L-6.65 -6.8L-4.4 -10.35L0 -11.9L4.4 -10.35L6.65 -6.75L1.15 -4.1L1.15 -4.05M2.1,-10.05Q1.2 -10.85 0 -10.85L-0.05 -10.85Q-1.35 -10.85 -2.2 -10.05Q-3.05 -9.3 -3.1 -8.3L-3.1 -8.1Q-3.1 -6.95 -2.2 -6.15Q-1.35 -5.35 -0.05 -5.35L0 -5.35Q1.2 -5.35 2.1 -6.15Q2.95 -6.95 2.95 -8.1L2.95 -8.3Q2.9 -9.3 2.1 -10.05M0.05,1.7L0.05 -1.55L0 -1.55L0.05 1.7M-6.65,14.15L-1.05 14.15L-1.1 -4.1L-6.65 -6.8L-6.65 14.15" />
<path style="fill:#880000;fill-opacity:1" d="M16,-3L16.15 -3.2L20.05 -4.05L20.05 1.75L19.9 1.85L16 -3M-19.85,1.85L-19.95 1.75L-19.95 -4.05L-16.1 -3.2L-15.95 -3.05L-19.85 1.85" />
<path style="fill:#990000;fill-opacity:1" d="M-2.3,-14.2L-1.35 -15.85L1.4 -15.85L2.35 -14.2L2.05 -11.9L0 -12.95L-1.95 -11.9L-2.3 -14.2" />
<path style="fill:#333300;fill-opacity:1" d="M2.95,-8.3L2.95 -8.1Q2.95 -6.95 2.1 -6.15Q1.2 -5.35 0 -5.35L-0.05 -5.35Q-1.35 -5.35 -2.2 -6.15Q-3.1 -6.95 -3.1 -8.1L-3.1 -8.3Q-3.05 -9.3 -2.2 -10.05Q-1.35 -10.85 -0.05 -10.85L0 -10.85Q1.2 -10.85 2.1 -10.05Q2.9 -9.3 2.95 -8.3M-12.05,3.85Q-12.1 5 -12.95 5.8Q-13.85 6.6 -15.1 6.6Q-16.4 6.6 -17.25 5.8L-18.05 4.6L-18.15 3.85L-18.05 3.1L-17.25 1.9Q-16.4 1.1 -15.1 1.1Q-13.85 1.1 -12.95 1.9Q-12.1 2.7 -12.05 3.85M17.3,5.8Q16.4 6.6 15.15 6.6Q13.9 6.6 13 5.8Q12.1 5 12.1 3.85Q12.1 2.7 13 1.9Q13.9 1.1 15.15 1.1Q16.4 1.1 17.3 1.9Q18.2 2.7 18.2 3.85Q18.2 5 17.3 5.8" />
<path style="fill:#666600;fill-opacity:1" d="M6.7,14.15L1.15 14.15L1.15 -4.05L1.15 -4.1L6.65 -6.75L6.7 -6.75L6.7 14.15M-6.65,-6.8L-1.1 -4.1L-1.05 14.15L-6.65 14.15L-6.65 -6.8" />
<linearGradient
id="LinearGradID_70" gradientUnits="userSpaceOnUse" gradientTransform="matrix(0.024353, 0, 0, 0.0231628, 0.05, -1)" spreadMethod ="pad" x1="-819.2" y1="0" x2="819.2" y2="0" >
<stop  offset="0" style="stop-color:#5C4832;stop-opacity:1" />
<stop  offset="0.478431" style="stop-color:#927152;stop-opacity:1" />
<stop  offset="1" style="stop-color:#5C4832;stop-opacity:1" />
</linearGradient>
<path style="fill:url(#LinearGradID_70) " d="M19.9,1.85L20 1.95L16.7 13.3L10.85 18L10.1 18L4.4 18L-4.4 18L-10 18L-10.8 18L-16.65 13.3L-19.9 1.9L-19.85 1.85L-15.95 -3.05L-13.1 -0.2L-10.5 -5.95L-3.25 -19.95L-3.2 -19.95L-2.3 -14.2L-1.95 -11.9L0 -12.95L2.05 -11.9L2.35 -14.2L2.4 -14.2L3.25 -19.95L3.3 -19.95L10.6 -5.95L13.15 -0.2L16 -3L19.9 1.85M4.4,-10.35L0 -11.9L-4.4 -10.35L-6.65 -6.8L-9.3 -3.9L-11.2 5.75L-8.8 15.8L0 15.8L8.85 15.8L11.25 5.75L9.4 -3.9L6.7 -6.8L6.65 -6.75L4.4 -10.35M-12.95,1.9Q-13.85 1.1 -15.1 1.1Q-16.4 1.1 -17.25 1.9L-18.05 3.1L-18.15 3.85L-18.05 4.6L-17.25 5.8Q-16.4 6.6 -15.1 6.6Q-13.85 6.6 -12.95 5.8Q-12.1 5 -12.05 3.85Q-12.1 2.7 -12.95 1.9M18.2,3.85Q18.2 2.7 17.3 1.9Q16.4 1.1 15.15 1.1Q13.9 1.1 13 1.9Q12.1 2.7 12.1 3.85Q12.1 5 13 5.8Q13.9 6.6 15.15 6.6Q16.4 6.6 17.3 5.8Q18.2 5 18.2 3.85" />
<path style="fill:#5C4832;fill-opacity:1" d="M10.1,18L11.05 19.95L3.5 19.9L4.4 18L10.1 18M-4.4,18L-3.55 19.9L-11.1 19.95L-10 18L-4.4 18" />
<path style="fill:none;stroke-width:0.1;stroke-linecap:round;stroke-linejoin:round;stroke-miterlimit:3;stroke:#000000;stroke-opacity:1" d="M2.1,-10.05Q1.2 -10.85 0 -10.85L-0.05 -10.85Q-1.35 -10.85 -2.2 -10.05Q-3.05 -9.3 -3.1 -8.3L-3.1 -8.1Q-3.1 -6.95 -2.2 -6.15Q-1.35 -5.35 -0.05 -5.35L0 -5.35Q1.2 -5.35 2.1 -6.15Q2.95 -6.95 2.95 -8.1L2.95 -8.3Q2.9 -9.3 2.1 -10.05M-12.95,1.9Q-13.85 1.1 -15.1 1.1Q-16.4 1.1 -17.25 1.9L-18.05 3.1L-18.15 3.85L-18.05 4.6L-17.25 5.8Q-16.4 6.6 -15.1 6.6Q-13.85 6.6 -12.95 5.8Q-12.1 5 -12.05 3.85Q-12.1 2.7 -12.95 1.9M-19.9,1.9L-19.85 1.85M19.9,1.85L20 1.95M17.3,5.8Q16.4 6.6 15.15 6.6Q13.9 6.6 13 5.8Q12.1 5 12.1 3.85Q12.1 2.7 13 1.9Q13.9 1.1 15.15 1.1Q16.4 1.1 17.3 1.9Q18.2 2.7 18.2 3.85Q18.2 5 17.3 5.8" />
<path style="fill:none;stroke-width:0.1;stroke-linecap:round;stroke-linejoin:round;stroke-miterlimit:3;stroke:#000000;stroke-opacity:1" d="M13.15,-0.2L16 -3L16.15 -3.2M-16.1,-3.2L-15.95 -3.05L-13.1 -0.2M6.7,-6.75L6.7 -6.8L6.65 -6.75L1.15 -4.1L1.15 -4.05L1.15 14.15L6.7 14.15L6.7 -6.75M6.7,-6.8L9.4 -3.9L11.25 5.75L8.85 15.8L0 15.8L-8.8 15.8L-11.2 5.75L-9.3 -3.9L-6.65 -6.8L-4.4 -10.35L0 -11.9L4.4 -10.35L6.65 -6.75M0.05,-1.55L1.15 -4.05L1.15 -4.1M-6.65,14.15L-6.65 -6.8L-1.1 -4.1L0 -1.55L0.05 1.7M0.05,-1.55L0.05 1.7L0 15.8L1.15 14.15M-1.1,-4.1L-1.05 14.15L0 15.8M-1.05,14.15L-6.65 14.15L-8.8 15.8M8.85,15.8L6.7 14.15" />
</g>
</svg>
