<?xml version="1.0" encoding="utf-8"?>
<svg version="1.1" id="Layer_1"
xmlns="http://www.w3.org/2000/svg"
xmlns:xlink="http://www.w3.org/1999/xlink"
xmlns:author="http://www.sothink.com"
width="153px" height="36px"
xml:space="preserve">
<g id="640" transform="matrix(1, 0, 0, 1, 15, 0.55)">
<path style="fill:#000000;fill-opacity:1" d="M-14.5,34.1L-14.5 -0.05L136.8 -0.05L136.8 34.1L-14.5 34.1" />
<path style="fill:none;stroke-width:1;stroke-linecap:round;stroke-linejoin:round;stroke-miterlimit:3;stroke:#CCCCCC;stroke-opacity:1" d="M-14.5,34.1L-14.5 -0.05L136.8 -0.05L136.8 34.1L-14.5 34.1z" />
</g>
</svg>
