<?xml version="1.0" encoding="utf-8"?>
<svg version="1.1" id="Layer_1"
xmlns="http://www.w3.org/2000/svg"
xmlns:xlink="http://www.w3.org/1999/xlink"
xmlns:author="http://www.sothink.com"
width="59px" height="57px"
xml:space="preserve">
<g id="22" transform="matrix(1, 0, 0, 1, 29.7, 29.3)">
<path style="fill:none;stroke-width:1;stroke-linecap:round;stroke-linejoin:round;stroke-miterlimit:3;stroke:#00FFFF;stroke-opacity:1" d="M28.7,-12.65Q21.3 -25.05 8.3 -27.75Q2.7 -29.85 -8.8 -27.75Q-21.8 -25.05 -29.2 -12.65M-29.2,8.4Q-21.7 24.15 -10.7 26.7L10.15 26.7" />
<path style="fill:none;stroke-width:1;stroke-linecap:round;stroke-linejoin:round;stroke-miterlimit:3;stroke:#00FFFF;stroke-opacity:1" d="M10.15,26.7Q21.2 24.15 28.7 8.4L28.7 -12.65" />
<path style="fill:none;stroke-width:1;stroke-linecap:round;stroke-linejoin:round;stroke-miterlimit:3;stroke:#CCCCCC;stroke-opacity:1" d="M-29.2,-12.65L-29.2 8.4" />
</g>
</svg>
