<?xml version="1.0" encoding="utf-8"?>
<svg version="1.1" id="Layer_1"
xmlns="http://www.w3.org/2000/svg"
xmlns:xlink="http://www.w3.org/1999/xlink"
xmlns:author="http://www.sothink.com"
width="36px" height="37px"
xml:space="preserve">
<g id="357" transform="matrix(1, 0, 0, 1, 17.65, 18.05)">
<linearGradient
id="LinearGradID_113" gradientUnits="userSpaceOnUse" gradientTransform="matrix(0.00854492, 0, 0, 0.0214539, -10.15, 0)" spreadMethod ="pad" x1="-819.2" y1="0" x2="819.2" y2="0" >
<stop  offset="0.0117647" style="stop-color:#660000;stop-opacity:1" />
<stop  offset="1" style="stop-color:#980101;stop-opacity:1" />
</linearGradient>
<path style="fill:url(#LinearGradID_113) " d="M-3.15,8.8L-3.15 17.6L-17.15 0L-3.15 -17.55L-3.15 -7.9L-3.15 8.8" />
<linearGradient
id="LinearGradID_114" gradientUnits="userSpaceOnUse" gradientTransform="matrix(0.0123596, 0, 0, 0.0101929, 6.95, 0.45)" spreadMethod ="pad" x1="-819.2" y1="0" x2="819.2" y2="0" >
<stop  offset="0.0117647" style="stop-color:#660000;stop-opacity:1" />
<stop  offset="1" style="stop-color:#980101;stop-opacity:1" />
</linearGradient>
<path style="fill:url(#LinearGradID_114) " d="M-3.15,8.8L-3.15 -7.9L17.1 -7.9L17.1 8.8L-3.15 8.8" />
<path style="fill:none;stroke-width:1;stroke-linecap:round;stroke-linejoin:round;stroke-miterlimit:3;stroke:#999999;stroke-opacity:1" d="M-3.15,-7.9L-3.15 -17.55L-17.15 0L-3.15 17.6L-3.15 8.8L-3.15 -7.9L17.1 -7.9L17.1 8.8L-3.15 8.8" />
</g>
</svg>
