<?xml version="1.0" encoding="utf-8"?>
<svg version="1.1" id="Layer_1"
xmlns="http://www.w3.org/2000/svg"
xmlns:xlink="http://www.w3.org/1999/xlink"
xmlns:author="http://www.sothink.com"
width="16px" height="16px"
xml:space="preserve">
<g id="379" transform="matrix(1, 0, 0, 1, 8, 8)">
<pattern 
id="PatternID_123" patternUnits="userSpaceOnUse" overflow="visible" width="16" height="16" viewBox="0 0 16 16" patternTransform="matrix(1, 0, 0, 1, -8, -8)"
>
<image 
width="16" height="16"
xlink:href="data:image/png;base64,
iVBORw0KGgoAAAANSUhEUgAAABAAAAAQCAYAAAAf8/9hAAAAR0lEQVR4nGNgwAGKJRj+45JDBkzkaiQIYAYRbSC6QrK8gMtWsr1FlfBANqRYguE/QUPRvUGyK4iyhVQDqWbYwILB4xWqxxIA4ush4fdfNH4AAAAASUVORK5CYII="
>
</image>
</pattern>
<path style="fill:url(#PatternID_123) " d="M-8,-8L8 -8L8 8L-8 8L-8 -8" />
</g>
</svg>
