<?xml version="1.0" encoding="utf-8"?>
<svg version="1.1" id="Layer_1"
xmlns="http://www.w3.org/2000/svg"
xmlns:xlink="http://www.w3.org/1999/xlink"
xmlns:author="http://www.sothink.com"
width="3px" height="10px"
xml:space="preserve">
<g id="189" transform="matrix(1, 0, 0, 1, 1.5, 3.5)">
<path style="fill:none;stroke-width:3;stroke-linecap:round;stroke-linejoin:round;stroke-miterlimit:3;stroke:#FF6600;stroke-opacity:1" d="M0,-2L0 4.05" />
</g>
</svg>
