<?xml version="1.0" encoding="utf-8"?>
<svg version="1.1" id="Layer_1"
xmlns="http://www.w3.org/2000/svg"
xmlns:xlink="http://www.w3.org/1999/xlink"
xmlns:author="http://www.sothink.com"
width="26px" height="22px"
xml:space="preserve">
<g id="14" transform="matrix(1, 0, 0, 1, 13.1, 11)">
<path style="fill:#FF0000;fill-opacity:1" d="M4.4,-8.7L4.15 -8.7L3.55 -8.7L3.85 -11L5.5 -11L5.8 -8.7L5.35 -8.7L4.4 -8.7M-5.65,-8.7L-6.15 -8.7L-5.8 -11L-4 -11L-3.65 -8.7L-4.3 -8.7L-4.65 -8.7L-5.65 -8.7" />
<path style="fill:#CCCCCC;fill-opacity:1" d="M5.95,10.2L5.95 10.1L7.4 -9.75L10 -7.35L10 7.65L6 10.15L5.95 10.2M2.65,-3.35L2.7 -3.4L2.05 -7.5L3.85 -4.45L3.85 1.45L2.65 -3.35M2.85,6.85L3.85 9.55L-4.1 9.55L-3.15 6.85L2.85 6.85M-6.25,10.2L-10.25 7.65L-10.25 -7.35L-7.7 -9.75L-6.25 10.2M-4.1,-4.45L-2.3 -7.5L-2.95 -3.4L-2.95 -3.35L-4.1 1.45L-4.1 -4.45" />
<path style="fill:#FFFF00;fill-opacity:1" d="M5.35,-8.7L5.3 -4.75L5.15 -4.45L4.75 -4.45L4.2 -4.45L4.15 -8.7L4.4 -8.7L5.35 -8.7M-5.15,-4.45L-5.4 -4.45L-5.55 -4.75L-5.6 -4.75L-5.65 -8.7L-4.65 -8.7L-4.3 -8.7L-4.3 -4.45L-4.95 -4.45L-5.15 -4.45" />
<path style="fill:#CC6600;fill-opacity:1" d="M-2.3,-7.5L2.05 -7.5L2.7 -3.4L2.65 -3.35L-0.15 -1.7L-2.95 -3.35L-2.95 -3.4L-2.3 -7.5" />
<path style="fill:#00CCFF;fill-opacity:1" d="M5.8,9.5L3.85 1.45L3.85 -4.45L4.75 -4.45L5.15 -4.45L5.3 -4.75L7.4 -9.75L5.95 10.1L5.8 9.5M-4.1,1.45L-6.25 10.2L-7.7 -9.75L-5.6 -4.75L-5.55 -4.75L-5.45 -4.45L-5.4 -4.45L-5.15 -4.45L-4.95 -4.45L-4.1 -4.45L-4.1 1.45" />
<path style="fill:#AAAAAA;fill-opacity:1" d="M10,7.65L10 -7.35L10.15 -7.05Q15.5 0.8 10 7.65M-10.25,7.65Q-15.8 0.8 -10.45 -7.05L-10.25 -7.35L-10.25 7.65" />
<path style="fill:#999999;fill-opacity:1" d="M5.8,9.5L5.95 10.1L5.95 10.2L5.8 9.5M3.85,9.55L2.05 11L-2.35 11L-4.1 9.55L3.85 9.55" />
<path style="fill:#0099FF;fill-opacity:1" d="M-6.25,10.2L-4.1 1.45L-2.95 -3.35L-0.15 -1.7L2.65 -3.35L3.85 1.45L5.8 9.5L5.95 10.2L3.85 9.55L2.85 6.85L1.85 4.05L-2.15 4.05L-3.15 6.85L-4.1 9.55L-6.25 10.2" />
<path style="fill:#000000;fill-opacity:1" d="M-3.15,6.85L-2.15 4.05L1.85 4.05L2.85 6.85L-3.15 6.85" />
<path style="fill:none;stroke-width:0.1;stroke-linecap:round;stroke-linejoin:round;stroke-miterlimit:3;stroke:#000000;stroke-opacity:1" d="M7.4,-9.75L5.95 10.1L6 10.15M10,7.65L10 -7.35M3.85,-4.45L3.85 1.45L5.8 9.5L5.95 10.1L5.95 10.2M2.05,-7.5L2.7 -3.4L2.65 -3.35L-0.15 -1.7L-2.95 -3.35L-2.95 -3.4L-2.3 -7.5M3.85,9.55L-4.1 9.55L-3.15 6.85L-2.15 4.05L1.85 4.05L2.85 6.85L3.85 9.55L5.95 10.2M-10.25,7.65L-10.25 -7.35M-5.55,-4.75L-5.6 -4.75M-4.1,-4.45L-4.1 1.45L-6.25 10.2L-4.1 9.55M-6.25,10.2L-7.7 -9.75M2.85,6.85L-3.15 6.85" />
<path style="fill:none;stroke-width:0.1;stroke-linecap:round;stroke-linejoin:round;stroke-miterlimit:3;stroke:#FF0000;stroke-opacity:1" d="M5.35,-8.7L4.4 -8.7M-4.65,-8.7L-5.65 -8.7" />
</g>
</svg>
