<?xml version="1.0" encoding="utf-8"?>
<svg version="1.1" id="Layer_1"
xmlns="http://www.w3.org/2000/svg"
xmlns:xlink="http://www.w3.org/1999/xlink"
xmlns:author="http://www.sothink.com"
width="58px" height="73px"
xml:space="preserve">
<g id="418" transform="matrix(1, 0, 0, 1, 29, 36.5)">
<path style="fill:#333333;fill-opacity:1" d="M12.45,-5.35Q18.7 1.7 25 -0.05L14.95 5.9Q14.7 4.5 8.55 4.3Q6.95 4.2 4.95 4.25Q0.85 8.3 -1.4 -2.1Q-2.9 -8.8 1.55 -14.35L9.8 -19.9Q4.75 -11.45 12.45 -5.35M1.5,-6.6Q1.55 -6.25 2.75 -5.4Q3.9 -4.55 4.25 -5.3Q4.6 -6.05 4.1 -6.45Q3.6 -6.85 4.65 -8.3L6.05 -10.9Q6.4 -11.95 5.8 -11.65Q5.2 -11.4 3.3 -9.2Q1.4 -7.05 1.5 -6.6M11.55,-0.45Q10.95 -0.4 8.65 0.6Q6.3 1.55 6.45 1.85Q6.5 2.15 7.35 2.35Q8.15 2.45 8.3 3.5L8.55 3.85Q9.25 4.1 11.7 2.75Q14.95 0.9 14 0.45L12.55 -0.25L11.55 -0.45M8.85,14.5Q0.55 17.15 10.75 20.35Q-0.75 18.05 2.8 20.75Q-4.35 16.75 -6.15 10.5L0.1 13L8.85 14.5M-12.55,-14.55Q-12 -14.55 -11.65 -13.4Q-11.3 -12.25 -10.5 -11.25Q-9.75 -10.35 -10.55 -8.75Q-11.4 -7.2 -12.2 -6.9Q-13.05 -6.6 -13.45 -7.75Q-13.8 -8.95 -13.8 -10.6Q-13.8 -12.25 -13.45 -13.4Q-13.1 -14.55 -12.55 -14.55" />
<radialGradient
id="RadialGradID_136" gradientUnits="userSpaceOnUse" gradientTransform="matrix(0.0349426, 0, 0, 0.0310669, 0, 0)" spreadMethod ="pad" cx="0" cy="0" r="819.2" fx="0" fy="0" >
<stop  offset="0"  style="stop-color:#626262;stop-opacity:1" />
<stop  offset="1"  style="stop-color:#323232;stop-opacity:1" />
</radialGradient>
<path style="fill:url(#RadialGradID_136) " d="M25,0.05Q24.6 10.7 17.65 17.7Q10.3 25 0 25.05Q-7.55 25.05 -14.1 21.5L-14.1 14.9Q-14.3 11.9 -17.2 9.9L-23.95 7.45Q-25 3.95 -25 0.05Q-25.05 -10.35 -17.7 -17.65Q-10.4 -24.95 0 -24.95Q5.4 -24.95 11.55 -21Q10.3 -21.05 9.8 -19.9L1.55 -14.35Q-2.9 -8.8 -1.4 -2.1Q0.85 8.3 4.95 4.25Q6.95 4.2 8.55 4.3Q14.7 4.5 14.95 5.9L25 -0.05L25 0.05M0.1,13L-6.15 10.5Q-4.35 16.75 2.8 20.75Q-0.75 18.05 10.75 20.35Q0.55 17.15 8.85 14.5L0.1 13M-13.45,-13.4Q-13.8 -12.25 -13.8 -10.6Q-13.8 -8.95 -13.45 -7.75Q-13.05 -6.6 -12.2 -6.9Q-11.4 -7.2 -10.55 -8.75Q-9.75 -10.35 -10.5 -11.25Q-11.3 -12.25 -11.65 -13.4Q-12 -14.55 -12.55 -14.55Q-13.1 -14.55 -13.45 -13.4M-15.6,-1.4Q-15.35 0.95 -13.8 2.45L-11.4 5.15Q-10.55 6.35 -8.5 6.3Q-6.5 6.2 -5.05 5Q-3.65 3.8 -5.55 3.05L-8.85 1.2L-13 -1.9Q-15.8 -3.85 -15.6 -1.4" />
<path style="fill:#666666;fill-opacity:1" d="M3.3,-9.2Q5.2 -11.4 5.8 -11.65Q6.4 -11.95 6.05 -10.9L4.65 -8.3Q3.6 -6.85 4.1 -6.45Q4.6 -6.05 4.25 -5.3Q3.9 -4.55 2.75 -5.4Q1.55 -6.25 1.5 -6.6Q1.4 -7.05 3.3 -9.2" />
<path style="fill:#555555;fill-opacity:1" d="M12.55,-0.25L14 0.45Q14.95 0.9 11.7 2.75Q9.25 4.1 8.55 3.85L8.3 3.5Q8.15 2.45 7.35 2.35Q6.5 2.15 6.45 1.85Q6.3 1.55 8.65 0.6Q10.95 -0.4 11.55 -0.45L12.55 -0.25M-13,-1.9L-8.85 1.2L-5.55 3.05Q-3.65 3.8 -5.05 5Q-6.5 6.2 -8.5 6.3Q-10.55 6.35 -11.4 5.15L-13.8 2.45Q-15.35 0.95 -15.6 -1.4Q-15.8 -3.85 -13 -1.9" />
<path style="fill:none;stroke-width:0.1;stroke-linecap:round;stroke-linejoin:round;stroke-miterlimit:3;stroke:#333333;stroke-opacity:1" d="M11.55,-21Q5.4 -24.95 0 -24.95Q-10.4 -24.95 -17.7 -17.65Q-25.05 -10.35 -25 0.05Q-25 3.95 -23.95 7.45M-14.1,21.5Q-7.55 25.05 0 25.05Q10.3 25 17.65 17.7Q24.6 10.7 25 0.05L25 -0.05" />
<path style="fill:none;stroke-width:0.1;stroke-linecap:round;stroke-linejoin:round;stroke-miterlimit:3;stroke:#333333;stroke-opacity:1" d="M9.8,-19.9L1.55 -14.35Q-2.9 -8.8 -1.4 -2.1Q0.85 8.3 4.95 4.25Q6.95 4.2 8.55 4.3Q14.7 4.5 14.95 5.9L25 -0.05Q18.7 1.7 12.45 -5.35Q4.75 -11.45 9.8 -19.9Q10.3 -21.05 11.55 -21M-23.95,7.45L-17.2 9.9Q-14.3 11.9 -14.1 14.9L-14.1 21.5M9.8,-19.9L11.55 -21" />
<path style="fill:none;stroke-width:0.1;stroke-linecap:round;stroke-linejoin:round;stroke-miterlimit:3;stroke:#666666;stroke-opacity:1" d="M3.3,-9.2Q5.2 -11.4 5.8 -11.65Q6.4 -11.95 6.05 -10.9L4.65 -8.3Q3.6 -6.85 4.1 -6.45Q4.6 -6.05 4.25 -5.3Q3.9 -4.55 2.75 -5.4Q1.55 -6.25 1.5 -6.6Q1.4 -7.05 3.3 -9.2M12.55,-0.25L14 0.45Q14.95 0.9 11.7 2.75Q9.25 4.1 8.55 3.85L8.3 3.5Q8.15 2.45 7.35 2.35Q6.5 2.15 6.45 1.85Q6.3 1.55 8.65 0.6Q10.95 -0.4 11.55 -0.45L12.55 -0.25M8.85,14.5Q0.55 17.15 10.75 20.35Q-0.75 18.05 2.8 20.75Q-4.35 16.75 -6.15 10.5L0.1 13L8.85 14.5M-12.55,-14.55Q-12 -14.55 -11.65 -13.4Q-11.3 -12.25 -10.5 -11.25Q-9.75 -10.35 -10.55 -8.75Q-11.4 -7.2 -12.2 -6.9Q-13.05 -6.6 -13.45 -7.75Q-13.8 -8.95 -13.8 -10.6Q-13.8 -12.25 -13.45 -13.4Q-13.1 -14.55 -12.55 -14.55M-13,-1.9L-8.85 1.2L-5.55 3.05Q-3.65 3.8 -5.05 5Q-6.5 6.2 -8.5 6.3Q-10.55 6.35 -11.4 5.15L-13.8 2.45Q-15.35 0.95 -15.6 -1.4Q-15.8 -3.85 -13 -1.9" />
<path style="fill:none;stroke-width:1;stroke-linecap:round;stroke-linejoin:round;stroke-miterlimit:3;stroke:#CCCCCC;stroke-opacity:1" d="M28.5,36L-28.5 36L-28.5 -36L28.5 -36L28.5 36z" />
</g>
</svg>
