<?xml version="1.0" encoding="utf-8"?>
<svg version="1.1" id="Layer_1"
xmlns="http://www.w3.org/2000/svg"
xmlns:xlink="http://www.w3.org/1999/xlink"
xmlns:author="http://www.sothink.com"
width="46px" height="23px"
xml:space="preserve">
<g id="232" transform="matrix(1, 0, 0, 1, 1.55, 0)">
<path style="fill:#808080;fill-opacity:1" d="M43.95,22.5L-1.05 22.5L-1.05 0.5L43.95 0.5L43.95 22.5" />
<path style="fill:none;stroke-width:1;stroke-linecap:round;stroke-linejoin:round;stroke-miterlimit:3;stroke:#CCCCCC;stroke-opacity:1" d="M43.95,22.5L-1.05 22.5L-1.05 0.5L43.95 0.5L43.95 22.5z" />
</g>
</svg>
