<?xml version="1.0" encoding="utf-8"?>
<svg version="1.1" id="Layer_1"
xmlns="http://www.w3.org/2000/svg"
xmlns:xlink="http://www.w3.org/1999/xlink"
xmlns:author="http://www.sothink.com"
width="470px" height="41px"
xml:space="preserve">
<g id="256" transform="matrix(1, 0, 0, 1, 0.5, -2.65)">
<path style="fill:#000000;fill-opacity:1" d="M296.05,3.15L375.05 3.15L468.5 3.15L468.5 43.1L375.05 43.1L296.05 43.1L296.05 3.15M218.05,43.1L138.05 43.1L0 43.1L0 3.15L138.05 3.15L218.05 3.15L218.05 43.1" />
<path style="fill:none;stroke-width:1;stroke-linecap:round;stroke-linejoin:round;stroke-miterlimit:3;stroke:#CCCCCC;stroke-opacity:1" d="M296.05,3.15L375.05 3.15L468.5 3.15L468.5 43.1L375.05 43.1L296.05 43.1L218.05 43.1L138.05 43.1L0 43.1L0 3.15L138.05 3.15L218.05 3.15" />
<path style="fill:none;stroke-width:1;stroke-linecap:round;stroke-linejoin:round;stroke-miterlimit:3;stroke:#CCCCCC;stroke-opacity:1" d="M218.05,3.15L218.05 43.1M375.05,43.1L375.05 3.15M296.05,3.15L296.05 43.1M138.05,3.15L138.05 43.1" />
</g>
</svg>
