<?xml version="1.0" encoding="utf-8"?>
<svg version="1.1" id="Layer_1"
xmlns="http://www.w3.org/2000/svg"
xmlns:xlink="http://www.w3.org/1999/xlink"
xmlns:author="http://www.sothink.com"
width="301px" height="302px"
xml:space="preserve">
<g id="183" transform="matrix(1, 0, 0, 1, 151, 151.5)">
<path style="fill:none;stroke-width:1;stroke-linecap:round;stroke-linejoin:round;stroke-miterlimit:3;stroke:#CCCCCC;stroke-opacity:1" d="M31.3,-150.5L15.5 -76.1L15.45 -75.95L12 -41.55L-0.5 -31L-0.5 -30.5L-13 -41.05L-16.45 -75.45L-16.45 -75.6L-32.3 -150M-32.5,-150.5L-46.5 5.5L-46.9 58.75L-58.5 58.5L-91.5 44.5L-111.5 -12.5L-150.5 -29.5M149.5,-30L110.5 -13L90.5 44L57.5 58L45.9 58.25L45.5 5L31.5 -151M15.5,-76.1L10.6 -103.5L-11.5 -103.5L-16.45 -75.6M38.9,122L83.5 122L71.5 81L29.5 67L29.5 122L38.9 122M29.5,67L29.5 34L-0.5 -17L-0.5 -16.5L-30.5 34.5L-30.5 67.5L-30.5 122.5L-0.5 112.5L29.5 122M26.5,149L83.3 149L76.15 135M83.3,149L83.55 149.5M-16.45,-75.45L-0.5 -64.5M-30.5,67.5L-72.5 81.5L-84.5 122.5L-39.85 122.5L-30.5 122.5M-27.5,149.5L-84.3 149.5L-84.55 150M-77.15,135.5L-84.3 149.5M15.45,-75.95L-0.5 -65" />
<path style="fill:none;stroke-width:1;stroke-linecap:round;stroke-linejoin:round;stroke-miterlimit:3;stroke:#CCCCCC;stroke-opacity:1" d="M31.5,-151L31.3 -150.5M-32.3,-150L-32.5 -150.5M-150.5,-29.5L-138.5 55.5M3.55,-119.5L3.55 -103.5L-4.5 -103.5L-4.5 -119.5L-4.5 -124.45L3.55 -124.45L3.55 -119.5L-4.5 -119.5M15.8,93.25Q9.05 100 -0.5 100.5Q-10.05 100.5 -16.8 93.75Q-23.5 87.05 -23.5 77.5Q-23.5 67.95 -16.8 61.2Q-10.05 54.5 -0.5 54.5Q9.05 54 15.8 60.7Q22.5 67.45 22.5 77Q22.5 86.55 15.8 93.25M38.9,122L39.1 121.5M-138,55.5L-89.5 135.5L-77.15 135.5L-33.9 135.5L-30.5 135.5L-0.5 124.5L29.5 135L32.9 135L76.15 135L88.5 135L137 55M32.9,135L26.5 149M149.5,-30L137.5 55M-39.85,122.5L-40.1 122M-27.5,149.5L-33.9 135.5" />
</g>
</svg>
