<?xml version="1.0" encoding="utf-8"?>
<svg version="1.1" id="Layer_1"
xmlns="http://www.w3.org/2000/svg"
xmlns:xlink="http://www.w3.org/1999/xlink"
xmlns:author="http://www.sothink.com"
width="32px" height="34px"
xml:space="preserve">
<g id="154" transform="matrix(1, 0, 0, 1, 16, 17)">
<path style="fill:none;stroke-width:1;stroke-linecap:round;stroke-linejoin:round;stroke-miterlimit:3;stroke:#00FFFF;stroke-opacity:1" d="M4.5,-16.5Q12.4 -7.45 15.5 3.5L14.65 9.55Q9.7 16.6 6.5 16.5M-6.5,16.5Q-9.7 16.6 -14.65 9.55L-15.5 3.5Q-12.4 -7.45 -4.5 -16.5" />
<path style="fill:none;stroke-width:1;stroke-linecap:round;stroke-linejoin:round;stroke-miterlimit:3;stroke:#00FFFF;stroke-opacity:1" d="M6.5,16.5L-6.5 16.5M-4.5,-16.5L4.5 -16.5" />
</g>
</svg>
