<?xml version="1.0" encoding="utf-8"?>
<svg version="1.1" id="Layer_1"
xmlns="http://www.w3.org/2000/svg"
xmlns:xlink="http://www.w3.org/1999/xlink"
xmlns:author="http://www.sothink.com"
width="9px" height="15px"
xml:space="preserve">
<g id="328" transform="matrix(1, 0, 0, 1, 0.6, 7.5)">
<path style="fill:#CCCCCC;fill-opacity:1" d="M5.3,4.35L5.25 4.35L7 6.85L-0.1 6.85L1.65 4.35L1.6 4.35L1.6 4L1.6 -2.2L1.65 -2.4Q3.6 -11.6 5.25 -2.45L5.3 -2.2L5.3 4L5.3 4.35" />
<path style="fill:none;stroke-width:1;stroke-linecap:round;stroke-linejoin:round;stroke-miterlimit:3;stroke:#999999;stroke-opacity:1" d="M1.65,-2.4L1.6 -2.2L1.6 4L1.65 4.35L5.25 4.35L5.3 4L5.3 -2.2L5.25 -2.45L1.65 -2.4Q3.6 -11.6 5.25 -2.45M1.6,4L1.6 4.35L1.65 4.35L-0.1 6.85L7 6.85L5.25 4.35L5.3 4.35L5.3 4" />
</g>
</svg>
