<?xml version="1.0" encoding="utf-8"?>
<svg version="1.1" id="Layer_1"
xmlns="http://www.w3.org/2000/svg"
xmlns:xlink="http://www.w3.org/1999/xlink"
xmlns:author="http://www.sothink.com"
width="24px" height="24px"
xml:space="preserve">
<g id="594" transform="matrix(1, 0, 0, 1, 12.75, 11.05)">
<path style="fill:#00FF00;fill-opacity:1" d="M-8.5,8.7Q-11.1 6.1 -11.6 2.65L-11.75 0.95Q-11.75 -3.65 -8.5 -6.85Q-5.3 -10.1 -0.75 -10.05Q3.8 -10.1 7.05 -6.85Q10.25 -3.65 10.25 0.95L10.2 2.25Q9.75 5.95 7.05 8.7Q3.8 11.9 -0.75 11.95L-3.25 11.65L-3.35 11.65Q-6.25 10.95 -8.5 8.7" />
<path style="fill:none;stroke-width:2;stroke-linecap:round;stroke-linejoin:round;stroke-miterlimit:3;stroke:#000000;stroke-opacity:1" d="M-2.65,-9.55L-1.85 -6.25L-1.5 -6.25Q-0.65 -6.25 -0.1 -5.7Q0.5 -5.1 0.5 -4.25Q0.5 -3.45 -0.1 -2.85L-0.4 -2.55L3.15 0.65L3.2 0.55Q3.95 -0.2 5.05 -0.2Q6.15 -0.2 6.9 0.55Q7.6 1.25 7.65 2.25L10.2 2.25L10.25 0.95Q10.25 -3.65 7.05 -6.85Q3.8 -10.1 -0.75 -10.05Q-5.3 -10.1 -8.5 -6.85Q-11.75 -3.65 -11.75 0.95L-11.6 2.65L-7.9 3.5Q-7.7 2.7 -7.1 2.1Q-6.2 1.2 -4.95 1.2L-4.1 1.35L-2.3 -2.4L-2.95 -2.85Q-3.55 -3.45 -3.5 -4.25Q-3.55 -5.1 -2.95 -5.7L-1.85 -6.25M-0.4,-2.55Q-0.9 -2.25 -1.5 -2.25L-2.3 -2.4M-4.1,1.35Q-3.4 1.55 -2.8 2.1Q-1.9 3 -1.9 4.25Q-1.9 5.55 -2.8 6.4Q-3.5 7.1 -4.35 7.25L-3.35 11.65L-3.25 11.65L-0.75 11.95Q3.8 11.9 7.05 8.7Q9.75 5.95 10.2 2.25M-4.35,7.25L-4.95 7.3Q-6.2 7.3 -7.1 6.4Q-8 5.55 -8 4.25L-7.9 3.5M-11.6,2.65Q-11.1 6.1 -8.5 8.7Q-6.25 10.95 -3.35 11.65M3.15,0.65Q2.45 1.35 2.45 2.4Q2.45 3.5 3.2 4.25Q3.95 5 5.05 5Q6.15 5 6.9 4.25Q7.65 3.5 7.65 2.4L7.65 2.25" />
</g>
</svg>
