<?xml version="1.0" encoding="utf-8"?>
<svg version="1.1" id="Layer_1"
xmlns="http://www.w3.org/2000/svg"
xmlns:xlink="http://www.w3.org/1999/xlink"
xmlns:author="http://www.sothink.com"
width="21px" height="21px"
xml:space="preserve">
<g id="380" transform="matrix(1, 0, 0, 1, 10.5, 10.5)">
<path style="fill:#999900;fill-opacity:1" d="M-3.9,2.15Q-4.45 1.1 -4.4 -0.2L-4.4 -0.8L-4.35 -1.15Q-4.15 -2.5 -3.3 -3.5L-3.25 -3.5Q-2.4 -4.5 -1.3 -4.75L-0.65 -4.85L-0.5 -4.85Q0.95 -4.85 2 -3.75L2.25 -3.5Q3.15 -2.5 3.35 -1.15L3.45 -0.2Q3.45 1.7 2.25 3.1Q1.15 4.45 -0.5 4.45L-0.55 4.45L-0.65 4.45L-1.3 4.35Q-2.4 4.1 -3.3 3.1L-3.9 2.15" />
<path style="fill:none;stroke-width:1;stroke-linecap:round;stroke-linejoin:round;stroke-miterlimit:3;stroke:#CCCC00;stroke-opacity:1" d="M4,-0.8L10 -0.8M-0.55,4.45L-0.55 10M2,-3.75L6.2 -8.35M3.2,2.6L6.85 6.2M-4.4,-0.8L-10 -0.8M-3.25,-3.5L-7.55 -7.5M-0.65,-4.85L-0.65 -10M-3.9,2.15L-8.15 6.2" />
<path style="fill:none;stroke-width:1;stroke-linecap:round;stroke-linejoin:round;stroke-miterlimit:3;stroke:#CCCC00;stroke-opacity:1" d="M-3.9,2.15Q-4.45 1.1 -4.4 -0.2L-4.4 -0.8L-4.35 -1.15Q-4.15 -2.5 -3.3 -3.5L-3.25 -3.5Q-2.4 -4.5 -1.3 -4.75L-0.65 -4.85L-0.5 -4.85Q0.95 -4.85 2 -3.75L2.25 -3.5Q3.15 -2.5 3.35 -1.15L3.45 -0.2Q3.45 1.7 2.25 3.1Q1.15 4.45 -0.5 4.45L-0.55 4.45L-0.65 4.45L-1.3 4.35Q-2.4 4.1 -3.3 3.1L-3.9 2.15z" />
</g>
</svg>
