<?xml version="1.0" encoding="utf-8"?>
<svg version="1.1" id="Layer_1"
xmlns="http://www.w3.org/2000/svg"
xmlns:xlink="http://www.w3.org/1999/xlink"
xmlns:author="http://www.sothink.com"
width="702px" height="252px"
xml:space="preserve">
<g id="507" transform="matrix(1, 0, 0, 1, 351.3, 101)">
<linearGradient
id="LinearGradID_180" gradientUnits="userSpaceOnUse" gradientTransform="matrix(0, 0.143784, -0.427246, 0, -0.3, 21.8)" spreadMethod ="pad" x1="-819.2" y1="0" x2="819.2" y2="0" >
<stop  offset="0" style="stop-color:#CCCCCC;stop-opacity:1" />
<stop  offset="0.0588235" style="stop-color:#FFFFFF;stop-opacity:1" />
<stop  offset="0.12549" style="stop-color:#CCCCCC;stop-opacity:1" />
<stop  offset="0.411765" style="stop-color:#666666;stop-opacity:1" />
<stop  offset="0.847059" style="stop-color:#333333;stop-opacity:1" />
<stop  offset="0.92549" style="stop-color:#666666;stop-opacity:1" />
<stop  offset="1" style="stop-color:#333333;stop-opacity:1" />
</linearGradient>
<path style="fill:url(#LinearGradID_180) " d="M344.4,-94Q349.7 -88 349.7 -79.45L349.7 129.5Q349.7 138 344.4 144Q339.1 150 331.55 150L-332.15 150Q-339.7 150 -345 144Q-350.3 138 -350.3 129.5L-350.3 -79.45Q-350.3 -88 -345 -94Q-339.7 -100 -332.15 -100L331.55 -100Q339.1 -100 344.4 -94" />
<path style="fill:none;stroke-width:2;stroke-linecap:round;stroke-linejoin:round;stroke-miterlimit:3;stroke:#000000;stroke-opacity:1" d="M331.55,-100L-332.15 -100Q-339.7 -100 -345 -94Q-350.3 -88 -350.3 -79.45L-350.3 129.5Q-350.3 138 -345 144Q-339.7 150 -332.15 150L331.55 150Q339.1 150 344.4 144Q349.7 138 349.7 129.5L349.7 -79.45Q349.7 -88 344.4 -94Q339.1 -100 331.55 -100z" />
</g>
</svg>
