<?xml version="1.0" encoding="utf-8"?>
<svg version="1.1" id="Layer_1"
xmlns="http://www.w3.org/2000/svg"
xmlns:xlink="http://www.w3.org/1999/xlink"
xmlns:author="http://www.sothink.com"
width="84px" height="84px"
xml:space="preserve">
<g id="113" transform="matrix(1, 0, 0, 1, 41.2, 47.55)">
<path style="fill:none;stroke-width:1;stroke-linecap:round;stroke-linejoin:round;stroke-miterlimit:3;stroke:#3399FF;stroke-opacity:1" d="M0.7,-47L1.35 -47Q23.7 -46.85 33.3 -29.85Q41.5 -12 42.05 7.75Q41.95 28 28.4 32.75Q14.75 35.05 0.7 35.7Q-13.4 35.05 -27.05 32.75Q-40.6 28 -40.7 7.75Q-40.15 -12 -31.95 -29.85Q-22.35 -46.85 0.05 -47L0.7 -47z" />
</g>
</svg>
