<?xml version="1.0" encoding="utf-8"?>
<svg version="1.1" id="Layer_1"
xmlns="http://www.w3.org/2000/svg"
xmlns:xlink="http://www.w3.org/1999/xlink"
xmlns:author="http://www.sothink.com"
width="120px" height="120px"
xml:space="preserve">
<g id="504" transform="matrix(1, 0, 0, 1, 60, 60)">
<path style="fill:#000000;fill-opacity:1" d="M15.35,-55.7Q8.9 -50.1 1.55 -45.8L1.25 -45.65L-4.45 -46.05L-10.2 -45.65L-10.4 -46.65L-10.55 -45.6Q-16.95 -44.55 -22.4 -41.25L-24.7 -41.9Q-29 -43.4 -33.95 -46.65Q-27.5 -51.5 -19.8 -54.3L-21.2 -44.5L-17.65 -46L-17.25 -55.1Q-13.25 -56.4 -9.1 -57.1Q-24.25 -54.9 -36.25 -44.95L-39.35 -42.2L-37.45 -38.65L-39.3 -25.1Q-37.75 -28.95 -35.2 -32.4L-35.2 -32.95L-34.35 -29.7Q-39.85 -21.35 -39.85 -10.7Q-39.85 -5.05 -38.25 0Q-44.25 12.25 -51.5 24L-51.9 24.7L-41.1 15.1L-33.85 9.05Q-31.95 11.8 -29.45 14.3Q-19.1 24.7 -4.45 24.7Q10.15 24.7 20.55 14.3Q25.35 9.45 27.95 3.75L37.15 7.45L28.9 1.3Q30.9 -4.3 30.9 -10.7Q30.9 -25.3 20.55 -35.65Q15.95 -40.25 10.55 -42.8L13.7 -47.55L13 -44.1L16.25 -42.15L17.05 -51.95L19.15 -54.5Q25.45 -52.3 31 -48.75L27.35 -30.9L30.7 -24.3L32.75 -47.55L35.15 -45.8Q23.7 -54.8 9.35 -57.05L15.35 -55.7M0.3,-57.75L-1.55 -48.2L0.45 -48.05L1.25 -57.75L0.3 -57.75M26.8,-0.15L21.85 -3.6Q26.65 -11.45 28 -9.9Q29.25 -8.4 26.8 -0.15M56,-20.45Q61.65 -6.2 59.3 9.1Q57.3 22.35 49.8 33.5Q41.55 45.65 28.6 52.7Q13.75 60.7 -3.05 59.9Q-16.65 59.25 -28.55 52.7Q-41.45 45.6 -49.7 33.5Q-58.15 21.05 -59.7 6.1Q-61.4 -10.8 -54 -25.95Q-46.85 -40.65 -33.45 -49.65Q-19.65 -59.05 -3.05 -59.95Q13.65 -60.75 28.5 -52.65Q42.85 -44.9 51.35 -31.1Q53.85 -25.9 56 -20.45M48.35,-31.7L51.35 -26.45L43.2 -1.25L47.75 -0.7L51.45 -26.3Q54.45 -20.35 56.1 -14.1Q53.85 -23.6 48.35 -31.7M57.8,-0.05L56.65 3.4L57.6 4.15Q56.75 16.5 50.85 27.4L47.2 33.3Q57.75 18.8 57.8 0L57.8 -0.05M-48.35,-31.6L-46.55 -34.15Q-57.6 -19.6 -57.75 -0.6Q-53.15 -3.5 -47.8 -4L-48.35 -31.6M-41.85,-6.45L-42.2 -3.95L-41.5 -3.8L-41.85 -6.45M-13.1,19.5Q0.45 19.75 10.75 11.45Q12.55 13.75 15.45 13.4Q17.3 13 18.2 11.35Q20.3 7.5 16.65 4.95L19.5 0.45L25.8 2.85Q23.9 8.3 19.8 12.45Q14.85 17.45 8.45 20.05Q-6.2 26.05 -20 18.9L-13.1 19.5M-22,22.7Q-23.65 33 -32.3 39L-33.2 39.55L-34.3 46.35L-34.5 40.3L-39.35 42.2Q-22.85 57.75 0 57.7L-2.8 57.65Q-4.45 55.5 -5.15 53L-5.9 49.95L-7.4 57.25L-8.4 57.1L-5.9 26.9Q-10.85 26.8 -15.55 25.35L-21.05 53.75L-21.75 53.45L-20.5 23.45L-22 22.7M-1.75,38.6Q2.4 34.4 8.3 34.45L9.7 34.5L10.6 23.9Q5.05 26.3 -1.25 26.8L-4.35 42Q-3.35 40.2 -1.75 38.6M-56.45,12.45Q-54.45 22.3 -48.9 30.75Q-51.1 27.2 -52.8 23.35Q-55.2 18 -56.45 12.45M19,18.75L16.85 20.4L13.75 35.45Q16.3 36.45 18.45 38.6Q22.65 42.8 22.65 48.7Q22.65 51.05 21.8 53.45Q14.95 56.2 7.75 57.2L6.4 57.4Q24.1 55.6 37.65 43.75L35.6 45.4Q32.05 44.3 29.15 42.35L26.2 51.45L24.1 52.4L25.25 39.05L23.5 36.9Q18.7 30.55 18.7 22.6Q18.7 20.6 19 18.75" />
</g>
</svg>
