<?xml version="1.0" encoding="utf-8"?>
<svg version="1.1" id="Layer_1"
xmlns="http://www.w3.org/2000/svg"
xmlns:xlink="http://www.w3.org/1999/xlink"
xmlns:author="http://www.sothink.com"
width="74px" height="32px"
xml:space="preserve">
<g id="620" transform="matrix(1, 0, 0, 1, 37, 16)">
<pattern 
id="PatternID_205" patternUnits="userSpaceOnUse" overflow="visible" width="74" height="32" viewBox="0 0 74 32" patternTransform="matrix(1, 0, 0, 1, -37, -16)"
>
<image 
width="74" height="32"
xlink:href="data:image/png;base64,
iVBORw0KGgoAAAANSUhEUgAAAEoAAAAgCAYAAAC1v+5NAAAAbElEQVR4nO3WsQ2AMAxE0RChzMMIjMQIHo6C7JMqV5iKlgaBifTfAv7NSU4J/+TuHt0AAMD4JJkki+4AAAAA8Dpe/3s5OgCIsbe2HL1vUfeHmd5cyjrlbNEdwDPXNzDM9ADgK1I1qVp0BxDnBGqaHyL2lUhWAAAAAElFTkSuQmCC"
>
</image>
</pattern>
<path style="fill:url(#PatternID_205) " d="M37,16L-37 16L-37 -16L37 -16L37 16" />
</g>
</svg>
