<?xml version="1.0" encoding="utf-8"?>
<svg version="1.1" id="Layer_1"
xmlns="http://www.w3.org/2000/svg"
xmlns:xlink="http://www.w3.org/1999/xlink"
xmlns:author="http://www.sothink.com"
width="237px" height="63px"
xml:space="preserve">
<g id="622" transform="matrix(1, 0, 0, 1, 118.5, 31.5)">
<path style="fill:#000000;fill-opacity:1" d="M-118,-31L118 -31L118 31L-118 31L-118 -31" />
<path style="fill:none;stroke-width:1;stroke-linecap:round;stroke-linejoin:round;stroke-miterlimit:3;stroke:#CCCCCC;stroke-opacity:1" d="M-118,-31L118 -31L118 31L-118 31L-118 -31z" />
</g>
</svg>
