<?xml version="1.0" encoding="utf-8"?>
<svg version="1.1" id="Layer_1"
xmlns="http://www.w3.org/2000/svg"
xmlns:xlink="http://www.w3.org/1999/xlink"
xmlns:author="http://www.sothink.com"
width="118px" height="128px"
xml:space="preserve">
<g id="102" transform="matrix(1, 0, 0, 1, 59, 61.4)">
<linearGradient
id="LinearGradID_46" gradientUnits="userSpaceOnUse" gradientTransform="matrix(0.0674286, 0.0325012, -0.0135803, 0.0292969, 69.25, -14.5)" spreadMethod ="pad" x1="-819.2" y1="0" x2="819.2" y2="0" >
<stop  offset="0" style="stop-color:#FFFFFF;stop-opacity:1" />
<stop  offset="1" style="stop-color:#000000;stop-opacity:1" />
</linearGradient>
<path style="fill:url(#LinearGradID_46) " d="M12.9,-52.05L40.85 -52.05Q34.9 -57.25 26.85 -57.25Q18.8 -57.25 12.9 -52.05M5.25,-35.2Q5.25 -30 7.3 -25.65Q6.25 -25.5 5.5 -24.9Q4.75 -24.35 4.3 -23.35L3.85 -22.2L2.95 -24Q0.7 -29 0.75 -34.95Q0.75 -45.9 8.35 -53.65Q13.25 -58.7 19.55 -60.45Q22.9 -61.4 26.7 -61.4Q30.45 -61.4 33.85 -60.45Q40.1 -58.7 45.05 -53.65Q52.65 -45.9 52.65 -34.95Q52.65 -24 45.05 -16.25Q41.25 -12.4 36.75 -10.45L34.3 -9.55L29.35 -8.6L26.7 -8.45L25 -8.5Q20.55 -8.8 16.65 -10.45Q15.15 -11.1 13.75 -11.9L13.3 -15.5L13.1 -17.55L13 -18.3Q18.9 -13.2 26.85 -13.15Q35.1 -13.15 41.15 -18.65L13 -18.65L12.55 -21.1L40.5 -21.1L40.5 -49.6L12.5 -49.6L12.5 -21.3L11.85 -23.3Q11.2 -24.6 10.15 -25.2L10.15 -49.15Q5.25 -43.2 5.25 -35.2M48.5,-35.2Q48.5 -43.8 42.9 -50L42.9 -20.4Q48.5 -26.6 48.5 -35.2" />
<radialGradient
id="RadialGradID_47" gradientUnits="userSpaceOnUse" gradientTransform="matrix(0.0674896, 0, 0, 0.0433197, 25.1, -34.3)" spreadMethod ="pad" cx="0" cy="0" r="819.2" fx="0" fy="0" >
<stop  offset="0"  style="stop-color:#FFFFFF;stop-opacity:1" />
<stop  offset="1"  style="stop-color:#000000;stop-opacity:1" />
</radialGradient>
<path style="fill:url(#RadialGradID_47) " d="M12.5,-21.3L12.5 -49.6L40.5 -49.6L40.5 -21.1L12.55 -21.1L12.5 -21.3" />
<radialGradient
id="RadialGradID_48" gradientUnits="userSpaceOnUse" gradientTransform="matrix(0.0179291, 0, 0, 0.0182648, 26.5, -52.05)" spreadMethod ="pad" cx="0" cy="0" r="819.2" fx="0" fy="0" >
<stop  offset="0"  style="stop-color:#FFFFFF;stop-opacity:1" />
<stop  offset="1"  style="stop-color:#000000;stop-opacity:1" />
</radialGradient>
<path style="fill:url(#RadialGradID_48) " d="M26.85,-57.25Q34.9 -57.25 40.85 -52.05L12.9 -52.05Q18.8 -57.25 26.85 -57.25" />
<radialGradient
id="RadialGradID_49" gradientUnits="userSpaceOnUse" gradientTransform="matrix(0.0171051, 0, 0, 0.0174408, 10.15, -35.2)" spreadMethod ="pad" cx="0" cy="0" r="819.2" fx="0" fy="0" >
<stop  offset="0"  style="stop-color:#FFFFFF;stop-opacity:1" />
<stop  offset="1"  style="stop-color:#000000;stop-opacity:1" />
</radialGradient>
<path style="fill:url(#RadialGradID_49) " d="M10.15,-49.15L10.15 -25.2L8.05 -25.7L7.3 -25.65Q5.25 -30 5.25 -35.2Q5.25 -43.2 10.15 -49.15" />
<linearGradient
id="LinearGradID_50" gradientUnits="userSpaceOnUse" gradientTransform="matrix(0.0299377, 0.0305023, -0.0240326, 0.0245056, 27.65, 21.1)" spreadMethod ="pad" x1="-819.2" y1="0" x2="819.2" y2="0" >
<stop  offset="0" style="stop-color:#FFFFFF;stop-opacity:1" />
<stop  offset="1" style="stop-color:#000000;stop-opacity:1" />
</linearGradient>
<path style="fill:url(#LinearGradID_50) " d="M-10.05,8.15L-10.15 8.15L-11.55 7.95L-12 7.85Q-15.05 7.3 -16.45 6.45L-17.45 5.6Q-18.5 4.35 -18.5 2.5Q-18.5 0.6 -17.45 -0.5L-16.35 -1.3L-13.15 -2.25L-11.35 -2.45L-11.1 -2.5L-8.3 -2.75L-5.25 -3.15Q-1.85 -3.9 -0.1 -5.7Q1.5 -7.3 2.25 -10.45L2.4 -11.15L2.75 -13.9L2.8 -14.45L2.95 -16.05L3.15 -17.8L3.35 -19.45L3.85 -22.2L4.3 -23.35Q4.75 -24.35 5.5 -24.9Q6.25 -25.5 7.3 -25.65L8.05 -25.7L10.15 -25.2Q11.2 -24.6 11.85 -23.3L12.5 -21.3L12.55 -21.1L13 -18.65L13 -18.3L13.1 -17.55L13.3 -15.5L13.75 -11.9L13.95 -10.75L14 -10.45Q14.7 -7.25 16.15 -5.55L16.5 -5.2Q18.25 -3.4 22 -2.75L26.25 -2.35L28.9 -2.2L30.4 -2.1L34.1 -1.45L34.75 -1.25Q37.25 -0.15 37.25 2.5Q37.2 5 35 6.3L34.7 6.45Q33.35 7.15 30.65 7.6L28.75 7.9L26.35 8.25L21.8 8.95Q18.5 9.65 16.75 11.1L16.2 11.6Q14.4 13.4 13.75 17Q13.5 18.15 13.15 22.35L13.05 23.4L12.55 26.75L11.9 28.8L10.8 30.25Q9.75 31.05 8.2 31.05Q5.85 31.05 4.7 29.3L4.35 28.8Q3.7 27.6 3.25 25.2L3.15 24.3L3 23.45L2.05 17.05Q1.2 13.45 -0.55 11.65Q-2.3 9.85 -5.65 9L-7.25 8.65L-10.05 8.15" />
<radialGradient
id="RadialGradID_51" gradientUnits="userSpaceOnUse" gradientTransform="matrix(0.0174408, 0, 0, 0.0177917, 26.85, -18.65)" spreadMethod ="pad" cx="0" cy="0" r="819.2" fx="0" fy="0" >
<stop  offset="0"  style="stop-color:#FFFFFF;stop-opacity:1" />
<stop  offset="1"  style="stop-color:#000000;stop-opacity:1" />
</radialGradient>
<path style="fill:url(#RadialGradID_51) " d="M13,-18.65L41.15 -18.65Q35.1 -13.15 26.85 -13.15Q18.9 -13.2 13 -18.3L13 -18.65" />
<linearGradient
id="LinearGradID_52" gradientUnits="userSpaceOnUse" gradientTransform="matrix(0.00648499, 0.0114441, -0.0249023, 0.014679, 2.25, -11.95)" spreadMethod ="pad" x1="-819.2" y1="0" x2="819.2" y2="0" >
<stop  offset="0" style="stop-color:#FFFFFF;stop-opacity:1" />
<stop  offset="1" style="stop-color:#000000;stop-opacity:1" />
</linearGradient>
<path style="fill:url(#LinearGradID_52) " d="M-12.25,-10.45L-14.7 -13.25L-15.6 -14.1Q-11.45 -15.05 -7.65 -16.8Q-4.2 -18.45 -1 -20.7L2.95 -24L3.85 -22.2L3.35 -19.45L3.15 -17.8L2.95 -16.05L2.8 -14.45L2.75 -13.9L-1.85 -10.45L-2.9 -9.55Q-5.95 -6.8 -8.6 -3.6Q-9.75 -6.85 -11.7 -9.7L-12.25 -10.45" />
<linearGradient
id="LinearGradID_53" gradientUnits="userSpaceOnUse" gradientTransform="matrix(0.0166931, 0.00456238, -0.00741577, 0.0283356, 35.55, 1)" spreadMethod ="pad" x1="-819.2" y1="0" x2="819.2" y2="0" >
<stop  offset="0" style="stop-color:#FFFFFF;stop-opacity:1" />
<stop  offset="1" style="stop-color:#000000;stop-opacity:1" />
</linearGradient>
<path style="fill:url(#LinearGradID_53) " d="M30.4,-2.1L28.9 -2.2L26.25 -2.35L26.1 -3.65L25 -8.5L26.7 -8.45L29.35 -8.6L34.3 -9.55L34.05 -3.8L34.1 -1.45L30.4 -2.1M26.35,8.25L28.75 7.9L30.65 7.6Q33.35 7.15 34.7 6.45L35 6.3Q35.65 9.9 36.8 13.45L32.85 13.15L31.15 13.2Q28.05 13.4 25.2 14.25L26.35 8.25" />
<radialGradient
id="RadialGradID_54" gradientUnits="userSpaceOnUse" gradientTransform="matrix(0.0181732, 0, 0, 0.0185089, 42.85, -34.85)" spreadMethod ="pad" cx="0" cy="0" r="819.2" fx="0" fy="0" >
<stop  offset="0"  style="stop-color:#FFFFFF;stop-opacity:1" />
<stop  offset="1"  style="stop-color:#000000;stop-opacity:1" />
</radialGradient>
<path style="fill:url(#RadialGradID_54) " d="M42.9,-20.4L42.9 -50Q48.5 -43.8 48.5 -35.2Q48.5 -26.6 42.9 -20.4" />
<linearGradient
id="LinearGradID_55" gradientUnits="userSpaceOnUse" gradientTransform="matrix(0.0674286, 0.0325012, -0.0135803, 0.0292969, 9.5, 25.95)" spreadMethod ="pad" x1="-819.2" y1="0" x2="819.2" y2="0" >
<stop  offset="0" style="stop-color:#FFFFFF;stop-opacity:1" />
<stop  offset="1" style="stop-color:#000000;stop-opacity:1" />
</linearGradient>
<path style="fill:url(#LinearGradID_55) " d="M-17.45,20.2Q-12.7 14.85 -12 7.85L-11.55 7.95L-10.15 8.15L-10.05 8.15L-7.25 8.65Q-7.7 12.7 -9.25 16.3Q-10.3 18.65 -11.8 20.8L-14.7 24.2L-16.15 25.55Q-23.3 31.95 -33.05 31.95Q-43.8 31.95 -51.4 24.2Q-59 16.45 -59 5.5Q-59 -5.5 -51.4 -13.25Q-48.6 -16.1 -45.35 -17.9Q-39.8 -21 -33.05 -21Q-22.95 -21 -15.6 -14.1L-14.7 -13.25L-12.25 -10.45L-11.7 -9.7Q-9.75 -6.85 -8.6 -3.6L-8.3 -2.75L-11.1 -2.5L-11.35 -2.45L-13.15 -2.25Q-14.55 -6.15 -17.45 -9.45L-17.45 -0.5Q-18.5 0.6 -18.5 2.5Q-18.5 4.35 -17.45 5.6L-17.45 20.2M-47.45,-11.45L-45.35 -11.45L-19.5 -11.45Q-25.45 -16.65 -33.5 -16.65Q-40.15 -16.65 -45.35 -13.1L-47.45 -11.45M-47.85,-9.05L-47.85 19.5L-19.85 19.5L-19.85 -9.05L-47.85 -9.05M-19.2,21.9L-47.75 21.9Q-41.75 27.4 -33.5 27.45Q-25.25 27.4 -19.2 21.9M-50.2,19.35L-50.2 -8.55Q-55.1 -2.65 -55.1 5.4Q-55.1 13.4 -50.2 19.35" />
<radialGradient
id="RadialGradID_56" gradientUnits="userSpaceOnUse" gradientTransform="matrix(0.0179291, 0, 0, 0.0182648, -33.85, -11.45)" spreadMethod ="pad" cx="0" cy="0" r="819.2" fx="0" fy="0" >
<stop  offset="0"  style="stop-color:#FFFFFF;stop-opacity:1" />
<stop  offset="1"  style="stop-color:#000000;stop-opacity:1" />
</radialGradient>
<path style="fill:url(#RadialGradID_56) " d="M-45.35,-13.1Q-40.15 -16.65 -33.5 -16.65Q-25.45 -16.65 -19.5 -11.45L-45.35 -11.45L-47.45 -11.45L-45.35 -13.1" />
<radialGradient
id="RadialGradID_57" gradientUnits="userSpaceOnUse" gradientTransform="matrix(0.0674896, 0, 0, 0.0433197, -35.3, 6.3)" spreadMethod ="pad" cx="0" cy="0" r="819.2" fx="0" fy="0" >
<stop  offset="0"  style="stop-color:#FFFFFF;stop-opacity:1" />
<stop  offset="1"  style="stop-color:#000000;stop-opacity:1" />
</radialGradient>
<path style="fill:url(#RadialGradID_57) " d="M-19.85,-9.05L-19.85 19.5L-47.85 19.5L-47.85 -9.05L-19.85 -9.05" />
<radialGradient
id="RadialGradID_58" gradientUnits="userSpaceOnUse" gradientTransform="matrix(0.0181732, 0, 0, 0.0185089, -17.5, 5.75)" spreadMethod ="pad" cx="0" cy="0" r="819.2" fx="0" fy="0" >
<stop  offset="0"  style="stop-color:#FFFFFF;stop-opacity:1" />
<stop  offset="1"  style="stop-color:#000000;stop-opacity:1" />
</radialGradient>
<path style="fill:url(#RadialGradID_58) " d="M-13.15,-2.25L-16.35 -1.3L-17.45 -0.5L-17.45 -9.45Q-14.55 -6.15 -13.15 -2.25M-17.45,5.6L-16.45 6.45Q-15.05 7.3 -12 7.85Q-12.7 14.85 -17.45 20.2L-17.45 5.6" />
<linearGradient
id="LinearGradID_59" gradientUnits="userSpaceOnUse" gradientTransform="matrix(-4.57764e-005, 0.0166626, -0.028717, -4.57764e-005, -4.5, 30.95)" spreadMethod ="pad" x1="-819.2" y1="0" x2="819.2" y2="0" >
<stop  offset="0" style="stop-color:#FFFFFF;stop-opacity:1" />
<stop  offset="1" style="stop-color:#000000;stop-opacity:1" />
</linearGradient>
<path style="fill:url(#LinearGradID_59) " d="M-9.25,16.3L-4.85 19.95Q-1.15 22.55 3.15 24.3L3.25 25.2Q3.7 27.6 4.35 28.8L4.7 29.3Q5.85 31.05 8.2 31.05Q7.35 33.6 7.05 36.4Q3.75 33.8 0.3 31.8Q-4.35 29.1 -9.3 27.4Q-12.65 26.25 -16.15 25.55L-14.7 24.2L-11.8 20.8Q-10.3 18.65 -9.25 16.3" />
<radialGradient
id="RadialGradID_60" gradientUnits="userSpaceOnUse" gradientTransform="matrix(0.0174408, 0, 0, 0.0177917, -33.5, 21.9)" spreadMethod ="pad" cx="0" cy="0" r="819.2" fx="0" fy="0" >
<stop  offset="0"  style="stop-color:#FFFFFF;stop-opacity:1" />
<stop  offset="1"  style="stop-color:#000000;stop-opacity:1" />
</radialGradient>
<path style="fill:url(#RadialGradID_60) " d="M-33.5,27.45Q-41.75 27.4 -47.75 21.9L-19.2 21.9Q-25.25 27.4 -33.5 27.45" />
<radialGradient
id="RadialGradID_61" gradientUnits="userSpaceOnUse" gradientTransform="matrix(0.0171051, 0, 0, 0.0174408, -50.2, 5.4)" spreadMethod ="pad" cx="0" cy="0" r="819.2" fx="0" fy="0" >
<stop  offset="0"  style="stop-color:#FFFFFF;stop-opacity:1" />
<stop  offset="1"  style="stop-color:#000000;stop-opacity:1" />
</radialGradient>
<path style="fill:url(#RadialGradID_61) " d="M-55.1,5.4Q-55.1 -2.65 -50.2 -8.55L-50.2 19.35Q-55.1 13.4 -55.1 5.4" />
<radialGradient
id="RadialGradID_62" gradientUnits="userSpaceOnUse" gradientTransform="matrix(0.0674896, 0, 0, 0.0433197, 30.85, 40.35)" spreadMethod ="pad" cx="0" cy="0" r="819.2" fx="0" fy="0" >
<stop  offset="0"  style="stop-color:#FFFFFF;stop-opacity:1" />
<stop  offset="1"  style="stop-color:#000000;stop-opacity:1" />
</radialGradient>
<path style="fill:url(#RadialGradID_62) " d="M18.3,53.5L18.3 25L46.3 25L46.3 53.5L18.3 53.5" />
<linearGradient
id="LinearGradID_63" gradientUnits="userSpaceOnUse" gradientTransform="matrix(0.0674286, 0.0325012, -0.0135803, 0.0292969, 75.35, 60.1)" spreadMethod ="pad" x1="-819.2" y1="0" x2="819.2" y2="0" >
<stop  offset="0" style="stop-color:#FFFFFF;stop-opacity:1" />
<stop  offset="1" style="stop-color:#000000;stop-opacity:1" />
</linearGradient>
<path style="fill:url(#LinearGradID_63) " d="M11.9,28.8L12.55 26.75L13.05 23.4L13.15 22.35L14.45 20.9Q19.2 16.05 25.2 14.25Q28.05 13.4 31.15 13.2L32.85 13.15L36.8 13.45Q45.05 14.65 51.2 20.9Q58.8 28.65 58.8 39.65Q58.8 50.6 51.2 58.35Q43.6 66.1 32.85 66.1Q22.1 66.1 14.45 58.35Q6.85 50.6 6.9 39.65Q6.85 37.95 7.05 36.4Q7.35 33.6 8.2 31.05Q9.75 31.05 10.8 30.25L11.9 28.8M48.65,24.6L48.65 54.25Q54.25 48 54.25 39.4Q54.25 30.8 48.65 24.6M15.9,25.45Q11 31.4 11.05 39.4Q11 47.4 15.9 53.4L15.9 25.45M18.7,22.6L46.6 22.6Q40.7 17.35 32.65 17.4Q24.6 17.35 18.7 22.6M32.65,61.45Q40.9 61.45 46.95 55.95L18.35 55.95Q24.4 61.45 32.65 61.45M46.3,53.5L46.3 25L18.3 25L18.3 53.5L46.3 53.5" />
<radialGradient
id="RadialGradID_64" gradientUnits="userSpaceOnUse" gradientTransform="matrix(0.0181732, 0, 0, 0.0185089, 48.65, 39.75)" spreadMethod ="pad" cx="0" cy="0" r="819.2" fx="0" fy="0" >
<stop  offset="0"  style="stop-color:#FFFFFF;stop-opacity:1" />
<stop  offset="1"  style="stop-color:#000000;stop-opacity:1" />
</radialGradient>
<path style="fill:url(#RadialGradID_64) " d="M54.25,39.4Q54.25 48 48.65 54.25L48.65 24.6Q54.25 30.8 54.25 39.4" />
<radialGradient
id="RadialGradID_65" gradientUnits="userSpaceOnUse" gradientTransform="matrix(0.0171051, 0, 0, 0.0174408, 15.95, 39.4)" spreadMethod ="pad" cx="0" cy="0" r="819.2" fx="0" fy="0" >
<stop  offset="0"  style="stop-color:#FFFFFF;stop-opacity:1" />
<stop  offset="1"  style="stop-color:#000000;stop-opacity:1" />
</radialGradient>
<path style="fill:url(#RadialGradID_65) " d="M15.9,53.4Q11 47.4 11.05 39.4Q11 31.4 15.9 25.45L15.9 53.4" />
<radialGradient
id="RadialGradID_66" gradientUnits="userSpaceOnUse" gradientTransform="matrix(0.0179291, 0, 0, 0.0182648, 32.3, 22.55)" spreadMethod ="pad" cx="0" cy="0" r="819.2" fx="0" fy="0" >
<stop  offset="0"  style="stop-color:#FFFFFF;stop-opacity:1" />
<stop  offset="1"  style="stop-color:#000000;stop-opacity:1" />
</radialGradient>
<path style="fill:url(#RadialGradID_66) " d="M32.65,17.4Q40.7 17.35 46.6 22.6L18.7 22.6Q24.6 17.35 32.65 17.4" />
<radialGradient
id="RadialGradID_67" gradientUnits="userSpaceOnUse" gradientTransform="matrix(0.0174408, 0, 0, 0.0177917, 32.65, 55.95)" spreadMethod ="pad" cx="0" cy="0" r="819.2" fx="0" fy="0" >
<stop  offset="0"  style="stop-color:#FFFFFF;stop-opacity:1" />
<stop  offset="1"  style="stop-color:#000000;stop-opacity:1" />
</radialGradient>
<path style="fill:url(#RadialGradID_67) " d="M18.35,55.95L46.95 55.95Q40.9 61.45 32.65 61.45Q24.4 61.45 18.35 55.95" />
<path style="fill:none;stroke-width:1;stroke-linecap:round;stroke-linejoin:round;stroke-miterlimit:3;stroke:#666666;stroke-opacity:1" d="M26.85,-57.25Q34.9 -57.25 40.85 -52.05L12.9 -52.05Q18.8 -57.25 26.85 -57.25M2.8,-14.45L2.95 -16.05L3.15 -17.8L3.35 -19.45L3.85 -22.2L4.3 -23.35Q4.75 -24.35 5.5 -24.9Q3.3 -29.6 3.3 -35.2Q3.3 -45.15 10.2 -52.2Q17.1 -59.25 26.85 -59.25Q36.65 -59.25 43.55 -52.2Q50.45 -45.15 50.45 -35.2Q50.45 -25.25 43.55 -18.2Q36.65 -11.2 26.85 -11.15Q19.2 -11.2 13.3 -15.5L13.75 -11.9M34.1,-1.45L34.75 -1.25Q37.25 -0.15 37.25 2.5Q37.2 5 35 6.3M10.15,-25.2Q11.2 -24.6 11.85 -23.3L12.5 -21.3L12.5 -49.6L40.5 -49.6L40.5 -21.1L12.55 -21.1L13 -18.65L41.15 -18.65Q35.1 -13.15 26.85 -13.15Q18.9 -13.2 13 -18.3L13.1 -17.55L13.3 -15.5M36.65,-47.8L38.7 -47.8L38.7 -45.7M10.15,-25.2L8.05 -25.7L7.3 -25.65Q6.25 -25.5 5.5 -24.9M12.5,-21.3L12.55 -21.1M7.3,-25.65Q5.25 -30 5.25 -35.2Q5.25 -43.2 10.15 -49.15M16.65,-22.9L14.3 -22.9L14.3 -25.35M13,-18.65L13 -18.3M2.75,-13.9L2.8 -14.45Q0.95 -15.4 0 -17.1L-5.05 -14.15Q-3.85 -12.5 -3.15 -10.45L-2.9 -9.55M2.75,-13.9L2.4 -11.15L2.25 -10.45Q1.5 -7.3 -0.1 -5.7Q-1.85 -3.9 -5.25 -3.15L-8.3 -2.75L-11.1 -2.5L-11.35 -2.45L-13.15 -2.25L-16.35 -1.3L-17.45 -0.5Q-18.5 0.6 -18.5 2.5Q-18.5 4.35 -17.45 5.6L-16.45 6.45Q-15.05 7.3 -12 7.85L-11.55 7.95L-10.15 8.15M3.35,-19.45L0 -17.1Q-0.9 -18.6 -1 -20.7M26.25,-2.35L22 -2.75Q18.25 -3.4 16.5 -5.2L16.15 -5.55Q11.8 -2.2 8.1 2.2Q3.45 6 -0.4 11.05M13.15,22.35Q13.5 18.15 13.75 17Q14.4 13.4 16.2 11.6L16.75 11.1Q18.5 9.65 21.8 8.95L26.35 8.25L28.75 7.9L30.65 7.6Q33.35 7.15 34.7 6.45L35 6.3M16.15,-5.55Q14.7 -7.25 14 -10.45L13.95 -10.75L13.75 -11.9M10.7,-6.75Q8.3 -7.9 6 -6.75M10.7,-8.2Q8.3 -9.3 6 -8.2M10.7,-9.6Q8.3 -10.7 6 -9.6M26.25,-2.35L28.9 -2.2L30.4 -2.1L30.4 -2.9Q28.25 -2.8 26.1 -3.65M29.35,-8.6L30.4 -2.9Q32.2 -3.05 34.05 -3.8M34.1,-1.45L30.4 -2.1M42.9,-20.4L42.9 -50Q48.5 -43.8 48.5 -35.2Q48.5 -26.6 42.9 -20.4M54.25,39.4Q54.25 48 48.65 54.25L48.65 24.6Q54.25 30.8 54.25 39.4M42.4,26.85L44.5 26.85L44.5 28.9M13.15,22.35L13.05 23.4L12.55 26.75Q14 24.45 16 22.4Q22.9 15.35 32.65 15.35Q42.4 15.35 49.35 22.4Q56.25 29.45 56.25 39.4Q56.25 49.35 49.35 56.4Q42.4 63.45 32.65 63.45Q22.9 63.45 16 56.4Q9.05 49.35 9.1 39.4Q9.05 34.45 10.8 30.25Q9.75 31.05 8.2 31.05M12.55,26.75L11.9 28.8L10.8 30.25M30.65,7.6L31.15 13.2M17.5,4.85Q18.6 2.4 17.6 0.05M18.9,4.85Q20 2.45 19 0.1M3.15,24.3L3 23.45L2.05 17.05Q1.2 13.45 -0.55 11.65Q-2.3 9.85 -5.65 9L-7.25 8.65L-10.05 8.15M3.15,24.3L3.25 25.2Q3.7 27.6 4.35 28.8L4.7 29.3Q5.85 31.05 8.2 31.05M5.75,16.85Q8.15 17.95 10.45 16.85M5.75,15.45Q8.15 16.55 10.45 15.45M5.75,14Q8.15 15.1 10.45 14M20.05,29.1L20.05 26.85L22.45 26.85M4.7,29.3L2.4 28.2Q1.6 30.1 0.3 31.8M-4.85,19.95Q-6.4 21.55 -7.5 23.45L2.4 28.2L3.25 25.2M15.9,53.4Q11 47.4 11.05 39.4Q11 31.4 15.9 25.45M32.65,17.4Q40.7 17.35 46.6 22.6L18.7 22.6Q24.6 17.35 32.65 17.4M18.35,55.95L46.95 55.95Q40.9 61.45 32.65 61.45Q24.4 61.45 18.35 55.95M22.45,51.7L20.05 51.7L20.05 49.25M44.5,49.25L44.5 51.7L42.4 51.7M18.3,53.5L18.3 25L46.3 25L46.3 53.5L18.3 53.5M16.05,4.8Q17.2 2.35 16.2 0M-46.05,-4.95L-46.05 -7.2L-43.7 -7.2M-45.35,-13.1Q-40.15 -16.65 -33.5 -16.65Q-25.45 -16.65 -19.5 -11.45L-45.35 -11.45L-47.45 -11.45L-45.35 -13.1M-11.1,-2.5Q-12.55 -6.85 -15.7 -10.45L-16.8 -11.6Q-23.7 -18.65 -33.5 -18.65Q-40.05 -18.65 -45.35 -15.45Q-47.9 -13.9 -50.15 -11.6Q-57.05 -4.6 -57.05 5.4Q-57.05 15.3 -50.15 22.35Q-43.25 29.4 -33.5 29.4Q-23.7 29.4 -16.8 22.35Q-10.9 16.3 -10.05 8.15L-10.15 8.15M-23.7,-7.2L-21.65 -7.2L-21.65 -5.15M-7.65,-16.8Q-6.15 -15.65 -5.05 -14.15L-11.7 -9.7M-17.45,-0.5L-17.45 -9.45Q-14.55 -6.15 -13.15 -2.25M-19.85,-9.05L-19.85 19.5L-47.85 19.5L-47.85 -9.05L-19.85 -9.05M-6.2,0.35Q-7.3 2.8 -6.2 5.15M-3.4,0.35Q-4.5 2.8 -3.4 5.15M-4.8,0.35Q-5.9 2.8 -4.8 5.15M-12,7.85Q-12.7 14.85 -17.45 20.2L-17.45 5.6M-11.8,20.8L-7.5 23.45Q-8.6 25.25 -9.3 27.4M-21.65,15.2L-21.65 17.7L-23.7 17.7M-33.5,27.45Q-41.75 27.4 -47.75 21.9L-19.2 21.9Q-25.25 27.4 -33.5 27.45M-55.1,5.4Q-55.1 -2.65 -50.2 -8.55L-50.2 19.35Q-55.1 13.4 -55.1 5.4M-43.7,17.7L-46.05 17.7L-46.05 15.2" />
<path style="fill:none;stroke-width:1;stroke-linecap:round;stroke-linejoin:round;stroke-miterlimit:3;stroke:#666666;stroke-opacity:1" d="M-10.15,8.15Q-11.55 3.45 -10.1 -2.2M8.1,2.2Q12.95 6.1 16.75 11.1M2.95,-16.05Q7.8 -18.3 12.65 -16.05M2.95,20.95Q8.45 24.25 12.9 20.95M8.1,2.2L0.7 -6.15M28.1,-1.9Q30.7 3.3 27.85 7.4" />
</g>
</svg>
