<?xml version="1.0" encoding="utf-8"?>
<svg version="1.1" id="Layer_1"
xmlns="http://www.w3.org/2000/svg"
xmlns:xlink="http://www.w3.org/1999/xlink"
xmlns:author="http://www.sothink.com"
width="21px" height="20px"
xml:space="preserve">
<g id="492" transform="matrix(1, 0, 0, 1, 10.05, 9.8)">
<path style="fill:#999999;fill-opacity:1" d="M-10.05,-2.15Q-10.05 -5.35 -7.8 -7.55Q-5.5 -9.8 -2.35 -9.8Q0.8 -9.8 3.05 -7.55Q5.3 -5.35 5.3 -2.15Q5.3 1 3.05 3.25Q0.8 5.5 -2.35 5.5Q-5.5 5.5 -7.8 3.25Q-10.05 1 -10.05 -2.15" />
<path style="fill:#FFFFFF;fill-opacity:1" d="M-2.95,-3.25Q-0.7 -5.5 2.45 -5.5Q5.6 -5.5 7.85 -3.25Q10.1 -1 10.1 2.15Q10.1 5.3 7.85 7.55Q5.6 9.8 2.45 9.8Q-0.7 9.8 -2.95 7.55Q-5.2 5.3 -5.2 2.15Q-5.2 -1 -2.95 -3.25" />
<path style="fill:#000000;fill-opacity:1" d="M-5.45,-5.2Q-3.25 -7.5 -0.05 -7.5Q3.1 -7.5 5.35 -5.2Q7.55 -2.95 7.55 0.2Q7.55 3.35 5.35 5.6Q3.1 7.85 -0.05 7.85Q-3.25 7.85 -5.45 5.6Q-7.7 3.35 -7.7 0.2Q-7.7 -2.95 -5.45 -5.2" />
<path style="fill:#7F7F7F;fill-opacity:1" d="M-5.15,0.2Q-5.15 -1.95 -3.65 -3.45Q-2.15 -5 0 -5Q2.15 -5 3.65 -3.45Q5.2 -1.95 5.2 0.2Q5.2 2.35 3.65 3.85Q2.15 5.35 0 5.35Q-2.15 5.35 -3.65 3.85Q-5.15 2.35 -5.15 0.2" />
<path style="fill:#B2B2B2;fill-opacity:1" d="M-3.45,2.85Q-4.75 1.6 -4.75 -0.2Q-4.75 -2 -3.45 -3.25Q-2.2 -4.55 -0.4 -4.55Q1.4 -4.55 2.7 -3.25Q3.95 -2 3.95 -0.2Q3.95 1.6 2.7 2.85Q1.4 4.15 -0.4 4.15Q-2.2 4.15 -3.45 2.85" />
<path style="fill:#FFFFFF;fill-opacity:1" d="M-3.4,-1.3L-3.7 -2.05L-3.4 -2.75L-2.65 -3.1Q-2.25 -3.1 -1.95 -2.75Q-1.65 -2.5 -1.65 -2.05Q-1.65 -1.65 -1.95 -1.3Q-2.25 -1 -2.65 -1Q-3.1 -1 -3.4 -1.3" />
<path style="fill:#FFFFFF;fill-opacity:1" d="M1.4,1.05L1.25 0.6Q1.25 0.35 1.4 0.2Q1.55 0 1.8 0L2.2 0.2L2.4 0.6L2.2 1.05L1.8 1.2Q1.55 1.2 1.4 1.05" />
<path style="fill:#000000;fill-opacity:1" d="M-4.55,3L-1 -0.2L-2.55 -4.65L0.2 -0.9L4.6 -2.7L0.8 0.25L3.05 4.3L-0.45 0.95L-4.55 3" />
</g>
</svg>
