<?xml version="1.0" encoding="utf-8"?>
<svg version="1.1" id="Layer_1"
xmlns="http://www.w3.org/2000/svg"
xmlns:xlink="http://www.w3.org/1999/xlink"
xmlns:author="http://www.sothink.com"
width="14px" height="15px"
xml:space="preserve">
<g id="329" transform="matrix(1, 0, 0, 1, 8.5, 7.35)">
<path style="fill:#009966;fill-opacity:1" d="M3.9,-0.8L3.9 1.95L3 1.95L3 -0.8L3.9 -0.8M-4.05,-0.8L-4.05 1.95L-4.9 1.95L-4.9 -0.8L-4.05 -0.8" />
<path style="fill:#CCCCCC;fill-opacity:1" d="M-6.3,-2.25Q-4.3 -11.4 -2.65 -2.3L-2.65 -2L-2.65 4.15L-2.65 4.5L-2.75 4.5L-0.95 7L-8 7L-6.3 4.5L-6.35 4.5L-6.35 4.15L-6.35 -2L-6.3 -2.25M-4.9,-0.8L-4.9 1.95L-4.05 1.95L-4.05 -0.8L-4.9 -0.8" />
<path style="fill:none;stroke-width:1;stroke-linecap:round;stroke-linejoin:round;stroke-miterlimit:3;stroke:#00FF00;stroke-opacity:1" d="M3.9,-0.8L3.9 1.95L3 1.95L3 -0.8L3.9 -0.8M4.75,4.4L4.75 6.5M2.1,4.4L2.1 6.5M-4.05,-0.8L-4.05 1.95L-4.9 1.95L-4.9 -0.8L-4.05 -0.8M-5.85,4.5L-5.85 6.5M-3.15,4.5L-3.15 6.5" />
<path style="fill:none;stroke-width:1;stroke-linecap:round;stroke-linejoin:round;stroke-miterlimit:3;stroke:#999999;stroke-opacity:1" d="M-2.65,-2.3Q-4.3 -11.4 -6.3 -2.25L-2.65 -2.3L-2.65 -2L-2.65 4.15L-2.65 4.5L-2.75 4.5L-0.95 7L-8 7L-6.3 4.5L-6.35 4.5L-6.35 4.15L-6.35 -2L-6.3 -2.25M-6.35,4.15L-6.3 4.5L-5.85 4.5L-3.15 4.5L-2.75 4.5L-2.65 4.15" />
</g>
</svg>
