<?xml version="1.0" encoding="utf-8"?>
<svg version="1.1" id="Layer_1"
xmlns="http://www.w3.org/2000/svg"
xmlns:xlink="http://www.w3.org/1999/xlink"
xmlns:author="http://www.sothink.com"
width="752px" height="552px"
xml:space="preserve">
<g id="230" transform="matrix(1, 0, 0, 1, 350.45, 275.5)">
<path style="fill:none;stroke-width:1;stroke-linecap:round;stroke-linejoin:round;stroke-miterlimit:3;stroke:#CCCCCC;stroke-opacity:1" d="M387.5,-75.3L387.5 130.5L232.5 130.5L232.5 -75.3L387.5 -75.3M401,275.05L-349.95 275.05L-349.95 -275L401 -275L401 275.05" />
</g>
</svg>
