<?xml version="1.0" encoding="utf-8"?>
<svg version="1.1" id="Layer_1"
xmlns="http://www.w3.org/2000/svg"
xmlns:xlink="http://www.w3.org/1999/xlink"
xmlns:author="http://www.sothink.com"
width="112px" height="113px"
xml:space="preserve">
<g id="37" transform="matrix(1, 0, 0, 1, 56, 56.05)">
<path style="fill:none;stroke-width:2;stroke-linecap:round;stroke-linejoin:round;stroke-miterlimit:3;stroke:#00AAAA;stroke-opacity:1" d="M55,-45L55 44.05Q53.05 53.65 42 55.1L-41 55.1Q-55 54.5 -55 41L-55 -43Q-52.6 -56 -40.05 -55L42.05 -55Q54.1 -53.7 55 -45z" />
</g>
</svg>
