<?xml version="1.0" encoding="utf-8"?>
<svg version="1.1" id="Layer_1"
xmlns="http://www.w3.org/2000/svg"
xmlns:xlink="http://www.w3.org/1999/xlink"
xmlns:author="http://www.sothink.com"
width="80px" height="80px"
xml:space="preserve">
<g id="93" transform="matrix(1, 0, 0, 1, 40, 40)">
<path style="fill:#CCCCCC;fill-opacity:1" d="M17.35,-17.3Q14.55 -20.1 11.3 -21.8L11.35 -21.9L25.35 -33.45L25.3 -32.65Q25.3 -29.6 27.45 -27.45Q29.55 -25.3 32.65 -25.3L21.25 -12.3Q19.65 -14.95 17.35 -17.3M27.45,27.45Q25.3 29.6 25.3 32.65L25.35 33.5Q17.65 27.8 10.75 22.15Q14.3 20.35 17.35 17.35Q19.45 15.2 20.95 12.9L21.05 12.95L31.85 25.35Q29.3 25.6 27.45 27.45M-33.4,25.35L-22.05 11.45Q-19.7 14.95 -17.3 17.35Q-14.55 20.1 -11.3 21.85L-25.25 32.75L-25.3 32.75L-25.3 32.65Q-25.3 29.6 -27.45 27.45Q-29.6 25.3 -32.65 25.3L-33.4 25.35M-21.25,-12.25L-32.65 -25.3L-31.05 -25.45Q-29 -25.9 -27.45 -27.45Q-25.3 -29.6 -25.3 -32.65L-25.35 -33.45L-11.5 -21.95L-11.3 -21.8Q-14.55 -20.1 -17.3 -17.3L-20.25 -13.8L-21.25 -12.25" />
<path style="fill:#990000;fill-opacity:1" d="M27.45,-27.45Q25.3 -29.6 25.3 -32.65L25.35 -33.45Q25.6 -36 27.45 -37.85Q29.6 -40 32.65 -40Q35.7 -40 37.85 -37.85Q40 -35.7 40 -32.65Q40 -29.6 37.85 -27.45Q35.7 -25.3 32.65 -25.3Q29.55 -25.3 27.45 -27.45M31.85,25.35L32.65 25.3Q35.7 25.3 37.85 27.45Q40 29.6 40 32.65Q40 35.7 37.85 37.85Q35.7 40 32.65 40Q29.6 40 27.45 37.85Q25.6 36 25.35 33.5L25.3 32.65Q25.3 29.6 27.45 27.45Q29.3 25.6 31.85 25.35M-32.65,25.3Q-29.6 25.3 -27.45 27.45Q-25.3 29.6 -25.3 32.65L-25.3 32.75L-25.3 32.8Q-25.35 35.75 -27.45 37.85Q-29.6 40 -32.65 40Q-35.7 40 -37.85 37.85Q-40 35.7 -40 32.65Q-40 29.6 -37.85 27.45Q-36 25.6 -33.4 25.35L-32.65 25.3M-32.65,-25.3Q-35.7 -25.3 -37.85 -27.45Q-40 -29.6 -40 -32.65Q-40 -35.7 -37.85 -37.85Q-35.7 -40 -32.65 -40Q-29.6 -40 -27.45 -37.85Q-25.6 -36 -25.35 -33.45L-25.3 -32.65Q-25.3 -29.6 -27.45 -27.45Q-29 -25.9 -31.05 -25.45L-32.65 -25.3" />
<path style="fill:#999999;fill-opacity:1" d="M-22.05,11.45Q-24.5 6.8 -24.5 0Q-24.5 -6.8 -21.25 -12.25L-20.25 -13.8L-17.3 -17.3Q-14.55 -20.1 -11.3 -21.8Q-6.2 -24.5 0 -24.5Q6.2 -24.5 11.3 -21.8L11.35 -21.9L11.3 -21.8Q14.55 -20.1 17.35 -17.3Q19.65 -14.95 21.25 -12.3L21.3 -12.25Q24.5 -6.8 24.5 0Q24.5 7.15 20.95 12.85L21.05 12.95L20.95 12.9Q19.45 15.2 17.35 17.35Q14.3 20.35 10.75 22.15L10.7 22.15Q5.8 24.5 0 24.5Q-6.2 24.5 -11.3 21.85Q-14.55 20.1 -17.3 17.35Q-19.7 14.95 -22.05 11.45M5.75,-5.75Q4.8 -6.7 3.75 -7.25Q2.05 -8.15 0 -8.15Q-2.2 -8.15 -3.95 -7.15L-5.8 -5.75L-7.2 -3.9Q-8.15 -2.15 -8.15 0.05Q-8.2 1.9 -7.45 3.45L-5.8 5.75L-3.75 7.3Q-2.1 8.2 0 8.2Q1.8 8.2 3.35 7.5L5.75 5.75L6.85 4.5Q8.15 2.5 8.15 0.05Q8.15 -2.45 6.9 -4.4L5.75 -5.75M-20.4,4.05L-20.4 4.1L-20.25 4.05L-20.4 4.05" />
<path style="fill:#0000FF;fill-opacity:1" d="M6.9,-4.4Q8.15 -2.45 8.15 0.05Q8.15 2.5 6.85 4.5L5.75 5.75L3.35 7.5Q1.8 8.2 0 8.2Q-2.1 8.2 -3.75 7.3L-5.8 5.75L-7.45 3.45Q-8.2 1.9 -8.15 0.05Q-8.15 -2.15 -7.2 -3.9L-5.8 -5.75L-3.95 -7.15Q-2.2 -8.15 0 -8.15Q2.05 -8.15 3.75 -7.25Q4.8 -6.7 5.75 -5.75L6.9 -4.4" />
<path style="fill:none;stroke-width:2;stroke-linecap:round;stroke-linejoin:round;stroke-miterlimit:3;stroke:#666666;stroke-opacity:1" d="M32.65,-25.3L21.25 -12.3L21.3 -12.25Q24.5 -6.8 24.5 0Q24.5 7.15 20.95 12.85L21.05 12.95M25.35,33.5Q17.65 27.8 10.75 22.15L10.7 22.15Q5.8 24.5 0 24.5Q-6.2 24.5 -11.3 21.85L-25.25 32.75M-33.4,25.35L-22.05 11.45Q-24.5 6.8 -24.5 0Q-24.5 -6.8 -21.25 -12.25L-32.65 -25.3M-25.35,-33.45L-11.5 -21.95M-11.3,-21.8Q-6.2 -24.5 0 -24.5Q6.2 -24.5 11.3 -21.8L11.35 -21.9L25.35 -33.45M3.75,-7.25L11.3 -21.8Q14.55 -20.1 17.35 -17.3Q19.65 -14.95 21.25 -12.3M21.3,-12.25L6.9 -4.4M20.95,12.9Q19.45 15.2 17.35 17.35Q14.3 20.35 10.75 22.15M10.7,22.15L3.35 7.5M20.95,12.9L6.85 4.5M-11.3,-21.8Q-14.55 -20.1 -17.3 -17.3L-20.25 -13.8L-21.25 -12.25L-7.2 -3.9M-11.3,-21.8L-3.95 -7.15M-11.3,21.85Q-14.55 20.1 -17.3 17.35Q-19.7 14.95 -22.05 11.45L-7.45 3.45M-11.3,21.85L-3.75 7.3" />
<path style="fill:none;stroke-width:2;stroke-linecap:round;stroke-linejoin:round;stroke-miterlimit:3;stroke:#CCCCCC;stroke-opacity:1" d="M5.75,-5.75Q4.8 -6.7 3.75 -7.25Q2.05 -8.15 0 -8.15Q-2.2 -8.15 -3.95 -7.15L-5.8 -5.75L-7.2 -3.9Q-8.15 -2.15 -8.15 0.05Q-8.2 1.9 -7.45 3.45L-5.8 5.75L-3.75 7.3Q-2.1 8.2 0 8.2Q1.8 8.2 3.35 7.5L5.75 5.75L6.85 4.5Q8.15 2.5 8.15 0.05Q8.15 -2.45 6.9 -4.4L5.75 -5.75z" />
<path style="fill:none;stroke-width:2;stroke-linecap:round;stroke-linejoin:round;stroke-miterlimit:3;stroke:#00FF00;stroke-opacity:1" d="M1.75,-1.75Q2.45 -1.05 2.45 0Q2.45 1.05 1.75 1.75Q1.05 2.45 0 2.45Q-1.05 2.45 -1.75 1.75Q-2.45 1.05 -2.45 0Q-2.45 -1.05 -1.75 -1.75Q-1.05 -2.45 0 -2.45Q1.05 -2.45 1.75 -1.75z" />
</g>
</svg>
