<?xml version="1.0" encoding="utf-8"?>
<svg version="1.1" id="Layer_1"
xmlns="http://www.w3.org/2000/svg"
xmlns:xlink="http://www.w3.org/1999/xlink"
xmlns:author="http://www.sothink.com"
width="80px" height="13px"
xml:space="preserve">
<g id="567" transform="matrix(1, 0, 0, 1, -1, -1)">
<path style="fill:none;stroke-width:2;stroke-linecap:round;stroke-linejoin:round;stroke-miterlimit:3;stroke:#006600;stroke-opacity:1" d="M80,13L80 2M74,13L74 2M71,13L71 2M77,13L77 2M68,13L68 2M65,13L65 2M62,13L62 2M53,13L53 2M47,13L47 2M50,13L50 2M41,13L41 2M59,13L59 2M56,13L56 2M44,13L44 2M29,13L29 2M32,13L32 2M35,13L35 2M38,13L38 2M26,13L26 2M23,13L23 2M20,13L20 2" />
<path style="fill:none;stroke-width:2;stroke-linecap:round;stroke-linejoin:round;stroke-miterlimit:3;stroke:#FF0000;stroke-opacity:1" d="M17,13L17 2" />
<path style="fill:none;stroke-width:2;stroke-linecap:round;stroke-linejoin:round;stroke-miterlimit:3;stroke:#BB0000;stroke-opacity:1" d="M5,13L5 2" />
<path style="fill:none;stroke-width:2;stroke-linecap:round;stroke-linejoin:round;stroke-miterlimit:3;stroke:#CC0000;stroke-opacity:1" d="M8,13L8 2" />
<path style="fill:none;stroke-width:2;stroke-linecap:round;stroke-linejoin:round;stroke-miterlimit:3;stroke:#DD0000;stroke-opacity:1" d="M11,13L11 2" />
<path style="fill:none;stroke-width:2;stroke-linecap:round;stroke-linejoin:round;stroke-miterlimit:3;stroke:#AA0000;stroke-opacity:1" d="M2,13L2 2" />
<path style="fill:none;stroke-width:2;stroke-linecap:round;stroke-linejoin:round;stroke-miterlimit:3;stroke:#EE0000;stroke-opacity:1" d="M14,13L14 2" />
</g>
</svg>
