<?xml version="1.0" encoding="utf-8"?>
<svg version="1.1" id="Layer_1"
xmlns="http://www.w3.org/2000/svg"
xmlns:xlink="http://www.w3.org/1999/xlink"
xmlns:author="http://www.sothink.com"
width="2px" height="2px"
xml:space="preserve">
<g id="306" transform="matrix(1, 0, 0, 1, 1, 1)">
<path style="fill:none;stroke-width:1;stroke-linecap:round;stroke-linejoin:round;stroke-miterlimit:3;stroke:#FFFFFF;stroke-opacity:1" d="M0.5,0L0 0L0 0.5M-0.5,0L0 0L0 -0.5" />
</g>
</svg>
