<?xml version="1.0" encoding="utf-8"?>
<svg version="1.1" id="Layer_1"
xmlns="http://www.w3.org/2000/svg"
xmlns:xlink="http://www.w3.org/1999/xlink"
xmlns:author="http://www.sothink.com"
width="20px" height="52px"
xml:space="preserve">
<g id="500" transform="matrix(1, 0, 0, 1, 9.95, 25.55)">
<path style="fill:#000000;fill-opacity:1" d="M1.45,-22.7L1.45 22.75L-1.4 22.75L-1.4 -22.7L1.45 -22.7" />
<path style="fill:#000000;fill-opacity:1" d="M-9.95,22.75L-1.4 22.75L-1.4 25.6L-9.95 25.6L-9.95 22.75" />
<path style="fill:#000000;fill-opacity:1" d="M-9.95,-25.55L-1.4 -25.55L-1.4 -22.7L-9.95 -22.7L-9.95 -25.55" />
<path style="fill:#000000;fill-opacity:1" d="M1.45,22.75L9.95 22.75L9.95 25.6L1.45 25.6L1.45 22.75" />
<path style="fill:#000000;fill-opacity:1" d="M1.45,-25.55L9.95 -25.55L9.95 -22.7L1.45 -22.7L1.45 -25.55" />
</g>
</svg>
