<?xml version="1.0" encoding="utf-8"?>
<svg version="1.1" id="Layer_1"
xmlns="http://www.w3.org/2000/svg"
xmlns:xlink="http://www.w3.org/1999/xlink"
xmlns:author="http://www.sothink.com"
width="72px" height="71px"
xml:space="preserve">
<g id="361" transform="matrix(1, 0, 0, 1, 33.9, 33)">
<path style="fill:#6600CC;fill-opacity:1" d="M-11.65,-16.25Q-6.9 -19.8 -0.75 -20L0 -20Q6.7 -20 11.8 -16.15L14.15 -14.1L16.75 -11L25.15 -14.25L29.55 -21.85L31.4 -16.7L33.2 -11.65L35 -6.55L36.85 -1.45L28.2 -6.45L19.75 -3.2L20 0L20 0.55Q19.8 8.5 14.15 14.15L11.75 16.25Q6.65 20 0 20L-0.75 20L-4.2 19.6L-7.95 28.15L-5.7 36.6L-10.6 34.25L-15.45 32L-20.35 29.65L-25.25 27.35L-15.6 24.75L-11.8 16.2L-13.6 14.7L-14.15 14.15Q-19.95 8.35 -20 0.2L-20 0Q-20 -5.6 -17.3 -10.1L-24.65 -16L-33.4 -16L-29.85 -20.15L-26.4 -24.25L-22.9 -28.35L-19.4 -32.5L-19.4 -22.5L-11.65 -16.25" />
<path style="fill:none;stroke-width:1;stroke-linecap:round;stroke-linejoin:round;stroke-miterlimit:3;stroke:#9900CC;stroke-opacity:1" d="M16.75,-11L25.15 -14.25L29.55 -21.85M36.85,-1.45L28.2 -6.45L19.75 -3.2M-4.2,19.6L-7.95 28.15L-5.7 36.6M-25.25,27.35L-15.6 24.75L-11.8 16.2M-17.3,-10.1L-24.65 -16L-33.4 -16M-19.4,-32.5L-19.4 -22.5L-11.65 -16.25" />
<path style="fill:none;stroke-width:1;stroke-linecap:round;stroke-linejoin:round;stroke-miterlimit:3;stroke:#9900CC;stroke-opacity:1" d="M29.55,-21.85L31.4 -16.7L33.2 -11.65L35 -6.55L36.85 -1.45M-5.7,36.6L-10.6 34.25L-15.45 32L-20.35 29.65L-25.25 27.35M-33.4,-16L-29.85 -20.15L-26.4 -24.25L-22.9 -28.35L-19.4 -32.5M35,-6.55L27.35 -8.55L28.2 -6.45M33.2,-11.65L26.7 -10.35L27.35 -8.55M31.4,-16.7L26 -12.15L26.7 -10.35M26,-12.15L25.15 -14.25M-24.65,-16L-23.2 -17.75L-29.85 -20.15M-23.2,-17.75L-22 -19.25L-26.4 -24.25M-22,-19.25L-20.8 -20.75L-22.9 -28.35M-20.8,-20.75L-19.4 -22.5M-7.95,28.15L-10.05 27.2L-10.6 34.25M-15.45,32L-11.8 26.45L-13.55 25.65L-20.35 29.65M-10.05,27.2L-11.8 26.45M-13.55,25.65L-15.6 24.75" />
<path style="fill:none;stroke-width:1;stroke-linecap:round;stroke-linejoin:round;stroke-miterlimit:3;stroke:#990000;stroke-opacity:1" d="M-11.65,-16.25Q-6.9 -19.8 -0.75 -20L0 -20Q6.7 -20 11.8 -16.15L14.15 -14.1L16.75 -11Q19.1 -7.5 19.75 -3.2L20 0L20 0.55Q19.8 8.5 14.15 14.15L11.75 16.25Q6.65 20 0 20L-0.75 20L-4.2 19.6M-11.8,16.2L-13.6 14.7L-14.15 14.15Q-19.95 8.35 -20 0.2L-20 0Q-20 -5.6 -17.3 -10.1M-11.65,-16.25L-13.7 -14.55L-5.25 -4.3M-0.75,-20L-0.75 -5.8L0.35 -5.9L2.8 -5.5L2.95 -5.4L11.8 -16.15M-0.75,-5.8Q-2.65 -5.55 -4.15 -4.3L-4.55 -3.95Q-6.3 -2.15 -6.5 0.3L-6.5 0.95Q-6.55 3.55 -4.9 5.45L-4.55 5.75Q-2.9 7.4 -0.75 7.7L0.35 7.8Q2.35 7.8 3.9 6.8L4.6 6.3L5.15 5.75Q7.2 3.8 7.2 0.95L7.15 0.45Q7 -2.1 5.15 -3.95L3.75 -5.05L2.95 -5.4M-13.7,-14.55L-14.15 -14.1Q-16.05 -12.25 -17.3 -10.1M-13.6,14.7L-5.95 5.45M-11.8,16.2Q-8.35 18.75 -4.2 19.6M-20,0.2L-7.6 0.3M-0.75,20L-0.75 7.7M20,0.55L7.15 0.45M11.75,16.25L3.9 6.8" />
</g>
</svg>
