<?xml version="1.0" encoding="utf-8"?>
<svg version="1.1" id="Layer_1"
xmlns="http://www.w3.org/2000/svg"
xmlns:xlink="http://www.w3.org/1999/xlink"
xmlns:author="http://www.sothink.com"
width="37px" height="37px"
xml:space="preserve">
<g id="157" transform="matrix(1, 0, 0, 1, 18.05, 18.05)">
<path style="fill:#666666;fill-opacity:1" d="M0.1,-9.85L1.2 -14.15L2.2 -18L5 -0.45L5.75 4.5L7.2 0.5L8.55 -3.3L8.65 -3.3L9.75 1.8L14.05 3.55L15.05 3.9L16.65 4.6L17.4 8.75L18 12.45L9.75 10.35L7.1 18L5.5 10.9L2.7 13.8L2.4 13.55L0.1 13.55L-2.5 13.55L-2.7 13.7L-5.5 10.9L-7.1 18L-9.75 10.35L-18 12.45L-17.35 8.75L-16.65 4.6L-15 3.9L-14.05 3.55L-9.75 1.8L-8.6 -3.3L-8.5 -3.3L-7.15 0.5L-5.75 4.5L-4.95 -0.4L-2.2 -18L-1.2 -14.15L0.1 -9.85M-2.9,5.8L-0.1 9.1L-0.15 9.15L-0.05 9.2L0.1 9.1L2.9 5.8L0.1 -2.05L-2.9 5.8" />
<path style="fill:#0066CC;fill-opacity:1" d="M14.05,0.5L13.55 0.5L13.55 -2.25L15.4 -2.25L15.4 0.5L15.05 0.5L14.05 0.5M-15,0.5L-15.4 0.5L-15.4 -2.2L-13.55 -2.2L-13.55 0.5L-14.05 0.5L-15 0.5" />
<path style="fill:#006699;fill-opacity:1" d="M-1.2,-14.15L-0.1 -16.15L1.2 -14.15L0.1 -9.85L-1.2 -14.15" />
<path style="fill:#000000;fill-opacity:1" d="M0.1,-2.05L2.9 5.8L0.1 9.1L-0.1 9.1L-2.9 5.8L0.1 -2.05" />
<path style="fill:#999999;fill-opacity:1" d="M0.1,13.55L2.4 13.55L2.7 13.8L2.55 13.95L1.2 16.5L0.1 16.5L-1.2 16.5L-2.5 13.95L-2.7 13.7L-2.5 13.55L0.1 13.55" />
<path style="fill:none;stroke-width:1;stroke-linecap:round;stroke-linejoin:round;stroke-miterlimit:3;stroke:#003399;stroke-opacity:1" d="M1.85,-9.45L2.2 -3.55M-1.8,-9.45L-2.2 -3.55" />
<path style="fill:none;stroke-width:0.1;stroke-linecap:round;stroke-linejoin:round;stroke-miterlimit:3;stroke:#006699;stroke-opacity:1" d="M-1.2,-14.15L-0.1 -16.15L1.2 -14.15M10.75,6.05L17.4 8.75M-10.7,6.05L-17.35 8.75" />
<path style="fill:none;stroke-width:0.1;stroke-linecap:round;stroke-linejoin:round;stroke-miterlimit:3;stroke:#CCCCCC;stroke-opacity:1" d="M9.6,6.95L9.6 7.35Q9.6 8.05 9.05 8.5Q8.55 9 7.8 9L7.7 9M9.6,6.95L9.05 6.1Q8.6 5.65 7.95 5.65L7.8 5.65Q7.05 5.65 6.5 6.1Q6.05 6.55 6 7.15L6 7.35Q6 8.05 6.5 8.5Q7 8.95 7.7 9M-7.9,5.65L-7.8 5.65Q-7.05 5.65 -6.55 6.1Q-6.05 6.55 -6 7.15M-7.9,5.65Q-8.6 5.65 -9.1 6.1L-9.55 6.95L-9.6 7.35Q-9.6 8.05 -9.1 8.5Q-8.55 9 -7.8 9L-7.7 9Q-7 8.95 -6.55 8.5Q-6 8.05 -6 7.35L-6 7.15" />
<path style="fill:none;stroke-width:1;stroke-linecap:round;stroke-linejoin:round;stroke-miterlimit:3;stroke:#006699;stroke-opacity:1" d="M3.7,8.4L2.55 10.2M-3.7,8.4L-2.5 10.2" />
<path style="fill:none;stroke-width:0.1;stroke-linecap:round;stroke-linejoin:round;stroke-miterlimit:3;stroke:#999999;stroke-opacity:1" d="M-0.05,9.2L2.4 13.55M-0.05,9.2L-0.1 9.1L-0.15 9.15M-2.5,13.55L-0.15 9.15" />
<path style="fill:none;stroke-width:0.1;stroke-linecap:round;stroke-linejoin:round;stroke-miterlimit:3;stroke:#333333;stroke-opacity:1" d="M1.2,-14.15L2.2 -18L5 -0.45L7.2 0.5L8.55 -3.3L8.6 -3.55L8.65 -3.3L9.75 1.8L14.05 3.55L14.05 0.5L13.55 0.5L13.55 -2.25L15.4 -2.25L15.4 0.5L15.05 0.5L15.05 3.9L16.65 4.6L17.4 8.75L18 12.45L9.75 10.35L7.1 18L5.5 10.9L2.7 13.8L2.55 13.95L1.2 16.5L0.1 16.5L-1.2 16.5L-2.5 13.95L-2.7 13.7L-5.5 10.9L-7.1 18L-9.75 10.35L-18 12.45L-17.35 8.75L-16.65 4.6L-15 3.9L-15 0.5L-15.4 0.5L-15.4 -2.2L-13.55 -2.2L-13.55 0.5L-14.05 0.5L-14.05 3.55L-9.75 1.8L-8.6 -3.3L-8.55 -3.55L-8.5 -3.3L-7.15 0.5L-4.95 -0.4L-2.2 -18L-1.2 -14.15M1.2,-14.15L0.1 -9.85L0.1 -2.05L2.9 5.8L0.1 9.1L0.1 3.55L-2.9 5.8L-0.1 9.1M15.05,0.5L14.05 0.5M15.05,3.9L14.05 3.55M9.75,10.35L10.95 7L10.9 6.9L9.6 6.95M7.7,9L7.1 18M9.75,1.8L10.75 6.05L10.9 6.9M7.2,0.5L5.75 4.5L4.8 7.25L6 7.15M-2.9,5.8L0.1 -2.05L0.1 3.55L2.9 5.8M4.8,7.25L4.7 7.45L5.5 10.9M2.4,13.55L0.1 13.55L0.1 16.5M5,-0.45L5.75 4.5M7.95,5.65L8.55 -3.3M-8.5,-3.3L-7.9 5.65M-6,7.15L-4.75 7.25L-5.75 4.5L-7.15 0.5M-4.75,7.25L-4.7 7.45L-5.5 10.9M-15,0.5L-14.05 0.5M-15,3.9L-14.05 3.55M-9.75,10.35L-10.95 7L-10.9 6.9L-10.7 6.05L-9.75 1.8M-9.55,6.95L-10.9 6.9M-7.7,9L-7.1 18M-4.95,-0.4L-5.75 4.5M-2.5,13.55L0.1 13.55M0.1,-9.85L-1.2 -14.15" />
</g>
</svg>
