<?xml version="1.0" encoding="utf-8"?>
<svg version="1.1" id="Layer_1"
xmlns="http://www.w3.org/2000/svg"
xmlns:xlink="http://www.w3.org/1999/xlink"
xmlns:author="http://www.sothink.com"
width="112px" height="113px"
xml:space="preserve">
<g id="38" transform="matrix(1, 0, 0, 1, 56, 55.95)">
<path style="fill:none;stroke-width:2;stroke-linecap:round;stroke-linejoin:round;stroke-miterlimit:3;stroke:#006699;stroke-opacity:1" d="M55,-44.95L55 44.2Q53.05 53.8 42 55.2L-41 55.2Q-55 54.65 -55 41.15L-55 -42.95Q-52.6 -55.9 -40.05 -54.9L42.05 -54.9Q54.1 -53.65 55 -44.95z" />
</g>
</svg>
