<?xml version="1.0" encoding="utf-8"?>
<svg version="1.1" id="Layer_1"
xmlns="http://www.w3.org/2000/svg"
xmlns:xlink="http://www.w3.org/1999/xlink"
xmlns:author="http://www.sothink.com"
width="532px" height="359px"
xml:space="preserve">
<g id="524" transform="matrix(1, 0, 0, 1, -1079.65, -54.1)">
<radialGradient
id="RadialGradID_183" gradientUnits="userSpaceOnUse" gradientTransform="matrix(0.58844, 0, 0, 0.629227, 1349.15, 282)" spreadMethod ="pad" cx="0" cy="0" r="819.2" fx="0" fy="0" >
<stop  offset="0"  style="stop-color:#A5A5A5;stop-opacity:1" />
<stop  offset="0.898039"  style="stop-color:#656565;stop-opacity:1" />
</radialGradient>
<path style="fill:url(#RadialGradID_183) " d="M1101.95,55.2L1589.55 55.2Q1608.45 59.05 1610.65 74.3L1610.65 396Q1607.55 407.95 1593.1 412L1099.2 412Q1082.85 407.65 1080.65 393.55L1080.65 74.3Q1082.65 59.95 1099.55 55.7L1100.85 55.2L1101.95 55.2M1113.5,92.95Q1097.6 96.6 1095.65 108.95L1095.65 383.6Q1097.75 395.75 1113.2 399.55L1579.1 399.55Q1592.75 396 1595.65 385.75L1595.65 108.95Q1593.6 95.8 1575.8 92.5L1114.8 92.5L1113.75 92.5L1113.5 92.95" />
<path style="fill:none;stroke-width:2;stroke-linecap:round;stroke-linejoin:round;stroke-miterlimit:3;stroke:#666666;stroke-opacity:1" d="M1101.95,55.2L1100.85 55.2L1099.8 55.2Q1100.3 55.05 1100.9 55.2Q1101.4 55.05 1101.95 55.2L1589.55 55.2Q1608.45 59.05 1610.65 74.3L1610.65 396Q1607.55 407.95 1593.1 412L1099.2 412Q1082.85 407.65 1080.65 393.55L1080.65 74.3Q1082.65 59.95 1099.55 55.7M1100.85,55.2L1100.9 55.2M1113.75,92.5L1114.8 92.5L1575.8 92.5Q1593.6 95.8 1595.65 108.95L1595.65 385.75Q1592.75 396 1579.1 399.55L1113.2 399.55Q1097.75 395.75 1095.65 383.6L1095.65 108.95Q1097.6 96.6 1113.5 92.95" />
</g>
</svg>
