<?xml version="1.0" encoding="utf-8"?>
<svg version="1.1" id="Layer_1"
xmlns="http://www.w3.org/2000/svg"
xmlns:xlink="http://www.w3.org/1999/xlink"
xmlns:author="http://www.sothink.com"
width="369px" height="29px"
xml:space="preserve">
<g id="510" transform="matrix(1, 0, 0, 1, -90.95, 236.15)">
<path style="fill:none;stroke-width:1;stroke-linecap:round;stroke-linejoin:round;stroke-miterlimit:3;stroke:#999999;stroke-opacity:1" d="M458.9,-207.65L91.45 -207.65L91.45 -235.65L458.9 -235.65L458.9 -207.65z" />
</g>
</svg>
