<?xml version="1.0" encoding="utf-8"?>
<svg version="1.1" id="Layer_1"
xmlns="http://www.w3.org/2000/svg"
xmlns:xlink="http://www.w3.org/1999/xlink"
xmlns:author="http://www.sothink.com"
width="119px" height="75px"
xml:space="preserve">
<g id="478" transform="matrix(1, 0, 0, 1, 595.25, 44.15)">
<path style="fill:#0033FF;fill-opacity:1" d="M-476.8,-43.65L-476.8 30.3L-594.75 30.3L-594.75 -43.65L-476.8 -43.65" />
<path style="fill:none;stroke-width:1;stroke-linecap:round;stroke-linejoin:round;stroke-miterlimit:3;stroke:#CCCCCC;stroke-opacity:1" d="M-476.8,-43.65L-476.8 30.3L-594.75 30.3L-594.75 -43.65L-476.8 -43.65z" />
</g>
</svg>
