<?xml version="1.0" encoding="UTF-8" standalone="no"?>
<svg xmlns:xlink="http://www.w3.org/1999/xlink" height="6.7px" width="6.7px" xmlns="http://www.w3.org/2000/svg">
  <g transform="matrix(1.0, 0.0, 0.0, 1.0, 2.85, 2.8)">
    <use data-characterId="698" height="6.7" transform="matrix(1.0, 0.0, 0.0, 1.0, -2.85, -2.8)" width="6.7" xlink:href="#shape0"/>
  </g>
  <defs>
    <g id="shape0" transform="matrix(1.0, 0.0, 0.0, 1.0, 2.85, 2.8)">
      <path d="M0.1 3.4 Q-0.85 3.25 -1.55 2.55 -2.35 1.75 -2.35 0.55 -2.35 -0.5 -1.7 -1.3 L-1.55 -1.5 -1.15 -1.8 Q-0.4 -2.3 0.5 -2.3 1.7 -2.3 2.5 -1.5 L2.75 -1.2 Q3.35 -0.45 3.35 0.55 L3.1 1.75 2.5 2.55 2.45 2.6 1.65 3.2 0.3 3.4 0.1 3.4" fill="none" stroke="#ff0000" stroke-linecap="round" stroke-linejoin="round" stroke-width="1.0"/>
      <path d="M0.1 3.4 L0.05 0.75 -1.7 -1.3 M0.1 0.8 L0.15 0.85 0.25 0.95 2.75 -1.2" fill="none" stroke="#ff0000" stroke-linecap="round" stroke-linejoin="round" stroke-width="1.0"/>
    </g>
  </defs>
</svg>
