<?xml version="1.0" encoding="UTF-8" standalone="no"?>
<svg xmlns:xlink="http://www.w3.org/1999/xlink" height="168.0px" width="168.0px" xmlns="http://www.w3.org/2000/svg">
  <g transform="matrix(1.0, 0.0, 0.0, 1.0, 87.0, 89.0)">
    <use data-characterId="1673" height="98.0" transform="matrix(1.0, 0.0, 0.0, 1.0, -48.65, -48.9)" width="98.0" xlink:href="#shape0"/>
    <use data-characterId="1674" height="16.35" transform="matrix(1.0, 0.0, 0.0, 1.0018, -45.9, -73.1937)" width="17.25" xlink:href="#text0"/>
    <use data-characterId="1675" height="16.55" transform="matrix(1.0, 0.0, 0.0, 1.0018, 37.75, -73.394)" width="18.6" xlink:href="#text1"/>
    <use data-characterId="1676" height="16.75" transform="matrix(1.0, 0.0, 0.0, 1.0018, -43.8, 56.606)" width="18.15" xlink:href="#text2"/>
    <use data-characterId="1677" height="16.35" transform="matrix(1.0, 0.0, 0.0, 1.0018, 36.4, 56.8063)" width="18.95" xlink:href="#text3"/>
  </g>
  <defs>
    <g id="shape0" transform="matrix(1.0, 0.0, 0.0, 1.0, 48.65, 48.9)">
      <path d="M31.4 -40.9 Q31.65 -43.6 33.4 -45.65 L33.95 -46.3 Q36.6 -48.9 40.35 -48.9 44.1 -48.9 46.7 -46.3 L47.3 -45.65 Q49.35 -43.2 49.35 -39.9 49.35 -36.15 46.7 -33.55 44.1 -30.9 40.35 -30.9 36.6 -30.9 33.95 -33.55 31.35 -36.15 31.35 -39.9 L31.4 -40.9 M39.35 31.15 L40.35 31.1 Q44.1 31.1 46.7 33.7 49.35 36.35 49.35 40.1 49.35 43.85 46.7 46.45 44.1 49.1 40.35 49.1 36.6 49.1 33.95 46.45 31.7 44.2 31.4 41.1 L31.35 40.1 Q31.35 36.35 33.95 33.7 36.25 31.45 39.35 31.15 M-30.65 40.2 L-30.65 40.3 Q-30.7 43.9 -33.3 46.45 -35.9 49.1 -39.65 49.1 -43.4 49.1 -46.05 46.45 -48.65 43.85 -48.65 40.1 -48.65 36.35 -46.05 33.7 -43.75 31.45 -40.6 31.15 L-39.65 31.1 Q-35.9 31.1 -33.3 33.7 -30.65 36.35 -30.65 40.1 L-30.65 40.2 M-39.65 -30.9 Q-43.4 -30.9 -46.05 -33.55 -48.65 -36.15 -48.65 -39.9 -48.65 -43.2 -46.6 -45.65 L-46.05 -46.3 Q-43.4 -48.9 -39.65 -48.9 -35.9 -48.9 -33.3 -46.3 L-32.7 -45.65 Q-30.95 -43.6 -30.7 -40.9 L-30.65 -39.9 Q-30.65 -36.15 -33.3 -33.55 -35.2 -31.6 -37.7 -31.1 L-39.65 -30.9" fill="#990000" fill-rule="evenodd" stroke="none"/>
      <path d="M31.4 -40.9 L31.35 -39.9 Q31.35 -36.15 33.95 -33.55 36.6 -30.9 40.35 -30.9 L26.4 -14.95 Q24.45 -18.25 21.6 -21.1 18.15 -24.55 14.2 -26.6 L14.25 -26.7 31.4 -40.9 M26.15 15.95 L39.35 31.15 Q36.25 31.45 33.95 33.7 31.35 36.35 31.35 40.1 L31.4 41.1 Q21.95 34.15 13.5 27.2 15.9 26.0 18.2 24.3 L21.6 21.35 Q24.15 18.75 26.0 15.9 L26.15 15.95 M-13.5 26.85 L-30.65 40.2 -30.65 40.1 Q-30.65 36.35 -33.3 33.7 -35.9 31.1 -39.65 31.1 L-40.6 31.15 -26.65 14.1 Q-23.75 18.45 -20.85 21.35 L-17.45 24.3 -13.5 26.85 M-25.7 -14.95 L-39.65 -30.9 -37.7 -31.1 Q-35.2 -31.6 -33.3 -33.55 -30.65 -36.15 -30.65 -39.9 L-30.7 -40.9 -13.7 -26.8 -13.5 -26.65 -13.5 -26.6 Q-17.45 -24.55 -20.85 -21.1 -22.95 -19.05 -24.5 -16.8 L-25.7 -14.95" fill="#cccccc" fill-rule="evenodd" stroke="none"/>
      <path d="M26.4 -14.95 L26.4 -14.9 Q30.35 -8.25 30.35 0.1 30.35 8.85 26.0 15.85 L26.15 15.95 26.0 15.9 Q24.15 18.75 21.6 21.35 L18.2 24.3 Q15.9 26.0 13.5 27.2 L13.45 27.25 Q7.45 30.1 0.35 30.1 -7.25 30.1 -13.5 26.85 L-4.25 9.0 -13.5 26.85 -17.45 24.3 -20.85 21.35 Q-23.75 18.45 -26.65 14.1 -29.65 8.45 -29.65 0.1 -29.65 -8.25 -25.7 -14.9 L-25.7 -14.95 -24.5 -16.8 Q-22.95 -19.05 -20.85 -21.1 -17.45 -24.55 -13.5 -26.6 -7.25 -29.9 0.35 -29.9 7.95 -29.9 14.2 -26.65 L14.25 -26.7 14.2 -26.6 Q18.15 -24.55 21.6 -21.1 24.45 -18.25 26.4 -14.95 M14.2 -26.65 L14.2 -26.6 4.95 -8.75 14.2 -26.6 14.2 -26.65 M8.8 -5.25 L7.4 -6.95 Q6.25 -8.1 4.95 -8.75 2.85 -9.9 0.35 -9.85 -2.35 -9.9 -4.5 -8.65 -5.7 -8.0 -6.75 -6.95 -7.8 -5.9 -8.45 -4.65 -9.65 -2.5 -9.65 0.15 -9.65 2.4 -8.75 4.35 L-26.65 14.1 -8.75 4.35 Q-8.05 5.85 -6.75 7.15 L-4.25 9.0 Q-2.2 10.1 0.35 10.15 2.55 10.1 4.45 9.25 6.05 8.5 7.4 7.15 L8.7 5.6 Q10.35 3.2 10.35 0.15 10.35 -2.9 8.8 -5.25 L26.4 -14.9 8.8 -5.25 M26.0 15.9 L8.7 5.6 26.0 15.9 M13.45 27.25 L4.45 9.25 13.45 27.25 M-25.7 -14.9 L-8.45 -4.65 -25.7 -14.9 M15.35 0.1 L25.35 5.1 25.35 -4.9 15.35 0.1 M-13.5 -26.6 L-4.5 -8.65 -13.5 -26.6 M-24.6 5.1 L-24.5 5.05 -14.6 0.1 -24.6 -4.9 -24.6 5.1" fill="#999999" fill-rule="evenodd" stroke="none"/>
      <path d="M2.45 -2.05 Q1.65 -2.9 0.35 -2.9 -0.9 -2.9 -1.8 -2.05 -2.65 -1.15 -2.65 0.1 -2.65 1.4 -1.8 2.2 -0.9 3.1 0.35 3.1 1.65 3.1 2.45 2.2 3.35 1.4 3.35 0.1 3.35 -1.15 2.45 -2.05 3.35 -1.15 3.35 0.1 3.35 1.4 2.45 2.2 1.65 3.1 0.35 3.1 -0.9 3.1 -1.8 2.2 -2.65 1.4 -2.65 0.1 -2.65 -1.15 -1.8 -2.05 -0.9 -2.9 0.35 -2.9 1.65 -2.9 2.45 -2.05 M-4.5 -8.65 Q-2.35 -9.9 0.35 -9.85 2.85 -9.9 4.95 -8.75 6.25 -8.1 7.4 -6.95 L8.8 -5.25 Q10.35 -2.9 10.35 0.15 10.35 3.2 8.7 5.6 L7.4 7.15 Q6.05 8.5 4.45 9.25 2.55 10.1 0.35 10.15 -2.2 10.1 -4.25 9.0 L-6.75 7.15 Q-8.05 5.85 -8.75 4.35 -9.65 2.4 -9.65 0.15 -9.65 -2.5 -8.45 -4.65 -7.8 -5.9 -6.75 -6.95 -5.7 -8.0 -4.5 -8.65" fill="#0000ff" fill-rule="evenodd" stroke="none"/>
      <path d="M15.35 0.1 L25.35 -4.9 25.35 5.1 15.35 0.1 M-24.6 5.1 L-24.6 -4.9 -14.6 0.1 -24.5 5.05 -24.6 5.1" fill="#ffff99" fill-rule="evenodd" stroke="none"/>
      <path d="M40.35 -30.9 L26.4 -14.95 26.4 -14.9 Q30.35 -8.25 30.35 0.1 30.35 8.85 26.0 15.85 L26.15 15.95 M31.4 41.1 Q21.95 34.15 13.5 27.2 L13.45 27.25 Q7.45 30.1 0.35 30.1 -7.25 30.1 -13.5 26.85 L-30.65 40.2 M-40.6 31.15 L-26.65 14.1 Q-29.65 8.45 -29.65 0.1 -29.65 -8.25 -25.7 -14.9 L-25.7 -14.95 -39.65 -30.9 M-30.7 -40.9 L-13.7 -26.8 M-13.5 -26.6 Q-7.25 -29.9 0.35 -29.9 7.95 -29.9 14.2 -26.65 L14.25 -26.7 31.4 -40.9 M4.95 -8.75 L14.2 -26.6 14.2 -26.65 M14.2 -26.6 Q18.15 -24.55 21.6 -21.1 24.45 -18.25 26.4 -14.95 M8.8 -5.25 L26.4 -14.9 M26.0 15.9 Q24.15 18.75 21.6 21.35 L18.2 24.3 Q15.9 26.0 13.5 27.2 M8.7 5.6 L26.0 15.9 M4.45 9.25 L13.45 27.25 M-4.25 9.0 L-13.5 26.85 -17.45 24.3 -20.85 21.35 Q-23.75 18.45 -26.65 14.1 L-8.75 4.35 M-8.45 -4.65 L-25.7 -14.9 M15.35 0.1 L25.35 -4.9 25.35 5.1 15.35 0.1 M-13.5 -26.6 Q-17.45 -24.55 -20.85 -21.1 -22.95 -19.05 -24.5 -16.8 L-25.7 -14.95 M-4.5 -8.65 L-13.5 -26.6 M-24.6 5.1 L-24.6 -4.9 -14.6 0.1 -24.5 5.05 -24.6 5.1" fill="none" stroke="#666666" stroke-linecap="round" stroke-linejoin="round" stroke-width="2.0"/>
      <path d="M-4.5 -8.65 Q-2.35 -9.9 0.35 -9.85 2.85 -9.9 4.95 -8.75 6.25 -8.1 7.4 -6.95 L8.8 -5.25 Q10.35 -2.9 10.35 0.15 10.35 3.2 8.7 5.6 L7.4 7.15 Q6.05 8.5 4.45 9.25 2.55 10.1 0.35 10.15 -2.2 10.1 -4.25 9.0 L-6.75 7.15 Q-8.05 5.85 -8.75 4.35 -9.65 2.4 -9.65 0.15 -9.65 -2.5 -8.45 -4.65 -7.8 -5.9 -6.75 -6.95 -5.7 -8.0 -4.5 -8.65" fill="none" stroke="#cccccc" stroke-linecap="round" stroke-linejoin="round" stroke-width="2.0"/>
      <path d="M2.45 -2.05 Q3.35 -1.15 3.35 0.1 3.35 1.4 2.45 2.2 1.65 3.1 0.35 3.1 -0.9 3.1 -1.8 2.2 -2.65 1.4 -2.65 0.1 -2.65 -1.15 -1.8 -2.05 -0.9 -2.9 0.35 -2.9 1.65 -2.9 2.45 -2.05 Z" fill="none" stroke="#00ff00" stroke-linecap="round" stroke-linejoin="round" stroke-width="2.0"/>
    </g>
    <g id="text0" transform="matrix(1.0, 0.0, 0.0, 1.0, -1.95, -3.45)">
      <g transform="matrix(1.0, 0.0, 0.0, 1.0, 0.0, 0.0)">
        <use fill="#00ff00" height="16.35" transform="matrix(0.0195, 0.0, 0.0, 0.0195, 0.0, 19.0)" width="17.25" xlink:href="#font_Trebuchet_MS_10"/>
      </g>
    </g>
    <g id="font_Trebuchet_MS_10">
      <path d="M249.0 0.0 L349.0 0.0 349.0 -735.5 319.0 -735.5 Q284.0 -690.5 220.5 -640.5 156.5 -590.5 100.0 -562.0 L100.0 -468.5 249.0 -561.5 249.0 0.0" fill-rule="evenodd" stroke="none"/>
    </g>
    <g id="text1" transform="matrix(1.0, 0.0, 0.0, 1.0, -0.6, -3.25)">
      <g transform="matrix(1.0, 0.0, 0.0, 1.0, 0.0, 0.0)">
        <use fill="#00ff00" height="16.55" transform="matrix(0.0195, 0.0, 0.0, 0.0195, 0.0, 19.0)" width="18.6" xlink:href="#font_Trebuchet_MS_20"/>
      </g>
    </g>
    <g id="font_Trebuchet_MS_20">
      <path d="M34.5 0.0 L484.5 0.0 484.5 -90.0 197.5 -90.0 362.0 -351.0 Q441.0 -476.5 441.0 -559.0 441.0 -648.0 381.5 -696.5 322.0 -745.5 216.5 -745.5 146.0 -745.5 96.5 -716.5 46.5 -687.5 29.5 -638.5 L94.0 -585.5 Q110.0 -618.0 145.5 -639.0 181.0 -660.5 221.5 -660.5 336.0 -660.5 336.0 -559.0 336.0 -482.0 264.0 -371.5 149.5 -195.5 34.5 -20.0 L34.5 0.0" fill-rule="evenodd" stroke="none"/>
    </g>
    <g id="text2" transform="matrix(1.0, 0.0, 0.0, 1.0, -1.05, -3.25)">
      <g transform="matrix(1.0, 0.0, 0.0, 1.0, 0.0, 0.0)">
        <use fill="#00ff00" height="16.75" transform="matrix(0.0195, 0.0, 0.0, 0.0195, 0.0, 19.0)" width="18.15" xlink:href="#font_Trebuchet_MS_30"/>
      </g>
    </g>
    <g id="font_Trebuchet_MS_30">
      <path d="M54.5 -52.0 Q82.0 -26.5 129.0 -8.0 176.0 10.0 225.0 10.0 341.5 10.0 406.0 -45.5 470.5 -101.0 470.5 -203.0 470.5 -273.0 433.5 -322.0 396.0 -371.5 333.0 -392.0 378.5 -408.0 412.5 -455.0 446.0 -502.0 446.0 -563.0 446.0 -643.0 385.5 -694.0 325.0 -745.5 229.0 -745.5 120.0 -745.5 73.5 -685.0 L118.0 -617.0 Q156.5 -660.5 221.5 -660.5 341.0 -660.5 341.0 -543.5 341.0 -431.5 214.0 -431.5 L209.5 -431.5 209.5 -350.5 217.5 -350.5 Q284.5 -350.5 325.0 -311.5 365.5 -273.0 365.5 -211.0 365.5 -75.0 226.5 -75.0 151.5 -75.0 102.5 -129.0 L54.5 -52.0" fill-rule="evenodd" stroke="none"/>
    </g>
    <g id="text3" transform="matrix(1.0, 0.0, 0.0, 1.0, -0.25, -3.45)">
      <g transform="matrix(1.0, 0.0, 0.0, 1.0, 0.0, 0.0)">
        <use fill="#00ff00" height="16.35" transform="matrix(0.0195, 0.0, 0.0, 0.0195, 0.0, 19.0)" width="18.95" xlink:href="#font_Trebuchet_MS_40"/>
      </g>
    </g>
    <g id="font_Trebuchet_MS_40">
      <path d="M346.0 -536.0 L346.0 -276.5 131.0 -276.5 Q238.5 -406.0 346.0 -536.0 M441.0 -199.5 L515.0 -199.5 515.0 -276.5 441.0 -276.5 441.0 -735.5 406.0 -735.5 12.5 -256.5 12.5 -199.5 346.0 -199.5 346.0 0.0 441.0 0.0 441.0 -199.5" fill-rule="evenodd" stroke="none"/>
    </g>
  </defs>
</svg>
