<?xml version="1.0" encoding="UTF-8" standalone="no"?>
<svg xmlns:xlink="http://www.w3.org/1999/xlink" height="4.25px" width="38.7px" xmlns="http://www.w3.org/2000/svg">
  <g transform="matrix(1.0, 0.0, 0.0, 1.0, 0.75, 0.6)">
    <use data-characterId="152" height="4.25" transform="matrix(1.0, 0.0, 0.0, 1.0, -0.75, -0.6)" width="38.7" xlink:href="#shape0"/>
  </g>
  <defs>
    <g id="shape0" transform="matrix(1.0, 0.0, 0.0, 1.0, 0.75, 0.6)">
      <path d="M37.45 -0.1 L37.45 3.15 -0.25 3.15 -0.25 -0.1 37.45 -0.1" fill="#0066cc" fill-rule="evenodd" stroke="none"/>
      <path d="M37.45 -0.1 L37.45 3.15 -0.25 3.15 -0.25 -0.1 37.45 -0.1 Z" fill="none" stroke="#336699" stroke-linecap="butt" stroke-linejoin="miter-clip" stroke-miterlimit="3.0" stroke-width="1.0"/>
    </g>
  </defs>
</svg>
