<?xml version="1.0" encoding="UTF-8" standalone="no"?>
<svg xmlns:xlink="http://www.w3.org/1999/xlink" height="35.0px" width="35.5px" xmlns="http://www.w3.org/2000/svg">
  <g transform="matrix(1.0, 0.0, 0.0, 1.0, 27.5, 15.0)">
    <use data-characterId="1078" height="35.0" transform="matrix(1.0, 0.0, 0.0, 1.0, -27.5, -15.0)" width="35.5" xlink:href="#shape0"/>
  </g>
  <defs>
    <g id="shape0" transform="matrix(1.0, 0.0, 0.0, 1.0, 27.5, 15.0)">
      <path d="M1.5 -14.0 L1.0 -14.0 1.0 -13.5 M0.5 -14.0 L1.0 -14.0 1.0 -14.5 M6.5 19.0 L7.0 19.0 7.0 18.5 M7.5 19.0 L7.0 19.0 7.0 19.5" fill="none" stroke="#ffffff" stroke-linecap="round" stroke-linejoin="round" stroke-width="1.0"/>
      <path d="M0.5 0.0 L0.0 0.0 0.0 0.5 M-0.5 0.0 L0.0 0.0 0.0 -0.5" fill="none" stroke="#ffffcc" stroke-linecap="round" stroke-linejoin="round" stroke-width="1.0"/>
      <path d="M-27.0 14.0 L-26.5 14.0 -26.5 13.5 M-26.05 14.0 L-26.5 14.0 -26.5 14.5" fill="none" stroke="#ffffff" stroke-linecap="round" stroke-linejoin="round" stroke-width="1.0"/>
    </g>
  </defs>
</svg>
