<?xml version="1.0" encoding="UTF-8" standalone="no"?>
<svg xmlns:xlink="http://www.w3.org/1999/xlink" height="168.0px" width="168.0px" xmlns="http://www.w3.org/2000/svg">
  <g transform="matrix(1.0, 0.0, 0.0, 1.0, 84.0, 84.0)">
    <use data-characterId="982" height="168.0" transform="matrix(1.0, 0.0, 0.0, 1.0, -84.0, -84.0)" width="168.0" xlink:href="#shape0"/>
  </g>
  <defs>
    <g id="shape0" transform="matrix(1.0, 0.0, 0.0, 1.0, 84.0, 84.0)">
      <path d="M58.65 -58.65 Q83.0 -34.35 83.0 0.0 83.0 34.35 58.65 58.7 34.4 83.0 0.0 83.0 -34.4 83.0 -58.75 58.7 -83.0 34.35 -83.0 0.0 -83.0 -34.35 -58.75 -58.65 -34.4 -83.0 0.0 -83.0 34.4 -83.0 58.65 -58.65 Z" fill="none" stroke="#00aaff" stroke-linecap="round" stroke-linejoin="round" stroke-width="2.0"/>
    </g>
  </defs>
</svg>
