<?xml version="1.0" encoding="UTF-8" standalone="no"?>
<svg xmlns:xlink="http://www.w3.org/1999/xlink" height="126.5px" width="1398.85px" xmlns="http://www.w3.org/2000/svg">
  <g transform="matrix(1.0, 0.0, 0.0, 1.0, 243.05, 61.25)">
    <use data-characterId="398" height="550.0" transform="matrix(0.0385, 0.0, 0.0, 0.23, 38.4757, -61.2488)" width="700.0" xlink:href="#shape0"/>
    <use data-characterId="1565" height="97.0" transform="matrix(1.0, 0.0, 0.0, 1.0, -41.45, -51.0)" width="213.0" xlink:href="#shape1"/>
  </g>
  <defs>
    <g id="shape0" transform="matrix(1.0, 0.0, 0.0, 1.0, 350.0, 275.0)">
      <path d="M350.0 -275.0 L350.0 275.0 -350.0 275.0 -350.0 -275.0 350.0 -275.0" fill="#000000" fill-rule="evenodd" stroke="none"/>
    </g>
    <g id="shape1" transform="matrix(1.0, 0.0, 0.0, 1.0, 108.0, 50.0)">
      <path d="M13.4 -13.6 L14.1 -13.3 14.4 -12.6 14.1 -11.85 13.4 -11.6 Q12.95 -11.6 12.7 -11.85 12.4 -12.2 12.4 -12.6 12.4 -13.0 12.7 -13.3 12.95 -13.6 13.4 -13.6 M103.5 -45.5 Q103.9 -45.5 104.2 -45.2 L104.5 -44.5 104.2 -43.8 Q103.9 -43.5 103.5 -43.5 103.1 -43.5 102.8 -43.8 102.5 -44.1 102.5 -44.5 102.5 -44.9 102.8 -45.2 L103.5 -45.5 M98.5 46.5 L97.8 46.2 Q97.5 45.9 97.5 45.5 97.5 45.1 97.8 44.8 98.1 44.5 98.5 44.5 98.9 44.5 99.2 44.8 L99.5 45.5 99.2 46.2 98.5 46.5 M-105.5 -48.5 Q-105.5 -48.1 -105.8 -47.8 -106.1 -47.5 -106.5 -47.5 -106.9 -47.5 -107.2 -47.8 L-107.5 -48.5 -107.2 -49.2 -106.5 -49.5 -105.8 -49.2 Q-105.5 -48.9 -105.5 -48.5 M-20.2 -24.2 Q-19.9 -24.5 -19.5 -24.5 L-18.8 -24.2 Q-18.5 -23.9 -18.5 -23.5 -18.5 -23.1 -18.8 -22.8 -19.1 -22.5 -19.5 -22.5 -19.9 -22.5 -20.2 -22.8 L-20.5 -23.5 -20.2 -24.2 M-82.8 29.8 Q-82.5 30.1 -82.5 30.5 -82.5 30.9 -82.8 31.2 -83.1 31.5 -83.5 31.5 L-84.2 31.2 -84.5 30.5 -84.2 29.8 Q-83.9 29.5 -83.5 29.5 -83.1 29.5 -82.8 29.8" fill="#cccccc" fill-rule="evenodd" stroke="none"/>
      <path d="M13.4 -13.6 L14.1 -13.3 14.4 -12.6 14.1 -11.85 13.4 -11.6 Q12.95 -11.6 12.7 -11.85 12.4 -12.2 12.4 -12.6 12.4 -13.0 12.7 -13.3 12.95 -13.6 13.4 -13.6 M103.5 -45.5 Q103.9 -45.5 104.2 -45.2 L104.5 -44.5 104.2 -43.8 Q103.9 -43.5 103.5 -43.5 103.1 -43.5 102.8 -43.8 102.5 -44.1 102.5 -44.5 102.5 -44.9 102.8 -45.2 L103.5 -45.5 M98.5 46.5 L97.8 46.2 Q97.5 45.9 97.5 45.5 97.5 45.1 97.8 44.8 98.1 44.5 98.5 44.5 98.9 44.5 99.2 44.8 L99.5 45.5 99.2 46.2 98.5 46.5 M-105.5 -48.5 Q-105.5 -48.1 -105.8 -47.8 -106.1 -47.5 -106.5 -47.5 -106.9 -47.5 -107.2 -47.8 L-107.5 -48.5 -107.2 -49.2 -106.5 -49.5 -105.8 -49.2 Q-105.5 -48.9 -105.5 -48.5 M-20.2 -24.2 Q-19.9 -24.5 -19.5 -24.5 L-18.8 -24.2 Q-18.5 -23.9 -18.5 -23.5 -18.5 -23.1 -18.8 -22.8 -19.1 -22.5 -19.5 -22.5 -19.9 -22.5 -20.2 -22.8 L-20.5 -23.5 -20.2 -24.2 M-82.8 29.8 Q-82.5 30.1 -82.5 30.5 -82.5 30.9 -82.8 31.2 -83.1 31.5 -83.5 31.5 L-84.2 31.2 -84.5 30.5 -84.2 29.8 Q-83.9 29.5 -83.5 29.5 -83.1 29.5 -82.8 29.8 Z" fill="none" stroke="#ffffff" stroke-linecap="round" stroke-linejoin="round" stroke-width="1.0"/>
    </g>
  </defs>
</svg>
