<?xml version="1.0" encoding="UTF-8" standalone="no"?>
<svg xmlns:xlink="http://www.w3.org/1999/xlink" height="29.85px" width="26.0px" xmlns="http://www.w3.org/2000/svg">
  <g transform="matrix(1.0, 0.0, 0.0, 1.0, 13.0, 13.0)">
    <use data-characterId="622" height="26.05" transform="matrix(1.0, 0.0, 0.0, 1.0, -13.0, -13.0)" width="26.0" xlink:href="#shape0"/>
    <use data-characterId="613" data-characterName="sc313_fla.regshipengine_130" height="5.45" id="Eng1" transform="matrix(0.8667, 0.0, 0.0, 0.9286, -5.1667, 11.7857)" width="5.05" xlink:href="#sprite0"/>
    <use data-characterId="613" data-characterName="sc313_fla.regshipengine_130" height="5.45" id="Eng2" transform="matrix(0.8667, 0.0, 0.0, 0.9286, 0.8333, 11.7857)" width="5.05" xlink:href="#sprite0"/>
  </g>
  <defs>
    <g id="shape0" transform="matrix(1.0, 0.0, 0.0, 1.0, 13.0, 13.0)">
      <path d="M1.9 -7.75 L1.85 -7.75 -0.05 -6.05 -1.9 -7.75 -1.9 -11.5 -1.0 -13.0 0.95 -13.0 1.9 -11.5 1.9 -7.75" fill="#0033cc" fill-rule="evenodd" stroke="none"/>
      <path d="M5.2 -8.45 L4.9 -8.45 5.1 -10.75 6.05 -10.75 6.2 -8.45 5.9 -8.45 5.2 -8.45 M7.7 -7.1 L7.4 -7.1 7.55 -9.35 8.65 -9.35 8.8 -7.1 8.45 -7.1 7.7 -7.1 M-5.8 -8.4 L-6.15 -8.4 -5.95 -10.7 -4.95 -10.7 -4.8 -8.4 -5.15 -8.4 -5.8 -8.4 M-8.25 -7.1 L-8.65 -7.1 -8.45 -9.3 -7.5 -9.3 -7.35 -7.1 -7.55 -7.1 -8.25 -7.1" fill="#ff0000" fill-rule="evenodd" stroke="none"/>
      <path d="M5.9 -8.45 L5.9 -4.35 5.9 -4.0 5.2 -4.3 5.2 -8.45 5.9 -8.45 M8.45 -3.5 L8.45 -3.05 7.7 -3.35 7.7 -7.1 8.45 -7.1 8.45 -3.5 M1.9 -7.75 L1.9 -11.5 2.7 -5.0 2.7 1.05 1.9 -3.95 1.95 -3.95 1.9 -7.75 M-1.9 -11.5 L-1.9 -7.75 -1.9 -3.95 -2.65 0.85 -2.7 -5.1 -1.9 -11.5 M-6.7 8.7 L-6.75 9.5 -6.85 9.0 -6.75 9.5 -7.1 9.45 -7.2 9.65 -10.75 0.35 -8.55 -2.65 -6.85 9.0 -6.7 8.7 M-4.9 9.8 L-4.65 8.75 -4.15 5.85 -1.95 5.85 -1.4 8.75 -1.25 9.5 -0.85 11.45 -5.2 11.45 -4.9 9.8 M1.3 9.5 L1.4 8.7 2.0 5.85 4.15 5.85 4.75 8.7 4.9 9.8 5.25 11.45 0.9 11.45 1.3 9.5 M10.8 0.35 L7.25 9.65 7.2 9.65 7.15 9.45 8.75 -2.5 10.8 0.35 M1.4 8.7 L4.75 8.7 1.4 8.7 M-5.8 -8.4 L-5.15 -8.4 -5.1 -4.25 -5.8 -3.95 -5.8 -4.35 -5.8 -8.4 M-8.25 -7.1 L-7.55 -7.1 -7.55 -3.35 -8.25 -3.0 -8.25 -7.1 M-6.85 9.0 L-7.1 9.45 -6.85 9.0 M-4.65 8.75 L-1.4 8.75 -4.65 8.75" fill="#cccccc" fill-rule="evenodd" stroke="none"/>
      <path d="M5.2 -4.3 L5.9 -4.0 6.25 -3.9 7.15 9.45 2.7 1.05 2.7 -5.0 5.2 -4.3 M-2.65 0.85 L-6.7 8.7 -5.9 -3.95 -5.8 -3.95 -5.1 -4.25 -2.7 -5.1 -2.65 0.85 M5.25 11.45 L4.25 13.0 1.85 13.0 0.9 11.45 5.25 11.45 M-5.2 11.45 L-0.85 11.45 -1.85 13.0 -4.25 13.0 -5.2 11.45" fill="#999999" fill-rule="evenodd" stroke="none"/>
      <path d="M10.8 0.35 L13.0 9.65 7.25 9.65 10.8 0.35 M-7.2 9.65 L-13.0 9.65 -10.75 0.35 -7.2 9.65" fill="#018eb1" fill-rule="evenodd" stroke="none"/>
      <path d="M1.85 -7.75 L1.9 -7.75 1.95 -3.95 1.9 -3.95 0.0 -2.25 -1.9 -3.95 -1.9 -7.75 -0.05 -6.05 1.85 -7.75" fill="#a09f01" fill-rule="evenodd" stroke="none"/>
      <path d="M6.25 -3.9 L7.6 -3.45 7.6 -3.35 8.25 -3.05 8.75 -2.5 7.15 9.45 6.25 -3.9 M-5.9 -3.95 L-6.7 8.7 -6.85 9.0 -8.55 -2.65 -8.25 -3.0 -7.55 -3.35 -5.9 -3.95" fill="#b7b7b7" fill-rule="evenodd" stroke="none"/>
      <path d="M-1.9 -3.95 L0.0 -2.25 1.9 -3.95 2.7 1.05 7.15 9.45 4.95 9.8 4.9 9.8 4.75 8.7 4.15 5.85 2.0 5.85 1.4 8.7 1.3 9.5 -1.25 9.5 -1.4 8.75 -1.95 5.85 -4.15 5.85 -4.65 8.75 -4.9 9.8 -6.75 9.5 -6.7 8.7 -2.65 0.85 -1.9 -3.95" fill="url(#gradient0)" fill-rule="evenodd" stroke="none"/>
      <path d="M5.2 -8.45 L4.9 -8.45 5.1 -10.75 6.05 -10.75 6.2 -8.45 5.9 -8.45 5.2 -8.45 M7.4 -7.1 L7.55 -9.35 8.65 -9.35 8.8 -7.1 M8.45 -7.1 L7.7 -7.1 M-5.15 -8.4 L-4.8 -8.4 -4.95 -10.7 -5.95 -10.7 -6.15 -8.4 -5.8 -8.4 -5.15 -8.4 M-8.25 -7.1 L-7.55 -7.1 M-7.35 -7.1 L-7.5 -9.3 -8.45 -9.3 -8.65 -7.1" fill="none" stroke="#ff0000" stroke-linecap="round" stroke-linejoin="round" stroke-width="0.1"/>
      <path d="M5.9 -4.35 L6.25 -3.9 7.15 9.45 2.7 1.05 1.9 -3.95 1.95 -3.95 1.9 -7.75 1.9 -11.5 M7.6 -3.45 L7.6 -3.35 8.25 -3.05 M8.75 -2.5 L8.45 -3.5 M7.7 -7.1 L7.4 -7.1 M8.8 -7.1 L8.45 -7.1 M5.2 -4.3 L5.9 -4.0 M-1.9 -11.5 L-1.9 -7.75 -0.05 -6.05 1.85 -7.75 M1.9 -3.95 L0.0 -2.25 -1.9 -3.95 -2.65 0.85 -6.7 8.7 -6.75 9.5 -6.85 9.0 -8.55 -2.65 M-4.9 9.8 L-4.65 8.75 -4.15 5.85 -1.95 5.85 -1.4 8.75 -1.25 9.5 M1.3 9.5 L1.4 8.7 2.0 5.85 4.15 5.85 4.75 8.7 4.9 9.8 4.95 9.8 M10.8 0.35 L7.25 9.65 7.2 9.65 7.15 9.45 8.75 -2.5 M4.75 8.7 L1.4 8.7 M4.25 13.0 L1.85 13.0 M0.9 11.45 L5.25 11.45 M2.7 -5.0 L2.7 1.05 M-8.65 -7.1 L-8.25 -7.1 M-7.55 -7.1 L-7.35 -7.1 M-5.8 -3.95 L-5.1 -4.25 M-5.9 -3.95 L-6.7 8.7 -6.85 9.0 -7.1 9.45 -7.2 9.65 -10.75 0.35 M-7.55 -3.35 L-8.25 -3.0 M-5.9 -3.95 L-5.8 -4.35 M-1.9 -3.95 L-1.9 -7.75 M-1.4 8.75 L-4.65 8.75 M-5.2 11.45 L-0.85 11.45 M-2.7 -5.1 L-2.65 0.85" fill="none" stroke="#000000" stroke-linecap="round" stroke-linejoin="round" stroke-width="0.1"/>
    </g>
    <radialGradient cx="0" cy="0" gradientTransform="matrix(0.0116, 0.0, 0.0, 0.0116, 0.2, 2.95)" gradientUnits="userSpaceOnUse" id="gradient0" r="819.2" spreadMethod="pad">
      <stop offset="0.0" stop-color="#6d6db4"/>
      <stop offset="1.0" stop-color="#847dc6"/>
    </radialGradient>
    <g id="sprite0" transform="matrix(1.0, 0.0, 0.0, 1.0, 2.5, 0.5)">
      <use data-characterId="606" height="1.0" transform="matrix(1.0, 0.0, 0.0, 1.0, -2.45, -0.5)" width="5.0" xlink:href="#shape1"/>
    </g>
    <g id="shape1" transform="matrix(1.0, 0.0, 0.0, 1.0, 2.45, 0.5)">
      <path d="M-1.95 0.0 L2.05 0.0" fill="none" stroke="#666666" stroke-linecap="round" stroke-linejoin="round" stroke-width="1.0"/>
    </g>
  </defs>
</svg>
