<?xml version="1.0" encoding="UTF-8" standalone="no"?>
<svg xmlns:xlink="http://www.w3.org/1999/xlink" height="76.95px" width="76.15px" xmlns="http://www.w3.org/2000/svg">
  <g transform="matrix(1.0, 0.0, 0.0, 1.0, 38.15, 38.45)">
    <use data-characterId="398" height="550.0" transform="matrix(0.1086, 0.0, 0.0, 0.1364, -37.9982, -37.5011)" width="700.0" xlink:href="#shape0"/>
    <use data-characterId="398" height="550.0" transform="matrix(0.1086, 0.0, 0.0, 0.1364, -38.1482, -38.4511)" width="700.0" xlink:href="#shape0"/>
  </g>
  <defs>
    <g id="shape0" transform="matrix(1.0, 0.0, 0.0, 1.0, 350.0, 275.0)">
      <path d="M350.0 -275.0 L350.0 275.0 -350.0 275.0 -350.0 -275.0 350.0 -275.0" fill="#000000" fill-rule="evenodd" stroke="none"/>
    </g>
  </defs>
</svg>
