<?xml version="1.0" encoding="UTF-8" standalone="no"?>
<svg xmlns:xlink="http://www.w3.org/1999/xlink" height="35.0px" width="30.1px" xmlns="http://www.w3.org/2000/svg">
  <g transform="matrix(1.0, 0.0, 0.0, 1.0, 15.0, 17.5)">
    <path d="M-3.15 -11.3 L-3.15 -15.55 -1.55 -17.5 1.65 -17.5 3.3 -15.55 3.3 -11.3 1.65 -9.35 0.9 -9.35 0.75 -11.5 -0.45 -11.5 -0.6 -9.35 -1.55 -9.35 -3.15 -11.3" fill="#0000cc" fill-rule="evenodd" stroke="none"/>
    <path d="M-0.6 -9.35 L-0.45 -11.5 0.75 -11.5 0.9 -9.35 0.95 -8.5 0.55 -8.5 -0.25 -8.5 -0.7 -8.5 -0.6 -9.35" fill="#ff0000" fill-rule="evenodd" stroke="none"/>
    <path d="M-3.15 -11.3 L-1.55 -9.35 -0.6 -9.35 -0.7 -8.5 -0.25 -8.5 -0.2 -3.7 0.6 -3.7 0.55 -8.5 0.95 -8.5 0.9 -9.35 1.65 -9.35 3.3 -11.3 3.35 -7.0 9.0 -4.75 13.35 -1.8 13.35 8.75 6.2 13.35 6.2 13.4 6.6 15.5 1.15 15.5 1.6 12.95 0.05 12.95 0.05 -0.15 -5.95 -0.15 -3.15 -7.0 0.05 -0.15 3.3 -7.05 0.05 -0.15 -3.15 -7.0 -5.95 -0.15 -6.05 13.35 -5.75 11.9 -1.65 11.9 -1.5 12.95 -1.0 15.5 -6.4 15.5 -6.05 13.4 -6.05 13.35 -13.25 8.75 -13.25 -1.8 -8.85 -4.75 -3.15 -7.05 -3.15 -11.3 M6.25 13.35 L6.1 -0.15 0.05 -0.15 6.1 -0.15 6.25 13.35 M3.3 -7.0 L6.1 -0.15 3.3 -7.0 M10.5 0.95 Q9.95 0.2 9.2 0.25 8.4 0.2 7.85 0.95 7.3 1.7 7.3 2.75 7.3 3.75 7.85 4.5 8.4 5.2 9.2 5.2 9.95 5.2 10.5 4.5 11.05 3.75 11.05 2.75 11.05 1.7 10.5 0.95 M1.8 11.9 L5.9 11.9 5.25 8.2 2.5 8.2 1.8 11.9 1.6 12.95 1.8 11.9 M6.2 13.35 L5.9 11.9 6.2 13.35 M-3.15 -7.05 L-3.15 -7.0 -3.15 -7.05 M-7.7 0.95 Q-8.25 0.2 -9.05 0.25 -9.8 0.2 -10.35 0.95 -10.9 1.7 -10.9 2.75 -10.9 3.75 -10.35 4.5 -9.8 5.2 -9.05 5.2 -8.25 5.2 -7.7 4.5 -7.2 3.75 -7.15 2.75 -7.2 1.7 -7.7 0.95" fill="#cccccc" fill-rule="evenodd" stroke="none"/>
    <path d="M0.55 -8.5 L0.6 -3.7 -0.2 -3.7 -0.25 -8.5 0.55 -8.5" fill="#cc6600" fill-rule="evenodd" stroke="none"/>
    <path d="M6.6 15.5 L5.4 17.5 2.35 17.5 1.15 15.5 6.6 15.5 M0.05 12.95 L-1.5 12.95 -1.65 11.9 -2.4 8.2 -5.1 8.2 -5.75 11.9 -6.05 13.35 -5.95 -0.15 0.05 -0.15 0.05 12.95 M-1.0 15.5 L-2.2 17.5 -5.25 17.5 -6.4 15.5 -1.0 15.5" fill="#999999" fill-rule="evenodd" stroke="none"/>
    <path d="M10.5 0.95 Q11.05 1.7 11.05 2.75 11.05 3.75 10.5 4.5 9.95 5.2 9.2 5.2 8.4 5.2 7.85 4.5 7.3 3.75 7.3 2.75 7.3 1.7 7.85 0.95 8.4 0.2 9.2 0.25 9.95 0.2 10.5 0.95 M-7.7 0.95 Q-7.2 1.7 -7.15 2.75 -7.2 3.75 -7.7 4.5 -8.25 5.2 -9.05 5.2 -9.8 5.2 -10.35 4.5 -10.9 3.75 -10.9 2.75 -10.9 1.7 -10.35 0.95 -9.8 0.2 -9.05 0.25 -8.25 0.2 -7.7 0.95" fill="#666666" fill-rule="evenodd" stroke="none"/>
    <path d="M1.8 11.9 L2.5 8.2 5.25 8.2 5.9 11.9 1.8 11.9 M-5.75 11.9 L-5.1 8.2 -2.4 8.2 -1.65 11.9 -5.75 11.9" fill="#00ffff" fill-rule="evenodd" stroke="none"/>
    <path d="M13.35 -1.8 Q16.85 2.7 13.35 8.75 L13.35 -1.8 M-13.25 8.75 Q-16.75 2.7 -13.25 -1.8 L-13.25 8.75" fill="#ff9900" fill-rule="evenodd" stroke="none"/>
    <path d="M-0.6 -9.35 L-0.45 -11.5 0.75 -11.5 0.9 -9.35 0.95 -8.5 0.55 -8.5 -0.25 -8.5 -0.7 -8.5 -0.6 -9.35" fill="none" stroke="#ff0000" stroke-linecap="round" stroke-linejoin="round" stroke-width="0.1"/>
    <path d="M-3.15 -11.3 L-1.55 -9.35 -0.6 -9.35 M0.9 -9.35 L1.65 -9.35 3.3 -11.3 3.35 -7.0 M6.2 13.35 L6.2 13.4 6.6 15.5 1.15 15.5 1.6 12.95 1.8 11.9 5.9 11.9 5.25 8.2 2.5 8.2 1.8 11.9 M-1.5 12.95 L-1.0 15.5 -6.4 15.5 -6.05 13.4 -6.05 13.35 -5.95 -0.15 0.05 -0.15 0.05 12.95 M-3.15 -7.05 L-3.15 -11.3 M0.55 -8.5 L0.6 -3.7 -0.2 -3.7 -0.25 -8.5 M6.1 -0.15 L3.3 -7.0 M0.05 -0.15 L6.1 -0.15 6.25 13.35 M3.3 -7.05 L0.05 -0.15 -3.15 -7.0 -5.95 -0.15 M10.5 0.95 Q9.95 0.2 9.2 0.25 8.4 0.2 7.85 0.95 7.3 1.7 7.3 2.75 7.3 3.75 7.85 4.5 8.4 5.2 9.2 5.2 9.95 5.2 10.5 4.5 11.05 3.75 11.05 2.75 11.05 1.7 10.5 0.95 M5.9 11.9 L6.2 13.35 M-3.15 -7.0 L-3.15 -7.05 M-1.65 11.9 L-2.4 8.2 -5.1 8.2 -5.75 11.9 -1.65 11.9 -1.5 12.95 M-7.7 0.95 Q-7.2 1.7 -7.15 2.75 -7.2 3.75 -7.7 4.5 -8.25 5.2 -9.05 5.2 -9.8 5.2 -10.35 4.5 -10.9 3.75 -10.9 2.75 -10.9 1.7 -10.35 0.95 -9.8 0.2 -9.05 0.25 -8.25 0.2 -7.7 0.95 M-5.75 11.9 L-6.05 13.35" fill="none" stroke="#000000" stroke-linecap="round" stroke-linejoin="round" stroke-width="0.1"/>
    <path d="M1.6 12.95 L0.05 12.95 -1.5 12.95" fill="none" stroke="#cccccc" stroke-linecap="round" stroke-linejoin="round" stroke-width="0.1"/>
  </g>
</svg>
