<?xml version="1.0" encoding="UTF-8" standalone="no"?>
<svg xmlns:xlink="http://www.w3.org/1999/xlink" height="357.2px" width="412.25px" xmlns="http://www.w3.org/2000/svg">
  <g transform="matrix(1.0, 0.0, 0.0, 1.0, 206.15, 178.05)">
    <path d="M11.45 -95.0 L9.25 -116.65 9.25 -116.75 -7.1 -116.75 -9.3 -95.0 -10.25 -86.1 -4.6 -86.1 6.75 -86.1 12.4 -86.1 11.45 -95.0 22.0 -95.0 44.0 -115.0 M44.0 -158.0 L22.0 -178.0 -22.0 -178.0 -44.0 -158.0 M-44.0 -115.0 L-22.0 -95.0 -9.3 -95.0 M89.05 158.95 L72.5 179.1 M31.4 179.1 L14.85 158.95 33.4 158.95 51.95 158.95 70.5 158.95 89.05 158.95 M21.3 133.0 L0.0 133.0 -21.25 133.0 M-14.8 158.95 L-31.35 179.1 M-72.5 179.1 L-89.0 158.95 -70.5 158.95 -51.9 158.95 -33.35 158.95 -14.8 158.95 M7.3 -37.0 L6.75 -86.1 M150.0 28.5 Q150.0 17.95 142.55 10.45 135.05 3.0 124.5 3.0 113.95 3.0 106.5 10.45 99.0 17.95 99.0 28.5 99.0 39.05 106.5 46.5 113.95 54.0 124.5 54.0 135.05 54.0 142.55 46.5 150.0 39.05 150.0 28.5 M79.95 122.25 L70.5 84.35 33.4 84.35 23.95 122.25 M84.0 137.0 L82.0 -1.0 M-4.6 -86.1 L-4.0 -37.0 M-23.95 122.25 L-33.35 84.35 -70.5 84.35 -79.9 122.25 M-106.5 46.5 Q-113.95 54.0 -124.5 54.0 -135.05 54.0 -142.55 46.5 -150.0 39.05 -150.0 28.5 -150.0 17.95 -142.55 10.45 -135.05 3.0 -124.5 3.0 -113.95 3.0 -106.5 10.45 -99.0 17.95 -99.0 28.5 -99.0 39.05 -106.5 46.5 M-82.0 -1.0 L-84.0 137.0" fill="none" stroke="#cccccc" stroke-linecap="round" stroke-linejoin="round" stroke-width="0.1"/>
    <path d="M44.0 -115.0 L44.0 -158.0 M-44.0 -158.0 L-44.0 -115.0 -44.0 -71.0 0.0 -1.0 0.0 -7.7 M44.0 -115.0 L44.0 -71.0 44.45 -70.85 122.0 -48.0 182.0 -18.0 Q230.15 28.6 182.0 90.0 L84.0 137.0 M83.65 137.15 L89.05 158.95 M72.5 179.1 L62.05 179.1 51.95 179.1 41.5 179.1 31.4 179.1 M14.85 158.95 L21.3 133.0 23.95 122.25 79.95 122.25 83.6 137.0 84.05 137.1 M-21.25 133.0 L-14.8 158.95 M-31.35 179.1 L-41.45 179.1 -51.9 179.1 -62.05 179.1 -72.5 179.1 M-89.0 158.95 L-83.6 137.15 -83.6 137.0 -84.0 137.1 M-84.0 137.0 L-182.0 90.0 Q-230.15 28.6 -182.0 -18.0 L-122.0 -48.0 -44.4 -70.95 -44.0 -71.0 -44.45 -70.85 M44.0 -71.0 L0.0 -1.0 82.0 -1.0 44.0 -71.0 M70.5 158.95 L62.05 179.1 M51.95 179.1 L51.95 158.95 M33.4 158.95 L41.5 179.1 M83.6 137.0 L83.65 137.15 M0.0 -1.0 L0.0 133.0 M-82.0 -1.0 L-44.0 -71.0 M-4.0 -37.0 L7.0 -37.0 M-79.9 122.25 L-23.95 122.25 -21.25 133.0 M-70.5 158.95 L-62.05 179.1 M-51.9 158.95 L-51.9 179.1 M-33.35 158.95 L-41.45 179.1 M-83.6 137.0 L-79.9 122.25 M0.0 -1.0 L-82.0 -1.0" fill="none" stroke="#cccccc" stroke-linecap="round" stroke-linejoin="round" stroke-width="0.1"/>
    <path d="M84.0 137.0 L84.05 137.1 83.65 137.15 M-83.6 137.15 L-84.0 137.1 -84.0 137.0" fill="none" stroke="#cccccc" stroke-linecap="round" stroke-linejoin="round" stroke-width="1.0"/>
  </g>
</svg>
