<?xml version="1.0" encoding="UTF-8" standalone="no"?>
<svg xmlns:xlink="http://www.w3.org/1999/xlink" height="325.55px" width="325.2px" xmlns="http://www.w3.org/2000/svg">
  <g transform="matrix(1.0, 0.0, 0.0, 1.0, 162.1, 162.5)">
    <path d="M46.6 -152.15 L44.25 -128.2 48.55 -128.2 57.2 -128.2 61.5 -128.2 59.15 -152.15 46.6 -152.15 M-23.75 -110.9 L0.5 -96.1 25.4 -111.1 25.35 -131.1 25.1 -131.4 12.7 -152.2 -12.15 -152.2 -24.4 -131.1 M57.65 -68.15 L57.65 -67.35 M49.05 -68.15 L49.05 -67.75 M49.05 -68.15 L48.55 -128.2 M25.5 -68.15 L25.65 -25.4 35.85 25.95 35.85 26.0 36.0 26.65 93.45 122.3 94.75 124.5 95.0 124.5 M25.5 -68.15 L25.4 -111.1 M57.65 -68.15 L57.2 -128.2 M19.2 113.8 L26.4 81.2 54.8 81.2 62.05 113.8 M68.95 145.35 L56.35 162.7 M24.9 162.7 L12.25 145.35 26.4 145.35 40.6 145.35 54.8 145.35 68.95 145.35 M17.1 123.35 L-15.45 123.35 M-10.5 145.65 L-23.15 163.0 M-54.6 163.0 L-67.25 145.65 -53.05 145.65 -38.9 145.65 -24.65 145.65 -10.5 145.65 M-91.7 122.65 L-93.0 124.8 M-56.75 -67.8 L-56.75 -67.3 M-56.75 -67.8 L-56.45 -104.0 M-48.1 -67.8 L-47.8 -104.0 M-24.35 -110.8 L-24.5 -67.8 -24.65 -25.05 -34.8 26.3 M-60.3 114.1 L-53.05 81.5 -24.65 81.5 -17.5 114.1 M-92.35 122.55 L-34.95 27.0" fill="none" stroke="#cccccc" stroke-linecap="round" stroke-linejoin="round" stroke-width="0.1"/>
    <path d="M12.7 -105.1 L13.05 -105.1 M49.05 -46.75 L49.05 -46.2 M163.0 -54.45 L161.05 -42.7 M62.05 113.8 L64.85 126.6 64.9 126.8 68.95 145.35 M95.0 124.5 L147.7 37.3 161.05 -49.65 M65.05 126.55 L64.9 126.8 M56.35 162.7 L48.35 162.7 40.6 162.7 32.6 162.7 24.9 162.7 M12.25 145.35 L17.1 123.35 19.2 113.8 62.05 113.8 M-15.45 123.35 L-10.5 145.65 M-23.15 163.0 L-30.85 163.0 -38.9 163.0 -46.6 163.0 -54.6 163.0 M-67.25 145.65 L-63.1 126.9 -63.1 126.8 -60.3 114.1 -17.5 114.1 -15.45 123.35 M40.6 162.7 L40.6 145.35 M26.4 145.35 L32.6 162.7 M48.35 162.7 L54.8 145.35 M-162.0 -54.15 L-160.05 -42.7 M-63.4 126.85 L-63.1 126.8 M-38.9 163.0 L-38.9 145.65 M-53.05 145.65 L-46.6 163.0 M-30.85 163.0 L-24.65 145.65 M-160.05 -49.65 L-146.7 37.65 -94.0 124.85" fill="none" stroke="#cccccc" stroke-linecap="round" stroke-linejoin="round" stroke-width="0.1"/>
    <path d="M35.85 26.0 L72.35 -68.15 57.65 -68.15 49.05 -68.15 25.5 -68.15 M93.45 122.3 L95.3 122.05 M119.65 -21.45 Q127.4 -13.25 127.4 -1.6 127.4 10.05 119.65 18.3 111.9 26.5 100.95 26.55 89.95 26.5 82.2 18.3 74.45 10.05 74.45 -1.6 74.45 -13.25 82.2 -21.45 89.95 -29.7 100.95 -29.7 111.9 -29.7 119.65 -21.45 M162.6 -54.05 L116.7 -162.0 72.35 -68.15 M35.85 26.0 L35.65 26.55 M64.85 126.6 L65.05 126.55 93.45 122.3 M-63.1 126.9 L-63.4 126.85 -91.7 122.65 -92.35 122.55 -93.6 122.35 M-24.75 -131.3 L-24.0 -110.75 M-118.65 -21.1 Q-126.45 -12.9 -126.4 -1.25 -126.45 10.4 -118.65 18.65 -110.95 26.85 -99.95 26.85 -88.95 26.85 -81.2 18.65 -73.45 10.4 -73.4 -1.25 -73.45 -12.9 -81.2 -21.1 -88.95 -29.35 -99.95 -29.35 -110.95 -29.35 -118.65 -21.1 M-161.6 -53.75 L-115.7 -161.65 -71.35 -67.8 -56.75 -67.8 -48.1 -67.8 -24.5 -67.8 M-34.8 26.3 L-34.65 26.85 M-34.8 26.3 L-71.35 -67.8" fill="none" stroke="#cccccc" stroke-linecap="round" stroke-linejoin="round" stroke-width="1.0"/>
    <path d="M-56.45 -104.0 L-56.25 -128.2 -60.6 -128.2 -58.15 -152.15 -45.7 -152.15 -43.25 -128.2 -47.6 -128.2 -47.8 -104.0 M-47.6 -128.2 L-56.25 -128.2" fill="none" stroke="#cccccc" stroke-linecap="round" stroke-linejoin="round" stroke-width="0.1"/>
  </g>
</svg>
