<?xml version="1.0" encoding="UTF-8" standalone="no"?>
<svg xmlns:xlink="http://www.w3.org/1999/xlink" height="40.0px" width="39.9px" xmlns="http://www.w3.org/2000/svg">
  <g transform="matrix(1.0, 0.0, 0.0, 1.0, 20.0, 20.0)">
    <path d="M5.9 -15.85 L5.35 -15.85 5.65 -18.8 7.2 -18.8 7.5 -15.85 6.95 -15.85 5.9 -15.85 M-7.0 -15.85 L-7.55 -15.85 -7.25 -18.8 -5.7 -18.8 -5.4 -15.85 -5.95 -15.85 -7.0 -15.85" fill="#ff0000" fill-rule="evenodd" stroke="none"/>
    <path d="M5.95 -8.45 L5.9 -15.85 6.95 -15.85 7.0 -8.45 5.95 -8.45 M7.9 15.5 L8.4 17.8 1.4 17.8 2.0 15.1 2.25 13.9 7.55 13.9 7.9 15.5 M-2.0 15.1 L-1.4 17.85 -8.35 17.85 -7.9 15.55 -7.85 15.5 -7.85 15.55 -7.85 15.5 -7.5 13.95 -2.25 13.95 -2.0 15.1 M-7.1 -8.45 L-7.0 -15.85 -5.95 -15.85 -6.0 -8.45 -7.1 -8.45 M10.0 -2.7 Q10.95 -3.75 12.35 -3.75 13.65 -3.75 14.65 -2.7 15.6 -1.7 15.6 -0.25 15.6 1.15 14.65 2.15 13.65 3.15 12.35 3.2 10.95 3.15 10.0 2.15 9.05 1.15 9.05 -0.25 9.05 -1.7 10.0 -2.7 M-14.7 -2.7 Q-13.75 -3.7 -12.4 -3.7 -11.05 -3.7 -10.1 -2.7 -9.15 -1.7 -9.15 -0.25 -9.15 1.2 -10.1 2.2 -11.05 3.2 -12.4 3.25 -13.75 3.2 -14.7 2.2 -15.65 1.2 -15.65 -0.25 -15.65 -1.7 -14.7 -2.7" fill="#cccccc" fill-rule="evenodd" stroke="none"/>
    <path d="M-3.05 -13.75 L-3.15 -16.2 -1.6 -18.8 1.45 -18.8 3.0 -16.25 3.05 -13.75 -0.05 -11.9 -3.05 -13.75" fill="#0000ff" fill-rule="evenodd" stroke="none"/>
    <path d="M3.05 -13.75 L3.05 -8.45 3.05 -3.2 4.3 3.1 4.35 3.2 11.4 14.95 7.9 15.5 7.55 13.9 6.65 9.9 3.15 9.9 2.25 13.9 2.0 15.1 -2.0 15.1 -2.25 13.95 -3.15 9.95 -6.6 9.95 -7.5 13.95 -7.85 15.5 -7.9 15.55 -11.4 15.0 -11.55 15.3 -11.65 15.1 -4.35 3.25 -4.4 3.15 -3.1 -3.15 -3.1 -8.45 -3.05 -13.75 -0.05 -11.9 3.05 -13.75" fill="#aaaaaa" fill-rule="evenodd" stroke="none"/>
    <path d="M3.05 -8.45 L5.95 -8.45 7.0 -8.45 8.8 -8.45 4.3 3.1 3.05 -3.2 3.05 -8.45 M8.4 17.8 L6.85 19.95 2.95 19.95 1.4 17.8 8.4 17.8 M-1.4 17.85 L-2.95 20.0 -6.8 20.0 -8.35 17.85 -1.4 17.85 M-8.85 -8.45 L-7.1 -8.45 -6.0 -8.45 -3.1 -8.45 -3.1 -3.15 -4.4 3.15 -8.85 -8.45 M2.25 13.9 L3.15 9.9 6.65 9.9 7.55 13.9 2.25 13.9 M-7.5 13.95 L-6.6 9.95 -3.15 9.95 -2.25 13.95 -7.5 13.95" fill="#999999" fill-rule="evenodd" stroke="none"/>
    <path d="M8.8 -8.45 L14.25 -20.0 19.9 -6.75 18.1 4.5 11.7 15.1 11.4 14.95 4.35 3.2 4.3 3.1 8.8 -8.45 M-11.65 15.1 L-18.15 4.55 -19.65 -5.35 -20.0 -6.7 -14.35 -20.0 -8.85 -8.45 -4.4 3.15 -4.35 3.25 -11.65 15.1 M10.0 -2.7 Q9.05 -1.7 9.05 -0.25 9.05 1.15 10.0 2.15 10.95 3.15 12.35 3.2 13.65 3.15 14.65 2.15 15.6 1.15 15.6 -0.25 15.6 -1.7 14.65 -2.7 13.65 -3.75 12.35 -3.75 10.95 -3.75 10.0 -2.7 M-14.7 -2.7 Q-15.65 -1.7 -15.65 -0.25 -15.65 1.2 -14.7 2.2 -13.75 3.2 -12.4 3.25 -11.05 3.2 -10.1 2.2 -9.15 1.2 -9.15 -0.25 -9.15 -1.7 -10.1 -2.7 -11.05 -3.7 -12.4 -3.7 -13.75 -3.7 -14.7 -2.7" fill="#0066cc" fill-rule="evenodd" stroke="none"/>
    <path d="M5.9 -15.85 L5.35 -15.85 5.65 -18.8 7.2 -18.8 7.5 -15.85 6.95 -15.85 5.9 -15.85 M-7.0 -15.85 L-7.55 -15.85 -7.25 -18.8 -5.7 -18.8 -5.4 -15.85 -5.95 -15.85 -7.0 -15.85" fill="none" stroke="#ff0000" stroke-linecap="round" stroke-linejoin="round" stroke-width="0.1"/>
    <path d="M11.7 15.1 L11.6 15.25 11.55 15.25 11.4 14.95 4.35 3.2 4.3 3.1 8.8 -8.45 M-11.4 15.0 L-11.55 15.3 -11.65 15.1 -4.35 3.25 -4.4 3.15 -8.85 -8.45 M-3.05 -13.75 L-0.05 -11.9 3.05 -13.75 M10.0 -2.7 Q10.95 -3.75 12.35 -3.75 13.65 -3.75 14.65 -2.7 15.6 -1.7 15.6 -0.25 15.6 1.15 14.65 2.15 13.65 3.15 12.35 3.2 10.95 3.15 10.0 2.15 9.05 1.15 9.05 -0.25 9.05 -1.7 10.0 -2.7 M3.05 -8.45 L3.05 -3.2 4.3 3.1 M2.25 13.9 L3.15 9.9 6.65 9.9 7.55 13.9 7.9 15.5 M2.25 13.9 L2.0 15.1 M7.55 13.9 L2.25 13.9 M8.4 17.8 L1.4 17.8 M-14.7 -2.7 Q-15.65 -1.7 -15.65 -0.25 -15.65 1.2 -14.7 2.2 -13.75 3.2 -12.4 3.25 -11.05 3.2 -10.1 2.2 -9.15 1.2 -9.15 -0.25 -9.15 -1.7 -10.1 -2.7 -11.05 -3.7 -12.4 -3.7 -13.75 -3.7 -14.7 -2.7 M-3.1 -8.45 L-3.1 -3.15 -4.4 3.15 M-7.5 13.95 L-6.6 9.95 -3.15 9.95 -2.25 13.95 -2.0 15.1 M-7.85 15.5 L-7.9 15.55 M-7.85 15.5 L-7.85 15.55 M-7.5 13.95 L-7.85 15.5 M-8.35 17.85 L-1.4 17.85 M-2.25 13.95 L-7.5 13.95" fill="none" stroke="#000000" stroke-linecap="round" stroke-linejoin="round" stroke-width="0.1"/>
    <path d="M5.95 -8.45 L5.9 -15.85 M6.95 -15.85 L7.0 -8.45 5.95 -8.45 M-7.1 -8.45 L-7.0 -15.85 M-5.95 -15.85 L-6.0 -8.45 -7.1 -8.45" fill="none" stroke="#cccccc" stroke-linecap="round" stroke-linejoin="round" stroke-width="0.1"/>
  </g>
</svg>
