<?xml version="1.0" encoding="UTF-8" standalone="no"?>
<svg xmlns:xlink="http://www.w3.org/1999/xlink" height="70.05px" width="71.2px" xmlns="http://www.w3.org/2000/svg">
  <g transform="matrix(1.0, 0.0, 0.0, 1.0, 36.9, 35.75)">
    <path d="M4.6 -18.3 L8.35 -26.8 6.1 -35.25 11.05 -32.95 15.9 -30.65 20.75 -28.3 25.65 -26.0 16.0 -23.4 12.25 -14.9 14.0 -13.4 14.55 -12.85 Q20.35 -7.05 20.4 1.15 L20.4 1.3 Q20.4 6.9 17.75 11.4 L25.05 17.3 33.8 17.3 30.3 21.45 26.8 25.55 23.3 29.65 19.8 33.8 19.8 23.8 12.1 17.6 Q7.3 21.1 1.2 21.3 L0.4 21.3 Q-6.3 21.3 -11.35 17.45 L-13.7 15.45 Q-15.2 13.95 -16.3 12.3 L-24.75 15.6 -29.1 23.15 -30.95 18.0 -32.75 13.0 -34.55 7.9 -36.4 2.8 -27.75 7.75 -19.35 4.55 -19.6 1.3 -19.6 0.75 Q-19.4 -7.2 -13.7 -12.85 L-11.3 -14.9 Q-6.25 -18.7 0.4 -18.7 L1.2 -18.7 4.6 -18.3 Q8.75 -17.45 12.25 -14.9 8.75 -17.45 4.6 -18.3 M12.2 -25.1 L13.95 -24.35 16.0 -23.4 13.95 -24.35 12.2 -25.1 10.45 -25.9 8.35 -26.8 10.45 -25.9 11.05 -32.95 10.45 -25.9 12.2 -25.1 15.9 -30.65 12.2 -25.1 M6.4 -4.1 L14.0 -13.4 6.4 -4.1 M1.2 -6.4 L0.1 -6.45 Q-1.95 -6.5 -3.5 -5.45 L-11.3 -14.9 -3.5 -5.45 Q-1.95 -6.5 0.1 -6.45 L1.2 -6.4 1.2 -18.7 1.2 -6.4 Q3.3 -6.1 4.95 -4.45 L5.3 -4.1 Q6.95 -2.25 6.95 0.4 L6.9 1.0 Q6.7 3.45 4.95 5.25 L4.55 5.65 Q3.05 6.85 1.2 7.15 L1.2 21.3 1.2 7.15 Q3.05 6.85 4.55 5.65 L4.95 5.25 Q6.7 3.45 6.9 1.0 L6.95 0.4 Q6.95 -2.25 5.3 -4.1 L4.95 -4.45 Q3.3 -6.1 1.2 -6.4 M23.65 19.1 L30.3 21.45 23.65 19.1 22.45 20.6 21.25 22.05 19.8 23.8 21.25 22.05 22.45 20.6 23.65 19.1 25.05 17.3 23.65 19.1 M20.75 -28.3 L13.95 -24.35 20.75 -28.3 M8.0 1.0 L20.4 1.15 8.0 1.0 M14.1 15.9 L12.1 17.6 14.1 15.9 5.65 5.65 14.1 15.9 14.55 15.45 Q16.45 13.55 17.75 11.4 16.45 13.55 14.55 15.45 L14.1 15.9 M-11.35 17.45 L-2.55 6.75 -2.4 6.8 0.1 7.25 1.2 7.15 0.1 7.25 -2.4 6.8 -2.55 6.75 -11.35 17.45 M26.8 25.55 L22.45 20.6 26.8 25.55 M21.25 22.05 L23.3 29.65 21.25 22.05 M-16.3 12.3 Q-18.7 8.8 -19.35 4.55 -18.7 8.8 -16.3 12.3 M-6.75 0.9 Q-6.6 3.4 -4.75 5.25 -4.1 5.9 -3.3 6.35 L-2.55 6.75 -3.3 6.35 Q-4.1 5.9 -4.75 5.25 -6.6 3.4 -6.75 0.9 L-19.6 0.75 -6.75 0.9 -6.75 0.4 Q-6.8 -2.5 -4.75 -4.45 L-4.2 -4.95 -3.5 -5.45 -4.2 -4.95 -4.75 -4.45 Q-6.8 -2.5 -6.75 0.4 L-6.75 0.9 M-26.25 11.65 L-25.55 13.45 -24.75 15.6 -25.55 13.45 -30.95 18.0 -25.55 13.45 -26.25 11.65 -32.75 13.0 -26.25 11.65 -26.95 9.85 -26.25 11.65 M-27.75 7.75 L-26.95 9.85 -34.55 7.9 -26.95 9.85 -27.75 7.75" fill="#6600cc" fill-rule="evenodd" stroke="none"/>
    <path d="M4.6 -18.3 L8.35 -26.8 6.1 -35.25 11.05 -32.95 15.9 -30.65 20.75 -28.3 25.65 -26.0 16.0 -23.4 12.25 -14.9 M17.75 11.4 L25.05 17.3 33.8 17.3 30.3 21.45 26.8 25.55 23.3 29.65 19.8 33.8 19.8 23.8 12.1 17.6 M-16.3 12.3 L-24.75 15.6 -29.1 23.15 -30.95 18.0 -32.75 13.0 -34.55 7.9 -36.4 2.8 -27.75 7.75 -19.35 4.55 M8.35 -26.8 L10.45 -25.9 11.05 -32.95 M10.45 -25.9 L12.2 -25.1 15.9 -30.65 M16.0 -23.4 L13.95 -24.35 12.2 -25.1 M13.95 -24.35 L20.75 -28.3 M19.8 23.8 L21.25 22.05 22.45 20.6 23.65 19.1 25.05 17.3 M30.3 21.45 L23.65 19.1 M23.3 29.65 L21.25 22.05 M22.45 20.6 L26.8 25.55 M-34.55 7.9 L-26.95 9.85 -27.75 7.75 M-32.75 13.0 L-26.25 11.65 -26.95 9.85 M-24.75 15.6 L-25.55 13.45 -30.95 18.0 M-25.55 13.45 L-26.25 11.65" fill="none" stroke="#9900cc" stroke-linecap="round" stroke-linejoin="round" stroke-width="1.0"/>
    <path d="M12.25 -14.9 L14.0 -13.4 14.55 -12.85 Q20.35 -7.05 20.4 1.15 L20.4 1.3 Q20.4 6.9 17.75 11.4 16.45 13.55 14.55 15.45 L14.1 15.9 5.65 5.65 M12.1 17.6 Q7.3 21.1 1.2 21.3 L0.4 21.3 Q-6.3 21.3 -11.35 17.45 L-13.7 15.45 Q-15.2 13.95 -16.3 12.3 -18.7 8.8 -19.35 4.55 L-19.6 1.3 -19.6 0.75 Q-19.4 -7.2 -13.7 -12.85 L-11.3 -14.9 Q-6.25 -18.7 0.4 -18.7 L1.2 -18.7 4.6 -18.3 Q8.75 -17.45 12.25 -14.9 M1.2 -18.7 L1.2 -6.4 Q3.3 -6.1 4.95 -4.45 L5.3 -4.1 Q6.95 -2.25 6.95 0.4 L6.9 1.0 Q6.7 3.45 4.95 5.25 L4.55 5.65 Q3.05 6.85 1.2 7.15 L1.2 21.3 M-11.3 -14.9 L-3.5 -5.45 Q-1.95 -6.5 0.1 -6.45 L1.2 -6.4 M14.0 -13.4 L6.4 -4.1 M1.2 7.15 L0.1 7.25 -2.4 6.8 -2.55 6.75 -11.35 17.45 M12.1 17.6 L14.1 15.9 M20.4 1.15 L8.0 1.0 M-19.6 0.75 L-6.75 0.9 -6.75 0.4 Q-6.8 -2.5 -4.75 -4.45 L-4.2 -4.95 -3.5 -5.45 M-2.55 6.75 L-3.3 6.35 Q-4.1 5.9 -4.75 5.25 -6.6 3.4 -6.75 0.9" fill="none" stroke="#66ff00" stroke-linecap="round" stroke-linejoin="round" stroke-width="1.0"/>
  </g>
</svg>
