<?xml version="1.0" encoding="UTF-8" standalone="no"?>
<svg xmlns:xlink="http://www.w3.org/1999/xlink" height="16.0px" width="46.5px" xmlns="http://www.w3.org/2000/svg">
  <g transform="matrix(1.0, 0.0, 0.0, 1.0, -24.45, -7.5)">
    <path d="M70.45 23.0 L24.95 23.0 24.95 8.0 70.45 8.0 70.45 23.0" fill="#ffff33" fill-rule="evenodd" stroke="none"/>
    <path d="M70.45 23.0 L24.95 23.0 24.95 8.0 70.45 8.0 70.45 23.0 Z" fill="none" stroke="#cccccc" stroke-linecap="round" stroke-linejoin="round" stroke-width="1.0"/>
  </g>
</svg>
