<?xml version="1.0" encoding="UTF-8" standalone="no"?>
<svg xmlns:xlink="http://www.w3.org/1999/xlink" height="52.0px" width="59.0px" xmlns="http://www.w3.org/2000/svg">
  <g transform="matrix(1.0, 0.0, 0.0, 1.0, 29.5, 26.0)">
    <pattern height="52" id="PatternID_1256_1" overflow="visible" patternTransform="matrix(1.0, 0.0, 0.0, 1.0, -29.5, -26.0)" patternUnits="userSpaceOnUse" viewBox="0 0 59 52" width="59">
      <image height="52" width="59" xlink:href="data:image/PNG;base64,iVBORw0KGgoAAAANSUhEUgAAADsAAAA0CAYAAAA0c0BmAAAAQ0lEQVR42u3aQQ0AIAwDwFnHAp7QtCcwC/zI7pIKaNJnIzqbuUYlAABoKjNHm6L7alXYvgEAAAAAAACAF/U78D3gXwc4Tx3/NPfCtwAAAABJRU5ErkJggg=="/>
    </pattern>
    <path d="M-29.5 -26.0 L29.5 -26.0 29.5 26.0 -29.5 26.0 -29.5 -26.0" style="fill:url(#PatternID_1256_1)"/>
  </g>
</svg>
