<?xml version="1.0" encoding="UTF-8" standalone="no"?>
<svg xmlns:xlink="http://www.w3.org/1999/xlink" height="202.0px" width="202.0px" xmlns="http://www.w3.org/2000/svg">
  <g transform="matrix(1.0, 0.0, 0.0, 1.0, 101.0, 101.0)">
    <path d="M95.0 -95.0 Q99.95 -90.0 100.0 -82.9 L100.0 82.95 Q99.95 90.0 95.0 95.0 90.0 100.0 82.9 100.0 L-82.95 100.0 Q-90.05 100.0 -95.05 95.0 -100.05 90.0 -100.0 82.95 L-100.0 -82.9 Q-100.05 -90.0 -95.05 -95.0 -90.05 -100.0 -82.95 -100.0 L82.9 -100.0 Q90.0 -100.0 95.0 -95.0" fill="url(#gradient0)" fill-rule="evenodd" stroke="none"/>
    <path d="M95.0 -95.0 Q90.0 -100.0 82.9 -100.0 L-82.95 -100.0 Q-90.05 -100.0 -95.05 -95.0 -100.05 -90.0 -100.0 -82.9 L-100.0 82.95 Q-100.05 90.0 -95.05 95.0 -90.05 100.0 -82.95 100.0 L82.9 100.0 Q90.0 100.0 95.0 95.0 99.95 90.0 100.0 82.95 L100.0 -82.9 Q99.95 -90.0 95.0 -95.0 Z" fill="none" stroke="#000000" stroke-linecap="round" stroke-linejoin="round" stroke-width="2.0"/>
  </g>
  <defs>
    <linearGradient gradientTransform="matrix(0.0, 0.1221, -0.1221, 0.0, 0.0, 0.0)" gradientUnits="userSpaceOnUse" id="gradient0" spreadMethod="pad" x1="-819.2" x2="819.2">
      <stop offset="0.0" stop-color="#cccccc"/>
      <stop offset="0.058823529411764705" stop-color="#ffffff"/>
      <stop offset="0.12549019607843137" stop-color="#cccccc"/>
      <stop offset="0.4117647058823529" stop-color="#666666"/>
      <stop offset="0.8470588235294118" stop-color="#333333"/>
      <stop offset="0.9254901960784314" stop-color="#666666"/>
      <stop offset="1.0" stop-color="#333333"/>
    </linearGradient>
  </defs>
</svg>
