<?xml version="1.0" encoding="UTF-8" standalone="no"?>
<svg xmlns:xlink="http://www.w3.org/1999/xlink" height="66.2px" width="35.5px" xmlns="http://www.w3.org/2000/svg">
  <g transform="matrix(1.0, 0.0, 0.0, 1.0, 17.8, 24.0)">
    <path d="M6.15 -23.5 L2.65 -23.5 -0.05 -21.15 -2.75 -23.5 -6.25 -23.5 -10.0 -19.25 -10.0 -6.0 -5.65 -2.1 -5.65 13.45 -2.85 13.45 -5.8 32.2 5.7 32.2 11.45 32.2 5.55 13.45 5.55 -2.1 9.9 -6.0 9.9 -19.25 6.15 -23.5 M2.75 -2.1 L5.55 -2.1 M5.55 13.45 L2.75 13.45 5.7 32.2 8.55 36.2 17.2 36.2 11.45 32.2 M8.55 36.2 L8.45 41.7 17.2 41.7 17.2 36.2 M2.75 13.45 L2.75 -2.1 -0.05 -2.1 -2.85 -2.1 -2.85 13.45 2.75 13.45 M-2.85 -2.1 L-5.65 -2.1 M-5.8 32.2 L-8.65 36.2 8.55 36.2 M-5.8 32.2 L-11.55 32.2 -17.3 36.2 -8.65 36.2 -8.55 41.7 8.45 41.7 M-8.55 41.7 L-17.3 41.7 -17.3 36.2 M-11.55 32.2 L-5.65 13.45" fill="none" stroke="#cc0000" stroke-linecap="round" stroke-linejoin="round" stroke-width="1.0"/>
    <path d="M2.65 -23.5 L4.9 -19.25 6.15 -23.5 M-0.05 -21.15 L-0.05 -19.25 4.9 -19.25 9.9 -19.25 M9.9 -6.0 L4.9 -6.0 2.75 -2.1 M-0.05 -19.25 L-0.05 -6.0 4.9 -6.0 4.9 -19.25 M-2.75 -23.5 L-5.0 -19.25 -0.05 -19.25 M-10.0 -19.25 L-5.0 -19.25 -6.25 -23.5 M-10.0 -6.0 L-5.0 -6.0 -5.0 -19.25 M-0.05 -2.1 L-0.05 -6.0 -5.0 -6.0 -2.85 -2.1" fill="none" stroke="#cc0000" stroke-linecap="round" stroke-linejoin="round" stroke-width="1.0"/>
  </g>
</svg>
