<?xml version="1.0" encoding="UTF-8" standalone="no"?>
<svg xmlns:xlink="http://www.w3.org/1999/xlink" height="24.0px" width="87.0px" xmlns="http://www.w3.org/2000/svg">
  <g transform="matrix(1.0, 0.0, 0.0, 1.0, 43.5, 12.0)">
    <path d="M43.0 11.5 L-43.0 11.5 -43.0 -11.5 43.0 -11.5 43.0 11.5" fill="#000000" fill-rule="evenodd" stroke="none"/>
    <path d="M43.0 11.5 L-43.0 11.5 -43.0 -11.5 43.0 -11.5 43.0 11.5 Z" fill="none" stroke="#666666" stroke-linecap="round" stroke-linejoin="round" stroke-width="1.0"/>
  </g>
</svg>
