<?xml version="1.0" encoding="UTF-8" standalone="no"?>
<svg xmlns:xlink="http://www.w3.org/1999/xlink" height="586.95px" width="832.9px" xmlns="http://www.w3.org/2000/svg">
  <g transform="matrix(1.0, 0.0, 0.0, 1.0, 19.95, 18.05)">
    <path d="M811.95 567.9 L-18.95 567.9 -18.95 -17.05 811.95 -17.05 811.95 567.9 M770.7 23.1 L772.7 4.65 770.7 4.65 5.2 4.65 5.2 532.95 770.7 532.95 772.7 532.95 770.7 532.15 770.7 441.05 771.95 438.95 770.7 438.95 770.7 23.1" fill="url(#gradient0)" fill-rule="evenodd" stroke="none"/>
    <path d="M770.7 438.95 L771.95 438.95 770.7 441.05 770.7 438.95" fill="url(#gradient1)" fill-rule="evenodd" stroke="none"/>
    <path d="M811.95 567.9 L-18.95 567.9 -18.95 -17.05 811.95 -17.05 811.95 567.9 M770.7 4.65 L770.7 23.1 770.7 438.95 770.7 441.05 770.7 532.15 770.7 532.95 5.2 532.95 M772.7 532.95 L770.7 532.95" fill="none" stroke="#555555" stroke-linecap="round" stroke-linejoin="round" stroke-width="2.0"/>
  </g>
  <defs>
    <radialGradient cx="0" cy="0" gradientTransform="matrix(0.5884, 0.0, 0.0, 0.6292, 403.5, 282.0)" gradientUnits="userSpaceOnUse" id="gradient0" r="819.2" spreadMethod="pad">
      <stop offset="0.0" stop-color="#a5a5a5"/>
      <stop offset="0.8980392156862745" stop-color="#656565"/>
    </radialGradient>
    <radialGradient cx="0" cy="0" gradientTransform="matrix(0.3309, 0.0, 0.0, 0.3309, 457.45, 476.45)" gradientUnits="userSpaceOnUse" id="gradient1" r="819.2" spreadMethod="pad">
      <stop offset="0.0" stop-color="#727272"/>
      <stop offset="1.0" stop-color="#656565"/>
    </radialGradient>
  </defs>
</svg>
