<?xml version="1.0" encoding="UTF-8" standalone="no"?>
<svg xmlns:xlink="http://www.w3.org/1999/xlink" height="24.0px" width="60.0px" xmlns="http://www.w3.org/2000/svg">
  <g transform="matrix(1.0, 0.0, 0.0, 1.0, 30.0, 12.0)">
    <path d="M-29.5 -11.5 L29.5 -11.5 29.5 11.5 -29.5 11.5 -29.5 -11.5" fill="#0066cc" fill-rule="evenodd" stroke="none"/>
    <path d="M-29.5 -11.5 L29.5 -11.5 29.5 11.5 -29.5 11.5 -29.5 -11.5 Z" fill="none" stroke="#cccccc" stroke-linecap="round" stroke-linejoin="round" stroke-width="1.0"/>
  </g>
</svg>
