<?xml version="1.0" encoding="UTF-8" standalone="no"?>
<svg xmlns:xlink="http://www.w3.org/1999/xlink" height="168.15px" width="364.9px" xmlns="http://www.w3.org/2000/svg">
  <g transform="matrix(1.0, 0.0, 0.0, 1.0, 1.5, 9.35)">
    <path d="M320.0 0.4 L356.6 0.4 356.6 158.8 0.0 158.8 0.0 47.85 0.0 0.4 320.0 0.4" fill="#000000" fill-rule="evenodd" stroke="none"/>
    <path d="M0.0 47.85 L0.0 0.4 320.0 0.4" fill="none" stroke="#9c9a9c" stroke-linecap="round" stroke-linejoin="round" stroke-width="0.25"/>
    <path d="M362.9 29.05 L362.9 -8.85 M356.6 -8.85 L-1.0 -8.55" fill="none" stroke="#cccccc" stroke-linecap="round" stroke-linejoin="round" stroke-width="1.0"/>
    <path d="M-1.0 -8.55 L-0.95 29.05" fill="none" stroke="#cccccc" stroke-linecap="round" stroke-linejoin="round" stroke-width="1.0"/>
  </g>
</svg>
