<?xml version="1.0" encoding="UTF-8" standalone="no"?>
<svg xmlns:xlink="http://www.w3.org/1999/xlink" height="84.5px" width="59.95px" xmlns="http://www.w3.org/2000/svg">
  <g transform="matrix(1.0, 0.0, 0.0, 1.0, 33.15, 56.5)">
    <path d="M26.3 -35.0 L-32.65 -35.0 -32.65 -56.0 26.3 -56.0 26.3 -35.0 M-29.75 3.5 L22.25 3.5 22.25 27.5 -29.75 27.5 -29.75 3.5 Z" fill="none" stroke="#cccccc" stroke-linecap="round" stroke-linejoin="round" stroke-width="1.0"/>
  </g>
</svg>
