<?xml version="1.0" encoding="UTF-8" standalone="no"?>
<svg xmlns:xlink="http://www.w3.org/1999/xlink" height="56.0px" width="397.55px" xmlns="http://www.w3.org/2000/svg">
  <g transform="matrix(1.0, 0.0, 0.0, 1.0, 143.3, 28.0)">
    <path d="M253.75 27.5 L-142.8 27.5 -142.8 -27.5 253.75 -27.5 253.75 27.5 M139.45 24.5 L-61.0 24.5 -61.0 2.5 139.45 2.5 139.45 24.5 Z" fill="none" stroke="#cccccc" stroke-linecap="round" stroke-linejoin="round" stroke-width="1.0"/>
  </g>
</svg>
