<?xml version="1.0" encoding="UTF-8" standalone="no"?>
<svg xmlns:xlink="http://www.w3.org/1999/xlink" height="100.0px" width="100.05px" xmlns="http://www.w3.org/2000/svg">
  <g transform="matrix(1.0, 0.0, 0.0, 1.0, 0.2, 0.1)">
    <path d="M99.85 -0.1 L99.85 99.9 -0.2 99.9 -0.2 -0.1 99.85 -0.1" fill="#000000" fill-rule="evenodd" stroke="none"/>
    <path d="M99.85 -0.1 L99.85 99.9 -0.2 99.9 -0.2 -0.1 99.85 -0.1 Z" fill="none" stroke="#cccccc" stroke-linecap="round" stroke-linejoin="round" stroke-width="0.05"/>
  </g>
</svg>
