<?xml version="1.0" encoding="UTF-8" standalone="no"?>
<svg xmlns:xlink="http://www.w3.org/1999/xlink" height="13.0px" width="9.0px" xmlns="http://www.w3.org/2000/svg">
  <g transform="matrix(1.0, 0.0, 0.0, 1.0, 4.5, 6.5)">
    <path d="M2.1 -1.8 L2.1 3.85 2.0 3.85 4.0 6.0 -4.0 6.0 -2.05 3.85 -2.1 3.85 -2.1 -1.8 -2.05 -2.0 Q0.15 -9.95 2.05 -2.05 L2.1 -1.8 M2.05 -2.05 L-2.05 -2.0 2.05 -2.05 M-1.75 3.55 L-2.05 3.85 2.0 3.85 1.75 3.55 2.0 3.85 -2.05 3.85 -1.75 3.55" fill="#cccccc" fill-rule="evenodd" stroke="none"/>
    <path d="M2.1 -1.8 L2.1 3.85 2.0 3.85 4.0 6.0 -4.0 6.0 -2.05 3.85 -2.1 3.85 -2.1 -1.8 -2.05 -2.0 Q0.15 -9.95 2.05 -2.05 L2.1 -1.8 M1.75 3.55 L2.0 3.85 -2.05 3.85 -1.75 3.55 M-2.05 -2.0 L2.05 -2.05" fill="none" stroke="#999999" stroke-linecap="round" stroke-linejoin="round" stroke-width="1.0"/>
  </g>
</svg>
