<?xml version="1.0" encoding="UTF-8" standalone="no"?>
<svg xmlns:xlink="http://www.w3.org/1999/xlink" height="17.05px" width="9.0px" xmlns="http://www.w3.org/2000/svg">
  <g transform="matrix(1.0, 0.0, 0.0, 1.0, 4.5, 8.5)">
    <path d="M3.5 -2.8 L2.1 -2.35 2.1 5.2 2.05 5.2 4.0 8.05 -4.0 8.05 -2.0 5.2 -2.1 5.2 -2.1 -2.35 -3.5 -2.8 3.5 -2.8 M1.75 4.8 L2.05 5.2 1.45 5.2 -1.4 5.2 -2.0 5.2 -1.75 4.8 -2.0 5.2 -1.4 5.2 1.45 5.2 2.05 5.2 1.75 4.8 M-1.4 7.7 L-1.4 5.2 -1.4 7.7 M1.45 7.7 L1.45 5.2 1.45 7.7" fill="#cccccc" fill-rule="evenodd" stroke="none"/>
    <path d="M-3.5 -2.8 Q0.2 -13.2 3.5 -2.8 L-3.5 -2.8" fill="#0000ff" fill-rule="evenodd" stroke="none"/>
    <path d="M3.5 -2.8 L2.1 -2.35 2.1 5.2 2.05 5.2 4.0 8.05 -4.0 8.05 -2.0 5.2 -2.1 5.2 -2.1 -2.35 -3.5 -2.8 Q0.2 -13.2 3.5 -2.8 L-3.5 -2.8 M-1.75 4.8 L-2.0 5.2 -1.4 5.2 1.45 5.2 2.05 5.2 1.75 4.8" fill="none" stroke="#999999" stroke-linecap="round" stroke-linejoin="round" stroke-width="1.0"/>
    <path d="M1.45 5.2 L1.45 7.7 M-1.4 5.2 L-1.4 7.7" fill="none" stroke="#999999" stroke-linecap="round" stroke-linejoin="round" stroke-width="1.0"/>
  </g>
</svg>
