<?xml version="1.0" encoding="UTF-8" standalone="no"?>
<svg xmlns:xlink="http://www.w3.org/1999/xlink" height="6.0px" width="3.8px" xmlns="http://www.w3.org/2000/svg">
  <g transform="matrix(1.0, 0.0, 0.0, 1.0, 1.85, 1.1)">
    <path d="M1.45 -0.6 L1.45 4.4 -1.35 4.4 -1.35 -0.6 1.45 -0.6" fill="#ff9900" fill-rule="evenodd" stroke="none"/>
    <path d="M1.45 -0.6 L1.45 4.4 -1.35 4.4 -1.35 -0.6 1.45 -0.6 Z" fill="none" stroke="#ff0000" stroke-linecap="round" stroke-linejoin="round" stroke-width="1.0"/>
  </g>
</svg>
