<?xml version="1.0" encoding="UTF-8" standalone="no"?>
<svg xmlns:xlink="http://www.w3.org/1999/xlink" height="21.1px" width="15.0px" xmlns="http://www.w3.org/2000/svg">
  <g transform="matrix(1.0, 0.0, 0.0, 1.0, 7.5, 10.5)">
    <path d="M1.75 -2.35 L3.7 -2.05 3.7 6.75 3.6 6.75 1.75 6.75 -0.35 6.75 -1.75 6.75 -3.6 6.75 -3.65 6.75 -3.65 -2.0 -4.1 -2.05 -1.75 -2.3 1.75 -2.35 M3.05 6.3 L3.6 6.75 3.05 6.3 M-3.05 6.3 L-3.6 6.75 -3.05 6.3" fill="#cccccc" fill-rule="evenodd" stroke="none"/>
    <path d="M1.75 -2.35 L0.0 -9.05 -1.75 -2.3 0.0 -9.05 1.75 -2.35 -1.75 -2.3 -4.1 -2.05 -6.35 -1.6 Q-2.1 -8.7 -0.3 -9.9 1.5 -11.05 6.35 -1.6 L3.7 -2.05 1.75 -2.35 M3.15 9.75 L1.75 6.75 3.15 9.75 M-0.35 6.75 L1.75 6.75 3.6 6.75 7.0 10.1 -0.35 10.1 -0.35 6.75 -0.35 10.1 -7.0 10.1 -3.6 6.75 -1.75 6.75 -0.35 6.75 M-3.85 9.75 L-1.75 6.75 -3.85 9.75" fill="#ff0000" fill-rule="evenodd" stroke="none"/>
    <path d="M-1.75 -2.3 L0.0 -9.05 1.75 -2.35 3.7 -2.05 6.35 -1.6 Q1.5 -11.05 -0.3 -9.9 -2.1 -8.7 -6.35 -1.6 L-4.1 -2.05 -1.75 -2.3 1.75 -2.35 M3.6 6.75 L3.05 6.3 M3.6 6.75 L3.7 6.75 3.7 -2.05 M1.75 6.75 L3.15 9.75 M3.6 6.75 L1.75 6.75 -0.35 6.75 -0.35 10.1 7.0 10.1 3.6 6.75 M-4.1 -2.05 L-3.65 -2.0 -3.65 6.75 -3.6 6.75 -3.05 6.3 M-3.6 6.75 L-1.75 6.75 -0.35 6.75 M-1.75 6.75 L-3.85 9.75 M-3.6 6.75 L-7.0 10.1 -0.35 10.1" fill="none" stroke="#999999" stroke-linecap="round" stroke-linejoin="round" stroke-width="1.0"/>
  </g>
</svg>
