<?xml version="1.0" encoding="UTF-8" standalone="no"?>
<svg xmlns:xlink="http://www.w3.org/1999/xlink" height="23.0px" width="46.0px" xmlns="http://www.w3.org/2000/svg">
  <g transform="matrix(1.0, 0.0, 0.0, 1.0, 1.55, 0.0)">
    <path d="M43.95 22.5 L-1.05 22.5 -1.05 0.5 43.95 0.5 43.95 22.5" fill="#808080" fill-rule="evenodd" stroke="none"/>
    <path d="M43.95 22.5 L-1.05 22.5 -1.05 0.5 43.95 0.5 43.95 22.5 Z" fill="none" stroke="#cccccc" stroke-linecap="round" stroke-linejoin="round" stroke-width="1.0"/>
  </g>
</svg>
