<?xml version="1.0" encoding="UTF-8" standalone="no"?>
<svg xmlns:xlink="http://www.w3.org/1999/xlink" height="16.0px" width="26.0px" xmlns="http://www.w3.org/2000/svg">
  <g transform="matrix(1.0, 0.0, 0.0, 1.0, 0.0, 0.0)">
    <path d="M20.0 5.0 L13.0 12.0 6.0 5.0 13.0 12.0 20.0 5.0 M0.5 15.5 L0.5 0.5 25.5 0.5 25.5 15.5 0.5 15.5" fill="#ccff00" fill-rule="evenodd" stroke="none"/>
    <path d="M6.0 5.0 L13.0 12.0 20.0 5.0" fill="none" stroke="#000000" stroke-linecap="round" stroke-linejoin="round" stroke-width="1.0"/>
    <path d="M0.5 15.5 L25.5 15.5 25.5 0.5 0.5 0.5 0.5 15.5 Z" fill="none" stroke="#cccccc" stroke-linecap="round" stroke-linejoin="round" stroke-width="1.0"/>
  </g>
</svg>
