<?xml version="1.0" encoding="UTF-8" standalone="no"?>
<svg xmlns:xlink="http://www.w3.org/1999/xlink" height="76.0px" width="137.0px" xmlns="http://www.w3.org/2000/svg">
  <g transform="matrix(1.0, 0.0, 0.0, 1.0, 68.0, 14.8)">
    <path d="M62.5 -14.3 L62.5 9.7 -65.5 9.7 -65.5 -14.3 62.5 -14.3 M68.5 60.7 L-67.5 60.7 -67.5 35.7 68.5 35.7 68.5 60.7 Z" fill="none" stroke="#cccccc" stroke-linecap="round" stroke-linejoin="round" stroke-width="1.0"/>
  </g>
</svg>
