<?xml version="1.0" encoding="UTF-8" standalone="no"?>
<svg xmlns:xlink="http://www.w3.org/1999/xlink" height="236.6px" width="174.0px" xmlns="http://www.w3.org/2000/svg">
  <g transform="matrix(1.0, 0.0, 0.0, 1.0, 87.0, 84.3)">
    <path d="M63.5 9.2 L-61.5 9.2 -61.5 -12.8 63.5 -12.8 63.5 9.2 M86.5 151.8 L-86.5 151.8 -86.5 -83.8 86.5 -83.8 86.5 151.8 M65.45 61.5 L-59.55 61.5 -59.55 39.5 65.45 39.5 65.45 61.5 M68.45 106.5 L-62.55 106.5 -62.55 82.5 68.45 82.5 68.45 106.5 Z" fill="none" stroke="#cccccc" stroke-linecap="round" stroke-linejoin="round" stroke-width="1.0"/>
  </g>
</svg>
