<?xml version="1.0" encoding="UTF-8" standalone="no"?>
<svg xmlns:xlink="http://www.w3.org/1999/xlink" height="100.35px" width="137.0px" xmlns="http://www.w3.org/2000/svg">
  <g transform="matrix(1.0, 0.0, 0.0, 1.0, 51.0, 61.7)">
    <path d="M-50.0 37.1 L-50.0 -60.7 85.0 -60.7 85.0 37.1 -50.0 37.1" fill="#000000" fill-rule="evenodd" stroke="none"/>
    <path d="M85.0 37.1 L85.0 37.65 -50.0 37.65 -50.0 37.1 -50.0 -60.7 85.0 -60.7 85.0 37.1 Z" fill="none" stroke="#cccccc" stroke-linecap="round" stroke-linejoin="round" stroke-width="2.0"/>
  </g>
</svg>
