<?xml version="1.0" encoding="UTF-8" standalone="no"?>
<svg xmlns:xlink="http://www.w3.org/1999/xlink" height="38.25px" width="36.75px" xmlns="http://www.w3.org/2000/svg">
  <g transform="matrix(1.0, 0.0, 0.0, 1.0, 18.5, 1.5)">
    <path d="M17.75 18.35 L17.75 26.6 -9.0 36.25 -18.0 16.25 -18.0 8.0 6.5 -1.0 17.75 18.35 -9.0 28.0 -9.0 36.25 M-9.0 28.0 L-18.0 8.0" fill="none" stroke="#cccccc" stroke-linecap="round" stroke-linejoin="round" stroke-width="1.0"/>
  </g>
</svg>
