<?xml version="1.0" encoding="UTF-8" standalone="no"?>
<svg xmlns:xlink="http://www.w3.org/1999/xlink" height="16.0px" width="16.0px" xmlns="http://www.w3.org/2000/svg">
  <g transform="matrix(1.0, 0.0, 0.0, 1.0, 8.0, 8.0)">
    <pattern height="16" id="PatternID_72_1" overflow="visible" patternTransform="matrix(1.0, 0.0, 0.0, 1.0, -8.0, -8.0)" patternUnits="userSpaceOnUse" viewBox="0 0 16 16" width="16">
      <image height="16" width="16" xlink:href="data:image/PNG;base64,iVBORw0KGgoAAAANSUhEUgAAABAAAAAQCAYAAAAf8/9hAAAAj0lEQVR42mNgGL6gWILhPzJNssZzUzj+w9hriwWINwSkGKR5aTbHfxAbZAgyJsoQkGaQYpBBYMM0Gf63BHHgNwCmAcY/duzYfxhAFica/EcCIMNAhhAdFiAngzS93+v0vyW7GO5/kNeICkSQQphikgIPWWF2djU8OmGuIitBwQ3IJiEgkV1CkkbkcKBbngEAzsp4WNDMDaIAAAAASUVORK5CYII="/>
    </pattern>
    <path d="M-8.0 -8.0 L8.0 -8.0 8.0 8.0 -8.0 8.0 -8.0 -8.0" style="fill:url(#PatternID_72_1)"/>
  </g>
</svg>
