<?xml version="1.0" encoding="UTF-8" standalone="no"?>
<svg xmlns:xlink="http://www.w3.org/1999/xlink" height="302.0px" width="269.25px" xmlns="http://www.w3.org/2000/svg">
  <g transform="matrix(1.0, 0.0, 0.0, 1.0, 118.75, 151.0)">
    <path d="M0.55 -149.85 L0.5 -149.65 0.45 -149.65 0.45 -149.85 0.55 -149.85" fill="none" stroke="#cccccc" stroke-linecap="round" stroke-linejoin="round" stroke-width="1.0"/>
    <path d="M149.5 -150.5 L149.25 -150.0 M62.5 -88.5 L80.5 -88.5" fill="none" stroke="#999999" stroke-linecap="round" stroke-linejoin="round" stroke-width="1.0"/>
    <path d="M149.25 -150.0 L150.0 -150.0 M0.55 -149.85 L0.35 -150.0 0.0 -150.0 -1.05 -150.0 -42.0 -125.5 -49.4 -97.5 -49.0 -97.5 M0.0 -150.0 L0.0 -150.2 -0.5 -150.5 M0.0 -150.2 L0.35 -150.0 M0.0 -140.35 L0.0 -139.4 14.3 -108.9 29.5 -113.5 0.0 -140.35 0.0 -140.5 -0.25 -139.95 0.0 -139.4 0.0 -104.6 14.3 -108.9 14.5 -108.5 18.5 -67.5 37.5 -75.45 37.5 -75.5 29.5 -113.5 M0.0 -104.6 L0.0 -104.45 0.0 -59.7 18.5 -67.5 M48.5 -97.5 L48.9 -97.5 41.5 -125.5 0.55 -149.85 M80.5 -88.5 L83.0 -97.5 60.3 -97.5 62.5 -88.5 62.4 -67.85 79.5 -62.6 79.55 -62.55 102.5 -55.5 114.5 -40.5 114.5 117.65 106.45 122.2 117.75 150.0 61.6 150.0 72.1 128.4 66.75 125.8 66.65 125.45 66.5 125.45 18.4 129.1 27.1 150.5 -29.05 150.5 -18.65 129.1 -67.0 125.45 -67.1 125.45 -67.25 125.8 -72.55 128.4 -62.05 150.0 -118.25 150.0 -106.9 122.2 -115.0 117.65 -115.0 -40.5 -103.0 -55.5 -80.0 -62.55 -79.95 -62.6 -62.85 -67.85 -63.0 -88.5 M62.4 -67.85 L62.4 -67.25 M37.5 -75.45 L40.5 -59.5 61.5 -51.5 79.55 -62.55 M80.5 -88.5 L80.45 -62.9 M48.9 -97.5 L56.25 -69.75 62.4 -67.85 M0.0 -59.7 L0.0 -59.5 -0.25 -59.6 -0.5 -59.5 -0.5 -59.7 -19.0 -67.5 -37.95 -75.45 -41.0 -59.5 -0.5 -51.05 M0.0 -26.5 Q5.9 -26.35 10.1 -22.15 14.5 -17.75 14.5 -11.5 14.5 -5.3 10.1 -0.9 5.9 3.3 0.0 3.5 6.25 3.5 10.65 -0.9 15.0 -5.3 15.0 -11.5 15.0 -17.75 10.65 -22.15 6.25 -26.55 0.0 -26.5 L-0.5 -26.5 Q-6.4 -26.35 -10.6 -22.15 -15.0 -17.75 -15.0 -11.5 -15.0 -5.3 -10.6 -0.9 -6.4 3.3 -0.5 3.5 L0.0 3.5 M0.0 -51.05 L40.5 -59.5 M114.5 -40.5 L84.5 -17.5 84.5 134.5 106.45 122.2 M84.5 -17.5 L61.5 -51.5 61.5 112.25 M0.0 91.5 Q6.25 91.5 10.65 87.1 15.0 82.7 15.0 76.5 15.0 70.25 10.65 65.85 6.25 61.45 0.0 61.5 5.9 61.65 10.1 65.85 14.5 70.25 14.5 76.5 14.5 82.7 10.1 87.1 5.9 91.3 0.0 91.5 L-0.5 91.5 Q-6.75 91.5 -11.1 87.1 -15.5 82.7 -15.5 76.5 -15.5 70.25 -11.1 65.85 -6.75 61.45 -0.5 61.5 L0.0 61.5 M66.65 125.45 L61.5 112.65 M0.0 130.5 L18.4 129.1 M0.0 108.5 L0.0 108.55 -0.25 108.55 -0.5 108.5 -0.5 108.4 -0.5 108.25 -35.0 89.5 -37.0 -22.5 -0.25 -40.35 36.5 -22.5 34.5 89.5 0.0 108.25 0.0 108.4 0.0 108.5 -0.25 108.45 -0.5 108.5 -0.35 108.45 -0.5 108.4 M72.1 128.4 L84.5 134.5 M-37.95 -75.45 L-37.95 -75.5 -30.0 -113.5 -0.5 -140.35 -0.5 -140.5 -0.25 -139.95 -0.5 -139.4 -14.8 -108.9 -0.45 -104.55 -0.25 -104.5 0.0 -104.6 M-0.5 -140.35 L-0.5 -139.4 M-0.45 -104.55 L-0.45 -104.45 -0.25 -104.5 0.0 -104.45 M-19.0 -67.5 L-15.0 -108.5 -14.8 -108.9 -30.0 -113.5 M-81.0 -88.5 L-63.5 -88.5 -60.8 -97.5 -83.5 -97.5 -81.5 -88.5 -81.0 -88.5 -80.9 -62.9 M-115.0 -40.5 L-85.0 -17.5 -62.0 -51.5 -80.0 -62.55 M-0.25 -59.6 L-0.5 -59.7 M-62.85 -67.25 L-62.85 -67.85 -56.7 -69.75 -49.4 -97.5 M-62.0 -51.5 L-41.0 -59.5 M-0.5 -26.5 Q-6.75 -26.55 -11.1 -22.15 -15.5 -17.75 -15.5 -11.5 -15.5 -5.3 -11.1 -0.9 -6.75 3.5 -0.5 3.5 M-0.5 61.5 Q-6.4 61.65 -10.6 65.85 -15.0 70.25 -15.0 76.5 -15.0 82.7 -10.6 87.1 -6.4 91.3 -0.5 91.5 M-72.55 128.4 L-85.0 134.5 -106.9 122.2 M0.0 108.25 L-0.25 108.35 -0.1 108.45 0.0 108.4 M0.0 108.5 L-0.1 108.45 -0.25 108.45 -0.35 108.45 -0.25 108.35 -0.5 108.25 M-0.5 130.5 L-18.65 129.1 M-67.1 125.45 L-62.0 112.65 M-62.0 -51.5 L-62.0 112.25 M-85.0 -17.5 L-85.0 134.5 M0.0 -59.7 L-0.25 -59.6 M-0.25 108.55 L0.0 108.5" fill="none" stroke="#999999" stroke-linecap="round" stroke-linejoin="round" stroke-width="1.0"/>
  </g>
</svg>
