<?xml version="1.0" encoding="UTF-8" standalone="no"?>
<svg xmlns:xlink="http://www.w3.org/1999/xlink" height="16.0px" width="16.0px" xmlns="http://www.w3.org/2000/svg">
  <g transform="matrix(1.0, 0.0, 0.0, 1.0, 8.0, 8.0)">
    <pattern height="16" id="PatternID_76_1" overflow="visible" patternTransform="matrix(1.0, 0.0, 0.0, 1.0, -8.0, -8.0)" patternUnits="userSpaceOnUse" viewBox="0 0 16 16" width="16">
      <image height="16" width="16" xlink:href="data:image/PNG;base64,iVBORw0KGgoAAAANSUhEUgAAABAAAAAQCAYAAAAf8/9hAAAAWklEQVR42mNgoAcolmD4T7Tic1M4/iNrJEkzCExJhhiArBEXmywv4DTg/1Kn/xTbhM1msp0MwkuzOf6jGwITx+tXsm1FjkKKEgy6k6kSoPRLymQnJLq5Bh0AAK9VOPyVccFhAAAAAElFTkSuQmCC"/>
    </pattern>
    <path d="M-8.0 -8.0 L8.0 -8.0 8.0 8.0 -8.0 8.0 -8.0 -8.0" style="fill:url(#PatternID_76_1)"/>
  </g>
</svg>
