<?xml version="1.0" encoding="UTF-8" standalone="no"?>
<svg xmlns:xlink="http://www.w3.org/1999/xlink" height="34.0px" width="32.0px" xmlns="http://www.w3.org/2000/svg">
  <g transform="matrix(1.0, 0.0, 0.0, 1.0, 16.0, 17.0)">
    <path d="M6.5 16.5 L-6.5 16.5 Q-9.7 16.6 -14.65 9.55 L-15.5 3.5 Q-12.4 -7.45 -4.5 -16.5 L4.5 -16.5 Q12.4 -7.45 15.5 3.5 L14.65 9.55 Q9.7 16.6 6.5 16.5 Z" fill="none" stroke="#3366ff" stroke-linecap="round" stroke-linejoin="round" stroke-width="1.0"/>
  </g>
</svg>
