<?xml version="1.0" encoding="UTF-8" standalone="no"?>
<svg xmlns:xlink="http://www.w3.org/1999/xlink" height="38.0px" width="41.05px" xmlns="http://www.w3.org/2000/svg">
  <g transform="matrix(1.0, 0.0, 0.0, 1.0, 21.0, 18.0)">
    <path d="M-10.5 19.5 L-20.5 11.5 -20.5 -1.35 -7.5 -17.5 6.15 -17.5 M-10.0 19.5 L9.5 19.5 19.5 11.5 19.55 -1.35 6.5 -17.5" fill="none" stroke="#00ffff" stroke-linecap="round" stroke-linejoin="round" stroke-width="1.0"/>
  </g>
</svg>
