<?xml version="1.0" encoding="UTF-8" standalone="no"?>
<svg xmlns:xlink="http://www.w3.org/1999/xlink" height="30.1px" width="30.1px" xmlns="http://www.w3.org/2000/svg">
  <g transform="matrix(1.0, 0.0, 0.0, 1.0, 15.05, 15.05)">
    <path d="M1.55 -8.7 L3.05 -8.7 3.8 3.95 4.55 2.35 5.3 2.7 5.4 2.75 6.8 3.3 7.7 3.7 7.7 2.45 7.75 2.45 7.75 1.55 7.7 1.55 7.7 -1.5 8.5 -1.5 8.5 0.8 8.5 4.0 7.7 3.7 8.5 4.0 9.8 4.55 10.45 4.8 9.8 5.55 3.8 3.95 0.05 3.95 -3.65 3.95 -4.65 4.1 -9.75 5.45 -10.4 4.7 -9.75 5.45 -4.65 4.1 -3.65 3.95 0.05 3.95 3.8 3.95 9.8 5.55 10.45 4.8 10.5 4.85 12.0 5.05 15.0 5.55 15.0 11.85 14.25 12.05 14.3 6.2 9.8 5.55 9.05 13.4 5.3 13.4 5.3 12.6 5.3 11.85 3.8 11.85 3.05 11.05 0.05 11.05 -2.95 11.05 -3.65 11.85 -4.6 11.85 -5.25 11.75 -5.25 12.5 -5.25 13.3 -9.0 13.3 -9.75 5.45 -14.25 6.1 -14.25 11.95 -15.0 11.75 -15.0 5.45 -11.95 4.95 -10.5 4.75 -10.4 4.7 -9.75 4.45 -8.55 3.9 -7.75 3.6 -6.75 3.2 -5.4 2.65 -5.25 2.6 -4.4 2.35 -3.65 3.95 -2.95 -8.7 -1.45 -8.7 1.55 -8.7 M0.5 -2.15 L0.45 -2.3 0.45 -6.15 0.8 -6.15 0.55 -8.55 -0.4 -8.55 -0.7 -6.15 -0.3 -6.15 -0.3 -2.3 -0.4 -2.15 -0.7 -1.5 -0.7 1.65 Q0.1 2.6 0.8 1.65 L0.8 -1.5 0.5 -2.15 M8.45 -1.5 L8.5 0.8 8.45 -1.5 M-3.65 3.95 L-3.65 11.85 -3.65 3.95 M0.05 3.95 L0.05 11.05 0.05 3.95 M3.8 3.95 L3.8 11.85 3.8 3.95" fill="#cccccc" fill-rule="evenodd" stroke="none"/>
    <path d="M0.45 -6.15 L0.45 -2.3 0.5 -2.15 0.8 -1.5 0.8 1.65 Q0.1 2.6 -0.7 1.65 L-0.7 -1.5 -0.4 -2.15 -0.3 -2.3 -0.3 -6.15 0.45 -6.15 M-6.75 3.2 L-6.05 2.75 -5.85 2.65 -5.65 2.55 -5.4 2.4 -5.25 2.25 -5.25 2.6 -5.4 2.65 -6.75 3.2 M-5.4 2.65 L-6.05 2.75 -5.4 2.65 M-4.4 12.6 L-0.7 12.6 -1.45 14.2 -3.65 14.2 -4.4 12.6 M4.55 12.6 L3.8 14.2 1.55 14.2 0.8 12.6 4.55 12.6 M5.3 2.7 L5.3 2.35 5.45 2.5 5.65 2.65 5.85 2.75 6.1 2.85 6.8 3.3 5.4 2.75 5.3 2.7 M6.1 2.85 L5.4 2.75 6.1 2.85 M-0.3 -2.3 L0.45 -2.3 -0.3 -2.3 M-0.7 -1.5 Q0.05 -0.75 0.8 -1.5 0.05 -0.75 -0.7 -1.5" fill="#999999" fill-rule="evenodd" stroke="none"/>
    <path d="M10.45 4.8 L9.8 4.55 9.8 4.05 9.8 2.0 12.0 2.0 12.0 5.05 10.5 4.85 10.45 4.8 M-9.75 3.95 L-9.75 4.45 -10.4 4.7 -10.5 4.75 -11.95 4.95 -12.0 1.9 -9.75 1.9 -9.75 3.95 M-5.25 12.5 L-5.25 11.75 -4.6 11.85 -3.65 11.85 -2.95 11.05 0.05 11.05 0.05 12.6 0.05 11.05 3.05 11.05 3.8 11.85 5.3 11.85 5.3 12.6 4.55 12.6 0.8 12.6 0.05 12.6 -0.7 12.6 -4.4 12.6 -4.65 12.6 -4.65 12.5 -5.25 12.5 M-9.7 13.15 L-9.85 14.9 -12.1 14.9 -12.05 13.15 -12.1 12.5 -9.7 13.15 M12.1 12.6 L12.1 13.25 12.1 15.0 9.9 15.0 9.7 13.25 12.1 12.6" fill="#ffffff" fill-rule="evenodd" stroke="none"/>
    <path d="M1.55 -8.7 L2.3 -10.3 2.3 -11.05 0.8 -14.2 -0.7 -14.2 -2.2 -11.05 -2.2 -10.3 -1.45 -8.7 -2.95 -8.7 -3.65 3.95 -4.4 2.35 -3.65 -10.3 -1.45 -15.0 1.55 -15.0 3.8 -10.3 4.55 2.35 3.8 3.95 3.05 -8.7 1.55 -8.7" fill="#66ffff" fill-rule="evenodd" stroke="none"/>
    <path d="M-1.45 -8.7 L-2.2 -10.3 -2.2 -11.05 -0.7 -14.2 0.8 -14.2 2.3 -11.05 2.3 -10.3 1.55 -8.7 -1.45 -8.7" fill="#6666ff" fill-rule="evenodd" stroke="none"/>
    <path d="M-14.25 11.95 L-14.25 6.1 -9.75 5.45 -9.0 13.3 -9.7 13.15 -12.1 12.5 -14.25 11.95 M9.8 5.55 L14.3 6.2 14.25 12.05 12.1 12.6 9.7 13.25 9.05 13.4 9.8 5.55" fill="#66ccff" fill-rule="evenodd" stroke="none"/>
    <path d="M-0.3 -6.15 L-0.7 -6.15 -0.4 -8.55 0.55 -8.55 0.8 -6.15 0.45 -6.15 -0.3 -6.15 M8.5 -1.5 L7.7 -1.5 7.35 -1.5 7.6 -3.85 8.55 -3.85 8.85 -1.5 8.5 -1.5" fill="#ffff00" fill-rule="evenodd" stroke="none"/>
    <path d="M-1.45 -8.7 L-2.2 -10.3 -2.2 -11.05 -0.7 -14.2 0.8 -14.2 2.3 -11.05 2.3 -10.3 1.55 -8.7 3.05 -8.7 3.8 3.95 4.55 2.35 3.8 -10.3 1.55 -15.0 -1.45 -15.0 -3.65 -10.3 -4.4 2.35 -3.65 3.95 -2.95 -8.7 -1.45 -8.7 1.55 -8.7 M0.45 -6.15 L0.45 -2.3 0.5 -2.15 M0.8 -1.5 L0.8 1.65 M-0.7 1.65 L-0.7 -1.5 M-0.4 -2.15 L-0.3 -2.3 -0.3 -6.15 -0.7 -6.15 -0.4 -8.55 0.55 -8.55 0.8 -6.15 0.45 -6.15 -0.3 -6.15 M8.5 -1.5 L8.85 -1.5 M7.7 3.7 L8.5 4.0 9.8 4.55 10.45 4.8 9.8 5.55 14.3 6.2 14.25 12.05 12.1 12.6 9.7 13.25 9.05 13.4 5.3 13.4 5.3 12.6 4.55 12.6 M-7.75 3.6 L-6.75 3.2 -6.05 2.75 M-5.25 2.6 L-4.4 2.35 M-8.5 -1.6 L-8.45 -1.6 M-10.4 4.7 L-9.75 5.45 -4.65 4.1 -3.65 3.95 0.05 3.95 3.8 3.95 9.8 5.55 9.05 13.4 M-9.75 3.95 L-9.75 1.9 -12.0 1.9 -11.95 4.95 -10.5 4.75 -10.4 4.7 -9.75 4.45 -8.55 3.9 -7.75 3.6 M-5.25 12.5 L-5.25 11.75 -4.6 11.85 -3.65 11.85 -3.65 3.95 M0.05 11.05 L-2.95 11.05 -3.65 11.85 M-11.95 4.95 L-15.0 5.45 -15.0 11.75 -14.25 11.95 -14.25 6.1 -9.75 5.45 -9.0 13.3 -5.25 13.3 -5.25 12.5 -4.65 12.5 M-4.65 12.6 L-4.4 12.6 M-0.7 12.6 L0.05 12.6 0.05 11.05 0.05 3.95 M-12.05 13.15 L-12.1 14.9 -9.85 14.9 -9.7 13.15 -12.1 12.5 -14.25 11.95 M-9.7 13.15 L-9.0 13.3 M12.0 5.05 L12.0 2.0 9.8 2.0 9.8 4.05 M12.0 5.05 L10.5 4.85 10.45 4.8 M14.25 12.05 L15.0 11.85 15.0 5.55 12.0 5.05 M12.1 13.25 L12.1 15.0 9.9 15.0 9.7 13.25 M0.8 12.6 L0.05 12.6 M6.1 2.85 L6.8 3.3 7.7 3.7 M5.3 2.7 L4.55 2.35 M0.05 11.05 L3.05 11.05 3.8 11.85 3.8 3.95 M5.3 12.6 L5.3 11.85 3.8 11.85" fill="none" stroke="#000000" stroke-linecap="round" stroke-linejoin="round" stroke-width="0.1"/>
    <path d="M0.5 -2.15 L0.8 -1.5 Q0.05 -0.75 -0.7 -1.5 L-0.4 -2.15 M0.8 1.65 Q0.1 2.6 -0.7 1.65 M-6.05 2.75 L-5.4 2.65 M-9.75 4.45 L-9.75 3.95 M-12.1 12.5 L-12.05 13.15 M9.8 4.05 L9.8 4.55 M12.1 12.6 L12.1 13.25 M5.4 2.75 L6.1 2.85 M0.45 -2.3 L-0.3 -2.3" fill="none" stroke="#000000" stroke-linecap="round" stroke-linejoin="round" stroke-width="0.1"/>
    <path d="M-4.4 12.6 L-0.7 12.6 -1.45 14.2 -3.65 14.2 -4.4 12.6 M4.55 12.6 L3.8 14.2 1.55 14.2 0.8 12.6 4.55 12.6" fill="none" stroke="#999999" stroke-linecap="round" stroke-linejoin="round" stroke-width="0.1"/>
    <path d="M-8.45 -1.6 L-8.45 -1.4" fill="none" stroke="#cccccc" stroke-linecap="round" stroke-linejoin="round" stroke-width="0.1"/>
    <path d="M7.7 -1.5 L8.5 -1.5 M8.85 -1.5 L8.55 -3.85 7.6 -3.85 7.35 -1.5 7.7 -1.5 M-8.55 -1.6 L-8.8 -1.6 -8.55 -3.95 -7.6 -3.95 -7.3 -1.6 -7.75 -1.4 M-8.45 -1.6 L-7.75 -1.6 -7.7 -1.6" fill="none" stroke="#ffff00" stroke-linecap="round" stroke-linejoin="round" stroke-width="0.1"/>
    <path d="M7.7 -1.5 L7.7 1.55 7.7 2.45 7.7 3.7 M8.5 4.0 L8.5 0.8 8.5 -1.5 M-7.75 -1.4 L-7.75 3.6 M-7.75 -1.6 L-7.75 -1.4 M-8.55 3.9 L-8.55 -1.4" fill="none" stroke="#cccccc" stroke-linecap="round" stroke-linejoin="round" stroke-width="0.30000000000000004"/>
  </g>
</svg>
