<?xml version="1.0" encoding="UTF-8" standalone="no"?>
<svg xmlns:xlink="http://www.w3.org/1999/xlink" height="21.0px" width="21.0px" xmlns="http://www.w3.org/2000/svg">
  <g transform="matrix(1.0, 0.0, 0.0, 1.0, 10.5, 10.5)">
    <path d="M2.0 -3.75 L2.25 -3.5 Q3.15 -2.5 3.35 -1.15 L3.45 -0.2 Q3.45 1.7 2.25 3.1 1.15 4.45 -0.5 4.45 L-0.55 4.45 -0.65 4.45 -1.3 4.35 Q-2.4 4.1 -3.3 3.1 L-3.9 2.15 Q-4.45 1.1 -4.4 -0.2 L-4.4 -0.8 -4.35 -1.15 Q-4.15 -2.5 -3.3 -3.5 L-3.25 -3.5 Q-2.4 -4.5 -1.3 -4.75 L-0.65 -4.85 -0.5 -4.85 Q0.95 -4.85 2.0 -3.75" fill="url(#gradient0)" fill-rule="evenodd" stroke="none"/>
    <path d="M2.0 -3.75 L6.2 -8.35 M-0.55 4.45 L-0.55 10.0 M4.0 -0.8 L10.0 -0.8 M3.2 2.6 L6.85 6.2 M-4.4 -0.8 L-10.0 -0.8 M-3.25 -3.5 L-7.55 -7.5 M-0.65 -4.85 L-0.65 -10.0 M-3.9 2.15 L-8.15 6.2" fill="none" stroke="#990000" stroke-linecap="round" stroke-linejoin="round" stroke-width="1.0"/>
    <path d="M2.0 -3.75 L2.25 -3.5 Q3.15 -2.5 3.35 -1.15 L3.45 -0.2 Q3.45 1.7 2.25 3.1 1.15 4.45 -0.5 4.45 L-0.55 4.45 -0.65 4.45 -1.3 4.35 Q-2.4 4.1 -3.3 3.1 L-3.9 2.15 Q-4.45 1.1 -4.4 -0.2 L-4.4 -0.8 -4.35 -1.15 Q-4.15 -2.5 -3.3 -3.5 L-3.25 -3.5 Q-2.4 -4.5 -1.3 -4.75 L-0.65 -4.85 -0.5 -4.85 Q0.95 -4.85 2.0 -3.75 Z" fill="none" stroke="#993300" stroke-linecap="round" stroke-linejoin="round" stroke-width="1.0"/>
  </g>
  <defs>
    <linearGradient gradientTransform="matrix(0.0048, 0.0, 0.0, 0.0057, -0.5, -0.2)" gradientUnits="userSpaceOnUse" id="gradient0" spreadMethod="pad" x1="-819.2" x2="819.2">
      <stop offset="0.0" stop-color="#b10303"/>
      <stop offset="1.0" stop-color="#f72d2d"/>
    </linearGradient>
  </defs>
</svg>
