<?xml version="1.0" encoding="UTF-8" standalone="no"?>
<svg xmlns:xlink="http://www.w3.org/1999/xlink" height="27.0px" width="37.0px" xmlns="http://www.w3.org/2000/svg">
  <g transform="matrix(1.0, 0.0, 0.0, 1.0, 18.5, 13.5)">
    <path d="M17.5 -12.5 L17.5 12.5 -17.5 12.5 -17.5 -12.5 17.5 -12.5" fill="#ffffff" fill-rule="evenodd" stroke="none"/>
    <path d="M17.5 -12.5 L17.5 12.5 -17.5 12.5 -17.5 -12.5 17.5 -12.5 Z" fill="none" stroke="#000000" stroke-linecap="round" stroke-linejoin="round" stroke-width="2.0"/>
  </g>
</svg>
