<?xml version="1.0" encoding="UTF-8" standalone="no"?>
<svg xmlns:xlink="http://www.w3.org/1999/xlink" height="17.3px" width="22.05px" xmlns="http://www.w3.org/2000/svg">
  <g transform="matrix(1.0, 0.0, 0.0, 1.0, 11.0, 8.65)">
    <path d="M11.05 -5.35 L-10.7 -5.35 -10.7 -8.65 11.05 -8.65 11.05 -5.35 M-11.0 5.35 L10.7 5.35 10.7 8.65 -11.0 8.65 -11.0 5.35 M3.45 1.65 L-3.45 1.65 -3.45 -1.65 3.45 -1.65 3.45 1.65" fill="#ffcc00" fill-rule="evenodd" stroke="none"/>
  </g>
</svg>
