<?xml version="1.0" encoding="UTF-8" standalone="no"?>
<svg xmlns:xlink="http://www.w3.org/1999/xlink" height="112.0px" width="112.0px" xmlns="http://www.w3.org/2000/svg">
  <g transform="matrix(1.0, 0.0, 0.0, 1.0, 56.0, 56.0)">
    <path d="M55.0 -45.0 L55.0 44.0 Q53.1 53.65 42.0 55.0 L-41.0 55.0 Q-55.0 54.5 -55.0 41.0 L-55.0 -42.95 Q-52.65 -55.9 -40.05 -54.95 L42.0 -54.95 Q54.05 -53.7 55.0 -45.0 Z" fill="none" stroke="#006699" stroke-linecap="round" stroke-linejoin="round" stroke-width="2.0"/>
  </g>
</svg>
