<?xml version="1.0" encoding="UTF-8" standalone="no"?>
<svg xmlns:xlink="http://www.w3.org/1999/xlink" height="30.55px" width="40.0px" xmlns="http://www.w3.org/2000/svg">
  <g transform="matrix(1.0, 0.0, 0.0, 1.0, 20.0, 15.05)">
    <use data-characterId="630" height="30.55" transform="matrix(1.0, 0.0, 0.0, 1.0, -20.0, -15.05)" width="40.0" xlink:href="#shape0"/>
  </g>
  <defs>
    <g id="shape0" transform="matrix(1.0, 0.0, 0.0, 1.0, 20.0, 15.05)">
      <path d="M7.0 -14.55 Q14.45 -13.2 17.75 -8.6 L19.5 0.25 17.9 8.3 Q14.45 13.45 7.0 15.0 M-7.0 15.0 Q-14.45 13.65 -18.0 9.1 L-19.5 0.25 -18.0 -8.6 Q-14.45 -13.15 -7.0 -14.55" fill="none" stroke="#00ffff" stroke-linecap="round" stroke-linejoin="round" stroke-width="1.0"/>
      <path d="M7.0 15.0 L-7.0 15.0 M-7.0 -14.55 L7.0 -14.55" fill="none" stroke="#00ffff" stroke-linecap="round" stroke-linejoin="round" stroke-width="1.0"/>
    </g>
  </defs>
</svg>
