<?xml version="1.0" encoding="UTF-8" standalone="no"?>
<svg xmlns:xlink="http://www.w3.org/1999/xlink" height="174.55px" width="188.1px" xmlns="http://www.w3.org/2000/svg">
  <g transform="matrix(1.0, 0.0, 0.0, 1.0, 36.0, 37.55)">
    <path d="M36.5 54.5 L67.5 54.5 67.5 73.05 36.5 73.05 36.5 54.5" fill="#000000" fill-rule="evenodd" stroke="none"/>
    <path d="M36.5 54.5 L36.5 73.05 67.5 73.05 67.5 54.5 36.5 54.5 M151.1 -36.55 L151.1 136.0 -35.0 136.0 -35.0 -36.55 151.1 -36.55" fill="#000000" fill-opacity="0.8" fill-rule="evenodd" stroke="none"/>
    <path d="M151.1 -36.55 L-35.0 -36.55 -35.0 136.0 151.1 136.0 151.1 -36.55" fill="none" stroke="#cccccc" stroke-linecap="butt" stroke-linejoin="miter-clip" stroke-miterlimit="3.0" stroke-width="2.0"/>
    <path d="M36.5 54.5 L67.5 54.5 67.5 73.05 36.5 73.05 36.5 54.5 Z" fill="none" stroke="#cccccc" stroke-linecap="butt" stroke-linejoin="miter-clip" stroke-miterlimit="3.0" stroke-width="1.0"/>
  </g>
</svg>
