<?xml version="1.0" encoding="UTF-8" standalone="no"?>
<svg xmlns:xlink="http://www.w3.org/1999/xlink" height="247.45px" width="171.0px" xmlns="http://www.w3.org/2000/svg">
  <g transform="matrix(1.0, 0.0, 0.0, 1.0, -6.7, -35.75)">
    <path d="M177.2 282.7 L7.2 282.7 7.2 36.25 177.2 36.25 177.2 282.7" fill="#000099" fill-opacity="0.14901961" fill-rule="evenodd" stroke="none"/>
    <path d="M177.2 282.7 L7.2 282.7 7.2 36.25 177.2 36.25 177.2 282.7 Z" fill="none" stroke="#003366" stroke-linecap="butt" stroke-linejoin="miter-clip" stroke-miterlimit="3.0" stroke-width="1.0"/>
  </g>
</svg>
