<?xml version="1.0" encoding="UTF-8" standalone="no"?>
<svg xmlns:xlink="http://www.w3.org/1999/xlink" height="16.0px" width="11.0px" xmlns="http://www.w3.org/2000/svg">
  <g transform="matrix(1.0, 0.0, 0.0, 1.0, 0.45, 0.5)">
    <path d="M10.05 15.0 L0.05 15.0 0.05 0.0 10.05 0.0 10.05 15.0" fill="#cc9900" fill-rule="evenodd" stroke="none"/>
    <path d="M10.05 15.0 L0.05 15.0 0.05 0.0 10.05 0.0 10.05 15.0 Z" fill="none" stroke="#333333" stroke-linecap="butt" stroke-linejoin="miter-clip" stroke-miterlimit="3.0" stroke-width="1.0"/>
  </g>
</svg>
