<?xml version="1.0" encoding="UTF-8" standalone="no"?>
<svg xmlns:xlink="http://www.w3.org/1999/xlink" height="13.0px" width="80.0px" xmlns="http://www.w3.org/2000/svg">
  <g transform="matrix(1.0, 0.0, 0.0, 1.0, -1.0, -1.0)">
    <path d="M74.0 13.0 L74.0 2.0 M71.0 13.0 L71.0 2.0 M77.0 13.0 L77.0 2.0 M80.0 13.0 L80.0 2.0 M65.0 13.0 L65.0 2.0 M62.0 13.0 L62.0 2.0 M68.0 13.0 L68.0 2.0 M59.0 13.0 L59.0 2.0 M41.0 13.0 L41.0 2.0 M56.0 13.0 L56.0 2.0 M50.0 13.0 L50.0 2.0 M44.0 13.0 L44.0 2.0 M53.0 13.0 L53.0 2.0 M47.0 13.0 L47.0 2.0 M38.0 13.0 L38.0 2.0 M35.0 13.0 L35.0 2.0 M32.0 13.0 L32.0 2.0 M26.0 13.0 L26.0 2.0 M23.0 13.0 L23.0 2.0 M29.0 13.0 L29.0 2.0 M20.0 13.0 L20.0 2.0 M14.0 13.0 L14.0 2.0 M17.0 13.0 L17.0 2.0" fill="none" stroke="#006600" stroke-linecap="butt" stroke-linejoin="miter-clip" stroke-miterlimit="3.0" stroke-width="2.0"/>
    <path d="M11.0 13.0 L11.0 2.0 M8.0 13.0 L8.0 2.0 M5.0 13.0 L5.0 2.0 M2.0 13.0 L2.0 2.0" fill="none" stroke="#ff0000" stroke-linecap="butt" stroke-linejoin="miter-clip" stroke-miterlimit="3.0" stroke-width="2.0"/>
  </g>
</svg>
