<?xml version="1.0" encoding="UTF-8" standalone="no"?>
<svg xmlns:xlink="http://www.w3.org/1999/xlink" height="120.0px" width="120.0px" xmlns="http://www.w3.org/2000/svg">
  <g transform="matrix(1.0, 0.0, 0.0, 1.0, 60.0, 60.0)">
    <path d="M1.85 -57.7 Q10.4 -57.45 18.6 -54.65 L-3.25 -39.65 6.7 -39.8 6.9 -39.75 22.65 -53.1 Q30.3 -49.85 36.95 -44.35 L20.35 -34.1 21.1 -33.55 22.95 -31.6 23.25 -31.2 38.5 -43.0 Q22.2 -57.75 0.0 -57.75 L-4.05 -57.6 -37.5 -34.35 -37.35 -34.45 -30.5 -36.45 -18.75 -38.4 1.85 -57.7 M-25.7 -30.3 Q-16.95 -31.85 -8.05 -32.4 1.4 -33.4 11.0 -32.8 L20.1 -31.4 Q16.7 -34.35 12.2 -36.0 5.35 -38.3 -1.85 -37.75 -12.0 -37.6 -22.0 -36.1 -32.0 -34.6 -41.0 -30.3 -44.6 -28.6 -44.15 -24.8 L-44.05 -23.7 Q-43.7 -18.0 -43.65 -12.35 L-42.4 -11.8 Q-39.95 -10.25 -39.5 -7.2 L-39.1 -2.8 Q-38.9 2.65 -39.1 8.15 -39.2 10.5 -41.25 11.35 -40.2 14.65 -38.45 17.55 L-35.9 21.4 -37.9 10.95 -39.1 -20.45 Q-39.1 -23.95 -36.1 -25.95 -31.35 -29.1 -25.75 -30.3 L-25.3 -28.15 -28.25 -27.25 Q-37.3 -24.2 -36.85 -20.5 -36.5 -16.9 -36.35 -6.75 -36.2 3.65 -35.85 8.6 -35.2 17.0 -33.55 21.4 -32.2 25.0 -22.45 25.7 -13.75 26.3 -1.75 24.55 10.05 22.75 18.25 19.65 27.25 16.3 27.3 12.95 27.4 3.85 26.75 -5.5 25.9 -17.7 23.95 -25.35 22.95 -29.4 13.1 -30.9 4.25 -32.25 -7.95 -31.1 -17.5 -30.3 -24.6 -28.35 L-25.7 -30.3 M36.55 -37.05 Q35.75 -36.3 35.8 -35.25 35.75 -34.2 36.55 -33.4 37.3 -32.65 38.35 -32.65 39.4 -32.65 40.2 -33.4 40.95 -34.2 40.95 -35.25 40.95 -36.3 40.2 -37.05 39.4 -37.85 38.35 -37.85 37.3 -37.85 36.55 -37.05 M27.95 -29.9 Q27.95 -28.85 28.7 -28.05 29.45 -27.3 30.55 -27.3 31.6 -27.3 32.4 -28.05 33.15 -28.85 33.15 -29.9 33.15 -30.95 32.4 -31.7 31.6 -32.5 30.55 -32.5 29.45 -32.5 28.7 -31.7 27.95 -30.95 27.95 -29.9 M-21.65 -23.75 Q-4.75 -28.7 12.5 -26.7 15.35 -26.25 17.85 -24.6 18.65 -24.1 18.9 -23.25 22.3 -10.75 22.4 2.25 L22.15 10.0 Q21.95 12.55 19.5 13.65 4.55 20.1 -11.85 20.55 -19.45 21.3 -26.45 18.95 L-28.2 17.9 Q-30.4 15.6 -30.7 12.4 -31.8 0.85 -31.35 -10.8 -25.2 -13.0 -19.25 -10.45 -17.6 -9.7 -16.2 -8.5 L-11.35 -3.7 -15.05 -10.95 Q-10.25 -10.3 -7.8 -13.85 -7.55 -14.25 -7.8 -14.6 -8.65 -16.0 -10.25 -16.2 -12.5 -16.7 -14.9 -16.15 -11.15 -20.75 -5.45 -22.8 L-4.85 -23.05 Q-10.7 -21.1 -16.75 -21.25 -19.75 -21.35 -21.65 -23.75 M-31.35 -12.45 L-31.55 -16.9 Q-31.95 -20.0 -24.65 -22.75 -25.4 -16.6 -30.6 -12.95 L-31.35 -12.45 M30.55 -19.55 L31.85 -18.8 32.7 -17.95 49.0 -30.5 Q52.6 -24.65 54.85 -18.0 L34.4 -5.7 33.6 -2.15 Q33.05 0.0 31.75 1.85 30.8 3.2 29.45 3.55 L29.5 4.7 55.65 -15.45 56.95 -9.95 Q54.55 -24.85 44.75 -36.4 L47.35 -33.0 27.1 -20.7 27.2 -20.1 29.1 -20.1 30.55 -19.55 M30.8 -16.7 Q29.35 -18.15 27.6 -17.95 L28.1 -14.9 29.25 1.2 Q30.85 0.35 31.95 -4.4 33.1 -9.3 32.75 -12.4 32.45 -15.1 30.8 -16.7 M42.4 -42.4 Q60.0 -24.8 60.0 0.0 60.0 24.75 42.4 42.4 24.75 60.0 0.0 60.0 -24.8 60.0 -42.4 42.4 -60.05 24.75 -60.0 0.0 -60.05 -24.8 -42.4 -42.4 -24.8 -60.0 0.0 -60.0 24.75 -60.0 42.4 -42.4 M-48.15 31.8 L-49.35 29.95 -39.65 28.45 -38.75 27.2 -37.35 25.65 -36.0 24.55 -39.7 19.65 -51.25 26.5 -40.55 18.2 -43.65 11.5 -45.55 11.05 -46.95 10.55 -48.35 9.8 -49.35 9.05 -55.05 12.55 -50.1 8.35 Q-52.55 5.75 -53.5 2.2 L-54.05 -1.55 -53.95 -4.9 -56.15 -3.45 Q-54.9 -4.6 -54.05 -6.0 -52.55 -8.7 -49.7 -10.45 -49.05 -10.8 -48.4 -11.25 L-45.95 -12.95 -46.45 -25.8 -46.35 -26.9 -45.9 -28.5 -52.45 -24.0 -21.35 -53.65 -13.15 -56.25 Q-24.95 -53.65 -34.5 -46.25 -45.95 -37.55 -52.2 -24.5 L-52.45 -24.0 Q-58.35 -11.4 -57.8 2.45 -57.2 16.65 -50.1 28.75 L-48.9 30.7 -48.15 31.8 -47.9 32.15 -47.6 32.65 -46.3 34.55 -47.6 32.65 -47.9 32.15 -48.15 31.8 M-51.95 -2.05 Q-51.8 3.3 -48.15 7.05 -45.35 9.9 -41.6 9.1 -39.8 0.95 -41.85 -7.35 -42.05 -8.6 -42.8 -9.45 L-43.3 -9.95 Q-49.65 -9.75 -51.65 -4.0 -52.0 -3.1 -51.95 -2.05 M-33.25 25.1 L-35.6 27.0 Q-37.55 28.65 -38.2 31.0 -39.65 35.95 -35.0 38.95 -29.5 42.5 -22.75 43.25 -4.15 45.8 13.45 39.05 17.25 37.6 20.15 34.85 21.15 33.8 21.65 32.5 23.45 27.8 20.05 23.65 L18.45 21.9 Q12.65 23.55 6.75 24.5 L-20.25 28.05 -30.6 26.2 -32.2 25.7 -33.25 25.1 M-28.7 50.1 L-32.5 47.75 Q-27.55 51.25 -22.05 53.45 -25.45 51.95 -28.7 50.1 M47.0 33.65 Q55.4 22.2 57.25 8.1 L57.05 9.2 23.3 24.65 23.8 25.7 24.1 26.65 30.9 27.15 57.0 9.3 Q55.4 19.05 50.55 27.95 L47.8 29.15 49.65 29.45 47.0 33.65 M15.35 55.8 Q25.15 53.2 33.5 47.1 L28.95 49.95 Q22.35 53.75 15.35 55.8" fill="#000000" fill-rule="evenodd" stroke="none"/>
    <path d="M-28.7 50.1 Q-25.45 51.95 -22.05 53.45 -27.55 51.25 -32.5 47.75 L-28.7 50.1 M15.35 55.8 Q22.35 53.75 28.95 49.95 L33.5 47.1 Q25.15 53.2 15.35 55.8" fill="#ce8f00" fill-rule="evenodd" stroke="none"/>
    <path d="M-25.7 -30.3 L-24.6 -28.35 -21.65 -23.75 Q-19.75 -21.35 -16.75 -21.25 -10.7 -21.1 -4.85 -23.05 L-5.45 -22.8 Q-11.15 -20.75 -14.9 -16.15 L-15.25 -15.3 Q-15.9 -13.5 -15.05 -10.95 L-11.35 -3.7 -16.2 -8.5 Q-17.6 -9.7 -19.25 -10.45 -25.2 -13.0 -31.35 -10.8 L-35.4 -9.55 -31.35 -12.45 -30.6 -12.95 Q-25.4 -16.6 -24.65 -22.75 L-25.3 -28.15 -25.75 -30.3 -25.75 -30.35 -25.7 -30.3" fill="#ffffff" fill-rule="evenodd" stroke="none"/>
    <path d="M1.85 -57.7 L-18.75 -38.4 -30.5 -36.45 -37.35 -34.45 -37.5 -34.35 -4.05 -57.6 0.0 -57.75 Q22.2 -57.75 38.5 -43.0 L23.25 -31.2 22.95 -31.6 21.1 -33.55 20.35 -34.1 36.95 -44.35 Q30.3 -49.85 22.65 -53.1 L6.9 -39.75 6.7 -39.8 -3.25 -39.65 18.6 -54.65 Q10.4 -57.45 1.85 -57.7 M30.55 -19.55 L29.1 -20.1 27.2 -20.1 27.1 -20.7 47.35 -33.0 44.75 -36.4 Q54.55 -24.85 56.95 -9.95 L55.65 -15.45 29.5 4.7 29.45 3.55 Q30.8 3.2 31.75 1.85 33.05 0.0 33.6 -2.15 L34.4 -5.7 54.85 -18.0 Q52.6 -24.65 49.0 -30.5 L32.7 -17.95 31.85 -18.8 30.55 -19.55 M-48.15 31.8 L-48.9 30.7 -50.1 28.75 Q-57.2 16.65 -57.8 2.45 -58.35 -11.4 -52.45 -24.0 L-52.2 -24.5 Q-45.95 -37.55 -34.5 -46.25 -24.95 -53.65 -13.15 -56.25 L-21.35 -53.65 -52.45 -24.0 -45.9 -28.5 -46.35 -26.9 -46.45 -25.8 -45.95 -12.95 -48.4 -11.25 Q-49.05 -10.8 -49.7 -10.45 -52.55 -8.7 -54.05 -6.0 -54.9 -4.6 -56.15 -3.45 L-53.95 -4.9 -54.05 -1.55 -53.5 2.2 Q-52.55 5.75 -50.1 8.35 L-55.05 12.55 -49.35 9.05 -48.35 9.8 -46.95 10.55 -45.55 11.05 -43.65 11.5 -40.55 18.2 -51.25 26.5 -39.7 19.65 -36.0 24.55 -37.35 25.65 -38.75 27.2 -39.65 28.45 -49.35 29.95 -48.15 31.8 M47.0 33.65 L49.65 29.45 47.8 29.15 50.55 27.95 Q55.4 19.05 57.0 9.3 L30.9 27.15 24.1 26.65 23.8 25.7 23.3 24.65 57.05 9.2 57.25 8.1 Q55.4 22.2 47.0 33.65" fill="#0066cc" fill-rule="evenodd" stroke="none"/>
    <path d="M27.95 -29.9 Q27.95 -30.95 28.7 -31.7 29.45 -32.5 30.55 -32.5 31.6 -32.5 32.4 -31.7 33.15 -30.95 33.15 -29.9 33.15 -28.85 32.4 -28.05 31.6 -27.3 30.55 -27.3 29.45 -27.3 28.7 -28.05 27.95 -28.85 27.95 -29.9 M36.55 -37.05 Q37.3 -37.85 38.35 -37.85 39.4 -37.85 40.2 -37.05 40.95 -36.3 40.95 -35.25 40.95 -34.2 40.2 -33.4 39.4 -32.65 38.35 -32.65 37.3 -32.65 36.55 -33.4 35.75 -34.2 35.8 -35.25 35.75 -36.3 36.55 -37.05 M-25.75 -30.3 Q-31.35 -29.1 -36.1 -25.95 -39.1 -23.95 -39.1 -20.45 L-37.9 10.95 -35.9 21.4 -38.45 17.55 Q-40.2 14.65 -41.25 11.35 -39.2 10.5 -39.1 8.15 -38.9 2.65 -39.1 -2.8 L-39.5 -7.2 Q-39.95 -10.25 -42.4 -11.8 L-43.65 -12.35 Q-43.7 -18.0 -44.05 -23.7 L-44.15 -24.8 Q-44.6 -28.6 -41.0 -30.3 -32.0 -34.6 -22.0 -36.1 -12.0 -37.6 -1.85 -37.75 5.35 -38.3 12.2 -36.0 16.7 -34.35 20.1 -31.4 L11.0 -32.8 Q1.4 -33.4 -8.05 -32.4 -16.95 -31.85 -25.7 -30.3 L-25.75 -30.35 -25.75 -30.3 M-24.6 -28.35 Q-17.5 -30.3 -7.95 -31.1 4.25 -32.25 13.1 -30.9 22.95 -29.4 23.95 -25.35 25.9 -17.7 26.75 -5.5 27.4 3.85 27.3 12.95 27.25 16.3 18.25 19.65 10.05 22.75 -1.75 24.55 -13.75 26.3 -22.45 25.7 -32.2 25.0 -33.55 21.4 -35.2 17.0 -35.85 8.6 -36.2 3.65 -36.35 -6.75 -36.5 -16.9 -36.85 -20.5 -37.3 -24.2 -28.25 -27.25 L-25.3 -28.15 -24.65 -22.75 Q-31.95 -20.0 -31.55 -16.9 L-31.35 -12.45 -35.4 -9.55 -31.35 -10.8 Q-31.8 0.85 -30.7 12.4 -30.4 15.6 -28.2 17.9 L-26.45 18.95 Q-19.45 21.3 -11.85 20.55 4.55 20.1 19.5 13.65 21.95 12.55 22.15 10.0 L22.4 2.25 Q22.3 -10.75 18.9 -23.25 18.65 -24.1 17.85 -24.6 15.35 -26.25 12.5 -26.7 -4.75 -28.7 -21.65 -23.75 L-24.6 -28.35 M30.8 -16.7 Q32.45 -15.1 32.75 -12.4 33.1 -9.3 31.95 -4.4 30.85 0.35 29.25 1.2 L28.1 -14.9 27.6 -17.95 Q29.35 -18.15 30.8 -16.7 M-51.95 -2.05 Q-52.0 -3.1 -51.65 -4.0 -49.65 -9.75 -43.3 -9.95 L-42.8 -9.45 Q-42.05 -8.6 -41.85 -7.35 -39.8 0.95 -41.6 9.1 -45.35 9.9 -48.15 7.05 -51.8 3.3 -51.95 -2.05 M-33.25 25.1 L-32.2 25.7 -30.6 26.2 -20.25 28.05 6.75 24.5 Q12.65 23.55 18.45 21.9 L20.05 23.65 Q23.45 27.8 21.65 32.5 21.15 33.8 20.15 34.85 17.25 37.6 13.45 39.05 -4.15 45.8 -22.75 43.25 -29.5 42.5 -35.0 38.95 -39.65 35.95 -38.2 31.0 -37.55 28.65 -35.6 27.0 L-33.25 25.1" fill="#0099ff" fill-rule="evenodd" stroke="none"/>
    <path d="M-14.9 -16.15 Q-12.5 -16.7 -10.25 -16.2 -8.65 -16.0 -7.8 -14.6 -7.55 -14.25 -7.8 -13.85 -10.25 -10.3 -15.05 -10.95 -15.9 -13.5 -15.25 -15.3 L-14.9 -16.15" fill="#99ccff" fill-rule="evenodd" stroke="none"/>
  </g>
</svg>
