<?xml version="1.0" encoding="UTF-8" standalone="no"?>
<svg xmlns:xlink="http://www.w3.org/1999/xlink" height="114.95px" width="115.55px" xmlns="http://www.w3.org/2000/svg">
  <g transform="matrix(1.0, 0.0, 0.0, 1.0, 57.75, 57.7)">
    <path d="M-28.8 -49.95 L-29.5 -49.65 Q-22.9 -53.6 -15.45 -55.6 -7.95 -57.7 0.05 -57.7 5.8 -57.75 11.55 -56.65 18.4 -55.3 24.7 -52.25 31.15 -49.2 36.5 -44.7 L43.05 -38.45 -10.75 -55.3 52.55 -24.0 Q50.0 -29.45 46.6 -34.1 50.9 -28.55 53.6 -22.1 56.25 -15.65 57.3 -8.65 57.9 -4.35 57.8 0.05 L57.75 -1.1 43.45 -6.6 44.55 -6.2 45.5 -6.0 47.9 -6.3 49.5 -7.3 50.75 -8.8 51.3 -9.95 57.4 -6.45 Q56.8 -12.7 54.65 -18.6 L53.2 -22.5 25.9 -33.6 21.8 -36.75 Q20.2 -37.8 18.5 -38.35 L15.45 -38.55 14.75 -38.35 -13.75 -49.7 -21.2 -53.7 -23.85 -52.4 -24.0 -52.45 -28.8 -49.95 M-55.3 -16.55 L-56.1 -13.8 Q-54.05 -22.5 -49.3 -29.85 L-48.95 -30.45 -47.8 -32.15 -48.15 -31.5 -48.95 -30.45 -48.15 -31.5 -50.95 -26.95 Q-53.0 -23.3 -54.4 -19.25 L-54.75 -18.2 -55.3 -16.55 M7.45 -35.3 L5.15 -34.2 -0.5 -39.85 7.45 -35.3 M-41.65 -39.85 L-42.6 -38.85 -42.2 -39.3 -41.65 -39.85 M-38.35 30.35 L-34.4 30.35 -16.85 37.05 12.8 56.35 Q25.55 53.45 35.85 45.25 L-8.8 28.4 -7.35 28.1 -3.6 26.9 14.1 33.65 14.6 33.75 15.55 33.8 16.55 33.7 17.05 33.55 17.9 33.2 18.7 32.6 19.35 31.9 38.5 43.05 Q44.0 38.1 48.05 32.05 L16.3 18.3 19.05 16.2 21.25 14.1 21.45 13.9 49.4 29.95 Q52.95 24.0 55.1 17.4 L25.45 4.6 25.35 2.7 24.25 -1.55 55.5 16.05 Q56.65 12.15 57.25 8.25 54.8 26.9 40.85 40.85 27.4 54.3 9.55 57.05 L12.65 56.4 -39.35 30.2 -38.35 30.35 M-46.7 29.45 L-10.5 56.8 -7.8 57.25 Q-26.65 54.9 -40.75 40.85 -49.05 32.55 -53.25 22.55 -51.75 25.9 -49.8 29.15 L-46.7 29.45" fill="#ce8f00" fill-rule="evenodd" stroke="none"/>
    <path d="M-28.8 -49.95 L-24.0 -52.45 -23.85 -52.4 Q-6.75 -45.05 6.05 -30.15 19.2 -14.85 23.15 3.15 24.95 11.55 11.45 18.7 L7.8 20.5 -20.05 9.8 -20.4 8.95 -21.3 7.2 -23.15 4.7 -26.4 1.7 -30.25 -0.9 -34.3 -2.75 -36.35 -3.35 -38.45 -3.6 -40.35 -3.55 Q-48.7 -8.75 -56.45 -11.95 L-55.3 -16.55 -54.75 -18.2 -54.4 -19.25 Q-53.0 -23.3 -50.95 -26.95 L-48.15 -31.5 -46.15 -34.3 -42.6 -38.85 -41.65 -39.85 -41.5 -40.0 Q-35.85 -45.9 -28.8 -49.95 M-46.4 -34.0 L-47.55 -32.45 -46.9 -33.4 -46.4 -34.0 M-45.4 -35.35 L-44.9 -36.1 -44.65 -36.35 -45.4 -35.35 M6.8 -32.55 Q10.15 -34.45 15.4 -36.2 19.45 -37.55 23.8 -32.65 28.15 -27.7 25.6 -24.35 L23.8 -22.0 18.6 -15.35 14.5 -22.65 7.8 -31.55 6.8 -32.55 M13.3 -15.75 Q10.05 -23.35 -0.3 -33.85 -12.0 -45.75 -19.55 -46.05 -26.9 -46.35 -32.15 -41.7 -37.4 -37.0 -32.15 -34.1 -24.3 -29.75 -17.1 -21.3 -9.4 -12.3 -8.4 -4.9 L-41.4 -20.65 -10.35 -1.95 -7.9 -3.35 Q-7.0 -2.25 -4.25 -2.5 -0.75 -2.85 3.85 -5.05 8.6 -7.35 11.3 -10.1 14.4 -13.25 13.3 -15.75 M23.15 -4.65 L20.5 -11.65 42.6 -3.2 Q45.25 -2.3 44.2 0.4 43.2 3.05 40.55 2.0 L23.15 -4.65 M22.7 -17.0 L26.25 -21.65 47.35 -13.6 Q50.0 -12.6 48.95 -9.95 47.95 -7.4 45.3 -8.35 L22.7 -17.0 M-43.5 -2.45 Q-47.2 -0.8 -50.7 1.2 -54.15 3.15 -57.45 5.4 L-57.1 8.0 Q-49.75 2.05 -40.8 -0.9 L-37.8 -1.4 Q-34.05 -1.0 -30.8 1.2 -28.1 2.95 -25.5 5.45 -23.95 6.95 -22.65 8.8 L-24.75 8.65 Q-27.05 8.95 -28.3 11.0 -29.15 12.3 -29.1 13.85 -29.1 15.5 -27.95 16.95 L-33.85 19.75 Q-37.4 18.45 -41.05 17.65 L-43.3 17.8 Q-45.6 18.65 -46.15 21.0 -46.55 22.4 -46.15 23.75 L-51.85 25.25 -53.7 21.2 -55.3 16.7 Q-56.75 11.95 -57.3 6.95 -58.35 -1.4 -56.9 -9.7 L-43.5 -2.45 M-25.1 16.3 Q-27.7 15.3 -26.7 12.65 -25.75 10.1 -23.05 11.05 L16.4 26.15 Q19.0 27.1 18.05 29.8 L17.45 30.8 Q16.4 32.15 14.45 31.4 L-25.1 16.3 M-25.15 14.2 L3.85 23.1 -22.75 12.1 -25.15 14.2 M-30.8 20.9 L-25.85 18.45 -6.75 25.7 Q-10.35 26.7 -13.95 27.3 L-30.8 20.9 M-40.25 19.7 L-0.75 34.75 Q1.8 35.75 0.85 38.4 -0.15 41.05 -2.8 40.0 L-42.3 24.9 -42.55 24.85 Q-44.9 23.75 -43.9 21.3 -42.95 18.7 -40.25 19.7 M-43.05 23.15 L-14.05 32.1 -40.65 21.1 -43.05 23.15 M-43.5 26.65 L-40.65 27.95 -49.2 26.95 -45.05 25.65 -43.5 26.65" fill="#ffb200" fill-rule="evenodd" stroke="none"/>
    <path d="M-2.8 -10.55 Q-5.3 -8.55 -7.65 -13.5 -9.5 -20.65 -15.3 -26.95 -20.65 -32.75 -29.65 -37.95 -20.1 -34.2 -13.6 -29.45 -6.1 -24.15 -1.85 -17.15 -0.3 -12.55 -2.8 -10.55 M-25.15 14.2 L-22.75 12.1 3.85 23.1 -25.15 14.2 M-43.05 23.15 L-40.65 21.1 -14.05 32.1 -43.05 23.15" fill="#ffd882" fill-rule="evenodd" stroke="none"/>
  </g>
</svg>
