<?xml version="1.0" encoding="UTF-8" standalone="no"?>
<svg xmlns:xlink="http://www.w3.org/1999/xlink" height="25.95px" width="95.1px" xmlns="http://www.w3.org/2000/svg">
  <g transform="matrix(1.0, 0.0, 0.0, 1.0, 41.8, 14.25)">
    <path d="M22.3 -12.75 L22.3 -13.15 22.3 -12.75 37.05 -1.45 22.3 -12.75 22.3 10.25 37.05 -1.45 22.3 10.25 22.3 -12.75 M51.3 -12.75 L37.05 -1.45 51.3 -12.75 M22.3 -13.15 L52.8 -13.15 52.8 11.2 -41.3 11.2 -41.3 -13.15 22.3 -13.15 M37.05 -1.45 L52.3 10.25 37.05 -1.45" fill="#666666" fill-rule="evenodd" stroke="none"/>
    <path d="M22.3 -13.15 L22.3 -12.75 37.05 -1.45 22.3 10.25 22.3 -12.75 M22.3 -13.15 L52.8 -13.15 52.8 11.2 -41.3 11.2 -41.3 -13.15 22.3 -13.15" fill="none" stroke="#cccccc" stroke-linecap="round" stroke-linejoin="miter-clip" stroke-miterlimit="3.0" stroke-width="1.0"/>
    <path d="M37.05 -1.45 L51.3 -12.75" fill="none" stroke="#cccccc" stroke-linecap="round" stroke-linejoin="miter-clip" stroke-miterlimit="3.0" stroke-width="1.0"/>
    <path d="M22.3 -13.75 L22.3 -13.15 M52.3 10.25 L37.05 -1.45" fill="none" stroke="#cccccc" stroke-linecap="butt" stroke-linejoin="miter-clip" stroke-miterlimit="3.0" stroke-width="1.0"/>
  </g>
</svg>
