<?xml version="1.0" encoding="UTF-8" standalone="no"?>
<svg xmlns:xlink="http://www.w3.org/1999/xlink" height="6.0px" width="90.5px" xmlns="http://www.w3.org/2000/svg">
  <g transform="matrix(1.0, 0.0, 0.0, 1.0, 45.65, 3.0)">
    <path d="M43.8 -2.15 Q44.85 -1.25 44.85 0.0 44.85 1.25 43.8 2.1 42.8 3.0 41.35 3.0 39.9 3.0 38.85 2.1 37.85 1.25 37.85 0.0 37.85 -1.25 38.85 -2.15 39.9 -3.0 41.35 -3.0 42.8 -3.0 43.8 -2.15 M-42.15 -3.0 Q-40.7 -3.0 -39.7 -2.15 -38.65 -1.25 -38.65 0.0 -38.65 1.25 -39.7 2.1 -40.7 3.0 -42.15 3.0 -43.6 3.0 -44.65 2.1 -45.65 1.25 -45.65 0.0 -45.65 -1.25 -44.65 -2.15 -43.6 -3.0 -42.15 -3.0" fill="#009900" fill-rule="evenodd" stroke="none"/>
  </g>
</svg>
