<?xml version="1.0" encoding="UTF-8" standalone="no"?>
<svg xmlns:xlink="http://www.w3.org/1999/xlink" height="24.7px" width="148.15px" xmlns="http://www.w3.org/2000/svg">
  <g transform="matrix(1.0, 0.0, 0.0, 1.0, 0.55, 0.5)">
    <path d="M144.05 20.2 Q141.05 23.7 136.75 23.7 L10.25 23.7 Q6.0 23.7 2.95 20.2 -0.05 16.75 -0.05 11.85 -0.05 6.95 2.95 3.45 6.0 0.0 10.25 0.0 L136.75 0.0 Q141.05 0.0 144.05 3.45 147.1 6.95 147.1 11.85 147.1 16.75 144.05 20.2" fill="url(#gradient0)" fill-rule="evenodd" stroke="none"/>
    <path d="M144.05 20.2 Q147.1 16.75 147.1 11.85 147.1 6.95 144.05 3.45 141.05 0.0 136.75 0.0 L10.25 0.0 Q6.0 0.0 2.95 3.45 -0.05 6.95 -0.05 11.85 -0.05 16.75 2.95 20.2 6.0 23.7 10.25 23.7 L136.75 23.7 Q141.05 23.7 144.05 20.2 Z" fill="none" stroke="#000000" stroke-linecap="butt" stroke-linejoin="miter-clip" stroke-miterlimit="3.0" stroke-width="1.0"/>
  </g>
  <defs>
    <linearGradient gradientTransform="matrix(0.0898, 0.0, 0.0, 0.0145, 73.5, 11.85)" gradientUnits="userSpaceOnUse" id="gradient0" spreadMethod="pad" x1="-819.2" x2="819.2">
      <stop offset="0.0" stop-color="#666666"/>
      <stop offset="0.12549019607843137" stop-color="#cccccc"/>
      <stop offset="0.4117647058823529" stop-color="#666666"/>
      <stop offset="0.8470588235294118" stop-color="#333333"/>
      <stop offset="0.9254901960784314" stop-color="#666666"/>
      <stop offset="1.0" stop-color="#333333"/>
    </linearGradient>
  </defs>
</svg>
