<?xml version="1.0" encoding="UTF-8" standalone="no"?>
<svg xmlns:xlink="http://www.w3.org/1999/xlink" height="19.65px" width="163.0px" xmlns="http://www.w3.org/2000/svg">
  <g transform="matrix(1.0, 0.0, 0.0, 1.0, 170.5, 13.1)">
    <path d="M-168.45 -12.6 L-9.4 -12.6 Q-8.8 -12.6 -8.4 -11.45 L-8.0 -9.8 -8.0 2.65 Q-8.1 3.95 -8.45 4.9 -8.75 5.75 -9.2 6.0 L-168.85 6.0 -169.5 5.0 Q-169.95 3.85 -170.0 2.3 L-170.0 -8.75 Q-169.95 -10.35 -169.5 -11.45 -169.1 -12.6 -168.45 -12.6 Z" fill="none" stroke="#ffff99" stroke-linecap="butt" stroke-linejoin="miter-clip" stroke-miterlimit="3.0" stroke-width="1.0"/>
  </g>
</svg>
