<?xml version="1.0" encoding="UTF-8" standalone="no"?>
<svg xmlns:xlink="http://www.w3.org/1999/xlink" height="248.5px" width="542.9px" xmlns="http://www.w3.org/2000/svg">
  <g transform="matrix(1.0, 0.0, 0.0, 1.0, 174.95, -83.0)">
    <path d="M333.7 164.3 Q301.0 178.0 254.7 178.0 208.4 178.0 175.65 164.3 142.95 150.6 142.95 131.25 142.95 111.9 175.65 98.2 208.4 84.5 254.7 84.5 301.0 84.5 333.7 98.2 366.45 111.9 366.45 131.25 366.45 150.6 333.7 164.3 Z" fill="none" stroke="#0000cc" stroke-linecap="butt" stroke-linejoin="miter-clip" stroke-miterlimit="3.0" stroke-width="3.0"/>
    <path d="M-19.45 272.25 Q-19.45 296.15 -42.0 313.05 -64.55 330.0 -96.45 330.0 -128.35 330.0 -150.9 313.05 -173.45 296.15 -173.45 272.25 -173.45 248.35 -150.9 231.4 -128.35 214.5 -96.45 214.5 -64.55 214.5 -42.0 231.4 -19.45 248.35 -19.45 272.25 Z" fill="none" stroke="#0000cc" stroke-linecap="butt" stroke-linejoin="miter-clip" stroke-miterlimit="3.0" stroke-width="3.0"/>
    <path d="M-51.25 287.5 L-140.25 287.5 -140.25 254.0 -51.25 254.0 -51.25 287.5" fill="#ffffff" fill-opacity="0.6" fill-rule="evenodd" stroke="none"/>
    <path d="M209.0 118.0 L299.0 118.0 299.0 146.0 209.0 146.0 209.0 118.0" fill="#ffffff" fill-opacity="0.6" fill-rule="evenodd" stroke="none"/>
  </g>
</svg>
