<?xml version="1.0" encoding="UTF-8" standalone="no"?>
<svg xmlns:xlink="http://www.w3.org/1999/xlink" height="65.1px" width="12.0px" xmlns="http://www.w3.org/2000/svg">
  <g transform="matrix(1.0, 0.0, 0.0, 1.0, 5.5, 32.0)">
    <path d="M3.0 -31.4 L6.0 -31.4 6.0 -21.9 -2.0 -21.9 -2.0 -22.0 3.0 -22.0 3.0 -31.4 M3.0 22.6 L6.0 22.6 6.0 32.6 -1.0 32.6 -1.0 32.5 3.0 32.5 3.0 22.6" fill="#00ff00" fill-rule="evenodd" stroke="none"/>
    <path d="M-2.0 -22.0 L-5.0 -22.0 -5.0 -31.5 3.0 -31.5 3.0 -31.4 3.0 -22.0 -2.0 -22.0 M3.0 22.6 L3.0 32.5 -1.0 32.5 -4.0 32.5 -4.0 22.5 3.0 22.5 3.0 22.6" fill="#ffff00" fill-rule="evenodd" stroke="none"/>
    <path d="M3.0 -31.4 L6.0 -31.4 6.0 -21.9 -2.0 -21.9 -2.0 -22.0 M-1.0 32.5 L-1.0 32.6 6.0 32.6 6.0 22.6 3.0 22.6" fill="none" stroke="#00ff00" stroke-linecap="round" stroke-linejoin="miter-clip" stroke-miterlimit="3.0" stroke-width="1.0"/>
    <path d="M-2.0 -22.0 L-5.0 -22.0 -5.0 -31.5 3.0 -31.5 3.0 -31.4 3.0 -22.0 -2.0 -22.0 M3.0 22.6 L3.0 32.5 -1.0 32.5 -4.0 32.5 -4.0 22.5 3.0 22.5 3.0 22.6" fill="none" stroke="#ffff00" stroke-linecap="round" stroke-linejoin="miter-clip" stroke-miterlimit="3.0" stroke-width="1.0"/>
  </g>
</svg>
