<?xml version="1.0" encoding="UTF-8" standalone="no"?>
<svg xmlns:xlink="http://www.w3.org/1999/xlink" height="302.0px" width="301.0px" xmlns="http://www.w3.org/2000/svg">
  <g transform="matrix(1.0, 0.0, 0.0, 1.0, 151.0, 151.5)">
    <path d="M-32.5 -150.5 L-46.5 5.5 -46.9 58.75 -58.5 58.5 -91.5 44.5 -111.5 -12.5 -150.5 -29.5 M149.5 -30.0 L110.5 -13.0 90.5 44.0 57.5 58.0 45.9 58.25 45.5 5.0 31.5 -151.0" fill="none" stroke="#cccccc" stroke-linecap="butt" stroke-linejoin="miter-clip" stroke-miterlimit="3.0" stroke-width="1.0"/>
    <path d="M31.5 -151.0 L31.3 -150.5 M-32.3 -150.0 L-32.5 -150.5 M-150.5 -29.5 L-138.5 55.5 M15.8 93.25 Q9.05 100.0 -0.5 100.5 -10.05 100.5 -16.8 93.75 -23.5 87.05 -23.5 77.5 -23.5 67.95 -16.8 61.2 -10.05 54.5 -0.5 54.5 9.05 54.0 15.8 60.7 22.5 67.45 22.5 77.0 22.5 86.55 15.8 93.25 M88.5 135.0 L137.0 55.0 M149.5 -30.0 L137.5 55.0" fill="none" stroke="#cccccc" stroke-linecap="butt" stroke-linejoin="miter-clip" stroke-miterlimit="3.0" stroke-width="1.0"/>
    <path d="M31.3 -150.5 L15.5 -76.1 M39.1 121.5 L38.9 122.0 M-138.0 55.5 L-89.5 135.5 -77.15 135.5" fill="none" stroke="#cccccc" stroke-linecap="butt" stroke-linejoin="miter-clip" stroke-miterlimit="3.0" stroke-width="1.0"/>
    <path d="M15.5 -76.1 L15.45 -75.95 12.0 -41.55 -0.5 -31.0 -0.5 -30.5 -13.0 -41.05 -16.45 -75.45 -16.45 -75.6 -11.5 -103.5 10.6 -103.5 15.5 -76.1 M3.55 -119.5 L3.55 -103.5 -4.5 -103.5 -4.5 -119.5 -4.5 -124.45 3.55 -124.45 3.55 -119.5 -4.5 -119.5 M38.9 122.0 L83.5 122.0 71.5 81.0 29.5 67.0 29.5 122.0 38.9 122.0 M29.5 67.0 L29.5 34.0 -0.5 -17.0 -0.5 -16.5 -30.5 34.5 -30.5 67.5 -30.5 122.5 -0.5 112.5 29.5 122.0 M-77.15 135.5 L-33.9 135.5 -30.5 135.5 -0.5 124.5 29.5 135.0 32.9 135.0 76.15 135.0 83.3 149.0 26.5 149.0 32.9 135.0 M-30.5 67.5 L-72.5 81.5 -84.5 122.5 -39.85 122.5 -30.5 122.5 M-33.9 135.5 L-27.5 149.5 -84.3 149.5 -77.15 135.5" fill="none" stroke="#cccccc" stroke-linecap="round" stroke-linejoin="miter-clip" stroke-miterlimit="3.0" stroke-width="1.0"/>
    <path d="M-16.45 -75.6 L-32.3 -150.0 M76.15 135.0 L88.5 135.0 M83.3 149.0 L83.55 149.5 M-16.45 -75.45 L-0.5 -64.5 M-39.85 122.5 L-40.1 122.0 M-84.3 149.5 L-84.55 150.0 M15.45 -75.95 L-0.5 -65.0" fill="none" stroke="#cccccc" stroke-linecap="round" stroke-linejoin="miter-clip" stroke-miterlimit="3.0" stroke-width="1.0"/>
  </g>
</svg>
