<?xml version="1.0" encoding="UTF-8" standalone="no"?>
<svg xmlns:xlink="http://www.w3.org/1999/xlink" height="290.95px" width="301.1px" xmlns="http://www.w3.org/2000/svg">
  <g transform="matrix(1.0, 0.0, 0.0, 1.0, 150.55, 151.5)">
    <path d="M0.0 54.95 Q9.45 54.95 16.15 60.8 22.85 66.65 22.85 74.95 22.85 83.25 16.15 89.1 9.45 94.95 0.0 94.95" fill="none" stroke="#cccccc" stroke-linecap="butt" stroke-linejoin="miter-clip" stroke-miterlimit="3.0" stroke-width="0.1"/>
    <path d="M-64.0 123.95 L-130.0 60.0" fill="none" stroke="#cccccc" stroke-linecap="butt" stroke-linejoin="miter-clip" stroke-miterlimit="3.0" stroke-width="1.0"/>
    <path d="M0.0 94.95 Q-9.45 94.95 -16.15 89.1 -22.85 83.25 -22.85 74.95 -22.85 66.65 -16.15 60.8 -9.45 54.95 0.0 54.95" fill="none" stroke="#cccccc" stroke-linecap="butt" stroke-linejoin="miter-clip" stroke-miterlimit="3.0" stroke-width="0.1"/>
    <path d="M-130.0 60.0 L-150.0 -30.0 -117.95 22.0" fill="none" stroke="#cccccc" stroke-linecap="butt" stroke-linejoin="miter-clip" stroke-miterlimit="3.0" stroke-width="1.0"/>
    <path d="M-117.95 22.0 L-112.45 17.0 -91.4 17.1 -88.7 28.0 -71.85 31.45 -71.85 14.4 -74.7 14.4 -74.7 -4.25 -61.65 -4.25 -61.65 14.4 -65.0 14.4 -65.0 32.85 -49.6 36.0 -32.0 -150.0 -17.25 -66.05 -8.6 -74.4 -3.65 -74.4 -3.65 -92.6 -6.5 -92.6 -6.5 -111.25 6.5 -111.25 6.5 -92.6 3.65 -92.6 3.65 -74.4 8.65 -74.4 17.25 -66.05 32.0 -150.0 49.6 36.0 65.05 32.85 65.05 14.4 61.7 14.4 61.7 -4.25 74.7 -4.25 74.7 14.4 71.85 14.4 71.85 31.45 88.7 28.0 91.45 17.1 112.45 17.0 117.95 22.0 150.0 -30.0 130.0 60.0 64.0 123.95 16.0 124.35 9.6 138.45 66.4 138.45 M-17.25 -66.05 L-12.5 -39.25 0.0 -44.0 12.55 -39.25 17.25 -66.05 M-65.0 14.4 L-71.85 14.4 M-65.0 32.85 L-71.85 31.45 M-117.95 22.0 L-88.7 28.0 M16.0 124.35 L-16.0 124.35 -9.6 138.45 -66.4 138.45 M88.7 28.0 L117.95 22.0 M71.85 14.4 L65.05 14.4 M65.05 32.85 L71.85 31.45 M3.65 -74.4 L-3.65 -74.4 M-3.65 -92.6 L3.65 -92.6" fill="none" stroke="#cccccc" stroke-linecap="round" stroke-linejoin="miter-clip" stroke-miterlimit="3.0" stroke-width="1.0"/>
    <path d="M66.4 138.45 L58.0 124.45 M-71.85 31.45 L-71.85 32.95 M-66.4 138.45 L-66.65 138.95 M-66.4 138.45 L-58.0 124.45 M-16.0 124.35 L-64.0 123.95 M71.85 31.45 L71.85 32.95 M66.4 138.45 L66.65 138.95" fill="none" stroke="#cccccc" stroke-linecap="round" stroke-linejoin="miter-clip" stroke-miterlimit="3.0" stroke-width="1.0"/>
  </g>
</svg>
