<?xml version="1.0" encoding="UTF-8" standalone="no"?>
<svg xmlns:xlink="http://www.w3.org/1999/xlink" height="67.5px" width="80.0px" xmlns="http://www.w3.org/2000/svg">
  <g transform="matrix(1.0, 0.0, 0.0, 1.0, 16.5, 51.5)">
    <path d="M0.0 -15.0 Q3.75 -15.05 6.85 -13.45 8.65 -12.5 10.2 -11.05 L10.6 -10.65 Q15.0 -6.3 15.0 0.0 L14.9 1.75 Q14.3 6.8 10.6 10.55 6.2 14.95 0.0 15.0 L-3.45 14.6 -3.55 14.6 Q-7.5 13.65 -10.6 10.55 -14.15 7.0 -14.8 2.3 L-15.0 0.0 Q-15.0 -6.3 -10.6 -10.65 -6.25 -15.05 0.0 -15.0" fill="#0099ff" fill-rule="evenodd" stroke="none"/>
    <path d="M58.2 -27.8 Q54.4 -24.0 49.0 -24.0 L-2.0 -24.0 Q-7.4 -24.0 -11.2 -27.8 -15.0 -31.6 -15.0 -37.0 -15.0 -42.4 -11.2 -46.2 -7.4 -50.0 -2.0 -50.0 L49.0 -50.0 Q54.4 -50.0 58.2 -46.2 62.0 -42.4 62.0 -37.0 62.0 -31.6 58.2 -27.8" fill="#ffffff" fill-rule="evenodd" stroke="none"/>
    <path d="M0.0 -15.0 Q-6.25 -15.05 -10.6 -10.65 -15.0 -6.3 -15.0 0.0 L-14.8 2.3 Q-14.15 7.0 -10.6 10.55 -7.5 13.65 -3.55 14.6 L-3.45 14.6 0.0 15.0 Q6.2 14.95 10.6 10.55 14.3 6.8 14.9 1.75 L15.0 0.0 Q15.0 -6.3 10.6 -10.65 L10.2 -11.05 Q8.65 -12.5 6.85 -13.45 3.75 -15.05 0.0 -15.0" fill="none" stroke="#000000" stroke-linecap="butt" stroke-linejoin="miter-clip" stroke-miterlimit="3.0" stroke-width="2.0"/>
    <path d="M58.2 -27.8 Q62.0 -31.6 62.0 -37.0 62.0 -42.4 58.2 -46.2 54.4 -50.0 49.0 -50.0 L-2.0 -50.0 Q-7.4 -50.0 -11.2 -46.2 -15.0 -42.4 -15.0 -37.0 -15.0 -31.6 -11.2 -27.8 -7.4 -24.0 -2.0 -24.0 L49.0 -24.0 Q54.4 -24.0 58.2 -27.8 Z" fill="none" stroke="#000000" stroke-linecap="butt" stroke-linejoin="miter-clip" stroke-miterlimit="3.0" stroke-width="3.0"/>
  </g>
</svg>
