<?xml version="1.0" encoding="UTF-8" standalone="no"?>
<svg xmlns:xlink="http://www.w3.org/1999/xlink" height="21.15px" width="21.0px" xmlns="http://www.w3.org/2000/svg">
  <g transform="matrix(1.0, 0.0, 0.0, 1.0, 10.5, 10.6)">
    <path d="M-5.4 9.55 L-2.35 9.55 -1.9 10.5 -5.85 10.5 -5.4 9.55 M2.35 9.5 L5.35 9.5 5.85 10.5 1.9 10.5 2.35 9.5" fill="#000066" fill-rule="evenodd" stroke="none"/>
    <path d="M1.1 -5.25 L0.9 -2.85 0.0 -2.1 0.0 -2.05 -0.9 -2.8 -1.1 -5.2 0.0 -4.5 1.1 -5.25 0.0 -4.5 -1.1 -5.2 -0.75 -7.15 0.75 -7.15 1.1 -5.25" fill="#880000" fill-rule="evenodd" stroke="none"/>
    <path d="M2.2 -10.45 L2.25 -10.45 3.25 4.15 4.05 4.1 6.35 3.15 7.8 -0.85 8.0 -0.95 9.65 3.9 6.25 9.5 5.35 9.5 2.35 9.5 2.1 9.5 0.0 8.75 -2.1 9.55 -2.35 9.55 -5.4 9.55 -6.25 9.55 -9.6 3.95 -9.6 3.9 -8.05 -0.9 -7.75 -0.8 -6.35 3.15 -4.05 4.2 -3.25 4.2 -2.25 -10.45 -1.1 -5.2 -0.9 -2.8 0.0 -2.05 0.0 -2.1 0.9 -2.85 1.1 -5.25 2.2 -10.45 M2.1 4.75 L2.1 2.45 0.0 -1.1 -2.1 2.45 -2.1 4.8 -5.05 5.75 -5.85 8.65 -2.1 8.65 0.0 7.95 2.1 8.6 5.9 8.6 5.05 5.75 2.1 4.75" fill="url(#gradient0)" fill-rule="evenodd" stroke="none"/>
    <path d="M9.65 3.9 L8.0 -0.95 10.5 -2.05 9.65 3.9" fill="url(#gradient1)" fill-rule="evenodd" stroke="none"/>
    <path d="M-8.05 -0.9 L-9.6 3.9 -10.5 -2.0 -8.05 -0.9" fill="url(#gradient2)" fill-rule="evenodd" stroke="none"/>
    <path d="M2.1 4.75 L5.05 5.75 5.9 8.6 2.1 8.6 0.0 7.95 -2.1 8.65 -5.85 8.65 -5.05 5.75 -2.1 4.8 -2.1 2.45 0.0 -1.1 2.1 2.45 2.1 4.75 2.1 8.6 2.1 4.75 M-2.1 4.8 L-2.1 8.65 -2.1 4.8" fill="url(#gradient3)" fill-rule="evenodd" stroke="none"/>
    <path d="M2.25 -10.5 L2.2 -10.45" fill="none" stroke="#cccccc" stroke-linecap="butt" stroke-linejoin="miter-clip" stroke-miterlimit="3.0" stroke-width="0.1"/>
    <path d="M2.2 -10.45 L1.1 -5.25 0.9 -2.85 0.0 -2.1 0.0 -2.05 -0.9 -2.8 -1.1 -5.2 -2.25 -10.45 M2.1 4.75 L5.05 5.75 5.9 8.6 2.1 8.6 0.0 7.95 -2.1 8.65 -5.85 8.65 -5.05 5.75 -2.1 4.8 -2.1 2.45 0.0 -1.1 2.1 2.45 2.1 4.75 2.1 8.6 M1.9 10.5 L5.85 10.5 5.35 9.5 M-5.4 9.55 L-5.85 10.5 -1.9 10.5 M-2.1 8.65 L-2.1 4.8" fill="none" stroke="#000000" stroke-linecap="butt" stroke-linejoin="miter-clip" stroke-miterlimit="3.0" stroke-width="0.1"/>
    <path d="M1.1 -5.25 L0.0 -4.5 -1.1 -5.2 -0.75 -7.15 0.75 -7.15 1.1 -5.25" fill="none" stroke="#880000" stroke-linecap="butt" stroke-linejoin="miter-clip" stroke-miterlimit="3.0" stroke-width="0.1"/>
    <path d="M-2.25 -10.45 L-3.25 4.2 -4.05 4.2 -6.35 3.15 -7.75 -0.8 -8.05 -0.9 M-9.6 3.9 L-9.6 3.95 -6.25 9.55 -5.4 9.55 -2.35 9.55 -2.1 9.55 0.0 8.75 2.1 9.5 2.35 9.5 5.35 9.5 6.25 9.5 9.65 3.9 M8.0 -0.95 L7.8 -0.85 6.35 3.15 4.05 4.1 3.25 4.15 2.25 -10.45 2.25 -10.5 M2.35 9.5 L1.9 10.5 M-1.9 10.5 L-2.35 9.55" fill="none" stroke="#5c4832" stroke-linecap="butt" stroke-linejoin="miter-clip" stroke-miterlimit="3.0" stroke-width="0.1"/>
  </g>
  <defs>
    <radialGradient cx="0" cy="0" gradientTransform="matrix(0.0144, 0.0, 0.0, 0.0144, 0.0, -0.45)" gradientUnits="userSpaceOnUse" id="gradient0" r="819.2" spreadMethod="pad">
      <stop offset="0.0" stop-color="#5c4832"/>
      <stop offset="0.47843137254901963" stop-color="#856949"/>
      <stop offset="1.0" stop-color="#5c4832"/>
    </radialGradient>
    <radialGradient cx="0" cy="0" gradientTransform="matrix(0.004, 0.0, 0.0, 0.004, 9.25, 0.95)" gradientUnits="userSpaceOnUse" id="gradient1" r="819.2" spreadMethod="pad">
      <stop offset="0.0" stop-color="#672721"/>
      <stop offset="1.0" stop-color="#6f553c"/>
    </radialGradient>
    <radialGradient cx="0" cy="0" gradientTransform="matrix(0.0039, 0.0, 0.0, 0.0039, -9.25, 0.95)" gradientUnits="userSpaceOnUse" id="gradient2" r="819.2" spreadMethod="pad">
      <stop offset="0.0" stop-color="#672721"/>
      <stop offset="1.0" stop-color="#6f553c"/>
    </radialGradient>
    <radialGradient cx="0" cy="0" gradientTransform="matrix(0.0065, 0.0, 0.0, 0.0065, 0.0, 3.75)" gradientUnits="userSpaceOnUse" id="gradient3" r="819.2" spreadMethod="pad">
      <stop offset="0.0" stop-color="#76752c"/>
      <stop offset="1.0" stop-color="#33360e"/>
    </radialGradient>
  </defs>
</svg>
