<?xml version="1.0" encoding="UTF-8" standalone="no"?>
<svg xmlns:xlink="http://www.w3.org/1999/xlink" height="6.25px" width="7.35px" xmlns="http://www.w3.org/2000/svg">
  <g transform="matrix(1.0, 0.0, 0.0, 1.0, 3.5, 1.2)">
    <path d="M-3.0 0.05 L3.0 0.0" fill="none" stroke="#ffffff" stroke-linecap="butt" stroke-linejoin="miter-clip" stroke-miterlimit="3.0" stroke-width="1.0"/>
    <path d="M-2.95 0.1 Q0.0 1.9 3.0 0.0 -0.05 9.0 -2.95 0.1" fill="#0099cc" fill-rule="evenodd" stroke="none"/>
    <path d="M-2.95 0.1 L-3.0 0.0 -3.0 0.05 -2.95 0.1 Q0.0 1.9 3.0 0.0 -0.05 9.0 -2.95 0.1" fill="none" stroke="#0099cc" stroke-linecap="round" stroke-linejoin="miter-clip" stroke-miterlimit="3.0" stroke-width="1.0"/>
  </g>
</svg>
