<?xml version="1.0" encoding="UTF-8" standalone="no"?>
<svg xmlns:xlink="http://www.w3.org/1999/xlink" height="52.1px" width="52.1px" xmlns="http://www.w3.org/2000/svg">
  <g transform="matrix(1.0, 0.0, 0.0, 1.0, 26.05, 26.05)">
    <path d="M13.45 -15.05 L15.4 -26.0 Q19.95 -20.2 23.5 -7.65 27.65 7.0 24.9 16.3 23.2 21.0 17.55 23.95 L10.3 19.3 10.3 -6.05 13.45 -15.05 M-17.5 23.95 Q-23.2 21.0 -24.9 16.3 -27.65 7.0 -23.5 -7.65 -19.95 -20.2 -15.35 -26.0 L-13.4 -15.05 -10.3 -6.05 -10.3 19.3 -17.5 23.95 M-7.0 -15.05 L-2.35 -18.0 -4.55 -14.4 -4.3 -10.75 0.0 -6.4 4.3 -10.75 4.6 -14.4 7.0 -15.05 4.6 -14.4 2.55 -18.0 7.0 -15.05 7.0 -8.15 4.3 -10.75 7.0 -8.15 0.0 -6.4 -7.0 -8.15 -7.0 -15.05 -4.55 -14.4 -7.0 -15.05 M-4.3 -10.75 L-7.0 -8.15 -4.3 -10.75 M17.15 -3.1 Q18.75 -3.15 19.9 -4.15 21.0 -5.15 21.05 -6.6 21.0 -8.05 19.9 -9.05 18.75 -10.05 17.15 -10.05 15.5 -10.05 14.4 -9.05 13.25 -8.05 13.25 -6.6 13.25 -5.15 14.4 -4.15 15.5 -3.15 17.15 -3.1 M22.0 15.05 Q22.0 13.6 20.85 12.6 19.7 11.6 18.1 11.6 16.5 11.6 15.35 12.6 14.2 13.6 14.2 15.05 14.2 16.5 15.35 17.55 16.5 18.55 18.1 18.55 19.7 18.55 20.85 17.55 22.0 16.5 22.0 15.05 M-13.25 -6.6 Q-13.25 -8.05 -14.35 -9.05 -15.5 -10.05 -17.1 -10.05 -18.75 -10.05 -19.85 -9.05 -21.0 -8.05 -21.0 -6.6 -21.0 -5.15 -19.85 -4.15 -18.75 -3.15 -17.1 -3.1 -15.5 -3.15 -14.35 -4.15 -13.25 -5.15 -13.25 -6.6 M-18.1 18.55 Q-16.5 18.55 -15.35 17.55 -14.2 16.5 -14.2 15.05 -14.2 13.6 -15.35 12.6 -16.5 11.6 -18.1 11.6 -19.7 11.6 -20.8 12.6 -22.0 13.6 -22.0 15.05 -22.0 16.5 -20.8 17.55 -19.7 18.55 -18.1 18.55" fill="#000099" fill-rule="evenodd" stroke="none"/>
    <path d="M11.1 -19.25 L11.15 -15.05 13.45 -15.05 10.3 -6.05 10.3 19.3 17.55 23.95 13.0 23.5 11.65 21.4 8.75 21.15 5.85 20.9 5.05 22.75 0.0 22.3 -5.05 22.75 -5.8 20.9 -8.7 21.15 -11.65 21.4 -13.0 23.5 -17.5 23.95 -10.3 19.3 -10.3 -6.05 -13.4 -15.05 -11.1 -15.05 -11.05 -19.25 -9.4 -19.25 -9.4 -15.05 -7.0 -15.05 -7.0 -8.15 -10.3 -6.05 -8.65 -4.65 0.0 -6.4 7.0 -8.15 10.3 -6.05 8.65 -4.65 0.0 -6.4 8.65 -4.65 10.3 -6.05 7.0 -8.15 7.0 -15.05 9.45 -15.05 9.4 -19.25 11.1 -19.25 M17.15 -3.1 Q15.5 -3.15 14.4 -4.15 13.25 -5.15 13.25 -6.6 13.25 -8.05 14.4 -9.05 15.5 -10.05 17.15 -10.05 18.75 -10.05 19.9 -9.05 21.0 -8.05 21.05 -6.6 21.0 -5.15 19.9 -4.15 18.75 -3.15 17.15 -3.1 M9.45 -15.05 L11.15 -15.05 9.45 -15.05 M22.0 15.05 Q22.0 16.5 20.85 17.55 19.7 18.55 18.1 18.55 16.5 18.55 15.35 17.55 14.2 16.5 14.2 15.05 14.2 13.6 15.35 12.6 16.5 11.6 18.1 11.6 19.7 11.6 20.85 12.6 22.0 13.6 22.0 15.05 M-1.65 13.55 L-1.65 3.4 0.0 4.05 0.0 14.0 1.65 13.55 6.85 13.55 8.65 17.85 0.0 15.95 -8.65 17.85 -6.8 13.55 -1.65 13.55 0.0 14.0 -1.65 13.55 -6.8 13.55 -8.65 17.85 0.0 15.95 8.65 17.85 6.85 13.55 1.65 13.55 0.0 14.0 0.0 4.05 -1.65 3.4 -1.65 13.55 M8.65 -4.65 L8.65 5.85 6.85 3.4 1.65 3.4 0.0 4.05 0.0 -6.4 0.0 4.05 1.65 3.4 6.85 3.4 8.65 5.85 8.65 -4.65 M1.65 13.55 L1.65 3.4 1.65 13.55 M6.85 3.4 L6.85 13.55 6.85 3.4 M8.65 5.85 L8.65 17.85 10.3 19.3 0.0 18.55 -10.3 19.3 -8.65 17.85 -10.3 19.3 0.0 18.55 10.3 19.3 8.65 17.85 8.65 5.85 M-13.25 -6.6 Q-13.25 -5.15 -14.35 -4.15 -15.5 -3.15 -17.1 -3.1 -18.75 -3.15 -19.85 -4.15 -21.0 -5.15 -21.0 -6.6 -21.0 -8.05 -19.85 -9.05 -18.75 -10.05 -17.1 -10.05 -15.5 -10.05 -14.35 -9.05 -13.25 -8.05 -13.25 -6.6 M-11.1 -15.05 L-9.4 -15.05 -11.1 -15.05 M0.0 -6.4 L-8.65 -4.65 -10.3 -6.05 -7.0 -8.15 0.0 -6.4 M-8.65 17.85 L-8.65 5.85 -6.8 3.4 -1.65 3.4 -6.8 3.4 -6.8 13.55 -6.8 3.4 -8.65 5.85 -8.65 17.85 M-18.1 18.55 Q-19.7 18.55 -20.8 17.55 -22.0 16.5 -22.0 15.05 -22.0 13.6 -20.8 12.6 -19.7 11.6 -18.1 11.6 -16.5 11.6 -15.35 12.6 -14.2 13.6 -14.2 15.05 -14.2 16.5 -15.35 17.55 -16.5 18.55 -18.1 18.55 M-8.65 -4.65 L-8.65 5.85 -8.65 -4.65" fill="#666666" fill-rule="evenodd" stroke="none"/>
    <path d="M-2.35 -18.0 L2.55 -18.0 4.6 -14.4 4.3 -10.75 0.0 -6.4 -4.3 -10.75 4.3 -10.75 -4.3 -10.75 -4.55 -14.4 -2.35 -18.0 M4.6 -14.4 L-4.55 -14.4 4.6 -14.4" fill="#0000ff" fill-rule="evenodd" stroke="none"/>
    <path d="M-11.05 -19.25 L-11.9 -19.25 -11.45 -23.4 -9.0 -23.4 -8.55 -19.25 -9.4 -19.25 -11.05 -19.25 M9.4 -19.25 L8.55 -19.25 9.05 -23.4 11.45 -23.4 11.95 -19.25 11.1 -19.25 9.4 -19.25" fill="#990000" fill-rule="evenodd" stroke="none"/>
    <path d="M13.0 23.5 L14.6 26.0 9.15 26.0 3.7 26.0 5.05 22.75 5.85 20.9 8.75 21.15 11.65 21.4 13.0 23.5 M-5.05 22.75 L-3.7 26.0 -9.1 26.0 -14.6 26.0 -13.0 23.5 -11.65 21.4 -8.7 21.15 -5.8 20.9 -5.05 22.75 M8.75 21.15 L9.15 26.0 8.75 21.15 M-9.1 26.0 L-8.7 21.15 -9.1 26.0" fill="#333333" fill-rule="evenodd" stroke="none"/>
    <path d="M15.4 -26.0 Q19.95 -20.2 23.5 -7.65 M-23.5 -7.65 Q-19.95 -20.2 -15.35 -26.0" fill="none" stroke="#333333" stroke-linecap="butt" stroke-linejoin="miter-clip" stroke-miterlimit="3.0" stroke-width="0.1"/>
    <path d="M17.15 -3.1 Q18.75 -3.15 19.9 -4.15 21.0 -5.15 21.05 -6.6 21.0 -8.05 19.9 -9.05 18.75 -10.05 17.15 -10.05 15.5 -10.05 14.4 -9.05 13.25 -8.05 13.25 -6.6 13.25 -5.15 14.4 -4.15 15.5 -3.15 17.15 -3.1 M22.0 15.05 Q22.0 13.6 20.85 12.6 19.7 11.6 18.1 11.6 16.5 11.6 15.35 12.6 14.2 13.6 14.2 15.05 14.2 16.5 15.35 17.55 16.5 18.55 18.1 18.55 19.7 18.55 20.85 17.55 22.0 16.5 22.0 15.05 M-13.25 -6.6 Q-13.25 -5.15 -14.35 -4.15 -15.5 -3.15 -17.1 -3.1 -18.75 -3.15 -19.85 -4.15 -21.0 -5.15 -21.0 -6.6 -21.0 -8.05 -19.85 -9.05 -18.75 -10.05 -17.1 -10.05 -15.5 -10.05 -14.35 -9.05 -13.25 -8.05 -13.25 -6.6 M-18.1 18.55 Q-19.7 18.55 -20.8 17.55 -22.0 16.5 -22.0 15.05 -22.0 13.6 -20.8 12.6 -19.7 11.6 -18.1 11.6 -16.5 11.6 -15.35 12.6 -14.2 13.6 -14.2 15.05 -14.2 16.5 -15.35 17.55 -16.5 18.55 -18.1 18.55" fill="none" stroke="#000000" stroke-linecap="butt" stroke-linejoin="miter-clip" stroke-miterlimit="3.0" stroke-width="1.0"/>
    <path d="M11.15 -15.05 L13.45 -15.05 15.4 -26.0 M23.5 -7.65 Q27.65 7.0 24.9 16.3 23.2 21.0 17.55 23.95 L13.0 23.5 14.6 26.0 9.15 26.0 3.7 26.0 5.05 22.75 0.0 22.3 -5.05 22.75 -3.7 26.0 -9.1 26.0 -14.6 26.0 -13.0 23.5 -17.5 23.95 Q-23.2 21.0 -24.9 16.3 -27.65 7.0 -23.5 -7.65 M-15.35 -26.0 L-13.4 -15.05 -11.1 -15.05 -9.4 -15.05 -7.0 -15.05 -2.35 -18.0 2.55 -18.0 7.0 -15.05 9.45 -15.05 11.15 -15.05 M7.0 -15.05 L4.6 -14.4 4.3 -10.75 7.0 -8.15 7.0 -15.05 M4.6 -14.4 L2.55 -18.0 M-4.3 -10.75 L0.0 -6.4 4.3 -10.75 -4.3 -10.75 -4.55 -14.4 -7.0 -15.05 -7.0 -8.15 -4.3 -10.75 M7.0 -8.15 L0.0 -6.4 8.65 -4.65 10.3 -6.05 7.0 -8.15 M13.45 -15.05 L10.3 -6.05 10.3 19.3 17.55 23.95 M0.0 -6.4 L0.0 4.05 1.65 3.4 6.85 3.4 8.65 5.85 8.65 -4.65 M0.0 14.0 L-1.65 13.55 -6.8 13.55 -8.65 17.85 0.0 15.95 8.65 17.85 6.85 13.55 1.65 13.55 0.0 14.0 0.0 4.05 -1.65 3.4 -1.65 13.55 M5.05 22.75 L5.85 20.9 8.75 21.15 11.65 21.4 13.0 23.5 M-8.65 17.85 L-10.3 19.3 0.0 18.55 10.3 19.3 8.65 17.85 8.65 5.85 M6.85 13.55 L6.85 3.4 M1.65 3.4 L1.65 13.55 M9.15 26.0 L8.75 21.15 M-2.35 -18.0 L-4.55 -14.4 4.6 -14.4 M-17.5 23.95 L-10.3 19.3 -10.3 -6.05 -13.4 -15.05 M-7.0 -8.15 L-10.3 -6.05 -8.65 -4.65 0.0 -6.4 -7.0 -8.15 M-1.65 3.4 L-6.8 3.4 -6.8 13.55 M-6.8 3.4 L-8.65 5.85 -8.65 17.85 M-13.0 23.5 L-11.65 21.4 -8.7 21.15 -5.8 20.9 -5.05 22.75 M-8.7 21.15 L-9.1 26.0 M-8.65 5.85 L-8.65 -4.65" fill="none" stroke="#000000" stroke-linecap="butt" stroke-linejoin="miter-clip" stroke-miterlimit="3.0" stroke-width="0.1"/>
    <path d="M-11.05 -19.25 L-11.9 -19.25 -11.45 -23.4 -9.0 -23.4 -8.55 -19.25 -9.4 -19.25 -11.05 -19.25 M9.4 -19.25 L8.55 -19.25 9.05 -23.4 11.45 -23.4 11.95 -19.25 11.1 -19.25 9.4 -19.25 Z" fill="none" stroke="#990000" stroke-linecap="butt" stroke-linejoin="miter-clip" stroke-miterlimit="3.0" stroke-width="0.1"/>
  </g>
</svg>
