<?xml version="1.0" encoding="UTF-8" standalone="no"?>
<svg xmlns:xlink="http://www.w3.org/1999/xlink" height="41.0px" width="45.05px" xmlns="http://www.w3.org/2000/svg">
  <g transform="matrix(1.0, 0.0, 0.0, 1.0, 22.6, 20.5)">
    <path d="M18.25 -9.25 Q22.85 0.25 21.7 9.8 L18.85 17.5 6.7 20.0 -6.7 20.0 -18.7 17.5 -21.45 9.8 Q-23.75 0.25 -18.1 -9.25 L-3.15 -20.0 3.1 -19.95 18.25 -9.25 Z" fill="none" stroke="#00ffff" stroke-linecap="butt" stroke-linejoin="miter-clip" stroke-miterlimit="3.0" stroke-width="1.0"/>
  </g>
</svg>
