<?xml version="1.0" encoding="UTF-8" standalone="no"?>
<svg xmlns:xlink="http://www.w3.org/1999/xlink" height="70.3px" width="61.0px" xmlns="http://www.w3.org/2000/svg">
  <g transform="matrix(1.0, 0.0, 0.0, 1.0, 30.45, 35.5)">
    <path d="M0.05 -35.0 Q-23.3 -35.35 -29.95 -19.25 L-29.95 22.75 Q-29.2 31.05 -17.3 34.3 L17.35 34.3 Q29.25 31.05 30.05 22.75 L30.05 -19.25 Q23.35 -35.35 0.05 -35.0 Z" fill="none" stroke="#00ffff" stroke-linecap="butt" stroke-linejoin="miter-clip" stroke-miterlimit="3.0" stroke-width="1.0"/>
  </g>
</svg>
