<?xml version="1.0" encoding="UTF-8" standalone="no"?>
<svg xmlns:xlink="http://www.w3.org/1999/xlink" height="83.7px" width="83.75px" xmlns="http://www.w3.org/2000/svg">
  <g transform="matrix(1.0, 0.0, 0.0, 1.0, 41.2, 45.5)">
    <path d="M0.7 -45.0 L1.35 -45.0 Q23.7 -44.85 33.3 -27.85 41.5 -10.0 42.05 9.75 41.95 30.0 28.4 34.75 14.75 37.05 0.7 37.7 -13.4 37.05 -27.05 34.75 -40.6 30.0 -40.7 9.75 -40.15 -10.0 -31.95 -27.85 -22.35 -44.85 0.05 -45.0 L0.7 -45.0 Z" fill="none" stroke="#00ffff" stroke-linecap="butt" stroke-linejoin="miter-clip" stroke-miterlimit="3.0" stroke-width="1.0"/>
  </g>
</svg>
