<?xml version="1.0" encoding="UTF-8" standalone="no"?>
<svg xmlns:xlink="http://www.w3.org/1999/xlink" height="39.75px" width="40.1px" xmlns="http://www.w3.org/2000/svg">
  <g transform="matrix(1.0, 0.0, 0.0, 1.0, 20.05, 20.0)">
    <path d="M2.5 -18.75 L6.0 -13.25 M7.0 19.25 Q14.45 17.7 19.5 13.75 L19.5 2.5 Q19.95 -2.5 15.5 -7.5 M-6.0 -13.25 L-2.5 -18.75 M-7.0 19.25 Q-14.45 17.7 -19.5 13.75 L-19.5 2.5 Q-19.95 -2.5 -15.5 -7.5" fill="none" stroke="#00ffff" stroke-linecap="butt" stroke-linejoin="miter-clip" stroke-miterlimit="3.0" stroke-width="1.0"/>
    <path d="M15.5 -7.5 Q10.25 -8.75 6.0 -13.0 M-15.5 -7.5 Q-10.25 -8.75 -6.0 -13.0 M-2.5 -18.75 Q0.0 -20.2 2.5 -18.75 M-7.0 19.25 L7.0 19.25" fill="none" stroke="#00ffff" stroke-linecap="butt" stroke-linejoin="miter-clip" stroke-miterlimit="3.0" stroke-width="1.0"/>
  </g>
</svg>
