<?xml version="1.0" encoding="UTF-8" standalone="no"?>
<svg xmlns:xlink="http://www.w3.org/1999/xlink" height="300.15px" width="321.0px" xmlns="http://www.w3.org/2000/svg">
  <g transform="matrix(1.0, 0.0, 0.0, 1.0, 160.5, 149.95)">
    <path d="M1.55 -52.65 L-1.25 -52.45 Q-11.2 -51.45 -14.45 -45.15 -10.9 -86.1 -1.25 -89.8 0.1 -90.4 1.55 -90.2 3.0 -90.4 4.35 -89.8 13.95 -86.1 17.55 -45.15 14.3 -51.45 4.35 -52.45 L1.55 -52.65" fill="none" stroke="#cccccc" stroke-linecap="butt" stroke-linejoin="miter-clip" stroke-miterlimit="3.0" stroke-width="0.1"/>
    <path d="M-15.65 -138.95 L-15.25 -142.5 -14.95 -142.7 -14.7 -142.9 -1.55 -148.6 1.45 -149.9 4.45 -148.6 17.75 -142.9 18.15 -142.65 18.35 -142.5 18.75 -139.3 19.15 -135.4 40.8 52.0 9.55 52.0 17.55 59.5 65.65 59.5 81.65 44.5 81.65 82.85 81.65 104.3 81.65 112.0 65.65 126.85 65.65 59.5 M64.35 6.7 L66.7 4.5 74.75 4.5 78.75 8.25 Q74.3 11.0 69.85 10.7 M17.75 -142.9 L19.15 -135.4 M67.2 -49.0 L63.2 -49.0 65.4 -79.0 77.0 -79.0 79.2 -49.0 75.2 -49.0 67.2 -49.0 M115.7 -26.25 L111.7 -26.25 113.95 -56.25 125.55 -56.25 127.75 -26.25 123.75 -26.25 115.7 -26.25 M-15.65 -138.95 L-16.05 -135.4 -14.7 -142.9 M-123.95 -26.7 L-115.9 -26.7 -111.9 -26.7 -114.1 -56.7 -125.7 -56.7 -127.95 -26.7 -123.95 -26.7 M-75.4 -49.45 L-67.35 -49.45 M-64.5 6.25 L-66.9 4.05 -74.9 4.05 -78.9 7.8 Q-74.5 10.55 -70.0 10.25 M-78.9 7.8 L-78.9 15.95 M-111.5 30.5 L-111.45 30.55 Q-115.75 33.2 -120.05 33.0 -123.75 32.8 -127.45 30.55 L-127.45 34.85 M-78.55 82.4 L-78.55 44.5 -78.55 37.2 -46.9 37.2 -46.5 37.2 -46.5 44.5 -38.5 52.0 -37.7 52.0 -16.05 -135.4 M-78.55 44.5 L-62.5 59.5 -14.45 59.5 -6.45 52.0 -37.7 52.0 M-111.5 30.5 L-115.45 26.8 -123.45 26.8 -127.45 30.55 M-16.45 138.1 L19.55 138.1 30.8 138.1 38.0 138.1 44.6 138.1 55.6 138.1 57.6 138.1 57.6 134.3 17.55 134.3 9.55 126.85 9.55 112.0 -6.45 112.0 -6.45 126.85 -14.45 134.3 -54.5 134.3 -54.5 138.1 -52.5 138.1 -41.5 138.1 -34.9 138.1 -27.7 138.1 -16.45 138.1 -22.5 150.1 -30.5 150.1 -34.5 150.1 -38.5 150.1 -46.5 150.1 -52.5 138.1 M-54.5 134.3 L-62.5 126.85 -78.55 112.0 -78.55 82.4 M-27.7 138.1 L-30.5 150.1 M-34.5 150.1 L-34.9 138.1 M-41.5 138.1 L-39.1 147.45 -38.5 150.1 M-6.45 112.0 L-6.45 52.0 M-14.45 134.3 L-14.45 59.5 M-62.5 59.5 L-62.5 126.85 M119.9 33.45 Q115.55 33.65 111.25 31.0 L111.3 30.95 115.25 27.25 123.25 27.25 127.25 31.0 Q123.55 33.25 119.9 33.45 M127.25 35.3 L127.25 31.0 M78.75 16.4 L78.75 8.25 M57.6 134.3 L65.65 126.85 M44.6 138.1 L42.2 147.45 41.6 150.1 49.6 150.1 55.6 138.1 M30.8 138.1 L33.6 150.1 37.6 150.1 38.0 138.1 M19.55 138.1 L25.6 150.1 33.6 150.1 M41.6 150.1 L37.6 150.1 M9.55 52.0 L9.55 112.0 M17.55 59.5 L17.55 134.3" fill="none" stroke="#cccccc" stroke-linecap="round" stroke-linejoin="miter-clip" stroke-miterlimit="3.0" stroke-width="0.1"/>
    <path d="M18.75 -139.3 L39.8 -16.9 39.9 -16.45 Q46.3 -8.9 53.5 -2.3 L58.1 1.75 64.35 6.7 69.85 10.7 Q74.15 13.7 78.75 16.4 85.5 20.4 92.7 23.7 L93.9 24.25 98.65 26.3 Q104.55 28.7 110.7 30.75 L111.15 30.9 111.3 30.95 119.9 33.45 126.7 35.15 127.25 35.3 130.8 36.05 142.75 38.15 142.75 82.85 81.65 82.85 M18.75 -139.3 L18.15 -142.65 M39.8 -16.9 L39.5 -16.9 39.9 -16.45 M-14.95 -142.7 L-15.65 -138.95 -38.4 -26.9 -39.65 -17.35 Q-46.3 -9.55 -53.7 -2.75 L-58.3 1.3 -64.5 6.25 -70.0 10.25 Q-74.35 13.25 -78.9 15.95 -85.7 19.95 -92.9 23.25 L-94.05 23.8 -98.85 25.85 Q-104.75 28.25 -110.9 30.3 L-111.35 30.45 -111.5 30.5 -120.05 33.0 -126.85 34.7 -127.45 34.85 -130.95 35.6 -142.9 37.7 -142.9 82.4 -78.55 82.4 M-46.9 37.2 L-39.65 -17.35 M-142.9 37.7 L-142.9 23.0 Q-151.45 20.95 -160.0 39.0 L-160.0 103.85 Q-158.15 116.5 -142.9 120.8 L-142.9 103.85 -142.9 82.4 M142.75 104.3 L81.65 104.3 M142.75 104.3 L142.75 82.85 M4.45 -148.6 L-1.55 -148.6" fill="none" stroke="#cccccc" stroke-linecap="round" stroke-linejoin="miter-clip" stroke-miterlimit="3.0" stroke-width="1.0"/>
    <path d="M66.7 4.5 L66.7 -7.75 M75.2 -49.0 L75.2 -7.8 M123.75 -26.25 L123.75 14.95 M-123.95 -26.7 L-123.95 14.5 M-67.35 -49.45 L-63.35 -49.45 -65.6 -79.45 -77.2 -79.45 M-75.4 -49.45 L-75.4 -8.25 M-78.9 15.95 L-78.9 16.6 M-115.45 26.8 L-115.45 14.55 M78.75 16.4 L78.75 17.0 M115.25 27.25 L115.25 15.0 M123.25 27.25 L123.25 15.0 M81.65 44.5 L81.65 37.2 M-66.9 4.05 L-66.9 -8.2 M74.75 4.5 L74.75 -7.75" fill="none" stroke="#cccccc" stroke-linecap="round" stroke-linejoin="miter-clip" stroke-miterlimit="3.0" stroke-width="0.1"/>
    <path d="M67.2 -7.8 L67.2 -49.0 M115.7 14.95 L115.7 -26.25 M-77.2 -79.45 L-79.4 -49.45 -75.4 -49.45 M-67.35 -8.25 L-67.35 -49.45 M-123.45 14.55 L-123.45 26.8 M81.65 37.2 L49.6 37.2 49.6 44.5 41.6 52.0 40.8 52.0 M-115.9 14.5 L-115.9 -26.7 M-74.9 -8.2 L-74.9 4.05" fill="none" stroke="#cccccc" stroke-linecap="butt" stroke-linejoin="miter-clip" stroke-miterlimit="3.0" stroke-width="0.1"/>
    <path d="M39.9 -16.45 L49.1 37.0 M-39.65 -17.35 L-38.85 -18.3 M-142.9 103.85 L-78.9 103.85" fill="none" stroke="#cccccc" stroke-linecap="round" stroke-linejoin="miter-clip" stroke-miterlimit="3.0" stroke-width="1.0"/>
    <path d="M160.0 103.85 L160.0 39.45 159.85 39.05 Q151.15 21.45 142.75 23.45 L142.75 38.15 M159.8 104.3 Q157.95 116.95 142.75 121.25 L142.75 104.3" fill="none" stroke="#cccccc" stroke-linecap="butt" stroke-linejoin="miter-clip" stroke-miterlimit="3.0" stroke-width="1.0"/>
  </g>
</svg>
