<?xml version="1.0" encoding="UTF-8" standalone="no"?>
<svg xmlns:xlink="http://www.w3.org/1999/xlink" height="121.0px" width="108.45px" xmlns="http://www.w3.org/2000/svg">
  <g transform="matrix(1.0, 0.0, 0.0, 1.0, 0.5, 0.5)">
    <path d="M107.45 120.0 L0.0 120.0 0.0 0.0 107.45 0.0 107.45 120.0" fill="#000000" fill-rule="evenodd" stroke="none"/>
    <path d="M107.45 120.0 L0.0 120.0 0.0 0.0 107.45 0.0 107.45 120.0 Z" fill="none" stroke="#000066" stroke-linecap="butt" stroke-linejoin="miter-clip" stroke-miterlimit="3.0" stroke-width="1.0"/>
  </g>
</svg>
