<?xml version="1.0" encoding="UTF-8" standalone="no"?>
<svg xmlns:xlink="http://www.w3.org/1999/xlink" height="127.5px" width="117.8px" xmlns="http://www.w3.org/2000/svg">
  <g transform="matrix(1.0, 0.0, 0.0, 1.0, 59.0, 61.4)">
    <path d="M13.3 -15.5 Q19.2 -11.2 26.85 -11.15 36.65 -11.2 43.55 -18.2 50.45 -25.25 50.45 -35.2 50.45 -45.0 43.75 -52.0 L43.55 -52.2 Q36.65 -59.25 26.85 -59.25 17.1 -59.25 10.2 -52.2 L10.0 -52.0 Q3.3 -45.0 3.3 -35.2 3.3 -29.6 5.5 -24.9 3.3 -29.6 3.3 -35.2 3.3 -45.0 10.0 -52.0 L10.2 -52.2 Q17.1 -59.25 26.85 -59.25 36.65 -59.25 43.55 -52.2 L43.75 -52.0 Q50.45 -45.0 50.45 -35.2 50.45 -25.25 43.55 -18.2 36.65 -11.2 26.85 -11.15 19.2 -11.2 13.3 -15.5 L13.1 -17.55 13.0 -18.3 Q18.9 -13.2 26.85 -13.15 35.1 -13.15 41.15 -18.65 L13.0 -18.65 12.55 -21.1 40.5 -21.1 40.5 -49.6 12.5 -49.6 12.5 -21.3 11.85 -23.3 Q11.2 -24.6 10.15 -25.2 L10.15 -49.15 Q5.25 -43.2 5.25 -35.2 5.25 -30.0 7.3 -25.65 6.25 -25.5 5.5 -24.9 4.75 -24.35 4.3 -23.35 L3.85 -22.2 2.95 -24.0 Q0.7 -29.0 0.75 -34.95 0.75 -44.75 6.8 -52.0 L8.35 -53.65 Q13.25 -58.7 19.55 -60.45 22.9 -61.4 26.7 -61.4 30.45 -61.4 33.85 -60.45 40.1 -58.7 45.05 -53.65 L46.55 -52.0 Q52.65 -44.75 52.65 -34.95 52.65 -24.0 45.05 -16.25 41.25 -12.4 36.75 -10.45 L34.3 -9.55 29.35 -8.6 26.7 -8.45 25.0 -8.5 Q20.55 -8.8 16.65 -10.45 15.15 -11.1 13.75 -11.9 L13.3 -15.5 M26.85 -57.25 Q18.8 -57.25 12.9 -52.05 L40.85 -52.05 Q34.9 -57.25 26.85 -57.25 M42.9 -20.4 Q48.5 -26.6 48.5 -35.2 48.5 -43.8 42.9 -50.0 L42.9 -20.4" fill="url(#gradient0)" fill-rule="evenodd" stroke="none"/>
    <path d="M12.5 -21.3 L12.5 -49.6 40.5 -49.6 40.5 -21.1 12.55 -21.1 12.5 -21.3 M38.7 -45.7 L38.7 -47.8 36.65 -47.8 38.7 -47.8 38.7 -45.7 M14.3 -25.35 L14.3 -22.9 16.65 -22.9 14.3 -22.9 14.3 -25.35" fill="url(#gradient1)" fill-rule="evenodd" stroke="none"/>
    <path d="M26.85 -57.25 Q34.9 -57.25 40.85 -52.05 L12.9 -52.05 Q18.8 -57.25 26.85 -57.25" fill="url(#gradient2)" fill-rule="evenodd" stroke="none"/>
    <path d="M7.3 -25.65 Q5.25 -30.0 5.25 -35.2 5.25 -43.2 10.15 -49.15 L10.15 -25.2 8.05 -25.7 7.3 -25.65" fill="url(#gradient3)" fill-rule="evenodd" stroke="none"/>
    <path d="M13.3 -15.5 L13.75 -11.9 13.95 -10.75 14.0 -10.45 Q14.7 -7.25 16.15 -5.55 L16.5 -5.2 Q18.25 -3.4 22.0 -2.75 L26.25 -2.35 28.9 -2.2 30.4 -2.1 34.1 -1.45 34.75 -1.25 Q37.25 -0.15 37.25 2.5 37.2 5.0 35.0 6.3 L34.7 6.45 Q33.35 7.15 30.65 7.6 L28.75 7.9 26.35 8.25 21.8 8.95 Q18.5 9.65 16.75 11.1 L16.2 11.6 Q14.4 13.4 13.75 17.0 13.5 18.15 13.15 22.35 L13.05 23.4 12.55 26.75 11.9 28.8 10.8 30.25 Q9.75 31.05 8.2 31.05 5.85 31.05 4.7 29.3 L4.35 28.8 Q3.7 27.6 3.25 25.2 L3.15 24.3 3.0 23.45 2.05 17.05 Q1.2 13.45 -0.55 11.65 -2.3 9.85 -5.65 9.0 L-7.25 8.65 -10.05 8.15 -10.15 8.15 -11.55 7.95 -12.0 7.85 Q-15.05 7.3 -16.45 6.45 L-17.45 5.6 Q-18.5 4.35 -18.5 2.5 -18.5 0.6 -17.45 -0.5 L-16.35 -1.3 -13.15 -2.25 -11.35 -2.45 -11.1 -2.5 -8.3 -2.75 -5.25 -3.15 Q-1.85 -3.9 -0.1 -5.7 1.5 -7.3 2.25 -10.45 L2.4 -11.15 2.75 -13.9 2.8 -14.45 2.95 -16.05 3.15 -17.8 3.35 -19.45 3.85 -22.2 4.3 -23.35 Q4.75 -24.35 5.5 -24.9 6.25 -25.5 7.3 -25.65 L8.05 -25.7 10.15 -25.2 Q11.2 -24.6 11.85 -23.3 L12.5 -21.3 12.55 -21.1 13.0 -18.65 13.0 -18.3 13.1 -17.55 13.3 -15.5 M-10.1 -2.2 Q-11.55 3.45 -10.15 8.15 -11.55 3.45 -10.1 -2.2 M12.65 -16.05 Q7.8 -18.3 2.95 -16.05 7.8 -18.3 12.65 -16.05 M6.0 -8.2 Q8.3 -9.3 10.7 -8.2 8.3 -9.3 6.0 -8.2 M6.0 -6.75 Q8.3 -7.9 10.7 -6.75 8.3 -7.9 6.0 -6.75 M6.0 -9.6 Q8.3 -10.7 10.7 -9.6 8.3 -10.7 6.0 -9.6 M17.6 0.05 Q18.6 2.4 17.5 4.85 18.6 2.4 17.6 0.05 M19.0 0.1 Q20.0 2.45 18.9 4.85 20.0 2.45 19.0 0.1 M16.2 0.0 Q17.2 2.35 16.05 4.8 17.2 2.35 16.2 0.0 M8.1 2.2 Q12.95 6.1 16.75 11.1 12.95 6.1 8.1 2.2 3.45 6.0 -0.4 11.05 3.45 6.0 8.1 2.2 11.8 -2.2 16.15 -5.55 11.8 -2.2 8.1 2.2 L0.7 -6.15 8.1 2.2 M10.45 16.85 Q8.15 17.95 5.75 16.85 8.15 17.95 10.45 16.85 M12.9 20.95 Q8.45 24.25 2.95 20.95 8.45 24.25 12.9 20.95 M10.45 14.0 Q8.15 15.1 5.75 14.0 8.15 15.1 10.45 14.0 M10.45 15.45 Q8.15 16.55 5.75 15.45 8.15 16.55 10.45 15.45 M27.85 7.4 Q30.7 3.3 28.1 -1.9 30.7 3.3 27.85 7.4 M-6.2 5.15 Q-7.3 2.8 -6.2 0.35 -7.3 2.8 -6.2 5.15 M-4.8 5.15 Q-5.9 2.8 -4.8 0.35 -5.9 2.8 -4.8 5.15 M-3.4 5.15 Q-4.5 2.8 -3.4 0.35 -4.5 2.8 -3.4 5.15" fill="url(#gradient4)" fill-rule="evenodd" stroke="none"/>
    <path d="M13.0 -18.65 L41.15 -18.65 Q35.1 -13.15 26.85 -13.15 18.9 -13.2 13.0 -18.3 L13.0 -18.65" fill="url(#gradient5)" fill-rule="evenodd" stroke="none"/>
    <path d="M2.95 -24.0 L3.85 -22.2 3.35 -19.45 3.15 -17.8 2.95 -16.05 2.8 -14.45 Q0.95 -15.4 0.0 -17.1 L3.35 -19.45 0.0 -17.1 Q0.95 -15.4 2.8 -14.45 L2.75 -13.9 -1.85 -10.45 -2.9 -9.55 Q-5.95 -6.8 -8.6 -3.6 -9.75 -6.85 -11.7 -9.7 L-12.25 -10.45 -14.7 -13.25 -15.6 -14.1 Q-11.45 -15.05 -7.65 -16.8 -4.2 -18.45 -1.0 -20.7 L2.95 -24.0 M-1.0 -20.7 Q-0.9 -18.6 0.0 -17.1 L-5.05 -14.15 Q-6.15 -15.65 -7.65 -16.8 -6.15 -15.65 -5.05 -14.15 L0.0 -17.1 Q-0.9 -18.6 -1.0 -20.7 M-2.9 -9.55 L-3.15 -10.45 Q-3.85 -12.5 -5.05 -14.15 L-11.7 -9.7 -5.05 -14.15 Q-3.85 -12.5 -3.15 -10.45 L-2.9 -9.55" fill="url(#gradient6)" fill-rule="evenodd" stroke="none"/>
    <path d="M25.0 -8.5 L26.7 -8.45 29.35 -8.6 34.3 -9.55 34.05 -3.8 34.1 -1.45 30.4 -2.1 28.9 -2.2 26.25 -2.35 26.1 -3.65 25.0 -8.5 M26.1 -3.65 Q28.25 -2.8 30.4 -2.9 L30.4 -2.1 30.4 -2.9 Q28.25 -2.8 26.1 -3.65 M29.35 -8.6 L30.4 -2.9 Q32.2 -3.05 34.05 -3.8 32.2 -3.05 30.4 -2.9 L29.35 -8.6 M35.0 6.3 Q35.65 9.9 36.8 13.45 L32.85 13.15 31.15 13.2 Q28.05 13.4 25.2 14.25 L26.35 8.25 28.75 7.9 30.65 7.6 Q33.35 7.15 34.7 6.45 L35.0 6.3 M30.65 7.6 L31.15 13.2 30.65 7.6" fill="url(#gradient7)" fill-rule="evenodd" stroke="none"/>
    <path d="M42.9 -20.4 L42.9 -50.0 Q48.5 -43.8 48.5 -35.2 48.5 -26.6 42.9 -20.4" fill="url(#gradient8)" fill-rule="evenodd" stroke="none"/>
    <path d="M-8.3 -2.75 L-11.1 -2.5 -11.35 -2.45 -13.15 -2.25 Q-14.55 -6.15 -17.45 -9.45 L-17.45 -0.5 Q-18.5 0.6 -18.5 2.5 -18.5 4.35 -17.45 5.6 L-17.45 20.2 Q-12.7 14.85 -12.0 7.85 L-11.55 7.95 -10.15 8.15 -10.05 8.15 -7.25 8.65 Q-7.7 12.7 -9.25 16.3 -10.3 18.65 -11.8 20.8 L-14.7 24.2 -16.15 25.55 Q-23.3 31.95 -33.05 31.95 -43.8 31.95 -51.4 24.2 -59.0 16.45 -59.0 5.5 -59.0 -5.5 -51.4 -13.25 -48.6 -16.1 -45.35 -17.9 -39.8 -21.0 -33.05 -21.0 -22.95 -21.0 -15.6 -14.1 L-14.7 -13.25 -12.25 -10.45 -11.7 -9.7 Q-9.75 -6.85 -8.6 -3.6 L-8.3 -2.75 M-11.1 -2.5 Q-12.55 -6.85 -15.7 -10.45 L-16.8 -11.6 Q-23.7 -18.65 -33.5 -18.65 -40.05 -18.65 -45.35 -15.45 -47.9 -13.9 -50.15 -11.6 -57.05 -4.6 -57.05 5.4 -57.05 15.3 -50.15 22.35 -43.25 29.4 -33.5 29.4 -23.7 29.4 -16.8 22.35 -10.9 16.3 -10.05 8.15 -10.9 16.3 -16.8 22.35 -23.7 29.4 -33.5 29.4 -43.25 29.4 -50.15 22.35 -57.05 15.3 -57.05 5.4 -57.05 -4.6 -50.15 -11.6 -47.9 -13.9 -45.35 -15.45 -40.05 -18.65 -33.5 -18.65 -23.7 -18.65 -16.8 -11.6 L-15.7 -10.45 Q-12.55 -6.85 -11.1 -2.5 M-47.45 -11.45 L-45.35 -11.45 -19.5 -11.45 Q-25.45 -16.65 -33.5 -16.65 -40.15 -16.65 -45.35 -13.1 L-47.45 -11.45 M-19.85 -9.05 L-47.85 -9.05 -47.85 19.5 -19.85 19.5 -19.85 -9.05 M-33.5 27.45 Q-25.25 27.4 -19.2 21.9 L-47.75 21.9 Q-41.75 27.4 -33.5 27.45 M-55.1 5.4 Q-55.1 13.4 -50.2 19.35 L-50.2 -8.55 Q-55.1 -2.65 -55.1 5.4" fill="url(#gradient9)" fill-rule="evenodd" stroke="none"/>
    <path d="M-47.45 -11.45 L-45.35 -13.1 Q-40.15 -16.65 -33.5 -16.65 -25.45 -16.65 -19.5 -11.45 L-45.35 -11.45 -47.45 -11.45" fill="url(#gradient10)" fill-rule="evenodd" stroke="none"/>
    <path d="M-43.7 -7.2 L-46.05 -7.2 -46.05 -4.95 -46.05 -7.2 -43.7 -7.2 M-21.65 -5.15 L-21.65 -7.2 -23.7 -7.2 -21.65 -7.2 -21.65 -5.15 M-19.85 -9.05 L-19.85 19.5 -47.85 19.5 -47.85 -9.05 -19.85 -9.05 M-23.7 17.7 L-21.65 17.7 -21.65 15.2 -21.65 17.7 -23.7 17.7 M-46.05 15.2 L-46.05 17.7 -43.7 17.7 -46.05 17.7 -46.05 15.2" fill="url(#gradient11)" fill-rule="evenodd" stroke="none"/>
    <path d="M-13.15 -2.25 L-16.35 -1.3 -17.45 -0.5 -17.45 -9.45 Q-14.55 -6.15 -13.15 -2.25 M-17.45 5.6 L-16.45 6.45 Q-15.05 7.3 -12.0 7.85 -12.7 14.85 -17.45 20.2 L-17.45 5.6" fill="url(#gradient12)" fill-rule="evenodd" stroke="none"/>
    <path d="M7.05 36.4 Q3.75 33.8 0.3 31.8 -4.35 29.1 -9.3 27.4 -12.65 26.25 -16.15 25.55 L-14.7 24.2 -11.8 20.8 Q-10.3 18.65 -9.25 16.3 L-4.85 19.95 Q-6.4 21.55 -7.5 23.45 L-11.8 20.8 -7.5 23.45 Q-6.4 21.55 -4.85 19.95 -1.15 22.55 3.15 24.3 L3.25 25.2 Q3.7 27.6 4.35 28.8 L4.7 29.3 Q5.85 31.05 8.2 31.05 7.35 33.6 7.05 36.4 M-9.3 27.4 Q-8.6 25.25 -7.5 23.45 L2.4 28.2 Q1.6 30.1 0.3 31.8 1.6 30.1 2.4 28.2 L-7.5 23.45 Q-8.6 25.25 -9.3 27.4 M4.7 29.3 L2.4 28.2 3.25 25.2 2.4 28.2 4.7 29.3" fill="url(#gradient13)" fill-rule="evenodd" stroke="none"/>
    <path d="M-33.5 27.45 Q-41.75 27.4 -47.75 21.9 L-19.2 21.9 Q-25.25 27.4 -33.5 27.45" fill="url(#gradient14)" fill-rule="evenodd" stroke="none"/>
    <path d="M-55.1 5.4 Q-55.1 -2.65 -50.2 -8.55 L-50.2 19.35 Q-55.1 13.4 -55.1 5.4" fill="url(#gradient15)" fill-rule="evenodd" stroke="none"/>
    <path d="M44.5 28.9 L44.5 26.85 42.4 26.85 44.5 26.85 44.5 28.9 M22.45 26.85 L20.05 26.85 20.05 29.1 20.05 26.85 22.45 26.85 M42.4 51.7 L44.5 51.7 44.5 49.25 44.5 51.7 42.4 51.7 M20.05 49.25 L20.05 51.7 22.45 51.7 20.05 51.7 20.05 49.25 M18.3 25.0 L46.3 25.0 46.3 53.5 18.3 53.5 18.3 25.0" fill="url(#gradient16)" fill-rule="evenodd" stroke="none"/>
    <path d="M36.8 13.45 Q45.05 14.65 51.2 20.9 58.8 28.65 58.8 39.65 58.8 50.6 51.2 58.35 43.6 66.1 32.85 66.1 22.1 66.1 14.45 58.35 6.85 50.6 6.9 39.65 6.85 37.95 7.05 36.4 7.35 33.6 8.2 31.05 9.75 31.05 10.8 30.25 9.05 34.45 9.1 39.4 9.05 49.35 16.0 56.4 22.9 63.45 32.65 63.45 42.4 63.45 49.35 56.4 56.25 49.35 56.25 39.4 56.25 29.45 49.35 22.4 42.4 15.35 32.65 15.35 22.9 15.35 16.0 22.4 14.0 24.45 12.55 26.75 14.0 24.45 16.0 22.4 22.9 15.35 32.65 15.35 42.4 15.35 49.35 22.4 56.25 29.45 56.25 39.4 56.25 49.35 49.35 56.4 42.4 63.45 32.65 63.45 22.9 63.45 16.0 56.4 9.05 49.35 9.1 39.4 9.05 34.45 10.8 30.25 L11.9 28.8 12.55 26.75 13.05 23.4 13.15 22.35 14.45 20.9 Q19.2 16.05 25.2 14.25 28.05 13.4 31.15 13.2 L32.85 13.15 36.8 13.45 M54.25 39.4 Q54.25 30.8 48.65 24.6 L48.65 54.25 Q54.25 48.0 54.25 39.4 M15.9 25.45 Q11.0 31.4 11.05 39.4 11.0 47.4 15.9 53.4 L15.9 25.45 M32.65 17.4 Q24.6 17.35 18.7 22.6 L46.6 22.6 Q40.7 17.35 32.65 17.4 M18.35 55.95 Q24.4 61.45 32.65 61.45 40.9 61.45 46.95 55.95 L18.35 55.95 M18.3 25.0 L18.3 53.5 46.3 53.5 46.3 25.0 18.3 25.0" fill="url(#gradient17)" fill-rule="evenodd" stroke="none"/>
    <path d="M54.25 39.4 Q54.25 48.0 48.65 54.25 L48.65 24.6 Q54.25 30.8 54.25 39.4" fill="url(#gradient18)" fill-rule="evenodd" stroke="none"/>
    <path d="M15.9 53.4 Q11.0 47.4 11.05 39.4 11.0 31.4 15.9 25.45 L15.9 53.4" fill="url(#gradient19)" fill-rule="evenodd" stroke="none"/>
    <path d="M32.65 17.4 Q40.7 17.35 46.6 22.6 L18.7 22.6 Q24.6 17.35 32.65 17.4" fill="url(#gradient20)" fill-rule="evenodd" stroke="none"/>
    <path d="M18.35 55.95 L46.95 55.95 Q40.9 61.45 32.65 61.45 24.4 61.45 18.35 55.95" fill="url(#gradient21)" fill-rule="evenodd" stroke="none"/>
    <path d="M5.5 -24.9 Q3.3 -29.6 3.3 -35.2 3.3 -45.0 10.0 -52.0 L10.2 -52.2 Q17.1 -59.25 26.85 -59.25 36.65 -59.25 43.55 -52.2 L43.75 -52.0 Q50.45 -45.0 50.45 -35.2 50.45 -25.25 43.55 -18.2 36.65 -11.2 26.85 -11.15 19.2 -11.2 13.3 -15.5 L13.75 -11.9 13.95 -10.75 14.0 -10.45 Q14.7 -7.25 16.15 -5.55 L16.5 -5.2 Q18.25 -3.4 22.0 -2.75 L26.25 -2.35 28.9 -2.2 30.4 -2.1 30.4 -2.9 Q28.25 -2.8 26.1 -3.65 M3.85 -22.2 L4.3 -23.35 Q4.75 -24.35 5.5 -24.9 6.25 -25.5 7.3 -25.65 5.25 -30.0 5.25 -35.2 5.25 -43.2 10.15 -49.15 M10.15 -25.2 Q11.2 -24.6 11.85 -23.3 L12.5 -21.3 12.5 -49.6 40.5 -49.6 40.5 -21.1 12.55 -21.1 13.0 -18.65 41.15 -18.65 Q35.1 -13.15 26.85 -13.15 18.9 -13.2 13.0 -18.3 L13.1 -17.55 13.3 -15.5 M26.85 -57.25 Q34.9 -57.25 40.85 -52.05 L12.9 -52.05 Q18.8 -57.25 26.85 -57.25 M36.65 -47.8 L38.7 -47.8 38.7 -45.7 M7.3 -25.65 L8.05 -25.7 10.15 -25.2 M16.65 -22.9 L14.3 -22.9 14.3 -25.35 M12.5 -21.3 L12.55 -21.1 M13.0 -18.65 L13.0 -18.3 M3.35 -19.45 L3.85 -22.2 M2.8 -14.45 L2.95 -16.05 3.15 -17.8 3.35 -19.45 0.0 -17.1 Q0.95 -15.4 2.8 -14.45 L2.75 -13.9 2.4 -11.15 2.25 -10.45 Q1.5 -7.3 -0.1 -5.7 -1.85 -3.9 -5.25 -3.15 L-8.3 -2.75 -11.1 -2.5 -11.35 -2.45 -13.15 -2.25 -16.35 -1.3 -17.45 -0.5 Q-18.5 0.6 -18.5 2.5 -18.5 4.35 -17.45 5.6 L-16.45 6.45 Q-15.05 7.3 -12.0 7.85 L-11.55 7.95 -10.15 8.15 -10.05 8.15 Q-10.9 16.3 -16.8 22.35 -23.7 29.4 -33.5 29.4 -43.25 29.4 -50.15 22.35 -57.05 15.3 -57.05 5.4 -57.05 -4.6 -50.15 -11.6 -47.9 -13.9 -45.35 -15.45 -40.05 -18.65 -33.5 -18.65 -23.7 -18.65 -16.8 -11.6 L-15.7 -10.45 Q-12.55 -6.85 -11.1 -2.5 M10.7 -9.6 Q8.3 -10.7 6.0 -9.6 M10.7 -6.75 Q8.3 -7.9 6.0 -6.75 M10.7 -8.2 Q8.3 -9.3 6.0 -8.2 M30.4 -2.1 L34.1 -1.45 34.75 -1.25 Q37.25 -0.15 37.25 2.5 37.2 5.0 35.0 6.3 L34.7 6.45 Q33.35 7.15 30.65 7.6 L28.75 7.9 26.35 8.25 21.8 8.95 Q18.5 9.65 16.75 11.1 L16.2 11.6 Q14.4 13.4 13.75 17.0 13.5 18.15 13.15 22.35 L13.05 23.4 12.55 26.75 Q14.0 24.45 16.0 22.4 22.9 15.35 32.65 15.35 42.4 15.35 49.35 22.4 56.25 29.45 56.25 39.4 56.25 49.35 49.35 56.4 42.4 63.45 32.65 63.45 22.9 63.45 16.0 56.4 9.05 49.35 9.1 39.4 9.05 34.45 10.8 30.25 9.75 31.05 8.2 31.05 5.85 31.05 4.7 29.3 L4.35 28.8 Q3.7 27.6 3.25 25.2 L2.4 28.2 4.7 29.3 M34.05 -3.8 Q32.2 -3.05 30.4 -2.9 L29.35 -8.6 M42.9 -20.4 L42.9 -50.0 Q48.5 -43.8 48.5 -35.2 48.5 -26.6 42.9 -20.4 M42.4 26.85 L44.5 26.85 44.5 28.9 M54.25 39.4 Q54.25 48.0 48.65 54.25 L48.65 24.6 Q54.25 30.8 54.25 39.4 M31.15 13.2 L30.65 7.6 M16.05 4.8 Q17.2 2.35 16.2 0.0 M18.9 4.85 Q20.0 2.45 19.0 0.1 M17.5 4.85 Q18.6 2.4 17.6 0.05 M-7.25 8.65 L-5.65 9.0 Q-2.3 9.85 -0.55 11.65 1.2 13.45 2.05 17.05 L3.0 23.45 3.15 24.3 3.25 25.2 M10.8 30.25 L11.9 28.8 12.55 26.75 M8.1 2.2 Q3.45 6.0 -0.4 11.05 M5.75 16.85 Q8.15 17.95 10.45 16.85 M5.75 15.45 Q8.15 16.55 10.45 15.45 M5.75 14.0 Q8.15 15.1 10.45 14.0 M20.05 29.1 L20.05 26.85 22.45 26.85 M0.3 31.8 Q1.6 30.1 2.4 28.2 L-7.5 23.45 Q-8.6 25.25 -9.3 27.4 M15.9 53.4 Q11.0 47.4 11.05 39.4 11.0 31.4 15.9 25.45 M32.65 17.4 Q40.7 17.35 46.6 22.6 L18.7 22.6 Q24.6 17.35 32.65 17.4 M18.35 55.95 L46.95 55.95 Q40.9 61.45 32.65 61.45 24.4 61.45 18.35 55.95 M22.45 51.7 L20.05 51.7 20.05 49.25 M44.5 49.25 L44.5 51.7 42.4 51.7 M18.3 25.0 L46.3 25.0 46.3 53.5 18.3 53.5 18.3 25.0 M16.15 -5.55 Q11.8 -2.2 8.1 2.2 M-46.05 -4.95 L-46.05 -7.2 -43.7 -7.2 M-47.45 -11.45 L-45.35 -13.1 Q-40.15 -16.65 -33.5 -16.65 -25.45 -16.65 -19.5 -11.45 L-45.35 -11.45 -47.45 -11.45 M-23.7 -7.2 L-21.65 -7.2 -21.65 -5.15 M-7.65 -16.8 Q-6.15 -15.65 -5.05 -14.15 L0.0 -17.1 Q-0.9 -18.6 -1.0 -20.7 M-11.7 -9.7 L-5.05 -14.15 Q-3.85 -12.5 -3.15 -10.45 L-2.9 -9.55 M-13.15 -2.25 Q-14.55 -6.15 -17.45 -9.45 L-17.45 -0.5 M-19.85 -9.05 L-19.85 19.5 -47.85 19.5 -47.85 -9.05 -19.85 -9.05 M-7.25 8.65 L-10.05 8.15 M-3.4 0.35 Q-4.5 2.8 -3.4 5.15 M-4.8 0.35 Q-5.9 2.8 -4.8 5.15 M-6.2 0.35 Q-7.3 2.8 -6.2 5.15 M-11.8 20.8 L-7.5 23.45 Q-6.4 21.55 -4.85 19.95 M-17.45 5.6 L-17.45 20.2 Q-12.7 14.85 -12.0 7.85 M-21.65 15.2 L-21.65 17.7 -23.7 17.7 M-33.5 27.45 Q-41.75 27.4 -47.75 21.9 L-19.2 21.9 Q-25.25 27.4 -33.5 27.45 M-43.7 17.7 L-46.05 17.7 -46.05 15.2 M-55.1 5.4 Q-55.1 -2.65 -50.2 -8.55 L-50.2 19.35 Q-55.1 13.4 -55.1 5.4" fill="none" stroke="#666666" stroke-linecap="butt" stroke-linejoin="miter-clip" stroke-miterlimit="3.0" stroke-width="1.0"/>
    <path d="M-10.15 8.15 Q-11.55 3.45 -10.1 -2.2 M2.95 -16.05 Q7.8 -18.3 12.65 -16.05 M16.75 11.1 Q12.95 6.1 8.1 2.2 L0.7 -6.15 M2.95 20.95 Q8.45 24.25 12.9 20.95 M28.1 -1.9 Q30.7 3.3 27.85 7.4" fill="none" stroke="#666666" stroke-linecap="butt" stroke-linejoin="miter-clip" stroke-miterlimit="3.0" stroke-width="1.0"/>
  </g>
  <defs>
    <linearGradient gradientTransform="matrix(0.0674, 0.0325, -0.0136, 0.0293, 69.25, -14.5)" gradientUnits="userSpaceOnUse" id="gradient0" spreadMethod="pad" x1="-819.2" x2="819.2">
      <stop offset="0.0" stop-color="#ffffff"/>
      <stop offset="1.0" stop-color="#000000"/>
    </linearGradient>
    <radialGradient cx="0" cy="0" gradientTransform="matrix(0.0675, 0.0, 0.0, 0.0433, 25.1, -34.3)" gradientUnits="userSpaceOnUse" id="gradient1" r="819.2" spreadMethod="pad">
      <stop offset="0.0" stop-color="#ffffff"/>
      <stop offset="1.0" stop-color="#000000"/>
    </radialGradient>
    <radialGradient cx="0" cy="0" gradientTransform="matrix(0.0179, 0.0, 0.0, 0.0182, 26.5, -52.05)" gradientUnits="userSpaceOnUse" id="gradient2" r="819.2" spreadMethod="pad">
      <stop offset="0.0" stop-color="#ffffff"/>
      <stop offset="1.0" stop-color="#000000"/>
    </radialGradient>
    <radialGradient cx="0" cy="0" gradientTransform="matrix(0.0171, 0.0, 0.0, 0.0174, 10.15, -35.2)" gradientUnits="userSpaceOnUse" id="gradient3" r="819.2" spreadMethod="pad">
      <stop offset="0.0" stop-color="#ffffff"/>
      <stop offset="1.0" stop-color="#000000"/>
    </radialGradient>
    <linearGradient gradientTransform="matrix(0.0299, 0.0305, -0.024, 0.0245, 27.65, 21.1)" gradientUnits="userSpaceOnUse" id="gradient4" spreadMethod="pad" x1="-819.2" x2="819.2">
      <stop offset="0.0" stop-color="#ffffff"/>
      <stop offset="1.0" stop-color="#000000"/>
    </linearGradient>
    <radialGradient cx="0" cy="0" gradientTransform="matrix(0.0174, 0.0, 0.0, 0.0178, 26.85, -18.65)" gradientUnits="userSpaceOnUse" id="gradient5" r="819.2" spreadMethod="pad">
      <stop offset="0.0" stop-color="#ffffff"/>
      <stop offset="1.0" stop-color="#000000"/>
    </radialGradient>
    <linearGradient gradientTransform="matrix(0.0065, 0.0114, -0.0249, 0.0147, 2.25, -11.95)" gradientUnits="userSpaceOnUse" id="gradient6" spreadMethod="pad" x1="-819.2" x2="819.2">
      <stop offset="0.0" stop-color="#ffffff"/>
      <stop offset="1.0" stop-color="#000000"/>
    </linearGradient>
    <linearGradient gradientTransform="matrix(0.0167, 0.0046, -0.0074, 0.0283, 35.55, 1.0)" gradientUnits="userSpaceOnUse" id="gradient7" spreadMethod="pad" x1="-819.2" x2="819.2">
      <stop offset="0.0" stop-color="#ffffff"/>
      <stop offset="1.0" stop-color="#000000"/>
    </linearGradient>
    <radialGradient cx="0" cy="0" gradientTransform="matrix(0.0182, 0.0, 0.0, 0.0185, 42.85, -34.85)" gradientUnits="userSpaceOnUse" id="gradient8" r="819.2" spreadMethod="pad">
      <stop offset="0.0" stop-color="#ffffff"/>
      <stop offset="1.0" stop-color="#000000"/>
    </radialGradient>
    <linearGradient gradientTransform="matrix(0.0674, 0.0325, -0.0136, 0.0293, 9.5, 25.95)" gradientUnits="userSpaceOnUse" id="gradient9" spreadMethod="pad" x1="-819.2" x2="819.2">
      <stop offset="0.0" stop-color="#ffffff"/>
      <stop offset="1.0" stop-color="#000000"/>
    </linearGradient>
    <radialGradient cx="0" cy="0" gradientTransform="matrix(0.0179, 0.0, 0.0, 0.0182, -33.85, -11.45)" gradientUnits="userSpaceOnUse" id="gradient10" r="819.2" spreadMethod="pad">
      <stop offset="0.0" stop-color="#ffffff"/>
      <stop offset="1.0" stop-color="#000000"/>
    </radialGradient>
    <radialGradient cx="0" cy="0" gradientTransform="matrix(0.0675, 0.0, 0.0, 0.0433, -35.3, 6.3)" gradientUnits="userSpaceOnUse" id="gradient11" r="819.2" spreadMethod="pad">
      <stop offset="0.0" stop-color="#ffffff"/>
      <stop offset="1.0" stop-color="#000000"/>
    </radialGradient>
    <radialGradient cx="0" cy="0" gradientTransform="matrix(0.0182, 0.0, 0.0, 0.0185, -17.5, 5.75)" gradientUnits="userSpaceOnUse" id="gradient12" r="819.2" spreadMethod="pad">
      <stop offset="0.0" stop-color="#ffffff"/>
      <stop offset="1.0" stop-color="#000000"/>
    </radialGradient>
    <linearGradient gradientTransform="matrix(0.0, 0.0167, -0.0287, 0.0, -4.5, 30.95)" gradientUnits="userSpaceOnUse" id="gradient13" spreadMethod="pad" x1="-819.2" x2="819.2">
      <stop offset="0.0" stop-color="#ffffff"/>
      <stop offset="1.0" stop-color="#000000"/>
    </linearGradient>
    <radialGradient cx="0" cy="0" gradientTransform="matrix(0.0174, 0.0, 0.0, 0.0178, -33.5, 21.9)" gradientUnits="userSpaceOnUse" id="gradient14" r="819.2" spreadMethod="pad">
      <stop offset="0.0" stop-color="#ffffff"/>
      <stop offset="1.0" stop-color="#000000"/>
    </radialGradient>
    <radialGradient cx="0" cy="0" gradientTransform="matrix(0.0171, 0.0, 0.0, 0.0174, -50.2, 5.4)" gradientUnits="userSpaceOnUse" id="gradient15" r="819.2" spreadMethod="pad">
      <stop offset="0.0" stop-color="#ffffff"/>
      <stop offset="1.0" stop-color="#000000"/>
    </radialGradient>
    <radialGradient cx="0" cy="0" gradientTransform="matrix(0.0675, 0.0, 0.0, 0.0433, 30.85, 40.35)" gradientUnits="userSpaceOnUse" id="gradient16" r="819.2" spreadMethod="pad">
      <stop offset="0.0" stop-color="#ffffff"/>
      <stop offset="1.0" stop-color="#000000"/>
    </radialGradient>
    <linearGradient gradientTransform="matrix(0.0674, 0.0325, -0.0136, 0.0293, 75.35, 60.1)" gradientUnits="userSpaceOnUse" id="gradient17" spreadMethod="pad" x1="-819.2" x2="819.2">
      <stop offset="0.0" stop-color="#ffffff"/>
      <stop offset="1.0" stop-color="#000000"/>
    </linearGradient>
    <radialGradient cx="0" cy="0" gradientTransform="matrix(0.0182, 0.0, 0.0, 0.0185, 48.65, 39.75)" gradientUnits="userSpaceOnUse" id="gradient18" r="819.2" spreadMethod="pad">
      <stop offset="0.0" stop-color="#ffffff"/>
      <stop offset="1.0" stop-color="#000000"/>
    </radialGradient>
    <radialGradient cx="0" cy="0" gradientTransform="matrix(0.0171, 0.0, 0.0, 0.0174, 15.95, 39.4)" gradientUnits="userSpaceOnUse" id="gradient19" r="819.2" spreadMethod="pad">
      <stop offset="0.0" stop-color="#ffffff"/>
      <stop offset="1.0" stop-color="#000000"/>
    </radialGradient>
    <radialGradient cx="0" cy="0" gradientTransform="matrix(0.0179, 0.0, 0.0, 0.0182, 32.3, 22.55)" gradientUnits="userSpaceOnUse" id="gradient20" r="819.2" spreadMethod="pad">
      <stop offset="0.0" stop-color="#ffffff"/>
      <stop offset="1.0" stop-color="#000000"/>
    </radialGradient>
    <radialGradient cx="0" cy="0" gradientTransform="matrix(0.0174, 0.0, 0.0, 0.0178, 32.65, 55.95)" gradientUnits="userSpaceOnUse" id="gradient21" r="819.2" spreadMethod="pad">
      <stop offset="0.0" stop-color="#ffffff"/>
      <stop offset="1.0" stop-color="#000000"/>
    </radialGradient>
  </defs>
</svg>
