<?xml version="1.0" encoding="UTF-8" standalone="no"?>
<svg xmlns:xlink="http://www.w3.org/1999/xlink" height="301.0px" width="301.0px" xmlns="http://www.w3.org/2000/svg">
  <g transform="matrix(1.0, 0.0, 0.0, 1.0, 150.45, 150.5)">
    <path d="M18.4 -149.0 Q68.85 -143.4 106.15 -106.25 132.0 -80.25 142.65 -48.0 150.05 -25.5 150.05 0.0 150.05 49.95 121.65 88.0 114.7 97.25 106.15 105.85 62.2 150.0 0.05 150.0 -62.15 150.0 -106.05 105.85 -114.65 97.25 -121.55 88.0 -150.0 49.95 -149.95 0.0 -150.0 -25.5 -142.55 -48.0 -131.95 -80.25 -106.05 -106.25 -68.8 -143.4 -18.35 -149.0 L0.05 -150.0 18.4 -149.0 Z" fill="none" stroke="#33ff00" stroke-linecap="butt" stroke-linejoin="miter-clip" stroke-miterlimit="3.0" stroke-width="1.0"/>
  </g>
</svg>
