<?xml version="1.0" encoding="UTF-8" standalone="no"?>
<svg xmlns:xlink="http://www.w3.org/1999/xlink" height="8.0px" width="4.0px" xmlns="http://www.w3.org/2000/svg">
  <g transform="matrix(1.0, 0.0, 0.0, 1.0, 2.0, 4.0)">
    <path d="M1.05 2.6 L2.0 4.0 0.75 4.0 -0.7 4.0 -2.0 4.0 -1.0 2.6 -0.7 2.6 0.75 2.6 1.05 2.6 M-1.75 -1.4 Q0.1 -6.55 1.75 -1.4 L-1.75 -1.4 M0.75 4.0 L0.75 2.6 0.75 4.0 M-0.7 2.6 L-0.7 4.0 -0.7 2.6" fill="#0000ff" fill-rule="evenodd" stroke="none"/>
    <path d="M1.75 -1.4 L1.05 -1.15 1.05 2.4 1.05 2.6 0.75 2.6 -0.7 2.6 -1.0 2.6 -1.05 2.6 -1.05 -1.15 -1.75 -1.4 1.75 -1.4" fill="#ffcc00" fill-rule="evenodd" stroke="none"/>
    <path d="M1.75 -1.4 L1.05 -1.15 1.05 2.4 1.05 2.6 2.0 4.0 0.75 4.0 -0.7 4.0 -2.0 4.0 -1.0 2.6 -1.05 2.6 -1.05 -1.15 -1.75 -1.4 Q0.1 -6.55 1.75 -1.4 L-1.75 -1.4 M1.05 2.6 L0.75 2.6 0.75 4.0 M-0.7 4.0 L-0.7 2.6 -1.0 2.6 M0.75 2.6 L-0.7 2.6" fill="none" stroke="#999999" stroke-linecap="round" stroke-linejoin="miter-clip" stroke-miterlimit="3.0" stroke-width="0.05"/>
  </g>
</svg>
