<?xml version="1.0" encoding="UTF-8" standalone="no"?>
<svg xmlns:xlink="http://www.w3.org/1999/xlink" height="10.0px" width="7.0px" xmlns="http://www.w3.org/2000/svg">
  <g transform="matrix(1.0, 0.0, 0.0, 1.0, 3.5, 4.95)">
    <path d="M-2.05 -1.0 L-3.15 -0.8 Q-1.05 -4.35 -0.15 -4.9 0.75 -5.5 3.2 -0.8 L1.85 -1.0 0.9 -1.15 -2.05 -1.0 0.9 -1.15 1.85 -1.0 1.85 3.35 1.8 3.35 3.5 5.05 1.6 5.05 -0.15 5.05 -1.9 5.05 -3.5 5.05 -1.8 3.35 -1.8 -1.0 -2.05 -1.0 M-0.85 3.35 L-1.9 5.05 -0.85 3.35 -1.8 3.35 -0.85 3.35 -0.15 3.35 0.9 3.35 -0.15 3.35 -0.15 5.05 -0.15 3.35 -0.85 3.35 M0.9 3.35 L1.6 5.05 0.9 3.35 1.8 3.35 0.9 3.35" fill="#ff0000" fill-rule="evenodd" stroke="none"/>
    <path d="M1.85 -1.0 L3.2 -0.8 Q0.75 -5.5 -0.15 -4.9 -1.05 -4.35 -3.15 -0.8 L-2.05 -1.0 0.9 -1.15 1.85 -1.0 1.85 3.35 1.8 3.35 3.5 5.05 1.6 5.05 -0.15 5.05 -1.9 5.05 -3.5 5.05 -1.8 3.35 -1.8 -1.0 -2.05 -1.0 M-1.9 5.05 L-0.85 3.35 -1.8 3.35 M1.6 5.05 L0.9 3.35 -0.15 3.35 -0.15 5.05 M-0.85 3.35 L-0.15 3.35 M1.8 3.35 L0.9 3.35" fill="none" stroke="#999999" stroke-linecap="round" stroke-linejoin="miter-clip" stroke-miterlimit="3.0" stroke-width="0.05"/>
  </g>
</svg>
