<?xml version="1.0" encoding="UTF-8" standalone="no"?>
<svg xmlns:xlink="http://www.w3.org/1999/xlink" height="67.25px" width="35.5px" xmlns="http://www.w3.org/2000/svg">
  <g transform="matrix(1.0, 0.0, 0.0, 1.0, 17.8, 25.05)">
    <path d="M3.8 -24.55 L-3.9 -24.55 -3.9 -14.55 3.8 -14.55 3.8 -24.55 7.75 -24.55 7.75 -14.55 5.55 -10.35 5.55 22.95 11.45 32.2 17.2 36.2 17.2 41.7 8.45 41.7 -8.55 41.7 -17.3 41.7 -17.3 36.2 -11.55 32.2 -5.65 22.95 -5.65 -10.35 -7.8 -14.55 -7.8 -24.55 -3.9 -24.55 M7.75 -14.55 L3.8 -14.55 2.75 -10.35 5.55 -10.35 M5.55 22.95 L2.75 22.95 5.7 32.2 11.45 32.2 M5.7 32.2 L8.55 36.2 17.2 36.2 M8.45 41.7 L8.55 36.2 -8.65 36.2 -8.55 41.7 M2.75 -10.35 L2.75 22.95 -2.85 22.95 -5.8 32.2 5.7 32.2 M-3.9 -14.55 L-2.85 -10.35 2.75 -10.35 M-5.65 22.95 L-2.85 22.95 -2.85 -10.35 -5.65 -10.35 M-7.8 -14.55 L-3.9 -14.55 M-17.3 36.2 L-8.65 36.2 -5.8 32.2 -11.55 32.2" fill="none" stroke="#00cccc" stroke-linecap="round" stroke-linejoin="miter-clip" stroke-miterlimit="3.0" stroke-width="1.0"/>
  </g>
</svg>
