<?xml version="1.0" encoding="UTF-8" standalone="no"?>
<svg xmlns:xlink="http://www.w3.org/1999/xlink" height="49.7px" width="65.3px" xmlns="http://www.w3.org/2000/svg">
  <g transform="matrix(1.0, 0.0, 0.0, 1.0, 30.6, 22.55)">
    <path d="M24.8 -14.95 Q34.2 -7.85 34.2 2.3 34.2 12.4 24.8 19.5 15.4 26.65 2.05 26.65 -11.25 26.65 -20.7 19.5 -30.1 12.4 -30.1 2.25 -30.1 -7.85 -20.7 -14.95 -11.25 -22.05 2.05 -22.05 15.4 -22.05 24.8 -14.95" fill="#333300" fill-rule="evenodd" stroke="none"/>
    <path d="M24.8 -14.95 Q34.2 -7.85 34.2 2.3 34.2 12.4 24.8 19.5 15.4 26.65 2.05 26.65 -11.25 26.65 -20.7 19.5 -30.1 12.4 -30.1 2.25 -30.1 -7.85 -20.7 -14.95 -11.25 -22.05 2.05 -22.05 15.4 -22.05 24.8 -14.95 Z" fill="none" stroke="#d6d6d6" stroke-linecap="butt" stroke-linejoin="miter-clip" stroke-miterlimit="3.0" stroke-width="1.0"/>
  </g>
</svg>
