<?xml version="1.0" encoding="UTF-8" standalone="no"?>
<svg xmlns:xlink="http://www.w3.org/1999/xlink" height="61.95px" width="62.1px" xmlns="http://www.w3.org/2000/svg">
  <g transform="matrix(1.0, 0.0, 0.0, 1.0, 31.0, 31.0)">
    <path d="M21.25 -21.25 Q30.1 -12.45 30.1 -0.05 30.1 12.35 21.25 21.1 12.5 29.95 0.05 29.95 -12.4 29.95 -21.25 21.1 -30.0 12.35 -30.0 -0.05 -30.0 -12.45 -21.25 -21.25 -12.4 -30.0 0.05 -30.0 12.5 -30.0 21.25 -21.25" fill="#ffffff" fill-rule="evenodd" stroke="none"/>
    <path d="M21.25 -21.25 Q30.1 -12.45 30.1 -0.05 30.1 12.35 21.25 21.1 12.5 29.95 0.05 29.95 -12.4 29.95 -21.25 21.1 -30.0 12.35 -30.0 -0.05 -30.0 -12.45 -21.25 -21.25 -12.4 -30.0 0.05 -30.0 12.5 -30.0 21.25 -21.25 Z" fill="none" stroke="#000000" stroke-linecap="butt" stroke-linejoin="miter-clip" stroke-miterlimit="3.0" stroke-width="2.0"/>
  </g>
</svg>
