<?xml version="1.0" encoding="UTF-8" standalone="no"?>
<svg xmlns:xlink="http://www.w3.org/1999/xlink" height="60.1px" width="60.1px" xmlns="http://www.w3.org/2000/svg">
  <g transform="matrix(1.0, 0.0, 0.0, 1.0, 30.05, 30.05)">
    <use data-characterId="749" height="60.1" transform="matrix(1.0, 0.0, 0.0, 1.0, -30.05, -30.05)" width="60.1" xlink:href="#shape0"/>
  </g>
  <defs>
    <g id="shape0" transform="matrix(1.0, 0.0, 0.0, 1.0, 30.05, 30.05)">
      <path d="M1.9 25.55 L0.0 25.4 -1.9 25.55 0.0 19.6 1.9 25.55 M0.0 13.4 L4.6 14.6 0.0 19.6 -4.6 14.6 0.0 13.4" fill="#333333" fill-rule="evenodd" stroke="none"/>
      <path d="M11.0 -13.4 L12.4 -13.4 12.2 -8.5 11.0 -9.3 11.0 -13.4 M7.2 -11.8 L8.8 -2.7 10.4 6.4 13.3 7.15 9.6 18.4 14.5 18.9 15.0 27.6 14.35 26.55 3.8 25.7 1.9 25.55 0.0 19.6 -1.9 25.55 -3.8 25.7 -14.35 26.55 -9.6 18.4 -13.3 7.15 -10.4 6.4 -8.8 -2.7 -7.2 -11.8 -4.0 -30.0 -2.45 -21.45 0.0 -7.6 2.5 -21.45 4.0 -30.0 7.2 -11.8 M24.95 10.1 L28.2 11.4 30.0 30.0 26.0 28.95 28.6 21.6 24.95 10.1 M24.8 28.6 L18.0 26.8 15.35 26.6 18.0 19.2 14.2 7.4 23.85 9.85 20.2 20.8 24.8 28.6 M-15.35 26.6 L-18.0 26.8 -24.8 28.6 -20.2 20.8 -23.8 9.85 -14.2 7.4 -18.0 19.2 -15.35 26.6 M-26.0 28.95 L-30.0 30.0 -28.2 11.4 -24.9 10.1 -28.6 21.6 -26.0 28.95 M-19.05 0.85 L-19.05 -3.45 -17.7 -3.45 -17.7 0.4 -17.75 0.4 -19.05 0.85 M-12.2 -8.5 L-12.35 -13.4 -11.0 -13.4 -11.0 -9.3 -12.2 -8.5 M4.6 11.2 L0.0 1.6 0.0 -7.6 0.0 1.6 -4.6 11.2 -4.6 14.6 0.0 19.6 4.6 14.6 4.6 11.2 M7.0 14.4 L7.8 23.2 7.0 14.4 M9.6 18.4 L14.4 26.55 9.6 18.4 M6.4 6.4 L3.8 -10.8 6.4 6.4 M-7.0 14.4 L-7.8 23.2 -7.0 14.4 M-6.4 6.4 L-3.8 -10.8 -6.4 6.4" fill="#666666" fill-rule="evenodd" stroke="none"/>
      <path d="M12.4 -13.4 L11.0 -13.4 10.35 -13.4 10.35 -17.15 12.95 -17.15 12.95 -13.4 12.4 -13.4 M19.1 -3.45 L17.7 -3.45 17.05 -3.45 17.05 -7.2 19.65 -7.2 19.65 -3.45 19.1 -3.45 M-19.05 -3.45 L-19.65 -3.45 -19.65 -7.2 -17.0 -7.2 -17.0 -3.45 -17.7 -3.45 -19.05 -3.45 M-12.35 -13.4 L-12.95 -13.4 -12.95 -17.15 -10.3 -17.15 -10.3 -13.4 -11.0 -13.4 -12.35 -13.4 M-2.45 -21.45 L0.0 -30.0 2.5 -21.45 0.0 -7.6 -2.45 -21.45 M4.6 11.2 L0.0 7.5 4.6 11.2 4.6 14.6 0.0 13.4 0.0 7.5 0.0 1.6 0.0 7.5 0.0 13.4 -4.6 14.6 -4.6 11.2 0.0 1.6 4.6 11.2 M0.0 7.5 L-4.6 11.2 0.0 7.5" fill="#990000" fill-rule="evenodd" stroke="none"/>
      <path d="M24.35 8.3 L24.95 10.1 28.6 21.6 26.0 28.95 25.6 30.0 25.1 21.3 24.35 8.3 M15.35 26.6 L15.0 27.6 14.5 18.9 18.0 19.2 14.5 18.9 13.75 5.9 14.2 7.4 18.0 19.2 15.35 26.6 M-15.0 27.6 L-15.35 26.6 -18.0 19.2 -14.2 7.4 -13.7 5.9 -14.45 18.9 -18.0 19.2 -14.45 18.9 -15.0 27.6 M-25.6 30.0 L-26.0 28.95 -28.6 21.6 -24.9 10.1 -24.3 8.3 -25.1 21.3 -25.6 30.0 M28.6 21.6 L25.1 21.3 28.6 21.6 M-28.6 21.6 L-25.1 21.3 -28.6 21.6" fill="#660000" fill-rule="evenodd" stroke="none"/>
      <path d="M23.85 9.8 L24.35 8.3 25.1 21.3 20.2 20.8 25.1 21.3 25.6 30.0 24.8 28.6 20.2 20.8 23.85 9.85 23.85 9.8 M-14.35 26.55 L-15.0 27.6 -14.45 18.9 -13.7 5.9 -13.3 7.15 -9.6 18.4 -14.35 26.55 M-24.8 28.6 L-25.6 30.0 -25.1 21.3 -20.2 20.8 -24.8 28.6 M13.3 7.15 L13.75 5.9 14.5 18.9 9.6 18.4 13.3 7.15 M-9.6 18.4 L-14.45 18.9 -9.6 18.4" fill="#770000" fill-rule="evenodd" stroke="none"/>
      <path d="M11.0 -9.3 L12.2 -8.5 14.8 -6.8 16.85 0.1 8.8 -2.7 7.2 -11.8 11.0 -9.3 M-16.8 0.1 L-14.8 -6.8 -12.2 -8.5 -11.0 -9.3 -7.2 -11.8 -8.8 -2.7 -16.8 0.1" fill="#555555" fill-rule="evenodd" stroke="none"/>
      <path d="M8.8 -2.7 L16.85 0.1 17.7 0.4 17.7 -3.45 19.1 -3.45 19.2 0.9 20.2 1.25 23.85 9.8 23.85 9.85 14.2 7.4 13.75 5.9 13.3 7.15 10.4 6.4 8.8 -2.7 M19.1 0.85 L17.7 0.4 19.1 0.85 M-24.3 8.3 L-23.8 9.8 -20.2 1.25 -19.05 0.85 -17.75 0.4 -17.7 0.4 -16.8 0.1 -8.8 -2.7 -10.4 6.4 -13.3 7.15 -13.7 5.9 -14.2 7.4 -23.8 9.85 -20.2 20.8 -25.1 21.3 -24.3 8.3" fill="#606060" fill-rule="evenodd" stroke="none"/>
      <path d="M14.35 26.55 L12.8 30.0 6.4 30.0 3.8 25.7 14.35 26.55 M-3.8 25.7 L-6.4 30.0 -12.8 30.0 -14.35 26.55 -3.8 25.7" fill="#505050" fill-rule="evenodd" stroke="none"/>
      <path d="M7.8 23.2 L7.0 14.4 M3.8 -10.8 L6.4 6.4 M-7.8 23.2 L-7.0 14.4 M-3.8 -10.8 L-6.4 6.4" fill="none" stroke="#990000" stroke-linecap="round" stroke-linejoin="round" stroke-width="2.0"/>
      <path d="M20.2 1.25 L23.85 9.8 24.35 8.3 24.95 10.1 28.6 21.6 26.0 28.95 25.6 30.0 24.8 28.6 20.2 20.8 25.1 21.3 24.35 8.3 M15.35 26.6 L15.0 27.6 14.35 26.55 M-14.35 26.55 L-15.0 27.6 -15.35 26.6 -18.0 19.2 -14.2 7.4 -13.7 5.9 -14.45 18.9 -9.6 18.4 -14.35 26.55 M-24.8 28.6 L-25.6 30.0 -26.0 28.95 -28.6 21.6 -24.9 10.1 -24.3 8.3 -23.8 9.8 -20.2 1.25 M23.85 9.8 L23.85 9.85 20.2 20.8 M25.1 21.3 L28.6 21.6 M13.3 7.15 L13.75 5.9 14.2 7.4 18.0 19.2 15.35 26.6 M0.0 1.6 L0.0 7.5 0.0 13.4 M14.5 18.9 L18.0 19.2 M9.6 18.4 L14.5 18.9 13.75 5.9 M14.4 26.55 L9.6 18.4 13.3 7.15 M25.1 21.3 L25.6 30.0 M15.0 27.6 L14.5 18.9 M0.0 -7.6 L0.0 1.6 M-13.3 7.15 L-9.6 18.4 M-13.7 5.9 L-13.3 7.15 M-17.7 0.4 L-17.75 0.4 M-14.45 18.9 L-18.0 19.2 M-23.8 9.85 L-20.2 20.8 -24.8 28.6 M-25.1 21.3 L-28.6 21.6 M-24.3 8.3 L-25.1 21.3 -20.2 20.8 M-15.0 27.6 L-14.45 18.9 M-25.6 30.0 L-25.1 21.3" fill="none" stroke="#000000" stroke-linecap="round" stroke-linejoin="round" stroke-width="0.1"/>
      <path d="M11.0 -9.3 L12.2 -8.5 14.8 -6.8 16.85 0.1 17.7 0.4 19.1 0.85 M7.2 -11.8 L8.8 -2.7 16.85 0.1 M19.2 0.9 L20.2 1.25 M24.95 10.1 L28.2 11.4 M30.0 30.0 L26.0 28.95 M24.8 28.6 L18.0 26.8 15.35 26.6 M3.8 25.7 L1.9 25.55 0.0 25.4 -1.9 25.55 -3.8 25.7 -14.35 26.55 M-15.35 26.6 L-18.0 26.8 -24.8 28.6 M-26.0 28.95 L-30.0 30.0 M-28.2 11.4 L-24.9 10.1 M-20.2 1.25 L-19.05 0.85 -17.75 0.4 M-17.7 0.4 L-16.8 0.1 -14.8 -6.8 -12.2 -8.5 -11.0 -9.3 -7.2 -11.8 -4.0 -30.0 -2.45 -21.45 0.0 -30.0 2.5 -21.45 4.0 -30.0 7.2 -11.8 11.0 -9.3 M-2.45 -21.45 L0.0 -7.6 2.5 -21.45 M8.8 -2.7 L10.4 6.4 13.3 7.15 M14.2 7.4 L23.85 9.85 M0.0 7.5 L4.6 11.2 0.0 1.6 -4.6 11.2 0.0 7.5 M0.0 13.4 L4.6 14.6 4.6 11.2 M-4.6 14.6 L0.0 19.6 4.6 14.6 M14.35 26.55 L3.8 25.7 M1.9 25.55 L0.0 19.6 -1.9 25.55 M-7.2 -11.8 L-8.8 -2.7 -10.4 6.4 -13.3 7.15 M-4.6 11.2 L-4.6 14.6 0.0 13.4 M-14.2 7.4 L-23.8 9.85 M-8.8 -2.7 L-16.8 0.1" fill="none" stroke="#000000" stroke-linecap="round" stroke-linejoin="round" stroke-width="0.1"/>
      <path d="M28.2 11.4 L30.0 30.0 M-30.0 30.0 L-28.2 11.4" fill="none" stroke="#666666" stroke-linecap="round" stroke-linejoin="round" stroke-width="0.1"/>
      <path d="M11.0 -13.4 L12.4 -13.4 12.95 -13.4 12.95 -17.15 10.35 -17.15 10.35 -13.4 11.0 -13.4 M19.1 -3.45 L17.7 -3.45 17.05 -3.45 17.05 -7.2 19.65 -7.2 19.65 -3.45 19.1 -3.45 M-19.05 -3.45 L-19.65 -3.45 -19.65 -7.2 -17.0 -7.2 -17.0 -3.45 -17.7 -3.45 -19.05 -3.45 M-12.35 -13.4 L-12.95 -13.4 -12.95 -17.15 -10.3 -17.15 -10.3 -13.4 -11.0 -13.4 -12.35 -13.4 Z" fill="none" stroke="#990000" stroke-linecap="round" stroke-linejoin="round" stroke-width="0.1"/>
    </g>
  </defs>
</svg>
