<?xml version="1.0" encoding="UTF-8" standalone="no"?>
<svg xmlns:xlink="http://www.w3.org/1999/xlink" height="282.0px" width="250.15px" xmlns="http://www.w3.org/2000/svg">
  <g transform="matrix(1.0, 0.0, 0.0, 1.0, 124.5, 142.5)">
    <use data-characterId="1623" height="282.0" transform="matrix(1.0, 0.0, 0.0, 1.0, -124.5, -142.5)" width="250.15" xlink:href="#shape0"/>
    <use data-characterId="1624" height="13.3" transform="matrix(1.0, 0.0, 0.0, 1.0, -56.15, -126.55)" width="79.7" xlink:href="#text0"/>
    <use data-characterId="1636" height="84.5" transform="matrix(1.0, 0.0, 0.0, 1.0, -33.15, -56.5)" width="59.95" xlink:href="#shape1"/>
    <use data-characterId="1637" height="10.9" transform="matrix(1.0, 0.0, 0.0, 1.0, -87.65, -104.75)" width="111.3" xlink:href="#text1"/>
    <use data-characterId="1638" height="13.3" transform="matrix(1.0, 0.0, 0.0, 1.0, -41.5, -74.3)" width="46.05" xlink:href="#text2"/>
    <use data-characterId="1639" height="10.95" transform="matrix(1.0, 0.0, 0.0, 1.0, -33.45, -11.05)" width="49.9" xlink:href="#text3"/>
    <use data-characterId="1069" height="20.25" transform="matrix(1.0, 0.0, 0.0, 1.0, -32.0, 112.65)" width="66.0" xlink:href="#sprite0"/>
    <use data-characterId="1640" height="19.0" id="turretnumber" transform="matrix(1.0, 0.0, 0.0, 1.0, -31.75, -55.25)" width="56.5" xlink:href="#text5"/>
    <use data-characterId="1641" height="19.0" id="changeturretonumber" transform="matrix(1.0, 0.0, 0.0, 1.0, -24.25, 5.75)" width="41.5" xlink:href="#text6"/>
  </g>
  <defs>
    <g id="shape0" transform="matrix(1.0, 0.0, 0.0, 1.0, 124.5, 142.5)">
      <path d="M-123.3 139.0 L-123.3 -141.5 124.7 -141.5 124.7 139.0 -123.3 139.0" fill="#000000" fill-rule="evenodd" stroke="none"/>
      <path d="M-124.0 139.0 L-124.0 -142.0 124.0 -142.0 M125.15 139.0 L125.15 -142.0" fill="none" stroke="#cccccc" stroke-linecap="round" stroke-linejoin="round" stroke-width="1.0"/>
      <path d="M124.7 139.0 L125.15 139.0 M-124.0 139.0 L-123.3 139.0 124.7 139.0" fill="none" stroke="#cccccc" stroke-linecap="round" stroke-linejoin="round" stroke-width="1.0"/>
    </g>
    <g id="text0" transform="matrix(1.0, 0.0, 0.0, 1.0, -26.35, -1.95)">
      <g transform="matrix(1.0, 0.0, 0.0, 1.0, 0.0, 0.0)">
        <use fill="#00ff00" height="13.3" transform="matrix(0.0117, 0.0, 0.0, 0.0117, 26.0, 12.0)" width="79.7" xlink:href="#font_Trebuchet_MS_S0"/>
        <use fill="#00ff00" height="13.3" transform="matrix(0.0117, 0.0, 0.0, 0.0117, 29.75, 12.0)" width="79.7" xlink:href="#font_Trebuchet_MS_q0"/>
        <use fill="#00ff00" height="13.3" transform="matrix(0.0117, 0.0, 0.0, 0.0117, 34.45, 12.0)" width="79.7" xlink:href="#font_Trebuchet_MS_u0"/>
        <use fill="#00ff00" height="13.3" transform="matrix(0.0117, 0.0, 0.0, 0.0117, 39.0, 12.0)" width="79.7" xlink:href="#font_Trebuchet_MS_a0"/>
        <use fill="#00ff00" height="13.3" transform="matrix(0.0117, 0.0, 0.0, 0.0117, 43.25, 12.0)" width="79.7" xlink:href="#font_Trebuchet_MS_d0"/>
        <use fill="#00ff00" height="13.3" transform="matrix(0.0117, 0.0, 0.0, 0.0117, 49.55, 12.0)" width="79.7" xlink:href="#font_Trebuchet_MS_B0"/>
        <use fill="#00ff00" height="13.3" transform="matrix(0.0117, 0.0, 0.0, 0.0117, 54.35, 12.0)" width="79.7" xlink:href="#font_Trebuchet_MS_a0"/>
        <use fill="#00ff00" height="13.3" transform="matrix(0.0117, 0.0, 0.0, 0.0117, 58.6, 12.0)" width="79.7" xlink:href="#font_Trebuchet_MS_s0"/>
        <use fill="#00ff00" height="13.3" transform="matrix(0.0117, 0.0, 0.0, 0.0117, 61.45, 12.0)" width="79.7" xlink:href="#font_Trebuchet_MS_e0"/>
        <use fill="#00ff00" height="13.3" transform="matrix(0.0117, 0.0, 0.0, 0.0117, 67.6, 12.0)" width="79.7" xlink:href="#font_Trebuchet_MS_F0"/>
        <use fill="#00ff00" height="13.3" transform="matrix(0.0117, 0.0, 0.0, 0.0117, 71.85, 12.0)" width="79.7" xlink:href="#font_Trebuchet_MS_u0"/>
        <use fill="#00ff00" height="13.3" transform="matrix(0.0117, 0.0, 0.0, 0.0117, 76.4, 12.0)" width="79.7" xlink:href="#font_Trebuchet_MS_n0"/>
        <use fill="#00ff00" height="13.3" transform="matrix(0.0117, 0.0, 0.0, 0.0117, 80.95, 12.0)" width="79.7" xlink:href="#font_Trebuchet_MS_c0"/>
        <use fill="#00ff00" height="13.3" transform="matrix(0.0117, 0.0, 0.0, 0.0117, 84.9, 12.0)" width="79.7" xlink:href="#font_Trebuchet_MS_t0"/>
        <use fill="#00ff00" height="13.3" transform="matrix(0.0117, 0.0, 0.0, 0.0117, 87.65, 12.0)" width="79.7" xlink:href="#font_Trebuchet_MS_i0"/>
        <use fill="#00ff00" height="13.3" transform="matrix(0.0117, 0.0, 0.0, 0.0117, 89.05, 12.0)" width="79.7" xlink:href="#font_Trebuchet_MS_o0"/>
        <use fill="#00ff00" height="13.3" transform="matrix(0.0117, 0.0, 0.0, 0.0117, 93.5, 12.0)" width="79.7" xlink:href="#font_Trebuchet_MS_n0"/>
        <use fill="#00ff00" height="13.3" transform="matrix(0.0117, 0.0, 0.0, 0.0117, 98.05, 12.0)" width="79.7" xlink:href="#font_Trebuchet_MS_s0"/>
      </g>
    </g>
    <g id="font_Trebuchet_MS_S0">
      <path d="M42.0 -33.5 Q111.0 12.5 208.5 12.5 319.5 12.5 386.0 -45.0 452.0 -102.5 452.0 -185.0 452.0 -261.0 422.0 -310.0 391.5 -359.5 316.5 -395.0 286.5 -409.0 256.5 -423.5 198.5 -451.5 180.0 -467.0 161.0 -482.5 150.5 -505.5 140.0 -528.5 140.0 -556.5 140.0 -602.0 169.5 -631.0 198.5 -660.0 249.5 -660.0 284.5 -660.0 325.5 -646.5 366.5 -633.0 386.5 -618.5 401.5 -662.0 416.0 -705.5 368.5 -745.0 247.0 -745.0 156.0 -745.0 98.0 -691.0 40.0 -637.0 40.0 -555.0 40.0 -487.5 70.0 -439.5 99.5 -391.5 174.5 -356.5 204.0 -342.5 233.5 -329.0 313.0 -291.5 333.0 -259.5 352.5 -228.0 352.5 -191.0 352.5 -141.5 317.0 -109.5 281.5 -77.5 223.0 -77.5 190.0 -77.5 148.5 -91.0 106.5 -105.0 78.5 -125.5 60.5 -79.5 42.0 -33.5" fill-rule="evenodd" stroke="none"/>
    </g>
    <g id="font_Trebuchet_MS_q0">
      <path d="M410.5 -424.5 L410.5 -105.0 Q372.5 -70.0 304.0 -70.0 227.5 -70.0 182.5 -121.5 137.5 -173.5 137.5 -266.5 137.5 -356.5 182.5 -411.0 227.5 -465.5 308.0 -465.5 369.5 -465.5 410.5 -424.5 M410.5 210.0 L505.5 210.0 505.5 -535.5 448.0 -535.5 Q435.5 -515.0 422.5 -495.0 362.0 -545.5 292.0 -545.5 180.0 -545.5 109.0 -470.0 37.5 -395.0 37.5 -266.5 37.5 -136.5 100.0 -63.0 162.0 10.0 271.5 10.0 369.0 10.0 410.5 -31.5 L410.5 210.0" fill-rule="evenodd" stroke="none"/>
    </g>
    <g id="font_Trebuchet_MS_u0">
      <path d="M157.5 -535.5 L62.5 -535.5 62.5 -184.0 Q62.5 -91.0 109.5 -40.5 156.0 10.0 244.0 10.0 290.0 10.0 338.5 -16.0 386.5 -42.5 402.5 -74.0 L402.5 0.0 497.5 0.0 497.5 -535.5 402.5 -535.5 402.5 -159.5 Q390.0 -124.0 351.0 -97.0 312.0 -70.0 265.0 -70.0 157.5 -70.0 157.5 -194.0 L157.5 -535.5" fill-rule="evenodd" stroke="none"/>
    </g>
    <g id="font_Trebuchet_MS_a0">
      <path d="M361.0 -263.0 L361.0 -133.5 Q305.5 -65.0 233.5 -65.0 135.0 -65.0 135.0 -148.5 135.0 -199.0 180.5 -236.0 226.0 -273.0 298.0 -273.0 316.0 -273.0 361.0 -263.0 M370.0 -61.5 Q382.5 -23.5 411.5 -7.0 440.0 9.5 498.0 9.5 L498.0 -38.0 Q456.0 -61.5 456.0 -132.0 L456.0 -324.0 Q456.0 -439.5 403.5 -492.5 350.5 -545.5 234.0 -545.5 190.5 -545.5 143.0 -529.5 95.0 -514.0 68.0 -492.0 L108.0 -412.5 Q156.0 -460.5 245.0 -460.5 361.0 -460.5 361.0 -330.5 323.0 -343.5 293.0 -343.5 182.5 -343.5 111.5 -287.0 40.0 -231.0 40.0 -149.5 40.0 -81.5 86.5 -35.5 132.5 10.0 195.5 10.0 313.0 10.0 370.0 -61.5" fill-rule="evenodd" stroke="none"/>
    </g>
    <g id="font_Trebuchet_MS_d0">
      <path d="M407.0 -411.5 L407.0 -114.5 Q399.0 -98.5 367.5 -84.0 336.0 -70.0 313.5 -70.0 137.5 -70.0 137.5 -263.5 137.5 -351.5 185.0 -408.5 232.0 -465.5 308.5 -465.5 371.0 -465.5 407.0 -411.5 M407.0 -0.5 L502.0 -0.5 502.0 -755.0 407.0 -755.0 407.0 -506.5 Q364.0 -545.5 281.0 -545.5 181.5 -545.5 109.5 -460.0 37.5 -375.0 37.5 -254.5 37.5 -134.5 100.0 -62.5 162.5 9.5 263.0 9.5 357.5 9.5 407.0 -40.0 L407.0 -0.5" fill-rule="evenodd" stroke="none"/>
    </g>
    <g id="font_Trebuchet_MS_B0">
      <path d="M175.0 -364.5 L255.5 -367.0 Q352.0 -367.0 393.5 -333.0 434.5 -299.0 434.5 -227.5 434.5 -150.5 391.5 -115.0 348.0 -80.0 254.0 -80.0 226.5 -80.0 175.0 -85.0 L175.0 -364.5 M175.0 -652.5 Q214.5 -656.0 264.5 -656.0 395.0 -656.0 395.0 -554.5 395.0 -439.0 253.0 -439.0 206.5 -439.0 175.0 -442.0 L175.0 -652.5 M284.0 0.0 Q398.0 0.0 469.0 -57.5 539.5 -115.0 539.5 -211.5 539.5 -295.0 500.0 -343.5 460.0 -392.0 373.0 -413.0 419.0 -423.5 457.0 -465.5 495.0 -507.5 495.0 -558.5 495.0 -645.5 435.5 -692.0 376.0 -739.0 267.5 -739.0 208.5 -739.0 75.0 -732.5 L75.0 0.0 284.0 0.0" fill-rule="evenodd" stroke="none"/>
    </g>
    <g id="font_Trebuchet_MS_s0">
      <path d="M32.5 -32.0 Q107.0 10.0 191.5 10.0 281.0 10.0 331.5 -30.5 382.0 -71.5 382.0 -143.5 382.0 -198.5 353.5 -235.0 325.0 -271.5 262.5 -300.0 L194.5 -331.0 Q136.0 -357.5 136.0 -409.0 136.0 -433.5 159.5 -449.5 182.5 -465.5 216.5 -465.5 273.5 -465.5 330.0 -420.5 L357.0 -508.5 Q268.0 -545.5 209.5 -545.5 132.0 -545.5 84.0 -508.5 36.0 -471.5 36.0 -405.5 36.0 -380.0 44.5 -357.5 52.5 -335.5 69.5 -315.5 86.0 -296.0 109.0 -280.5 131.5 -265.0 197.0 -235.0 282.0 -197.0 282.0 -144.0 282.0 -70.0 194.0 -70.0 145.5 -70.0 66.0 -122.0 49.5 -77.0 32.5 -32.0" fill-rule="evenodd" stroke="none"/>
    </g>
    <g id="font_Trebuchet_MS_e0">
      <path d="M288.0 -465.5 Q356.0 -465.5 395.5 -423.5 431.5 -385.0 431.5 -327.5 L135.0 -327.5 Q140.5 -385.5 181.5 -424.5 224.5 -465.5 288.0 -465.5 M518.5 -258.5 Q526.0 -285.0 526.0 -316.5 526.0 -419.0 463.0 -481.0 398.0 -545.5 283.5 -545.5 185.0 -545.5 113.0 -474.0 32.5 -394.0 32.5 -261.5 32.5 -134.0 111.0 -58.5 181.5 10.0 282.5 10.0 352.5 10.0 409.5 -11.0 455.0 -27.0 477.0 -49.0 L437.0 -117.5 Q382.5 -70.0 301.0 -70.0 229.5 -70.0 184.0 -114.0 132.5 -164.5 132.5 -258.5 L518.5 -258.5" fill-rule="evenodd" stroke="none"/>
    </g>
    <g id="font_Trebuchet_MS_F0">
      <path d="M175.0 -642.5 L527.5 -642.5 527.5 -732.5 75.0 -732.5 75.0 0.0 175.0 0.0 175.0 -354.0 432.5 -354.0 432.5 -439.0 175.0 -439.0 175.0 -642.5" fill-rule="evenodd" stroke="none"/>
    </g>
    <g id="font_Trebuchet_MS_n0">
      <path d="M397.0 0.0 L492.0 0.0 492.0 -331.5 Q492.0 -545.5 316.0 -545.5 209.5 -545.5 162.5 -466.5 L132.5 -535.5 67.5 -535.5 67.5 0.0 162.5 0.0 162.5 -398.0 Q181.5 -426.5 217.0 -446.0 252.5 -465.5 285.0 -465.5 345.5 -465.5 371.5 -431.0 397.0 -397.0 397.0 -311.5 L397.0 0.0" fill-rule="evenodd" stroke="none"/>
    </g>
    <g id="font_Trebuchet_MS_c0">
      <path d="M471.5 -492.0 Q448.5 -510.5 400.0 -528.0 351.5 -545.5 310.0 -545.5 181.0 -545.5 107.0 -468.0 32.5 -390.5 32.5 -262.5 32.5 -137.0 104.0 -63.5 175.5 10.0 285.0 10.0 398.0 10.0 474.5 -39.5 456.0 -79.5 437.0 -119.5 372.0 -70.0 308.0 -70.0 225.5 -70.0 179.0 -119.0 132.5 -168.5 132.5 -262.5 132.5 -357.0 178.0 -411.0 223.5 -465.5 301.0 -465.5 336.5 -465.5 373.5 -452.5 410.0 -439.5 424.5 -425.0 L471.5 -492.0" fill-rule="evenodd" stroke="none"/>
    </g>
    <g id="font_Trebuchet_MS_t0">
      <path d="M101.5 -460.5 L101.5 -156.5 Q101.5 -84.5 145.5 -37.0 189.0 10.0 252.5 10.0 323.0 10.0 382.0 -5.0 L368.0 -88.5 Q329.0 -70.0 292.5 -70.0 242.0 -70.0 219.5 -98.5 196.5 -127.0 196.5 -194.5 L196.5 -460.5 343.5 -460.5 343.5 -535.5 196.5 -535.5 196.5 -684.0 Q149.0 -665.5 101.5 -647.5 L101.5 -535.5 39.5 -535.5 39.5 -460.5 101.5 -460.5" fill-rule="evenodd" stroke="none"/>
    </g>
    <g id="font_Trebuchet_MS_i0">
      <path d="M113.5 0.0 L208.5 0.0 208.5 -535.5 40.0 -535.5 40.0 -455.5 113.5 -455.5 113.5 0.0 M165.5 -738.0 Q141.0 -738.0 124.0 -721.0 107.0 -704.0 107.0 -679.5 107.0 -655.0 124.5 -637.5 141.5 -620.5 165.5 -620.5 190.0 -620.5 207.5 -637.5 224.5 -655.0 224.5 -679.5 224.5 -703.5 207.5 -720.5 190.0 -738.0 165.5 -738.0" fill-rule="evenodd" stroke="none"/>
    </g>
    <g id="font_Trebuchet_MS_o0">
      <path d="M132.5 -269.0 Q132.5 -362.0 171.5 -415.0 210.0 -468.0 275.0 -468.0 417.0 -468.0 417.0 -269.0 417.0 -175.5 379.5 -121.5 341.5 -67.5 275.0 -67.5 132.5 -67.5 132.5 -269.0 M32.5 -269.0 Q32.5 -141.0 96.5 -65.5 160.5 10.0 275.0 10.0 387.0 10.0 452.0 -64.5 517.0 -139.5 517.0 -269.0 517.0 -399.0 453.5 -472.0 390.0 -545.5 275.0 -545.5 166.0 -545.5 99.5 -469.0 32.5 -393.0 32.5 -269.0" fill-rule="evenodd" stroke="none"/>
    </g>
    <g id="shape1" transform="matrix(1.0, 0.0, 0.0, 1.0, 33.15, 56.5)">
      <path d="M26.3 -35.0 L-32.65 -35.0 -32.65 -56.0 26.3 -56.0 26.3 -35.0 M-29.75 3.5 L22.25 3.5 22.25 27.5 -29.75 27.5 -29.75 3.5 Z" fill="none" stroke="#cccccc" stroke-linecap="round" stroke-linejoin="round" stroke-width="1.0"/>
    </g>
    <g id="text1" transform="matrix(1.0, 0.0, 0.0, 1.0, -4.35, -2.05)">
      <g transform="matrix(1.0, 0.0, 0.0, 1.0, 0.0, 0.0)">
        <use fill="#ffff00" height="10.9" transform="matrix(0.0117, 0.0, 0.0, 0.0117, 4.0, 12.0)" width="111.3" xlink:href="#font_Trebuchet_MS_C0"/>
        <use fill="#ffff00" height="10.9" transform="matrix(0.0117, 0.0, 0.0, 0.0117, 9.15, 12.0)" width="111.3" xlink:href="#font_Trebuchet_MS_H0"/>
        <use fill="#ffff00" height="10.9" transform="matrix(0.0117, 0.0, 0.0, 0.0117, 14.95, 12.0)" width="111.3" xlink:href="#font_Trebuchet_MS_A0"/>
        <use fill="#ffff00" height="10.9" transform="matrix(0.0117, 0.0, 0.0, 0.0117, 20.0, 12.0)" width="111.3" xlink:href="#font_Trebuchet_MS_N0"/>
        <use fill="#ffff00" height="10.9" transform="matrix(0.0117, 0.0, 0.0, 0.0117, 25.6, 12.0)" width="111.3" xlink:href="#font_Trebuchet_MS_G0"/>
        <use fill="#ffff00" height="10.9" transform="matrix(0.0117, 0.0, 0.0, 0.0117, 31.65, 12.0)" width="111.3" xlink:href="#font_Trebuchet_MS_E0"/>
        <use fill="#ffff00" height="10.9" transform="matrix(0.0117, 0.0, 0.0, 0.0117, 37.4, 12.0)" width="111.3" xlink:href="#font_Trebuchet_MS_T0"/>
        <use fill="#ffff00" height="10.9" transform="matrix(0.0117, 0.0, 0.0, 0.0117, 42.3, 12.0)" width="111.3" xlink:href="#font_Trebuchet_MS_U0"/>
        <use fill="#ffff00" height="10.9" transform="matrix(0.0117, 0.0, 0.0, 0.0117, 48.05, 12.0)" width="111.3" xlink:href="#font_Trebuchet_MS_R0"/>
        <use fill="#ffff00" height="10.9" transform="matrix(0.0117, 0.0, 0.0, 0.0117, 53.0, 12.0)" width="111.3" xlink:href="#font_Trebuchet_MS_R0"/>
        <use fill="#ffff00" height="10.9" transform="matrix(0.0117, 0.0, 0.0, 0.0117, 57.95, 12.0)" width="111.3" xlink:href="#font_Trebuchet_MS_E0"/>
        <use fill="#ffff00" height="10.9" transform="matrix(0.0117, 0.0, 0.0, 0.0117, 62.35, 12.0)" width="111.3" xlink:href="#font_Trebuchet_MS_T0"/>
        <use fill="#ffff00" height="10.9" transform="matrix(0.0117, 0.0, 0.0, 0.0117, 68.6, 12.0)" width="111.3" xlink:href="#font_Trebuchet_MS_L0"/>
        <use fill="#ffff00" height="10.9" transform="matrix(0.0117, 0.0, 0.0, 0.0117, 72.65, 12.0)" width="111.3" xlink:href="#font_Trebuchet_MS_O0"/>
        <use fill="#ffff00" height="10.9" transform="matrix(0.0117, 0.0, 0.0, 0.0117, 78.7, 12.0)" width="111.3" xlink:href="#font_Trebuchet_MS_C0"/>
        <use fill="#ffff00" height="10.9" transform="matrix(0.0117, 0.0, 0.0, 0.0117, 83.85, 12.0)" width="111.3" xlink:href="#font_Trebuchet_MS_A0"/>
        <use fill="#ffff00" height="10.9" transform="matrix(0.0117, 0.0, 0.0, 0.0117, 87.75, 12.0)" width="111.3" xlink:href="#font_Trebuchet_MS_T0"/>
        <use fill="#ffff00" height="10.9" transform="matrix(0.0117, 0.0, 0.0, 0.0117, 92.65, 12.0)" width="111.3" xlink:href="#font_Trebuchet_MS_I0"/>
        <use fill="#ffff00" height="10.9" transform="matrix(0.0117, 0.0, 0.0, 0.0117, 93.95, 12.0)" width="111.3" xlink:href="#font_Trebuchet_MS_O0"/>
        <use fill="#ffff00" height="10.9" transform="matrix(0.0117, 0.0, 0.0, 0.0117, 100.0, 12.0)" width="111.3" xlink:href="#font_Trebuchet_MS_N0"/>
        <use fill="#ffff00" height="10.9" transform="matrix(0.0117, 0.0, 0.0, 0.0117, 105.6, 12.0)" width="111.3" xlink:href="#font_Trebuchet_MS_T0"/>
      </g>
    </g>
    <g id="font_Trebuchet_MS_C0">
      <path d="M542.5 -705.5 Q475.0 -745.0 355.5 -745.0 216.0 -745.0 128.0 -636.5 40.0 -528.0 40.0 -364.0 40.0 -194.5 122.5 -91.0 205.0 12.5 348.5 12.5 485.5 12.5 572.5 -74.0 545.0 -112.0 517.5 -150.5 462.0 -77.5 359.0 -77.5 264.5 -77.5 205.0 -155.0 145.0 -233.0 145.0 -358.0 145.0 -489.0 203.5 -572.0 261.5 -655.0 358.0 -655.0 461.0 -655.0 509.0 -620.0 526.0 -662.5 542.5 -705.5" fill-rule="evenodd" stroke="none"/>
    </g>
    <g id="font_Trebuchet_MS_H0">
      <path d="M495.0 0.0 L595.0 0.0 595.0 -732.5 495.0 -732.5 495.0 -439.0 175.0 -439.0 175.0 -732.5 75.0 -732.5 75.0 0.0 175.0 0.0 175.0 -354.0 495.0 -354.0 495.0 0.0" fill-rule="evenodd" stroke="none"/>
    </g>
    <g id="font_Trebuchet_MS_A0">
      <path d="M308.0 -550.5 L412.0 -228.0 194.5 -228.0 Q251.5 -389.0 308.0 -550.5 M491.0 0.0 L602.0 0.0 326.0 -742.5 299.5 -742.5 Q151.0 -371.0 2.0 0.0 L114.0 0.0 168.0 -154.5 440.5 -154.5 491.0 0.0" fill-rule="evenodd" stroke="none"/>
    </g>
    <g id="font_Trebuchet_MS_N0">
      <path d="M548.5 10.0 L578.5 10.0 578.5 -732.5 483.5 -732.5 483.5 -226.0 115.0 -732.5 75.0 -732.5 75.0 0.0 170.0 0.0 170.0 -525.5 548.5 10.0" fill-rule="evenodd" stroke="none"/>
    </g>
    <g id="font_Trebuchet_MS_G0">
      <path d="M582.5 -681.5 Q510.5 -745.0 396.0 -745.0 232.5 -745.0 136.5 -639.0 40.0 -533.5 40.0 -363.5 40.0 -193.0 128.0 -90.0 215.5 12.5 367.0 12.5 434.5 12.5 506.0 -8.0 577.5 -29.0 617.5 -63.0 L617.5 -382.0 416.0 -382.0 416.0 -297.0 517.5 -297.0 517.5 -125.5 Q468.0 -77.5 388.0 -77.5 275.5 -77.5 210.5 -155.0 145.0 -232.5 145.0 -359.5 145.0 -493.0 211.5 -574.0 278.0 -655.0 393.0 -655.0 465.5 -655.0 541.0 -599.0 562.0 -640.0 582.5 -681.5" fill-rule="evenodd" stroke="none"/>
    </g>
    <g id="font_Trebuchet_MS_E0">
      <path d="M175.0 -642.5 L512.5 -642.5 512.5 -732.5 75.0 -732.5 75.0 0.0 507.0 0.0 507.0 -90.0 175.0 -90.0 175.0 -354.0 417.0 -354.0 417.0 -439.0 175.0 -439.0 175.0 -642.5" fill-rule="evenodd" stroke="none"/>
    </g>
    <g id="font_Trebuchet_MS_T0">
      <path d="M342.0 -642.5 L585.5 -642.5 585.5 -732.5 9.0 -732.5 9.0 -642.5 242.0 -642.5 242.0 0.0 342.0 0.0 342.0 -642.5" fill-rule="evenodd" stroke="none"/>
    </g>
    <g id="font_Trebuchet_MS_U0">
      <path d="M75.0 -732.5 L75.0 -223.5 Q75.0 -109.5 141.5 -48.5 208.0 12.5 331.0 12.5 450.5 12.5 520.0 -49.5 589.0 -112.0 589.0 -223.0 L589.0 -732.5 489.0 -732.5 489.0 -233.5 Q489.0 -161.5 446.5 -119.5 404.0 -77.5 330.0 -77.5 260.0 -77.5 217.5 -120.5 175.0 -164.0 175.0 -231.0 L175.0 -732.5 75.0 -732.5" fill-rule="evenodd" stroke="none"/>
    </g>
    <g id="font_Trebuchet_MS_R0">
      <path d="M180.0 -642.5 Q224.0 -647.5 239.0 -647.5 334.0 -647.5 378.0 -620.5 422.0 -593.5 422.0 -532.0 422.0 -457.5 381.0 -428.5 340.0 -399.5 250.0 -399.5 216.0 -399.5 180.0 -404.5 L180.0 -642.5 M481.5 0.0 L596.0 0.0 383.5 -337.0 Q442.0 -350.5 484.5 -405.5 527.0 -461.0 527.0 -530.0 527.0 -740.0 263.0 -740.0 L158.0 -736.0 80.0 -732.5 80.0 0.0 180.0 0.0 180.0 -319.5 Q252.5 -314.5 286.0 -314.5 L481.5 0.0" fill-rule="evenodd" stroke="none"/>
    </g>
    <g id="font_Trebuchet_MS_L0">
      <path d="M75.0 0.0 L506.0 0.0 506.0 -90.0 175.0 -90.0 175.0 -732.5 75.0 -732.5 75.0 0.0" fill-rule="evenodd" stroke="none"/>
    </g>
    <g id="font_Trebuchet_MS_O0">
      <path d="M145.0 -372.5 Q145.0 -503.5 193.5 -579.5 242.0 -655.5 335.0 -655.5 545.0 -655.5 545.0 -372.5 545.0 -232.5 491.5 -155.0 437.5 -77.5 335.0 -77.5 244.5 -77.5 195.0 -162.0 145.0 -246.5 145.0 -372.5 M40.0 -372.5 Q40.0 -203.5 118.5 -95.5 196.5 12.5 335.0 12.5 487.0 12.5 568.5 -89.5 650.0 -192.0 650.0 -372.5 650.0 -548.5 569.0 -647.0 487.5 -745.5 335.0 -745.5 199.5 -745.5 120.0 -638.5 40.0 -531.5 40.0 -372.5" fill-rule="evenodd" stroke="none"/>
    </g>
    <g id="font_Trebuchet_MS_I0">
      <path d="M92.5 0.0 L192.5 0.0 192.5 -732.5 92.5 -732.5 92.5 0.0" fill-rule="evenodd" stroke="none"/>
    </g>
    <g id="text2" transform="matrix(1.0, 0.0, 0.0, 1.0, -29.0, -1.95)">
      <g transform="matrix(1.0, 0.0, 0.0, 1.0, 0.0, 0.0)">
        <use fill="#ffff00" height="13.3" transform="matrix(0.0117, 0.0, 0.0, 0.0117, 29.0, 12.0)" width="46.05" xlink:href="#font_Trebuchet_MS_C0"/>
        <use fill="#ffff00" height="13.3" transform="matrix(0.0117, 0.0, 0.0, 0.0117, 33.6, 12.0)" width="46.05" xlink:href="#font_Trebuchet_MS_h0"/>
        <use fill="#ffff00" height="13.3" transform="matrix(0.0117, 0.0, 0.0, 0.0117, 37.55, 12.0)" width="46.05" xlink:href="#font_Trebuchet_MS_a0"/>
        <use fill="#ffff00" height="13.3" transform="matrix(0.0117, 0.0, 0.0, 0.0117, 41.2, 12.0)" width="46.05" xlink:href="#font_Trebuchet_MS_n0"/>
        <use fill="#ffff00" height="13.3" transform="matrix(0.0117, 0.0, 0.0, 0.0117, 45.15, 12.0)" width="46.05" xlink:href="#font_Trebuchet_MS_g0"/>
        <use fill="#ffff00" height="13.3" transform="matrix(0.0117, 0.0, 0.0, 0.0117, 48.55, 12.0)" width="46.05" xlink:href="#font_Trebuchet_MS_e0"/>
        <use fill="#ffff00" height="13.3" transform="matrix(0.0117, 0.0, 0.0, 0.0117, 53.3, 12.0)" width="46.05" xlink:href="#font_Trebuchet_MS_T0"/>
        <use fill="#ffff00" height="13.3" transform="matrix(0.0117, 0.0, 0.0, 0.0117, 56.1, 12.0)" width="46.05" xlink:href="#font_Trebuchet_MS_u0"/>
        <use fill="#ffff00" height="13.3" transform="matrix(0.0117, 0.0, 0.0, 0.0117, 60.05, 12.0)" width="46.05" xlink:href="#font_Trebuchet_MS_r0"/>
        <use fill="#ffff00" height="13.3" transform="matrix(0.0117, 0.0, 0.0, 0.0117, 62.1, 12.0)" width="46.05" xlink:href="#font_Trebuchet_MS_r0"/>
        <use fill="#ffff00" height="13.3" transform="matrix(0.0117, 0.0, 0.0, 0.0117, 64.15, 12.0)" width="46.05" xlink:href="#font_Trebuchet_MS_e0"/>
        <use fill="#ffff00" height="13.3" transform="matrix(0.0117, 0.0, 0.0, 0.0117, 68.1, 12.0)" width="46.05" xlink:href="#font_Trebuchet_MS_t0"/>
      </g>
    </g>
    <g id="font_Trebuchet_MS_h0">
      <path d="M397.5 0.0 L492.5 0.0 492.5 -336.5 Q492.5 -433.5 444.5 -489.5 396.0 -545.5 311.0 -545.5 266.0 -545.5 224.0 -525.5 181.5 -506.0 162.5 -476.5 L162.5 -755.0 67.5 -755.0 67.5 0.0 162.5 0.0 162.5 -398.0 Q181.0 -425.0 216.0 -445.0 250.5 -465.5 285.0 -465.5 338.5 -465.5 368.0 -431.0 397.5 -396.5 397.5 -336.5 L397.5 0.0" fill-rule="evenodd" stroke="none"/>
    </g>
    <g id="font_Trebuchet_MS_g0">
      <path d="M249.5 -469.0 Q295.5 -469.0 326.5 -434.0 357.0 -399.0 357.0 -349.0 357.0 -291.0 328.5 -255.0 300.0 -219.5 249.5 -219.5 198.0 -219.5 168.0 -256.0 137.5 -293.0 137.5 -349.0 137.5 -399.0 169.0 -434.0 200.0 -469.0 249.5 -469.0 M48.0 146.5 Q83.0 173.0 140.5 191.5 198.0 210.0 250.0 210.0 351.5 210.0 418.0 164.5 484.0 119.0 484.0 45.0 484.0 -22.0 440.0 -59.5 395.5 -97.5 316.5 -97.5 294.5 -97.5 249.0 -89.5 203.5 -82.0 182.0 -82.0 133.0 -82.0 133.0 -102.5 133.0 -117.5 156.5 -126.5 180.0 -136.0 194.0 -137.5 L272.5 -145.5 Q354.5 -153.5 405.0 -208.5 455.5 -263.5 455.5 -344.5 455.5 -421.0 419.0 -468.5 L476.0 -511.5 Q445.0 -540.5 414.0 -570.0 L366.5 -513.0 Q322.0 -545.5 243.0 -545.5 157.0 -545.5 98.5 -489.5 40.0 -433.5 40.0 -349.5 40.0 -218.5 153.0 -165.5 113.5 -156.0 87.0 -134.5 60.0 -113.0 60.0 -86.5 60.0 -0.5 174.0 -0.5 197.5 -0.5 239.5 -8.5 281.5 -16.5 297.5 -16.5 391.5 -16.5 391.5 48.5 391.5 81.5 354.5 104.0 317.0 126.0 252.5 126.0 182.5 126.0 99.5 70.5 L48.0 146.5" fill-rule="evenodd" stroke="none"/>
    </g>
    <g id="font_Trebuchet_MS_r0">
      <path d="M358.5 -444.0 Q378.5 -490.0 398.0 -536.5 350.0 -545.5 324.5 -545.5 222.0 -545.5 170.0 -450.0 L170.0 -535.5 75.0 -535.5 75.0 0.0 170.0 0.0 170.0 -307.0 Q170.0 -372.5 208.0 -419.0 245.5 -465.5 296.0 -465.5 327.5 -465.5 358.5 -444.0" fill-rule="evenodd" stroke="none"/>
    </g>
    <g id="text3" transform="matrix(1.0, 0.0, 0.0, 1.0, -36.05, -1.95)">
      <g transform="matrix(1.0, 0.0, 0.0, 1.0, 0.0, 0.0)">
        <use fill="#ffff00" height="10.95" transform="matrix(0.0117, 0.0, 0.0, 0.0117, 36.0, 12.0)" width="49.9" xlink:href="#font_Trebuchet_MS_W0"/>
        <use fill="#ffff00" height="10.95" transform="matrix(0.0117, 0.0, 0.0, 0.0117, 44.6, 12.0)" width="49.9" xlink:href="#font_Trebuchet_MS_i0"/>
        <use fill="#ffff00" height="10.95" transform="matrix(0.0117, 0.0, 0.0, 0.0117, 46.55, 12.0)" width="49.9" xlink:href="#font_Trebuchet_MS_t0"/>
        <use fill="#ffff00" height="10.95" transform="matrix(0.0117, 0.0, 0.0, 0.0117, 49.85, 12.0)" width="49.9" xlink:href="#font_Trebuchet_MS_h0"/>
        <use fill="#ffff00" height="10.95" transform="matrix(0.0117, 0.0, 0.0, 0.0117, 56.9, 12.0)" width="49.9" xlink:href="#font_Trebuchet_MS_T0"/>
        <use fill="#ffff00" height="10.95" transform="matrix(0.0117, 0.0, 0.0, 0.0117, 60.85, 12.0)" width="49.9" xlink:href="#font_Trebuchet_MS_u0"/>
        <use fill="#ffff00" height="10.95" transform="matrix(0.0117, 0.0, 0.0, 0.0117, 65.95, 12.0)" width="49.9" xlink:href="#font_Trebuchet_MS_r0"/>
        <use fill="#ffff00" height="10.95" transform="matrix(0.0117, 0.0, 0.0, 0.0117, 69.15, 12.0)" width="49.9" xlink:href="#font_Trebuchet_MS_r0"/>
        <use fill="#ffff00" height="10.95" transform="matrix(0.0117, 0.0, 0.0, 0.0117, 72.35, 12.0)" width="49.9" xlink:href="#font_Trebuchet_MS_e0"/>
        <use fill="#ffff00" height="10.95" transform="matrix(0.0117, 0.0, 0.0, 0.0117, 77.45, 12.0)" width="49.9" xlink:href="#font_Trebuchet_MS_t0"/>
      </g>
    </g>
    <g id="font_Trebuchet_MS_W0">
      <path d="M638.0 10.0 L866.0 -732.5 762.0 -732.5 Q687.5 -477.0 612.5 -222.0 L453.5 -732.5 418.5 -732.5 257.5 -221.0 110.5 -732.5 6.5 -732.5 237.5 10.0 269.0 10.0 432.0 -495.0 Q519.5 -242.5 606.5 10.0 L638.0 10.0" fill-rule="evenodd" stroke="none"/>
    </g>
    <g id="sprite0" transform="matrix(1.0, 0.0, 0.0, 1.0, 46.0, 10.25)">
      <use data-characterId="1067" height="18.85" transform="matrix(1.0, 0.0, 0.0, 1.0, -46.0, -10.25)" width="66.0" xlink:href="#shape2"/>
      <use data-characterId="1068" height="19.0" id="label" transform="matrix(1.0, 0.0, 0.0, 1.0, -42.85, -9.0)" width="61.35" xlink:href="#text4"/>
    </g>
    <g id="shape2" transform="matrix(1.0, 0.0, 0.0, 1.0, 46.0, 10.25)">
      <path d="M19.5 -9.75 L19.5 8.1 -45.5 8.1 -45.5 -9.75 19.5 -9.75" fill="#ffff00" fill-rule="evenodd" stroke="none"/>
      <path d="M19.5 -9.75 L19.5 8.1 -45.5 8.1 -45.5 -9.75 19.5 -9.75 Z" fill="none" stroke="#cccccc" stroke-linecap="round" stroke-linejoin="round" stroke-width="1.0"/>
    </g>
    <g id="text4" transform="matrix(1.0, 0.0, 0.0, 1.0, 2.0, 2.0)">
      <g transform="matrix(1.0, 0.0, 0.0, 1.0, -2.0, -2.0)">
        <use fill="#000000" height="19.0" transform="matrix(0.0117, 0.0, 0.0, 0.0117, 30.65, 14.0)" width="61.35" xlink:href="#font_Trebuchet_MS_U0"/>
        <use fill="#000000" height="19.0" transform="matrix(0.0117, 0.0, 0.0, 0.0117, 30.65, 14.0)" width="61.35" xlink:href="#font_Trebuchet_MS_P0"/>
        <use fill="#000000" height="19.0" transform="matrix(0.0117, 0.0, 0.0, 0.0117, 30.65, 14.0)" width="61.35" xlink:href="#font_Trebuchet_MS_G0"/>
        <use fill="#000000" height="19.0" transform="matrix(0.0117, 0.0, 0.0, 0.0117, 30.65, 14.0)" width="61.35" xlink:href="#font_Trebuchet_MS_R0"/>
        <use fill="#000000" height="19.0" transform="matrix(0.0117, 0.0, 0.0, 0.0117, 30.65, 14.0)" width="61.35" xlink:href="#font_Trebuchet_MS_A0"/>
        <use fill="#000000" height="19.0" transform="matrix(0.0117, 0.0, 0.0, 0.0117, 30.65, 14.0)" width="61.35" xlink:href="#font_Trebuchet_MS_D0"/>
        <use fill="#000000" height="19.0" transform="matrix(0.0117, 0.0, 0.0, 0.0117, 30.65, 14.0)" width="61.35" xlink:href="#font_Trebuchet_MS_E0"/>
      </g>
    </g>
    <g id="font_Trebuchet_MS_P0">
      <path d="M175.0 -642.5 Q209.5 -647.5 229.5 -647.5 428.0 -647.5 428.0 -513.5 428.0 -367.0 242.0 -367.0 L175.0 -372.0 175.0 -642.5 M175.0 -282.0 Q232.0 -277.0 249.0 -277.0 531.0 -277.0 531.0 -524.0 531.0 -737.5 212.0 -737.5 L75.0 -732.5 75.0 0.0 175.0 0.0 175.0 -282.0" fill-rule="evenodd" stroke="none"/>
    </g>
    <g id="font_Trebuchet_MS_D0">
      <path d="M175.0 -642.5 Q235.5 -647.5 249.5 -647.5 483.0 -647.5 483.0 -387.5 483.0 -247.5 423.0 -168.5 363.0 -90.0 258.0 -90.0 208.5 -90.0 175.0 -95.0 L175.0 -642.5 M222.5 0.0 Q588.0 0.0 588.0 -396.0 588.0 -551.0 498.5 -644.0 409.0 -737.5 255.5 -737.5 216.0 -737.5 75.0 -732.5 L75.0 0.0 222.5 0.0" fill-rule="evenodd" stroke="none"/>
    </g>
    <g id="text5" transform="matrix(1.0, 0.0, 0.0, 1.0, 2.0, 2.0)">
      <g transform="matrix(1.0, 0.0, 0.0, 1.0, -2.0, -2.0)">
        <use fill="#00ff00" height="19.0" transform="matrix(0.0117, 0.0, 0.0, 0.0117, 28.25, 14.0)" width="56.5" xlink:href="#font_Trebuchet_MS_L0"/>
        <use fill="#00ff00" height="19.0" transform="matrix(0.0117, 0.0, 0.0, 0.0117, 28.25, 14.0)" width="56.5" xlink:href="#font_Trebuchet_MS_V0"/>
        <use fill="#00ff00" height="19.0" transform="matrix(0.0117, 0.0, 0.0, 0.0117, 28.25, 14.0)" width="56.5" xlink:href="#font_Trebuchet_MS_L0"/>
      </g>
    </g>
    <g id="font_Trebuchet_MS_V0">
      <path d="M330.0 10.0 L595.0 -732.5 487.5 -732.5 Q397.0 -462.5 306.0 -193.0 L117.5 -732.5 6.5 -732.5 279.5 10.0 330.0 10.0" fill-rule="evenodd" stroke="none"/>
    </g>
    <g id="text6" transform="matrix(1.0, 0.0, 0.0, 1.0, 2.0, 2.0)">
      <g transform="matrix(1.0, 0.0, 0.0, 1.0, -2.0, -2.0)">
        <use fill="#00ff00" height="19.0" transform="matrix(0.0117, 0.0, 0.0, 0.0117, 20.75, 14.0)" width="41.5" xlink:href="#font_Trebuchet_MS_L0"/>
        <use fill="#00ff00" height="19.0" transform="matrix(0.0117, 0.0, 0.0, 0.0117, 20.75, 14.0)" width="41.5" xlink:href="#font_Trebuchet_MS_V0"/>
        <use fill="#00ff00" height="19.0" transform="matrix(0.0117, 0.0, 0.0, 0.0117, 20.75, 14.0)" width="41.5" xlink:href="#font_Trebuchet_MS_L0"/>
      </g>
    </g>
  </defs>
</svg>
