<?xml version="1.0" encoding="UTF-8" standalone="no"?>
<svg xmlns:xlink="http://www.w3.org/1999/xlink" height="458.4px" width="529.15px" xmlns="http://www.w3.org/2000/svg">
  <g transform="matrix(1.0, 0.0, 0.0, 1.0, 255.65, 218.35)">
    <use data-characterId="404" height="71.35" transform="matrix(1.0, 0.0, 0.0, 1.0, -38.0, -37.45)" width="75.0" xlink:href="#shape0"/>
    <use data-characterId="406" height="44.35" transform="matrix(1.0, 0.0, 0.0, 1.0, -85.3, -10.45)" width="187.15" xlink:href="#text0"/>
    <use data-characterId="408" height="71.4" transform="matrix(1.0, 0.0, 0.0, 1.0, -255.65, -69.0)" width="72.2" xlink:href="#sprite0"/>
    <use data-characterId="408" height="71.4" transform="matrix(1.0, 0.0, 0.0, 1.0, 201.3, -58.5)" width="72.2" xlink:href="#sprite0"/>
    <use data-characterId="408" height="71.4" transform="matrix(1.0, 0.0, 0.0, 1.0, -98.55, -218.35)" width="72.2" xlink:href="#sprite0"/>
    <use data-characterId="408" height="71.4" transform="matrix(1.0, 0.0, 0.0, 1.0, -29.55, 168.65)" width="72.2" xlink:href="#sprite0"/>
    <use data-characterId="410" height="71.35" transform="matrix(1.0, 0.0, 0.0, 1.0, -245.15, 85.4)" width="72.15" xlink:href="#sprite1"/>
    <use data-characterId="412" height="71.35" transform="matrix(1.0, 0.0, 0.0, 1.0, -0.15, 23.9)" width="72.15" xlink:href="#sprite2"/>
    <use data-characterId="410" height="71.35" transform="matrix(1.0, 0.0, 0.0, 1.0, 121.8, -169.55)" width="72.15" xlink:href="#sprite1"/>
  </g>
  <defs>
    <g id="shape0" transform="matrix(1.0, 0.0, 0.0, 1.0, 38.0, 37.45)">
      <path d="M23.85 -9.95 L23.0 -11.1 Q14.05 -22.2 0.25 -22.5 M23.85 6.4 L23.0 7.5 Q14.05 18.6 0.25 18.9 L-0.5 18.95" fill="none" stroke="#cccccc" stroke-linecap="butt" stroke-linejoin="miter-clip" stroke-miterlimit="3.0" stroke-width="2.0"/>
      <path d="M0.25 -22.5 L-0.5 -22.5 Q-15.5 -22.25 -24.8 -10.0 M-0.5 18.95 Q-15.5 18.65 -24.8 6.4" fill="none" stroke="#cccccc" stroke-linecap="round" stroke-linejoin="miter-clip" stroke-miterlimit="3.0" stroke-width="2.0"/>
      <path d="M0.25 -22.5 L0.25 -36.4" fill="none" stroke="#cccccc" stroke-linecap="round" stroke-linejoin="miter-clip" stroke-miterlimit="3.0" stroke-width="2.0"/>
      <path d="M0.25 -36.4 Q-5.2 -36.75 -11.2 -35.25 -27.1 -31.3 -37.0 -17.65 M0.25 -36.4 Q17.95 -36.0 30.35 -24.15 33.45 -21.2 36.0 -17.6 M-0.45 32.9 Q-5.9 32.95 -11.2 31.65 -27.1 27.7 -37.0 14.05" fill="none" stroke="#999999" stroke-linecap="round" stroke-linejoin="miter-clip" stroke-miterlimit="3.0" stroke-width="2.0"/>
      <path d="M36.0 14.05 Q33.45 17.6 30.35 20.6 17.95 32.4 1.05 32.85 L-0.45 32.9" fill="none" stroke="#999999" stroke-linecap="butt" stroke-linejoin="miter-clip" stroke-miterlimit="3.0" stroke-width="2.0"/>
      <path d="M-0.5 18.95 L-0.45 32.9" fill="none" stroke="#cccccc" stroke-linecap="round" stroke-linejoin="miter-clip" stroke-miterlimit="3.0" stroke-width="1.0"/>
    </g>
    <g id="sprite0" transform="matrix(1.0, 0.0, 0.0, 1.0, 34.5, 33.85)">
      <use data-characterId="407" height="71.4" transform="matrix(1.0, 0.0, 0.0, 1.0, -34.5, -33.85)" width="72.2" xlink:href="#shape1"/>
    </g>
    <g id="shape1" transform="matrix(1.0, 0.0, 0.0, 1.0, 34.5, 33.85)">
      <path d="M-11.65 -16.25 Q-6.9 -19.8 -0.75 -20.0 L0.0 -20.0 Q6.7 -20.0 11.8 -16.15 L14.15 -14.1 16.75 -11.0 25.15 -14.25 29.55 -21.85 31.4 -16.7 33.2 -11.65 35.0 -6.55 36.85 -1.45 28.2 -6.45 19.75 -3.2 20.0 0.0 20.0 0.55 Q19.8 8.5 14.15 14.15 L11.75 16.25 Q6.65 20.0 0.0 20.0 L-0.75 20.0 -4.2 19.6 -7.95 28.15 -5.7 36.6 -10.6 34.25 -15.45 32.0 -20.35 29.65 -25.25 27.35 -15.6 24.75 -11.8 16.2 -13.6 14.7 -14.15 14.15 Q-19.95 8.35 -20.0 0.2 L-20.0 0.0 Q-20.0 -5.6 -17.3 -10.1 L-24.65 -16.0 -33.4 -16.0 -29.85 -20.15 -26.4 -24.25 -22.9 -28.35 -19.4 -32.5 -19.4 -22.5 -11.65 -16.25 -13.7 -14.55 -11.65 -16.25 M-5.25 -4.3 L-13.7 -14.55 -5.25 -4.3 M-0.75 -5.8 L-0.75 -20.0 -0.75 -5.8 0.35 -5.9 2.8 -5.5 2.95 -5.4 2.8 -5.5 0.35 -5.9 -0.75 -5.8 Q-2.65 -5.55 -4.15 -4.3 L-4.55 -3.95 Q-6.3 -2.15 -6.5 0.3 L-6.5 0.95 Q-6.55 3.55 -4.9 5.45 L-4.55 5.75 Q-2.9 7.4 -0.75 7.7 -2.9 7.4 -4.55 5.75 L-4.9 5.45 Q-6.55 3.55 -6.5 0.95 L-6.5 0.3 Q-6.3 -2.15 -4.55 -3.95 L-4.15 -4.3 Q-2.65 -5.55 -0.75 -5.8 M11.8 -16.15 L2.95 -5.4 11.8 -16.15 M3.9 6.8 Q2.35 7.8 0.35 7.8 L-0.75 7.7 0.35 7.8 Q2.35 7.8 3.9 6.8 L4.6 6.3 5.15 5.75 Q7.2 3.8 7.2 0.95 L7.15 0.45 7.2 0.95 Q7.2 3.8 5.15 5.75 L4.6 6.3 3.9 6.8 11.75 16.25 3.9 6.8 M2.95 -5.4 L3.75 -5.05 5.15 -3.95 Q7.0 -2.1 7.15 0.45 7.0 -2.1 5.15 -3.95 L3.75 -5.05 2.95 -5.4 M19.75 -3.2 Q19.1 -7.5 16.75 -11.0 19.1 -7.5 19.75 -3.2 M27.35 -8.55 L35.0 -6.55 27.35 -8.55 28.2 -6.45 27.35 -8.55 26.7 -10.35 27.35 -8.55 M26.7 -10.35 L33.2 -11.65 26.7 -10.35 26.0 -12.15 26.7 -10.35 M26.0 -12.15 L31.4 -16.7 26.0 -12.15 25.15 -14.25 26.0 -12.15 M-23.2 -17.75 L-29.85 -20.15 -23.2 -17.75 -22.0 -19.25 -23.2 -17.75 -24.65 -16.0 -23.2 -17.75 M-26.4 -24.25 L-22.0 -19.25 -26.4 -24.25 M-20.8 -20.75 L-22.0 -19.25 -20.8 -20.75 -22.9 -28.35 -20.8 -20.75 -19.4 -22.5 -20.8 -20.75 M-17.3 -10.1 Q-16.05 -12.25 -14.15 -14.1 L-13.7 -14.55 -14.15 -14.1 Q-16.05 -12.25 -17.3 -10.1 M-11.8 16.2 Q-8.35 18.75 -4.2 19.6 -8.35 18.75 -11.8 16.2 M-5.95 5.45 L-13.6 14.7 -5.95 5.45 M-7.6 0.3 L-20.0 0.2 -7.6 0.3 M-0.75 7.7 L-0.75 20.0 -0.75 7.7 M-13.55 25.65 L-15.6 24.75 -13.55 25.65 -11.8 26.45 -13.55 25.65 -20.35 29.65 -13.55 25.65 M-10.05 27.2 L-11.8 26.45 -10.05 27.2 -7.95 28.15 -10.05 27.2 -10.6 34.25 -10.05 27.2 M-15.45 32.0 L-11.8 26.45 -15.45 32.0 M7.15 0.45 L20.0 0.55 7.15 0.45" fill="#6600cc" fill-rule="evenodd" stroke="none"/>
      <path d="M-11.65 -16.25 Q-6.9 -19.8 -0.75 -20.0 L0.0 -20.0 Q6.7 -20.0 11.8 -16.15 L14.15 -14.1 16.75 -11.0 Q19.1 -7.5 19.75 -3.2 L20.0 0.0 20.0 0.55 Q19.8 8.5 14.15 14.15 L11.75 16.25 Q6.65 20.0 0.0 20.0 L-0.75 20.0 -4.2 19.6 Q-8.35 18.75 -11.8 16.2 L-13.6 14.7 -14.15 14.15 Q-19.95 8.35 -20.0 0.2 L-20.0 0.0 Q-20.0 -5.6 -17.3 -10.1 -16.05 -12.25 -14.15 -14.1 L-13.7 -14.55 -11.65 -16.25 M-0.75 -20.0 L-0.75 -5.8 0.35 -5.9 2.8 -5.5 2.95 -5.4 11.8 -16.15 M-0.75 -5.8 Q-2.65 -5.55 -4.15 -4.3 L-4.55 -3.95 Q-6.3 -2.15 -6.5 0.3 L-6.5 0.95 Q-6.55 3.55 -4.9 5.45 L-4.55 5.75 Q-2.9 7.4 -0.75 7.7 L0.35 7.8 Q2.35 7.8 3.9 6.8 L4.6 6.3 5.15 5.75 Q7.2 3.8 7.2 0.95 L7.15 0.45 Q7.0 -2.1 5.15 -3.95 L3.75 -5.05 2.95 -5.4 M-0.75 20.0 L-0.75 7.7 M20.0 0.55 L7.15 0.45 M11.75 16.25 L3.9 6.8" fill="none" stroke="#990000" stroke-linecap="round" stroke-linejoin="miter-clip" stroke-miterlimit="3.0" stroke-width="1.0"/>
      <path d="M16.75 -11.0 L25.15 -14.25 29.55 -21.85 31.4 -16.7 33.2 -11.65 35.0 -6.55 36.85 -1.45 28.2 -6.45 19.75 -3.2 M-4.2 19.6 L-7.95 28.15 -5.7 36.6 -10.6 34.25 -15.45 32.0 -20.35 29.65 -25.25 27.35 -15.6 24.75 -11.8 16.2 M-17.3 -10.1 L-24.65 -16.0 -33.4 -16.0 -29.85 -20.15 -26.4 -24.25 -22.9 -28.35 -19.4 -32.5 -19.4 -22.5 -11.65 -16.25 M35.0 -6.55 L27.35 -8.55 28.2 -6.45 M33.2 -11.65 L26.7 -10.35 27.35 -8.55 M31.4 -16.7 L26.0 -12.15 26.7 -10.35 M25.15 -14.25 L26.0 -12.15 M-29.85 -20.15 L-23.2 -17.75 -22.0 -19.25 -26.4 -24.25 M-24.65 -16.0 L-23.2 -17.75 M-22.0 -19.25 L-20.8 -20.75 -22.9 -28.35 M-20.8 -20.75 L-19.4 -22.5 M-15.6 24.75 L-13.55 25.65 -11.8 26.45 -10.05 27.2 -7.95 28.15 M-11.8 26.45 L-15.45 32.0 M-10.05 27.2 L-10.6 34.25 M-20.35 29.65 L-13.55 25.65" fill="none" stroke="#9900cc" stroke-linecap="round" stroke-linejoin="miter-clip" stroke-miterlimit="3.0" stroke-width="1.0"/>
      <path d="M-13.7 -14.55 L-5.25 -4.3 M-13.6 14.7 L-5.95 5.45 M-20.0 0.2 L-7.6 0.3" fill="none" stroke="#990000" stroke-linecap="round" stroke-linejoin="miter-clip" stroke-miterlimit="3.0" stroke-width="1.0"/>
    </g>
    <g id="sprite1" transform="matrix(1.0, 0.0, 0.0, 1.0, 37.3, 36.2)">
      <use data-characterId="409" height="71.35" transform="matrix(1.0, 0.0, 0.0, 1.0, -37.3, -36.2)" width="72.15" xlink:href="#shape2"/>
    </g>
    <g id="shape2" transform="matrix(1.0, 0.0, 0.0, 1.0, 37.3, 36.2)">
      <path d="M4.6 -18.3 L8.35 -26.8 6.1 -35.25 11.05 -32.95 15.9 -30.65 20.75 -28.3 25.65 -26.0 16.0 -23.4 12.25 -14.9 14.0 -13.4 14.55 -12.85 Q20.35 -7.05 20.4 1.15 L20.4 1.3 Q20.4 6.9 17.75 11.4 L25.05 17.3 33.8 17.3 30.3 21.45 26.8 25.55 23.3 29.65 19.8 33.8 19.8 23.8 12.1 17.6 Q7.3 21.1 1.2 21.3 L0.4 21.3 Q-6.3 21.3 -11.35 17.45 L-13.7 15.45 Q-15.2 13.95 -16.3 12.3 L-24.75 15.6 -29.1 23.15 -30.95 18.0 -32.75 13.0 -34.55 7.9 -36.4 2.8 -27.75 7.75 -19.35 4.55 -19.6 1.3 -19.6 0.75 Q-19.4 -7.2 -13.7 -12.85 L-11.3 -14.9 Q-6.25 -18.7 0.4 -18.7 L1.2 -18.7 4.6 -18.3 Q8.75 -17.45 12.25 -14.9 8.75 -17.45 4.6 -18.3 M10.45 -25.9 L11.05 -32.95 10.45 -25.9 12.2 -25.1 10.45 -25.9 8.35 -26.8 10.45 -25.9 M15.9 -30.65 L12.2 -25.1 15.9 -30.65 M13.95 -24.35 L16.0 -23.4 13.95 -24.35 12.2 -25.1 13.95 -24.35 20.75 -28.3 13.95 -24.35 M1.2 -6.4 L1.2 -18.7 1.2 -6.4 Q3.3 -6.1 4.95 -4.45 L5.3 -4.1 Q6.95 -2.25 6.95 0.4 L6.9 1.0 Q6.7 3.45 4.95 5.25 L4.55 5.65 Q3.05 6.85 1.2 7.15 3.05 6.85 4.55 5.65 L4.95 5.25 Q6.7 3.45 6.9 1.0 L6.95 0.4 Q6.95 -2.25 5.3 -4.1 L4.95 -4.45 Q3.3 -6.1 1.2 -6.4 L0.1 -6.45 Q-1.95 -6.5 -3.5 -5.45 -1.95 -6.5 0.1 -6.45 L1.2 -6.4 M1.2 21.3 L1.2 7.15 1.2 21.3 M-3.5 -5.45 L-11.3 -14.9 -3.5 -5.45 -4.2 -4.95 -4.75 -4.45 Q-6.8 -2.5 -6.75 0.4 L-6.75 0.9 -6.75 0.4 Q-6.8 -2.5 -4.75 -4.45 L-4.2 -4.95 -3.5 -5.45 M6.4 -4.1 L14.0 -13.4 6.4 -4.1 M23.65 19.1 L30.3 21.45 23.65 19.1 22.45 20.6 23.65 19.1 25.05 17.3 23.65 19.1 M26.8 25.55 L22.45 20.6 26.8 25.55 M21.25 22.05 L19.8 23.8 21.25 22.05 22.45 20.6 21.25 22.05 23.3 29.65 21.25 22.05 M-2.55 6.75 L-2.4 6.8 0.1 7.25 1.2 7.15 0.1 7.25 -2.4 6.8 -2.55 6.75 -11.35 17.45 -2.55 6.75 -3.3 6.35 Q-4.1 5.9 -4.75 5.25 -6.6 3.4 -6.75 0.9 L-19.6 0.75 -6.75 0.9 Q-6.6 3.4 -4.75 5.25 -4.1 5.9 -3.3 6.35 L-2.55 6.75 M14.1 15.9 L12.1 17.6 14.1 15.9 5.65 5.65 14.1 15.9 14.55 15.45 Q16.45 13.55 17.75 11.4 16.45 13.55 14.55 15.45 L14.1 15.9 M8.0 1.0 L20.4 1.15 8.0 1.0 M-16.3 12.3 Q-18.7 8.8 -19.35 4.55 -18.7 8.8 -16.3 12.3 M-26.25 11.65 L-32.75 13.0 -26.25 11.65 -26.95 9.85 -26.25 11.65 -25.55 13.45 -26.25 11.65 M-34.55 7.9 L-26.95 9.85 -34.55 7.9 M-27.75 7.75 L-26.95 9.85 -27.75 7.75 M-25.55 13.45 L-24.75 15.6 -25.55 13.45 -30.95 18.0 -25.55 13.45" fill="#6600cc" fill-rule="evenodd" stroke="none"/>
      <path d="M4.6 -18.3 L8.35 -26.8 6.1 -35.25 11.05 -32.95 15.9 -30.65 20.75 -28.3 25.65 -26.0 16.0 -23.4 12.25 -14.9 M17.75 11.4 L25.05 17.3 33.8 17.3 30.3 21.45 26.8 25.55 23.3 29.65 19.8 33.8 19.8 23.8 12.1 17.6 M-16.3 12.3 L-24.75 15.6 -29.1 23.15 -30.95 18.0 -32.75 13.0 -34.55 7.9 -36.4 2.8 -27.75 7.75 -19.35 4.55 M11.05 -32.95 L10.45 -25.9 12.2 -25.1 15.9 -30.65 M8.35 -26.8 L10.45 -25.9 M16.0 -23.4 L13.95 -24.35 12.2 -25.1 M13.95 -24.35 L20.75 -28.3 M30.3 21.45 L23.65 19.1 22.45 20.6 26.8 25.55 M23.65 19.1 L25.05 17.3 M19.8 23.8 L21.25 22.05 22.45 20.6 M23.3 29.65 L21.25 22.05 M-32.75 13.0 L-26.25 11.65 -26.95 9.85 -34.55 7.9 M-26.95 9.85 L-27.75 7.75 M-24.75 15.6 L-25.55 13.45 -30.95 18.0 M-25.55 13.45 L-26.25 11.65" fill="none" stroke="#9900cc" stroke-linecap="round" stroke-linejoin="miter-clip" stroke-miterlimit="3.0" stroke-width="1.0"/>
      <path d="M12.25 -14.9 L14.0 -13.4 14.55 -12.85 Q20.35 -7.05 20.4 1.15 L20.4 1.3 Q20.4 6.9 17.75 11.4 16.45 13.55 14.55 15.45 L14.1 15.9 12.1 17.6 Q7.3 21.1 1.2 21.3 L0.4 21.3 Q-6.3 21.3 -11.35 17.45 L-13.7 15.45 Q-15.2 13.95 -16.3 12.3 -18.7 8.8 -19.35 4.55 L-19.6 1.3 -19.6 0.75 Q-19.4 -7.2 -13.7 -12.85 L-11.3 -14.9 Q-6.25 -18.7 0.4 -18.7 L1.2 -18.7 4.6 -18.3 Q8.75 -17.45 12.25 -14.9 M1.2 -18.7 L1.2 -6.4 Q3.3 -6.1 4.95 -4.45 L5.3 -4.1 Q6.95 -2.25 6.95 0.4 L6.9 1.0 Q6.7 3.45 4.95 5.25 L4.55 5.65 Q3.05 6.85 1.2 7.15 L1.2 21.3 M-11.3 -14.9 L-3.5 -5.45 Q-1.95 -6.5 0.1 -6.45 L1.2 -6.4 M1.2 7.15 L0.1 7.25 -2.4 6.8 -2.55 6.75 -11.35 17.45 M-19.6 0.75 L-6.75 0.9 -6.75 0.4 Q-6.8 -2.5 -4.75 -4.45 L-4.2 -4.95 -3.5 -5.45 M-2.55 6.75 L-3.3 6.35 Q-4.1 5.9 -4.75 5.25 -6.6 3.4 -6.75 0.9" fill="none" stroke="#66ff00" stroke-linecap="round" stroke-linejoin="miter-clip" stroke-miterlimit="3.0" stroke-width="1.0"/>
      <path d="M14.0 -13.4 L6.4 -4.1 M14.1 15.9 L5.65 5.65 M20.4 1.15 L8.0 1.0" fill="none" stroke="#66ff00" stroke-linecap="round" stroke-linejoin="miter-clip" stroke-miterlimit="3.0" stroke-width="1.0"/>
    </g>
    <g id="sprite2" transform="matrix(1.0, 0.0, 0.0, 1.0, 37.3, 34.65)">
      <use data-characterId="411" height="71.35" transform="matrix(1.0, 0.0, 0.0, 1.0, -37.3, -34.65)" width="72.15" xlink:href="#shape3"/>
    </g>
    <g id="shape3" transform="matrix(1.0, 0.0, 0.0, 1.0, 37.3, 34.65)">
      <path d="M23.3 -29.15 L26.8 -25.05 22.45 -20.05 26.8 -25.05 30.3 -20.95 33.8 -16.8 25.05 -16.8 17.75 -10.9 Q20.4 -6.4 20.4 -0.8 L20.4 -0.6 Q20.35 7.55 14.55 13.35 L14.0 13.9 12.25 15.4 16.0 23.95 25.65 26.55 20.75 28.85 15.9 31.2 Q13.45 32.3 11.05 33.45 L6.1 35.8 8.35 27.35 4.6 18.8 1.2 19.2 0.4 19.2 Q-6.25 19.2 -11.3 15.45 L-13.7 13.35 Q-19.4 7.7 -19.6 -0.25 L-19.6 -0.8 -19.35 -4.0 -27.75 -7.25 -36.4 -2.25 -34.55 -7.35 -32.75 -12.45 -30.95 -17.5 -29.1 -22.65 -24.75 -15.05 -16.3 -11.8 Q-15.2 -13.45 -13.7 -14.9 L-11.35 -16.95 Q-6.3 -20.8 0.4 -20.8 L1.2 -20.8 Q7.3 -20.6 12.1 -17.05 L19.8 -23.3 19.8 -33.3 23.3 -29.15 21.25 -21.55 23.3 -29.15 M22.45 -20.05 L21.25 -21.55 22.45 -20.05 23.65 -18.55 22.45 -20.05 M14.1 -15.35 L14.55 -14.9 Q16.45 -13.05 17.75 -10.9 16.45 -13.05 14.55 -14.9 L14.1 -15.35 5.65 -5.1 14.1 -15.35 12.1 -17.05 14.1 -15.35 M-2.55 -6.2 L-2.4 -6.3 0.1 -6.7 -2.4 -6.3 -2.55 -6.2 -3.3 -5.85 Q-4.1 -5.4 -4.75 -4.75 -6.6 -2.9 -6.75 -0.35 -6.6 -2.9 -4.75 -4.75 -4.1 -5.4 -3.3 -5.85 L-2.55 -6.2 -11.35 -16.95 -2.55 -6.2 M-3.5 6.0 L-4.2 5.5 -4.75 4.95 Q-6.8 3.0 -6.75 0.15 L-6.75 -0.35 -6.75 0.15 Q-6.8 3.0 -4.75 4.95 L-4.2 5.5 -3.5 6.0 Q-1.95 7.0 0.1 7.0 L1.2 6.9 0.1 7.0 Q-1.95 7.0 -3.5 6.0 L-11.3 15.45 -3.5 6.0 M1.2 -6.6 Q3.05 -6.35 4.55 -5.1 L4.95 -4.75 Q6.7 -2.95 6.9 -0.5 L6.95 0.15 Q6.95 2.75 5.3 4.65 L4.95 4.95 Q3.3 6.6 1.2 6.9 3.3 6.6 4.95 4.95 L5.3 4.65 Q6.95 2.75 6.95 0.15 L6.9 -0.5 Q6.7 -2.95 4.95 -4.75 L4.55 -5.1 Q3.05 -6.35 1.2 -6.6 L0.1 -6.7 1.2 -6.6 1.2 -20.8 1.2 -6.6 M30.3 -20.95 L23.65 -18.55 30.3 -20.95 M25.05 -16.8 L23.65 -18.55 25.05 -16.8 M21.25 -21.55 L19.8 -23.3 21.25 -21.55 M8.0 -0.5 L20.4 -0.6 8.0 -0.5 M6.4 4.65 L14.0 13.9 6.4 4.65 M12.25 15.4 Q8.75 17.95 4.6 18.8 8.75 17.95 12.25 15.4 M1.2 19.2 L1.2 6.9 1.2 19.2 M10.45 26.4 Q9.4 26.85 8.35 27.35 9.4 26.85 10.45 26.4 L12.2 25.65 10.45 26.4 11.05 33.45 10.45 26.4 M13.95 24.85 L12.2 25.65 13.95 24.85 16.0 23.95 13.95 24.85 20.75 28.85 13.95 24.85 M12.2 25.65 L15.9 31.2 12.2 25.65 M-25.55 -12.95 L-30.95 -17.5 -25.55 -12.95 -24.75 -15.05 -25.55 -12.95 -26.25 -11.15 -25.55 -12.95 M-26.95 -9.35 L-34.55 -7.35 -26.95 -9.35 -26.25 -11.15 -26.95 -9.35 -27.75 -7.25 -26.95 -9.35 M-32.75 -12.45 L-26.25 -11.15 -32.75 -12.45 M-16.3 -11.8 Q-18.7 -8.3 -19.35 -4.0 -18.7 -8.3 -16.3 -11.8 M-6.75 -0.35 L-19.6 -0.25 -6.75 -0.35" fill="#6600cc" fill-rule="evenodd" stroke="none"/>
      <path d="M26.8 -25.05 L23.3 -29.15 21.25 -21.55 22.45 -20.05 26.8 -25.05 30.3 -20.95 33.8 -16.8 25.05 -16.8 17.75 -10.9 M12.25 15.4 L16.0 23.95 25.65 26.55 20.75 28.85 15.9 31.2 Q13.45 32.3 11.05 33.45 L6.1 35.8 8.35 27.35 4.6 18.8 M-19.35 -4.0 L-27.75 -7.25 -36.4 -2.25 -34.55 -7.35 -32.75 -12.45 -30.95 -17.5 -29.1 -22.65 -24.75 -15.05 -16.3 -11.8 M12.1 -17.05 L19.8 -23.3 19.8 -33.3 23.3 -29.15 M22.45 -20.05 L23.65 -18.55 30.3 -20.95 M23.65 -18.55 L25.05 -16.8 M19.8 -23.3 L21.25 -21.55 M8.35 27.35 Q9.4 26.85 10.45 26.4 L12.2 25.65 13.95 24.85 16.0 23.95 M10.45 26.4 L11.05 33.45 M15.9 31.2 L12.2 25.65 M13.95 24.85 L20.75 28.85 M-30.95 -17.5 L-25.55 -12.95 -24.75 -15.05 M-34.55 -7.35 L-26.95 -9.35 -26.25 -11.15 -32.75 -12.45 M-27.75 -7.25 L-26.95 -9.35 M-26.25 -11.15 L-25.55 -12.95" fill="none" stroke="#9900cc" stroke-linecap="round" stroke-linejoin="miter-clip" stroke-miterlimit="3.0" stroke-width="1.0"/>
      <path d="M17.75 -10.9 Q20.4 -6.4 20.4 -0.8 L20.4 -0.6 Q20.35 7.55 14.55 13.35 L14.0 13.9 12.25 15.4 Q8.75 17.95 4.6 18.8 L1.2 19.2 0.4 19.2 Q-6.25 19.2 -11.3 15.45 L-13.7 13.35 Q-19.4 7.7 -19.6 -0.25 L-19.6 -0.8 -19.35 -4.0 Q-18.7 -8.3 -16.3 -11.8 -15.2 -13.45 -13.7 -14.9 L-11.35 -16.95 Q-6.3 -20.8 0.4 -20.8 L1.2 -20.8 Q7.3 -20.6 12.1 -17.05 L14.1 -15.35 14.55 -14.9 Q16.45 -13.05 17.75 -10.9 M-2.55 -6.2 L-3.3 -5.85 Q-4.1 -5.4 -4.75 -4.75 -6.6 -2.9 -6.75 -0.35 L-6.75 0.15 Q-6.8 3.0 -4.75 4.95 L-4.2 5.5 -3.5 6.0 Q-1.95 7.0 0.1 7.0 L1.2 6.9 Q3.3 6.6 4.95 4.95 L5.3 4.65 Q6.95 2.75 6.95 0.15 L6.9 -0.5 Q6.7 -2.95 4.95 -4.75 L4.55 -5.1 Q3.05 -6.35 1.2 -6.6 L1.2 -20.8 M1.2 6.9 L1.2 19.2 M-2.55 -6.2 L-11.35 -16.95 M-19.6 -0.25 L-6.75 -0.35 M-11.3 15.45 L-3.5 6.0" fill="none" stroke="#ffcc00" stroke-linecap="round" stroke-linejoin="miter-clip" stroke-miterlimit="3.0" stroke-width="1.0"/>
      <path d="M14.1 -15.35 L5.65 -5.1 M1.2 -6.6 L0.1 -6.7 M20.4 -0.6 L8.0 -0.5 M14.0 13.9 L6.4 4.65" fill="none" stroke="#ffcc00" stroke-linecap="round" stroke-linejoin="miter-clip" stroke-miterlimit="3.0" stroke-width="1.0"/>
      <path d="M0.1 -6.7 L-2.4 -6.3 -2.55 -6.2" fill="none" stroke="#ffcc00" stroke-linecap="butt" stroke-linejoin="miter-clip" stroke-miterlimit="3.0" stroke-width="1.0"/>
    </g>
  </defs>
</svg>
