<?xml version="1.0" encoding="UTF-8" standalone="no"?>
<svg xmlns:xlink="http://www.w3.org/1999/xlink" height="401.0px" width="601.0px" xmlns="http://www.w3.org/2000/svg">
  <g transform="matrix(1.0, 0.0, 0.0, 1.0, -9.5, -9.6)">
    <use data-characterId="210" height="401.0" transform="matrix(1.0, 0.0, 0.0, 1.0, 9.5, 9.6)" width="601.0" xlink:href="#shape0"/>
    <use data-characterId="211" height="388.4" id="helptext" transform="matrix(1.0, 0.0, 0.0, 1.0, 16.55, 16.6)" width="588.4" xlink:href="#text0"/>
  </g>
  <defs>
    <g id="shape0" transform="matrix(1.0, 0.0, 0.0, 1.0, -9.5, -9.6)">
      <path d="M10.0 410.1 L10.0 10.1 610.0 10.1 610.0 410.1 10.0 410.1" fill="#000000" fill-rule="evenodd" stroke="none"/>
      <path d="M10.0 410.1 L10.0 10.1 610.0 10.1 610.0 410.1 10.0 410.1 Z" fill="none" stroke="#cccccc" stroke-linecap="round" stroke-linejoin="round" stroke-width="1.0"/>
    </g>
  </defs>
</svg>
