<?xml version="1.0" encoding="UTF-8" standalone="no"?>
<svg xmlns:xlink="http://www.w3.org/1999/xlink" height="145.4px" width="87.15px" xmlns="http://www.w3.org/2000/svg">
  <g transform="matrix(1.0, 0.0, 0.0, 1.0, 29.0, 40.25)">
    <use data-characterId="1091" height="73.0" transform="matrix(1.0, 0.0, 0.0, 1.0, -29.0, -36.0)" width="58.0" xlink:href="#shape0"/>
    <use data-characterId="1105" height="73.0" transform="matrix(1.0, 0.0, 0.0, 1.0, -29.0, -36.5)" width="58.0" xlink:href="#shape1"/>
  </g>
  <defs>
    <g id="shape0" transform="matrix(1.0, 0.0, 0.0, 1.0, 29.0, 36.0)">
      <path d="M2.65 -9.15 L2.5 -9.2 1.95 -8.95 1.75 -8.3 1.95 -7.7 2.5 -7.4 Q2.8 -7.4 3.0 -7.7 L3.25 -8.3 3.2 -8.6 3.25 -8.3 3.0 -7.7 Q2.8 -7.4 2.5 -7.4 L1.95 -7.7 1.75 -8.3 1.95 -8.95 2.5 -9.2 2.65 -9.15 2.6 -9.15 2.5 -8.85 2.6 -8.6 Q2.75 -8.45 2.9 -8.45 L3.15 -8.6 3.2 -8.6 3.3 -8.85 3.15 -9.15 2.9 -9.25 2.65 -9.15 M-2.85 -3.9 L-3.4 -3.7 Q-5.15 -2.9 -5.15 -1.8 -5.15 -0.7 -3.4 0.05 -1.65 0.85 0.85 0.85 3.35 0.85 5.1 0.05 6.85 -0.7 6.85 -1.8 6.85 -2.9 5.1 -3.7 3.35 -4.45 0.85 -4.45 L0.35 -4.45 0.85 -4.45 Q3.35 -4.45 5.1 -3.7 6.85 -2.9 6.85 -1.8 6.85 -0.7 5.1 0.05 3.35 0.85 0.85 0.85 -1.65 0.85 -3.4 0.05 -5.15 -0.7 -5.15 -1.8 -5.15 -2.9 -3.4 -3.7 L-2.85 -3.9 -2.9 -3.65 Q-2.9 -2.95 -2.4 -2.45 -1.9 -1.9 -1.2 -1.9 -0.5 -1.9 0.0 -2.45 0.5 -2.95 0.5 -3.65 L0.35 -4.45 0.0 -4.9 Q-0.5 -5.4 -1.2 -5.4 -1.9 -5.4 -2.4 -4.9 L-2.85 -3.9 -2.4 -4.9 Q-1.9 -5.4 -1.2 -5.4 -0.5 -5.4 0.0 -4.9 L0.35 -4.45 0.5 -3.65 Q0.5 -2.95 0.0 -2.45 -0.5 -1.9 -1.2 -1.9 -1.9 -1.9 -2.4 -2.45 -2.9 -2.95 -2.9 -3.65 L-2.85 -3.9 0.35 -4.45 -2.85 -3.9 M4.45 -7.05 Q3.95 -7.05 3.6 -6.65 3.25 -6.25 3.25 -5.65 3.25 -5.05 3.6 -4.65 3.95 -4.25 4.45 -4.25 4.95 -4.25 5.3 -4.65 5.65 -5.05 5.65 -5.65 5.65 -6.25 5.3 -6.65 4.95 -7.05 4.45 -7.05 4.95 -7.05 5.3 -6.65 5.65 -6.25 5.65 -5.65 5.65 -5.05 5.3 -4.65 4.95 -4.25 4.45 -4.25 3.95 -4.25 3.6 -4.65 3.25 -5.05 3.25 -5.65 3.25 -6.25 3.6 -6.65 3.95 -7.05 4.45 -7.05 M28.5 36.5 L-28.5 36.5 -28.5 -35.5 28.5 -35.5 28.5 36.5" fill="#000000" fill-rule="evenodd" stroke="none"/>
      <path d="M2.65 -9.15 L2.9 -9.25 3.15 -9.15 3.3 -8.85 3.2 -8.6 3.0 -8.95 2.65 -9.15 3.0 -8.95 3.2 -8.6 3.15 -8.6 2.9 -8.45 Q2.75 -8.45 2.6 -8.6 L2.5 -8.85 2.6 -9.15 2.65 -9.15" fill="#cc9900" fill-rule="evenodd" stroke="none"/>
      <path d="M3.2 -8.6 L3.25 -8.3 3.0 -7.7 Q2.8 -7.4 2.5 -7.4 L1.95 -7.7 1.75 -8.3 1.95 -8.95 2.5 -9.2 2.65 -9.15 2.9 -9.25 3.15 -9.15 3.3 -8.85 3.2 -8.6 3.0 -8.95 2.65 -9.15 2.6 -9.15 2.5 -8.85 2.6 -8.6 Q2.75 -8.45 2.9 -8.45 L3.15 -8.6 3.2 -8.6 M4.45 -7.05 Q4.95 -7.05 5.3 -6.65 5.65 -6.25 5.65 -5.65 5.65 -5.05 5.3 -4.65 4.95 -4.25 4.45 -4.25 3.95 -4.25 3.6 -4.65 3.25 -5.05 3.25 -5.65 3.25 -6.25 3.6 -6.65 3.95 -7.05 4.45 -7.05 M0.35 -4.45 L0.85 -4.45 Q3.35 -4.45 5.1 -3.7 6.85 -2.9 6.85 -1.8 6.85 -0.7 5.1 0.05 3.35 0.85 0.85 0.85 -1.65 0.85 -3.4 0.05 -5.15 -0.7 -5.15 -1.8 -5.15 -2.9 -3.4 -3.7 L-2.85 -3.9 0.35 -4.45" fill="none" stroke="#000000" stroke-linecap="round" stroke-linejoin="round" stroke-width="0.1"/>
      <path d="M-2.85 -3.9 L-2.4 -4.9 Q-1.9 -5.4 -1.2 -5.4 -0.5 -5.4 0.0 -4.9 L0.35 -4.45 0.5 -3.65 Q0.5 -2.95 0.0 -2.45 -0.5 -1.9 -1.2 -1.9 -1.9 -1.9 -2.4 -2.45 -2.9 -2.95 -2.9 -3.65 L-2.85 -3.9" fill="none" stroke="#000000" stroke-linecap="round" stroke-linejoin="round" stroke-width="1.0"/>
      <path d="M28.5 36.5 L-28.5 36.5 -28.5 -35.5 28.5 -35.5 28.5 36.5 Z" fill="none" stroke="#cccccc" stroke-linecap="round" stroke-linejoin="round" stroke-width="1.0"/>
    </g>
    <g id="shape1" transform="matrix(1.0, 0.0, 0.0, 1.0, 29.0, 36.5)">
      <path d="M16.5 -18.85 L16.5 -19.65 15.6 -19.65 16.5 -19.65 16.5 -18.85 M5.35 -9.25 L5.35 -20.35 17.25 -20.35 17.25 -9.15 5.4 -9.15 5.35 -9.25 M6.1 -10.85 L6.1 -9.9 7.15 -9.9 6.1 -9.9 6.1 -10.85" fill="url(#gradient0)" fill-rule="evenodd" stroke="none"/>
      <path d="M1.3 -10.3 Q0.35 -12.3 0.35 -14.6 0.35 -18.9 3.6 -21.95 5.7 -23.9 8.35 -24.6 L11.4 -24.95 14.45 -24.6 Q17.1 -23.9 19.2 -21.95 22.4 -18.9 22.4 -14.6 22.4 -10.3 19.2 -7.25 17.6 -5.75 15.65 -5.0 L14.6 -4.65 12.5 -4.25 11.4 -4.2 10.7 -4.25 Q8.8 -4.35 7.15 -5.0 L5.9 -5.55 5.7 -6.95 Q8.2 -5.3 11.45 -5.3 15.6 -5.3 18.55 -8.05 21.5 -10.8 21.5 -14.7 21.5 -18.6 18.55 -21.35 15.6 -24.15 11.45 -24.15 7.3 -24.15 4.4 -21.35 1.45 -18.6 1.45 -14.7 1.45 -12.5 2.4 -10.65 1.45 -12.5 1.45 -14.7 1.45 -18.6 4.4 -21.35 7.3 -24.15 11.45 -24.15 15.6 -24.15 18.55 -21.35 21.5 -18.6 21.5 -14.7 21.5 -10.8 18.55 -8.05 15.6 -5.3 11.45 -5.3 8.2 -5.3 5.7 -6.95 L5.65 -7.8 5.6 -8.05 Q8.05 -6.05 11.45 -6.05 14.95 -6.05 17.55 -8.2 L5.55 -8.2 5.4 -9.15 17.25 -9.15 17.25 -20.35 5.35 -20.35 5.35 -9.25 5.1 -10.05 4.35 -10.8 4.35 -20.2 Q2.3 -17.85 2.3 -14.7 2.25 -12.65 3.15 -10.95 L2.4 -10.65 1.9 -10.05 1.7 -9.6 1.3 -10.3 M17.4 -21.3 Q14.85 -23.35 11.45 -23.35 8.05 -23.35 5.55 -21.3 L17.4 -21.3 M18.25 -20.5 L18.25 -8.9 Q20.65 -11.35 20.65 -14.7 20.65 -18.1 18.25 -20.5" fill="url(#gradient1)" fill-rule="evenodd" stroke="none"/>
      <path d="M17.4 -21.3 L5.55 -21.3 Q8.05 -23.35 11.45 -23.35 14.85 -23.35 17.4 -21.3" fill="url(#gradient2)" fill-rule="evenodd" stroke="none"/>
      <path d="M3.15 -10.95 Q2.25 -12.65 2.3 -14.7 2.3 -17.85 4.35 -20.2 L4.35 -10.8 3.5 -11.0 3.15 -10.95" fill="url(#gradient3)" fill-rule="evenodd" stroke="none"/>
      <path d="M1.7 -9.6 L1.9 -10.05 2.4 -10.65 3.15 -10.95 3.5 -11.0 4.35 -10.8 5.1 -10.05 5.35 -9.25 5.4 -9.15 5.55 -8.2 5.6 -8.05 5.65 -7.8 5.7 -6.95 5.9 -5.55 6.0 -5.1 6.0 -5.0 Q6.3 -3.75 6.9 -3.05 5.05 -1.75 3.5 -0.05 L0.25 -3.4 3.5 -0.05 Q5.05 -1.75 6.9 -3.05 L7.05 -2.95 Q7.8 -2.25 9.4 -2.0 L11.2 -1.85 12.0 -1.8 12.95 -1.7 14.55 -1.45 14.8 -1.4 Q15.85 -0.95 15.85 0.1 15.85 1.05 14.9 1.6 L14.8 1.65 13.05 2.1 11.25 2.35 9.3 2.6 Q7.9 2.9 7.2 3.45 L6.95 3.65 Q6.15 4.35 5.9 5.75 L5.7 7.35 5.65 7.85 5.4 9.6 5.1 10.4 4.65 10.95 3.55 11.25 Q2.55 11.25 2.05 10.6 L1.9 10.4 Q1.6 9.9 1.45 9.0 L1.4 8.65 1.2 7.35 0.95 5.8 Q0.55 4.35 -0.15 3.65 L-0.25 3.6 Q-1.0 2.95 -2.35 2.65 L-3.0 2.5 -4.2 2.3 -4.25 2.3 -4.85 2.2 -5.05 2.2 -6.9 1.65 -7.35 1.3 Q-7.8 0.8 -7.8 0.1 -7.8 -0.65 -7.35 -1.1 L-6.9 -1.4 -5.5 -1.8 -4.75 -1.85 -4.65 -1.85 -4.25 -1.9 -3.45 -2.0 -2.15 -2.15 Q-0.75 -2.45 0.0 -3.15 L0.25 -3.4 1.0 -5.0 1.2 -6.35 1.25 -6.55 1.3 -7.2 1.5 -8.55 1.7 -9.6 M2.6 -3.55 Q3.6 -4.0 4.6 -3.55 3.6 -4.0 2.6 -3.55 M2.6 -4.1 Q3.6 -4.55 4.6 -4.1 3.6 -4.55 2.6 -4.1 M2.6 -4.65 Q3.6 -5.1 4.6 -4.65 3.6 -5.1 2.6 -4.65 M5.4 -7.2 Q3.35 -8.05 1.3 -7.2 3.35 -8.05 5.4 -7.2 M4.5 4.6 Q3.5 5.0 2.5 4.6 3.5 5.0 4.5 4.6 M4.5 5.7 Q3.5 6.15 2.5 5.7 3.5 6.15 4.5 5.7 M4.5 5.15 Q3.5 5.6 2.5 5.15 3.5 5.6 4.5 5.15 M1.2 7.35 Q3.65 8.6 5.7 7.35 3.65 8.6 1.2 7.35 M11.9 2.0 Q13.1 0.4 12.0 -1.8 13.1 0.4 11.9 2.0 M-0.25 3.6 Q1.5 1.45 3.5 -0.05 5.55 1.5 7.2 3.45 5.55 1.5 3.5 -0.05 1.5 1.45 -0.25 3.6 M7.55 -0.9 Q7.95 0.05 7.5 1.0 7.95 0.05 7.55 -0.9 M8.15 -0.85 Q8.55 0.05 8.1 1.0 8.55 0.05 8.15 -0.85 M6.95 -0.9 Q7.35 0.0 6.9 1.0 7.35 0.0 6.95 -0.9 M-4.25 -1.9 Q-4.85 0.45 -4.25 2.3 -4.85 0.45 -4.25 -1.9 M-1.4 1.1 Q-1.85 0.2 -1.4 -0.75 -1.85 0.2 -1.4 1.1 M-2.6 1.1 Q-3.05 0.2 -2.6 -0.75 -3.05 0.2 -2.6 1.1 M-2.0 1.1 Q-2.45 0.2 -2.0 -0.75 -2.45 0.2 -2.0 1.1" fill="url(#gradient4)" fill-rule="evenodd" stroke="none"/>
      <path d="M5.55 -8.2 L17.55 -8.2 Q14.95 -6.05 11.45 -6.05 8.05 -6.05 5.6 -8.05 L5.55 -8.2" fill="url(#gradient5)" fill-rule="evenodd" stroke="none"/>
      <path d="M1.3 -10.3 L1.7 -9.6 1.5 -8.55 1.3 -7.2 1.25 -6.55 1.2 -6.35 -1.15 -4.65 -3.6 -2.3 Q-4.1 -3.6 -4.9 -4.7 L-6.15 -6.1 -6.55 -6.45 Q-4.8 -6.8 -3.2 -7.5 L-0.35 -9.0 1.3 -10.3 M1.25 -6.55 Q0.45 -6.95 0.05 -7.6 L1.5 -8.55 0.05 -7.6 Q0.45 -6.95 1.25 -6.55 M-3.2 -7.5 L-2.1 -6.45 -4.9 -4.7 -2.1 -6.45 -3.2 -7.5 M-0.35 -9.0 L0.05 -7.6 -2.1 -6.45 -1.3 -5.0 -1.15 -4.65 -1.3 -5.0 -2.1 -6.45 0.05 -7.6 -0.35 -9.0" fill="url(#gradient6)" fill-rule="evenodd" stroke="none"/>
      <path d="M10.7 -4.25 L11.4 -4.2 12.5 -4.25 14.6 -4.65 14.5 -2.4 14.55 -1.45 12.95 -1.7 12.0 -1.8 11.2 -1.85 11.15 -2.35 10.7 -4.25 M14.9 1.6 L15.7 4.4 14.0 4.25 13.3 4.3 13.05 2.1 13.3 4.3 10.75 4.7 11.25 2.35 13.05 2.1 14.8 1.65 14.9 1.6 M14.5 -2.4 L12.95 -2.05 12.5 -4.25 12.95 -2.05 14.5 -2.4 M11.15 -2.35 L12.95 -2.05 12.95 -1.7 12.95 -2.05 11.15 -2.35" fill="url(#gradient7)" fill-rule="evenodd" stroke="none"/>
      <path d="M18.25 -20.5 Q20.65 -18.1 20.65 -14.7 20.65 -11.35 18.25 -8.9 L18.25 -20.5" fill="url(#gradient8)" fill-rule="evenodd" stroke="none"/>
      <path d="M15.7 4.4 Q19.15 4.85 21.8 7.3 25.0 10.35 25.0 14.65 25.0 18.95 21.8 22.0 18.55 25.0 14.0 25.0 9.4 25.0 6.2 22.0 2.95 18.95 3.0 14.65 2.95 14.0 3.05 13.4 3.15 12.25 3.55 11.25 L4.65 10.95 5.1 10.4 5.4 9.6 6.85 7.9 Q9.75 5.1 13.9 5.15 18.05 5.1 21.0 7.9 23.95 10.65 23.95 14.55 23.95 18.45 21.0 21.2 18.05 23.95 13.9 24.0 9.75 23.95 6.85 21.2 3.9 18.45 3.9 14.55 3.9 12.6 4.65 10.95 3.9 12.6 3.9 14.55 3.9 18.45 6.85 21.2 9.75 23.95 13.9 24.0 18.05 23.95 21.0 21.2 23.95 18.45 23.95 14.55 23.95 10.65 21.0 7.9 18.05 5.1 13.9 5.15 9.75 5.1 6.85 7.9 L5.4 9.6 5.65 7.85 6.2 7.3 Q8.2 5.4 10.75 4.7 L13.3 4.3 14.0 4.25 15.7 4.4 M20.7 20.35 Q23.1 17.9 23.1 14.55 23.1 11.2 20.7 8.75 L20.7 20.35 M19.85 7.95 Q17.3 5.9 13.9 5.9 10.5 5.9 8.0 7.95 L19.85 7.95 M6.8 9.1 Q4.75 11.4 4.75 14.55 4.75 17.7 6.8 20.05 L6.8 9.1 M13.9 23.2 Q17.4 23.2 20.0 21.05 L7.85 21.05 Q10.4 23.2 13.9 23.2 M7.8 20.1 L19.7 20.1 19.7 8.9 7.8 8.9 7.8 20.1" fill="url(#gradient9)" fill-rule="evenodd" stroke="none"/>
      <path d="M20.7 20.35 L20.7 8.75 Q23.1 11.2 23.1 14.55 23.1 17.9 20.7 20.35" fill="url(#gradient10)" fill-rule="evenodd" stroke="none"/>
      <path d="M18.95 10.45 L18.95 9.65 18.05 9.65 18.95 9.65 18.95 10.45 M9.6 9.65 L8.6 9.65 8.6 10.5 8.6 9.65 9.6 9.65 M8.6 18.4 L8.6 19.4 9.6 19.4 8.6 19.4 8.6 18.4 M18.05 19.4 L18.95 19.4 18.95 18.4 18.95 19.4 18.05 19.4 M7.8 20.1 L7.8 8.9 19.7 8.9 19.7 20.1 7.8 20.1" fill="url(#gradient11)" fill-rule="evenodd" stroke="none"/>
      <path d="M19.85 7.95 L8.0 7.95 Q10.5 5.9 13.9 5.9 17.3 5.9 19.85 7.95" fill="url(#gradient12)" fill-rule="evenodd" stroke="none"/>
      <path d="M3.05 13.4 L0.2 11.6 Q-1.8 10.5 -3.9 9.85 L-6.8 9.15 -6.15 8.6 -4.95 7.25 -3.1 8.3 Q-2.65 7.55 -2.0 6.95 -2.65 7.55 -3.1 8.3 L1.1 10.15 1.45 9.0 Q1.6 9.9 1.9 10.4 L2.05 10.6 Q2.55 11.25 3.55 11.25 3.15 12.25 3.05 13.4 M1.4 8.65 L1.45 9.0 1.1 10.15 -3.1 8.3 -4.95 7.25 -3.85 5.5 -2.0 6.95 Q-0.45 7.95 1.4 8.65 M1.1 10.15 L0.2 11.6 1.1 10.15 2.05 10.6 1.1 10.15 M-3.9 9.85 L-3.1 8.3 -3.9 9.85" fill="url(#gradient13)" fill-rule="evenodd" stroke="none"/>
      <path d="M6.8 20.05 Q4.75 17.7 4.75 14.55 4.75 11.4 6.8 9.1 L6.8 20.05" fill="url(#gradient14)" fill-rule="evenodd" stroke="none"/>
      <path d="M13.9 23.2 Q10.4 23.2 7.85 21.05 L20.0 21.05 Q17.4 23.2 13.9 23.2" fill="url(#gradient15)" fill-rule="evenodd" stroke="none"/>
      <path d="M-18.5 -3.75 L-19.5 -3.75 -19.5 -2.85 -19.5 -3.75 -18.5 -3.75 M-9.1 -2.9 L-9.1 -3.75 -10.0 -3.75 -9.1 -3.75 -9.1 -2.9 M-8.35 -4.45 L-8.35 6.75 -20.25 6.75 -20.25 -4.45 -8.35 -4.45 M-10.0 6.05 L-9.1 6.05 -9.1 5.05 -9.1 6.05 -10.0 6.05 M-19.5 5.05 L-19.5 6.05 -18.5 6.05 -19.5 6.05 -19.5 5.05" fill="url(#gradient16)" fill-rule="evenodd" stroke="none"/>
      <path d="M-6.8 9.15 Q-9.85 11.65 -13.95 11.65 -18.55 11.6 -21.75 8.6 -25.0 5.55 -25.0 1.25 -25.0 -3.05 -21.75 -6.1 -20.6 -7.2 -19.2 -7.9 -16.85 -9.15 -13.95 -9.15 -9.7 -9.15 -6.55 -6.45 L-6.15 -6.1 -4.9 -4.7 Q-4.1 -3.6 -3.6 -2.3 L-3.45 -2.0 -4.25 -1.9 -4.65 -1.85 -4.75 -1.85 -5.5 -1.8 Q-6.1 -3.35 -7.35 -4.6 L-7.35 -1.1 Q-7.8 -0.65 -7.8 0.1 -7.8 0.8 -7.35 1.3 L-7.35 7.0 Q-5.35 4.9 -5.05 2.2 L-4.85 2.2 -4.25 2.3 -4.2 2.3 Q-4.6 5.5 -7.05 7.85 -10.0 10.6 -14.15 10.65 -18.3 10.6 -21.2 7.85 -24.15 5.1 -24.15 1.2 -24.15 -2.7 -21.2 -5.45 L-19.2 -6.95 Q-16.95 -8.25 -14.15 -8.2 -10.0 -8.25 -7.05 -5.45 L-6.6 -5.0 Q-5.3 -3.6 -4.65 -1.85 -5.3 -3.6 -6.6 -5.0 L-7.05 -5.45 Q-10.0 -8.25 -14.15 -8.2 -16.95 -8.25 -19.2 -6.95 L-21.2 -5.45 Q-24.15 -2.7 -24.15 1.2 -24.15 5.1 -21.2 7.85 -18.3 10.6 -14.15 10.65 -10.0 10.6 -7.05 7.85 -4.6 5.5 -4.2 2.3 L-3.0 2.5 Q-3.2 4.05 -3.85 5.5 L-4.95 7.25 -6.15 8.6 -6.8 9.15 M-20.05 -5.4 L-8.2 -5.4 Q-10.75 -7.45 -14.15 -7.45 -17.0 -7.45 -19.2 -6.05 L-20.05 -5.4 M-8.35 -4.45 L-20.25 -4.45 -20.25 6.75 -8.35 6.75 -8.35 -4.45 M-20.2 7.7 Q-17.65 9.85 -14.15 9.85 -10.65 9.85 -8.1 7.7 L-20.2 7.7 M-23.3 1.2 Q-23.35 4.35 -21.25 6.7 L-21.25 -4.25 Q-23.35 -1.95 -23.3 1.2" fill="url(#gradient17)" fill-rule="evenodd" stroke="none"/>
      <path d="M-20.05 -5.4 L-19.2 -6.05 Q-17.0 -7.45 -14.15 -7.45 -10.75 -7.45 -8.2 -5.4 L-20.05 -5.4" fill="url(#gradient18)" fill-rule="evenodd" stroke="none"/>
      <path d="M-5.05 2.2 Q-5.35 4.9 -7.35 7.0 L-7.35 1.3 -6.9 1.65 -5.05 2.2 M-7.35 -1.1 L-7.35 -4.6 Q-6.1 -3.35 -5.5 -1.8 L-6.9 -1.4 -7.35 -1.1" fill="url(#gradient19)" fill-rule="evenodd" stroke="none"/>
      <path d="M-20.2 7.7 L-8.1 7.7 Q-10.65 9.85 -14.15 9.85 -17.65 9.85 -20.2 7.7" fill="url(#gradient20)" fill-rule="evenodd" stroke="none"/>
      <path d="M-23.3 1.2 Q-23.35 -1.95 -21.25 -4.25 L-21.25 6.7 Q-23.35 4.35 -23.3 1.2" fill="url(#gradient21)" fill-rule="evenodd" stroke="none"/>
      <path d="M15.6 -19.65 L16.5 -19.65 16.5 -18.85 M1.7 -9.6 L1.9 -10.05 2.4 -10.65 Q1.45 -12.5 1.45 -14.7 1.45 -18.6 4.4 -21.35 7.3 -24.15 11.45 -24.15 15.6 -24.15 18.55 -21.35 21.5 -18.6 21.5 -14.7 21.5 -10.8 18.55 -8.05 15.6 -5.3 11.45 -5.3 8.2 -5.3 5.7 -6.95 L5.9 -5.55 6.0 -5.1 6.0 -5.0 Q6.3 -3.75 6.9 -3.05 L7.05 -2.95 Q7.8 -2.25 9.4 -2.0 L11.2 -1.85 12.0 -1.8 12.95 -1.7 12.95 -2.05 11.15 -2.35 M14.55 -1.45 L14.8 -1.4 Q15.85 -0.95 15.85 0.1 15.85 1.05 14.9 1.6 L14.8 1.65 13.05 2.1 13.3 4.3 M17.4 -21.3 L5.55 -21.3 Q8.05 -23.35 11.45 -23.35 14.85 -23.35 17.4 -21.3 M3.15 -10.95 Q2.25 -12.65 2.3 -14.7 2.3 -17.85 4.35 -20.2 M4.35 -10.8 L5.1 -10.05 5.35 -9.25 5.35 -20.35 17.25 -20.35 17.25 -9.15 5.4 -9.15 5.55 -8.2 17.55 -8.2 Q14.95 -6.05 11.45 -6.05 8.05 -6.05 5.6 -8.05 L5.65 -7.8 5.7 -6.95 M7.15 -9.9 L6.1 -9.9 6.1 -10.85 M5.6 -8.05 L5.55 -8.2 M5.4 -9.15 L5.35 -9.25 M3.15 -10.95 L3.5 -11.0 4.35 -10.8 M1.5 -8.55 L0.05 -7.6 Q0.45 -6.95 1.25 -6.55 L1.3 -7.2 1.5 -8.55 1.7 -9.6 M1.25 -6.55 L1.2 -6.35 1.0 -5.0 0.25 -3.4 3.5 -0.05 Q5.05 -1.75 6.9 -3.05 M2.4 -10.65 L3.15 -10.95 M4.6 -4.65 Q3.6 -5.1 2.6 -4.65 M4.6 -4.1 Q3.6 -4.55 2.6 -4.1 M4.6 -3.55 Q3.6 -4.0 2.6 -3.55 M-3.45 -2.0 L-2.15 -2.15 Q-0.75 -2.45 0.0 -3.15 L0.25 -3.4 M1.3 -7.2 Q3.35 -8.05 5.4 -7.2 M12.5 -4.25 L12.95 -2.05 14.5 -2.4 M12.95 -1.7 L14.55 -1.45 M18.25 -20.5 Q20.65 -18.1 20.65 -14.7 20.65 -11.35 18.25 -8.9 L18.25 -20.5 M4.65 10.95 Q3.9 12.6 3.9 14.55 3.9 18.45 6.85 21.2 9.75 23.95 13.9 24.0 18.05 23.95 21.0 21.2 23.95 18.45 23.95 14.55 23.95 10.65 21.0 7.9 18.05 5.1 13.9 5.15 9.75 5.1 6.85 7.9 L5.4 9.6 5.1 10.4 4.65 10.95 3.55 11.25 Q2.55 11.25 2.05 10.6 L1.9 10.4 Q1.6 9.9 1.45 9.0 L1.4 8.65 1.2 7.35 0.95 5.8 Q0.55 4.35 -0.15 3.65 L-0.25 3.6 Q-1.0 2.95 -2.35 2.65 L-3.0 2.5 -4.2 2.3 -4.25 2.3 -4.85 2.2 -5.05 2.2 Q-5.35 4.9 -7.35 7.0 L-7.35 1.3 Q-7.8 0.8 -7.8 0.1 -7.8 -0.65 -7.35 -1.1 L-7.35 -4.6 Q-6.1 -3.35 -5.5 -1.8 L-4.75 -1.85 -4.65 -1.85 -4.25 -1.9 -3.45 -2.0 M20.7 20.35 L20.7 8.75 Q23.1 11.2 23.1 14.55 23.1 17.9 20.7 20.35 M13.05 2.1 L11.25 2.35 9.3 2.6 Q7.9 2.9 7.2 3.45 L6.95 3.65 Q6.15 4.35 5.9 5.75 L5.7 7.35 5.65 7.85 5.4 9.6 M18.05 9.65 L18.95 9.65 18.95 10.45 M19.85 7.95 L8.0 7.95 Q10.5 5.9 13.9 5.9 17.3 5.9 19.85 7.95 M2.5 5.15 Q3.5 5.6 4.5 5.15 M2.5 5.7 Q3.5 6.15 4.5 5.7 M2.5 4.6 Q3.5 5.0 4.5 4.6 M-2.0 6.95 Q-2.65 7.55 -3.1 8.3 L1.1 10.15 1.45 9.0 M1.1 10.15 L2.05 10.6 M0.2 11.6 L1.1 10.15 M8.6 10.5 L8.6 9.65 9.6 9.65 M5.7 7.35 Q3.65 8.6 1.2 7.35 M9.6 19.4 L8.6 19.4 8.6 18.4 M6.8 20.05 Q4.75 17.7 4.75 14.55 4.75 11.4 6.8 9.1 M13.9 23.2 Q10.4 23.2 7.85 21.05 L20.0 21.05 Q17.4 23.2 13.9 23.2 M18.95 18.4 L18.95 19.4 18.05 19.4 M7.8 20.1 L7.8 8.9 19.7 8.9 19.7 20.1 7.8 20.1 M6.9 1.0 Q7.35 0.0 6.95 -0.9 M8.1 1.0 Q8.55 0.05 8.15 -0.85 M7.5 1.0 Q7.95 0.05 7.55 -0.9 M7.2 3.45 Q5.55 1.5 3.5 -0.05 1.5 1.45 -0.25 3.6 M12.0 -1.8 Q13.1 0.4 11.9 2.0 M-19.5 -2.85 L-19.5 -3.75 -18.5 -3.75 M-20.05 -5.4 L-19.2 -6.05 Q-17.0 -7.45 -14.15 -7.45 -10.75 -7.45 -8.2 -5.4 L-20.05 -5.4 M-4.65 -1.85 Q-5.3 -3.6 -6.6 -5.0 L-7.05 -5.45 Q-10.0 -8.25 -14.15 -8.2 -16.95 -8.25 -19.2 -6.95 L-21.2 -5.45 Q-24.15 -2.7 -24.15 1.2 -24.15 5.1 -21.2 7.85 -18.3 10.6 -14.15 10.65 -10.0 10.6 -7.05 7.85 -4.6 5.5 -4.2 2.3 M-4.9 -4.7 L-2.1 -6.45 -3.2 -7.5 M-7.35 -1.1 L-6.9 -1.4 -5.5 -1.8 M-10.0 -3.75 L-9.1 -3.75 -9.1 -2.9 M-1.15 -4.65 L-1.3 -5.0 -2.1 -6.45 0.05 -7.6 -0.35 -9.0 M-8.35 -4.45 L-8.35 6.75 -20.25 6.75 -20.25 -4.45 -8.35 -4.45 M-9.1 5.05 L-9.1 6.05 -10.0 6.05 M-5.05 2.2 L-6.9 1.65 -7.35 1.3 M-3.1 8.3 L-3.9 9.85 M-4.95 7.25 L-3.1 8.3 M-18.5 6.05 L-19.5 6.05 -19.5 5.05 M-20.2 7.7 L-8.1 7.7 Q-10.65 9.85 -14.15 9.85 -17.65 9.85 -20.2 7.7 M-23.3 1.2 Q-23.35 -1.95 -21.25 -4.25 L-21.25 6.7 Q-23.35 4.35 -23.3 1.2 M-2.0 -0.75 Q-2.45 0.2 -2.0 1.1 M-2.6 -0.75 Q-3.05 0.2 -2.6 1.1 M-1.4 -0.75 Q-1.85 0.2 -1.4 1.1 M-4.25 2.3 Q-4.85 0.45 -4.25 -1.9" fill="none" stroke="#666666" stroke-linecap="round" stroke-linejoin="round" stroke-width="1.0"/>
      <path d="M28.5 36.0 L-28.5 36.0 -28.5 -36.0 28.5 -36.0 28.5 36.0 Z" fill="none" stroke="#cccccc" stroke-linecap="round" stroke-linejoin="round" stroke-width="1.0"/>
    </g>
    <radialGradient cx="0" cy="0" gradientTransform="matrix(0.0286, 0.0, 0.0, 0.017, 10.7, -14.35)" gradientUnits="userSpaceOnUse" id="gradient0" r="819.2" spreadMethod="pad">
      <stop offset="0.0" stop-color="#ffffff"/>
      <stop offset="1.0" stop-color="#000000"/>
    </radialGradient>
    <linearGradient gradientTransform="matrix(0.0286, 0.0127, -0.0058, 0.0115, 29.45, -6.6)" gradientUnits="userSpaceOnUse" id="gradient1" spreadMethod="pad" x1="-819.2" x2="819.2">
      <stop offset="0.0" stop-color="#ffffff"/>
      <stop offset="1.0" stop-color="#000000"/>
    </linearGradient>
    <radialGradient cx="0" cy="0" gradientTransform="matrix(0.0076, 0.0, 0.0, 0.0072, 11.3, -21.3)" gradientUnits="userSpaceOnUse" id="gradient2" r="819.2" spreadMethod="pad">
      <stop offset="0.0" stop-color="#ffffff"/>
      <stop offset="1.0" stop-color="#000000"/>
    </radialGradient>
    <radialGradient cx="0" cy="0" gradientTransform="matrix(0.0073, 0.0, 0.0, 0.0068, 4.35, -14.7)" gradientUnits="userSpaceOnUse" id="gradient3" r="819.2" spreadMethod="pad">
      <stop offset="0.0" stop-color="#ffffff"/>
      <stop offset="1.0" stop-color="#000000"/>
    </radialGradient>
    <linearGradient gradientTransform="matrix(0.0127, 0.012, -0.0102, 0.0096, 11.8, 7.35)" gradientUnits="userSpaceOnUse" id="gradient4" spreadMethod="pad" x1="-819.2" x2="819.2">
      <stop offset="0.0" stop-color="#ffffff"/>
      <stop offset="1.0" stop-color="#000000"/>
    </linearGradient>
    <radialGradient cx="0" cy="0" gradientTransform="matrix(0.0074, 0.0, 0.0, 0.007, 11.45, -8.2)" gradientUnits="userSpaceOnUse" id="gradient5" r="819.2" spreadMethod="pad">
      <stop offset="0.0" stop-color="#ffffff"/>
      <stop offset="1.0" stop-color="#000000"/>
    </radialGradient>
    <linearGradient gradientTransform="matrix(0.0027, 0.0045, -0.0106, 0.0058, 1.0, -5.6)" gradientUnits="userSpaceOnUse" id="gradient6" spreadMethod="pad" x1="-819.2" x2="819.2">
      <stop offset="0.0" stop-color="#ffffff"/>
      <stop offset="1.0" stop-color="#000000"/>
    </linearGradient>
    <linearGradient gradientTransform="matrix(0.0071, 0.0018, -0.0031, 0.0111, 15.15, -0.5)" gradientUnits="userSpaceOnUse" id="gradient7" spreadMethod="pad" x1="-819.2" x2="819.2">
      <stop offset="0.0" stop-color="#ffffff"/>
      <stop offset="1.0" stop-color="#000000"/>
    </linearGradient>
    <radialGradient cx="0" cy="0" gradientTransform="matrix(0.0077, 0.0, 0.0, 0.0073, 18.25, -14.55)" gradientUnits="userSpaceOnUse" id="gradient8" r="819.2" spreadMethod="pad">
      <stop offset="0.0" stop-color="#ffffff"/>
      <stop offset="1.0" stop-color="#000000"/>
    </radialGradient>
    <linearGradient gradientTransform="matrix(0.0286, 0.0127, -0.0058, 0.0115, 32.05, 22.65)" gradientUnits="userSpaceOnUse" id="gradient9" spreadMethod="pad" x1="-819.2" x2="819.2">
      <stop offset="0.0" stop-color="#ffffff"/>
      <stop offset="1.0" stop-color="#000000"/>
    </linearGradient>
    <radialGradient cx="0" cy="0" gradientTransform="matrix(0.0077, 0.0, 0.0, 0.0073, 20.7, 14.7)" gradientUnits="userSpaceOnUse" id="gradient10" r="819.2" spreadMethod="pad">
      <stop offset="0.0" stop-color="#ffffff"/>
      <stop offset="1.0" stop-color="#000000"/>
    </radialGradient>
    <radialGradient cx="0" cy="0" gradientTransform="matrix(0.0286, 0.0, 0.0, 0.017, 13.15, 14.9)" gradientUnits="userSpaceOnUse" id="gradient11" r="819.2" spreadMethod="pad">
      <stop offset="0.0" stop-color="#ffffff"/>
      <stop offset="1.0" stop-color="#000000"/>
    </radialGradient>
    <radialGradient cx="0" cy="0" gradientTransform="matrix(0.0076, 0.0, 0.0, 0.0072, 13.75, 7.95)" gradientUnits="userSpaceOnUse" id="gradient12" r="819.2" spreadMethod="pad">
      <stop offset="0.0" stop-color="#ffffff"/>
      <stop offset="1.0" stop-color="#000000"/>
    </radialGradient>
    <linearGradient gradientTransform="matrix(0.0, 0.0065, -0.0122, 0.0, -1.85, 11.25)" gradientUnits="userSpaceOnUse" id="gradient13" spreadMethod="pad" x1="-819.2" x2="819.2">
      <stop offset="0.0" stop-color="#ffffff"/>
      <stop offset="1.0" stop-color="#000000"/>
    </linearGradient>
    <radialGradient cx="0" cy="0" gradientTransform="matrix(0.0073, 0.0, 0.0, 0.0068, 6.8, 14.55)" gradientUnits="userSpaceOnUse" id="gradient14" r="819.2" spreadMethod="pad">
      <stop offset="0.0" stop-color="#ffffff"/>
      <stop offset="1.0" stop-color="#000000"/>
    </radialGradient>
    <radialGradient cx="0" cy="0" gradientTransform="matrix(0.0074, 0.0, 0.0, 0.007, 13.9, 21.05)" gradientUnits="userSpaceOnUse" id="gradient15" r="819.2" spreadMethod="pad">
      <stop offset="0.0" stop-color="#ffffff"/>
      <stop offset="1.0" stop-color="#000000"/>
    </radialGradient>
    <radialGradient cx="0" cy="0" gradientTransform="matrix(0.0286, 0.0, 0.0, 0.017, -14.95, 1.55)" gradientUnits="userSpaceOnUse" id="gradient16" r="819.2" spreadMethod="pad">
      <stop offset="0.0" stop-color="#ffffff"/>
      <stop offset="1.0" stop-color="#000000"/>
    </radialGradient>
    <linearGradient gradientTransform="matrix(0.0286, 0.0127, -0.0058, 0.0115, 4.1, 9.25)" gradientUnits="userSpaceOnUse" id="gradient17" spreadMethod="pad" x1="-819.2" x2="819.2">
      <stop offset="0.0" stop-color="#ffffff"/>
      <stop offset="1.0" stop-color="#000000"/>
    </linearGradient>
    <radialGradient cx="0" cy="0" gradientTransform="matrix(0.0076, 0.0, 0.0, 0.0072, -14.3, -5.4)" gradientUnits="userSpaceOnUse" id="gradient18" r="819.2" spreadMethod="pad">
      <stop offset="0.0" stop-color="#ffffff"/>
      <stop offset="1.0" stop-color="#000000"/>
    </radialGradient>
    <radialGradient cx="0" cy="0" gradientTransform="matrix(0.0077, 0.0, 0.0, 0.0073, -7.35, 1.35)" gradientUnits="userSpaceOnUse" id="gradient19" r="819.2" spreadMethod="pad">
      <stop offset="0.0" stop-color="#ffffff"/>
      <stop offset="1.0" stop-color="#000000"/>
    </radialGradient>
    <radialGradient cx="0" cy="0" gradientTransform="matrix(0.0074, 0.0, 0.0, 0.007, -14.15, 7.7)" gradientUnits="userSpaceOnUse" id="gradient20" r="819.2" spreadMethod="pad">
      <stop offset="0.0" stop-color="#ffffff"/>
      <stop offset="1.0" stop-color="#000000"/>
    </radialGradient>
    <radialGradient cx="0" cy="0" gradientTransform="matrix(0.0073, 0.0, 0.0, 0.0068, -21.25, 1.2)" gradientUnits="userSpaceOnUse" id="gradient21" r="819.2" spreadMethod="pad">
      <stop offset="0.0" stop-color="#ffffff"/>
      <stop offset="1.0" stop-color="#000000"/>
    </radialGradient>
  </defs>
</svg>
