<?xml version="1.0" encoding="UTF-8" standalone="no"?>
<svg xmlns:xlink="http://www.w3.org/1999/xlink" height="145.4px" width="87.15px" xmlns="http://www.w3.org/2000/svg">
  <g transform="matrix(1.0, 0.0, 0.0, 1.0, 29.0, 40.25)">
    <use data-characterId="1089" height="76.0" id="staticscreen" transform="matrix(0.75, 0.0, 0.0, 0.96, -28.5, -35.9803)" width="76.0" xlink:href="#sprite0"/>
    <use data-characterId="1090" height="73.0" transform="matrix(1.0, 0.0, 0.0, 1.0, -29.0, -36.0)" width="58.0" xlink:href="#shape1"/>
  </g>
  <defs>
    <g id="sprite0" transform="matrix(1.0, 0.0, 0.0, 1.0, 38.0, 38.0)">
      <use data-characterId="398" height="550.0" transform="matrix(0.1086, 0.0, 0.0, 0.1364, -37.9982, -37.4969)" width="700.0" xlink:href="#shape0"/>
      <use data-characterId="398" height="550.0" transform="matrix(0.0071, 0.0, 0.0, 0.0091, -2.4994, -2.5009)" width="700.0" xlink:href="#shape0"/>
    </g>
    <g id="shape0" transform="matrix(1.0, 0.0, 0.0, 1.0, 350.0, 275.0)">
      <path d="M350.0 -275.0 L350.0 275.0 -350.0 275.0 -350.0 -275.0 350.0 -275.0" fill="#000000" fill-rule="evenodd" stroke="none"/>
    </g>
    <g id="shape1" transform="matrix(1.0, 0.0, 0.0, 1.0, 29.0, 36.5)">
      <path d="M28.5 -36.0 L28.5 36.0 -28.5 36.0 -28.5 -36.0 28.5 -36.0 Z" fill="none" stroke="#cccccc" stroke-linecap="round" stroke-linejoin="round" stroke-width="1.0"/>
    </g>
  </defs>
</svg>
