<?xml version="1.0" encoding="UTF-8" standalone="no"?>
<svg xmlns:xlink="http://www.w3.org/1999/xlink" height="49.0px" width="47.0px" xmlns="http://www.w3.org/2000/svg">
  <g transform="matrix(1.0, 0.0, 0.0, 1.0, 23.5, 24.5)">
    <use data-characterId="242" height="49.0" transform="matrix(1.0, 0.0, 0.0, 1.0, -23.5, -24.5)" width="47.0" xlink:href="#shape0"/>
  </g>
  <defs>
    <g id="shape0" transform="matrix(1.0, 0.0, 0.0, 1.0, 23.5, 24.5)">
      <path d="M-7.0 24.0 L-12.7 24.0 -23.0 19.7 -23.0 2.85 -7.3 -24.0" fill="none" stroke="#00ffff" stroke-linecap="butt" stroke-linejoin="miter-clip" stroke-miterlimit="3.0" stroke-width="1.0"/>
      <path d="M-7.3 -24.0 L7.35 -24.0 23.0 2.85 23.0 19.7 12.7 24.0 -7.0 24.0" fill="none" stroke="#00ffff" stroke-linecap="butt" stroke-linejoin="miter-clip" stroke-miterlimit="3.0" stroke-width="1.0"/>
    </g>
  </defs>
</svg>
