<?xml version="1.0" encoding="UTF-8" standalone="no"?>
<svg xmlns:xlink="http://www.w3.org/1999/xlink" height="29.1px" width="26.1px" xmlns="http://www.w3.org/2000/svg">
  <g transform="matrix(1.0, 0.0, 0.0, 1.0, 13.05, 13.05)">
    <use data-characterId="732" height="26.1" transform="matrix(1.0, 0.0, 0.0, 1.0, -13.05, -13.05)" width="26.1" xlink:href="#shape0"/>
    <use data-characterId="613" data-characterName="sc313_fla.regshipengine_130" height="5.45" id="Eng1" transform="matrix(0.7647, 0.0, 0.0, 0.7647, -1.9618, 11.8676)" width="5.05" xlink:href="#sprite0"/>
  </g>
  <defs>
    <g id="shape0" transform="matrix(1.0, 0.0, 0.0, 1.0, 13.05, 13.05)">
      <path d="M-6.85 -0.5 L-12.45 1.2 -11.8 -0.95 -6.0 -2.7 -6.0 -0.75 -6.85 -0.5 M6.05 -2.7 L11.85 -0.95 12.5 1.2 6.9 -0.5 6.0 -0.75 6.0 -2.7 6.05 -2.7" fill="#006699" fill-rule="evenodd" stroke="none"/>
      <path d="M6.45 -5.6 L6.95 -5.3 Q9.05 -4.2 11.2 -3.05 L11.85 -0.95 6.05 -2.7 6.0 -2.75 4.95 -3.45 3.15 9.0 0.1 8.45 0.1 8.4 0.0 8.4 -0.1 8.4 -0.1 8.45 -3.1 9.0 -4.9 -3.45 -6.0 -2.75 -6.0 -2.7 -11.8 -0.95 -11.15 -3.05 -5.95 -5.85 -5.4 -6.15 -1.6 -8.15 -0.95 -13.0 -0.5 -11.0 0.0 -8.8 0.55 -11.0 0.95 -13.0 1.65 -8.15 6.45 -5.6 M0.05 0.85 L1.3 -0.85 0.05 -4.85 0.0 -5.95 0.0 -4.85 -1.25 -0.85 0.0 0.8 -0.05 0.85 -0.05 1.15 0.0 1.0 0.1 1.15 0.1 0.85 0.05 0.85 M1.65 -8.15 L2.2 -4.15 2.55 -1.5 2.4 1.8 1.1 3.15 1.05 3.15 0.1 1.15 1.05 3.15 1.1 3.15 2.4 1.8 2.55 -1.5 2.2 -4.15 1.65 -8.15 M2.2 -4.15 L4.95 -3.45 2.2 -4.15 M7.25 3.4 L11.75 4.25 13.0 10.35 4.75 11.6 4.7 11.6 5.95 3.15 7.25 3.4 M2.1 11.2 L1.15 13.0 -1.1 13.0 -2.05 11.2 -2.05 10.2 2.1 10.2 2.1 11.2 M-4.65 11.6 L-4.7 11.6 -13.0 10.35 -11.75 4.25 -7.2 3.4 -5.9 3.15 -4.65 11.6 M1.25 -4.05 L0.8 -8.25 1.25 -4.05 M11.3 7.25 Q11.3 6.5 10.75 6.0 10.15 5.5 9.3 5.5 8.5 5.5 7.95 6.0 7.35 6.5 7.35 7.25 7.35 7.95 7.95 8.45 8.5 8.95 9.3 9.0 L10.75 8.45 Q11.3 7.95 11.3 7.25 M1.1 1.4 L1.65 0.45 1.1 1.4 M-2.15 -4.15 L-2.55 -1.5 -2.4 1.8 -1.1 3.15 -1.0 3.15 1.05 3.15 -1.0 3.15 -1.1 3.15 -2.4 1.8 -2.55 -1.5 -2.15 -4.15 -4.9 -3.45 -2.15 -4.15 -1.6 -8.15 -2.15 -4.15 M-1.2 -4.0 L-0.75 -8.2 -1.2 -4.0 M-1.0 3.15 L-0.05 1.15 -1.0 3.15 M-1.1 1.4 L-1.6 0.45 -1.1 1.4 M-9.3 5.5 Q-10.1 5.5 -10.7 6.0 -11.3 6.5 -11.3 7.25 -11.3 7.95 -10.7 8.45 -10.1 8.95 -9.3 9.0 -8.5 8.95 -7.9 8.45 -7.35 7.95 -7.3 7.25 -7.35 6.5 -7.9 6.0 -8.5 5.5 -9.3 5.5" fill="#666666" fill-rule="evenodd" stroke="none"/>
      <path d="M6.95 -6.9 L6.45 -6.9 6.15 -6.9 6.15 -8.2 7.2 -8.2 7.2 -6.9 6.95 -6.9 M-0.5 -11.0 L0.0 -12.05 0.55 -11.0 0.0 -8.8 -0.5 -11.0 M0.05 -4.85 L1.3 -0.85 0.05 0.85 0.05 -4.85 M0.0 -4.85 L0.0 0.8 -1.25 -0.85 0.0 -4.85 M-5.95 -7.45 L-6.15 -7.45 -6.15 -8.75 -5.15 -8.75 -5.15 -7.45 -5.4 -7.45 -5.95 -7.45" fill="#990000" fill-rule="evenodd" stroke="none"/>
      <path d="M11.3 7.25 Q11.3 7.95 10.75 8.45 L9.3 9.0 Q8.5 8.95 7.95 8.45 7.35 7.95 7.35 7.25 7.35 6.5 7.95 6.0 8.5 5.5 9.3 5.5 10.15 5.5 10.75 6.0 11.3 6.5 11.3 7.25 M-9.3 5.5 Q-8.5 5.5 -7.9 6.0 -7.35 6.5 -7.3 7.25 -7.35 7.95 -7.9 8.45 -8.5 8.95 -9.3 9.0 -10.1 8.95 -10.7 8.45 -11.3 7.95 -11.3 7.25 -11.3 6.5 -10.7 6.0 -10.1 5.5 -9.3 5.5" fill="#000000" fill-rule="evenodd" stroke="none"/>
      <path d="M6.9 -0.5 L6.9 -0.35 7.25 3.4 5.95 3.15 4.7 11.6 2.1 11.2 2.1 10.2 -2.05 10.2 -2.05 11.2 -4.65 11.6 -3.1 9.0 -4.65 11.6 -5.9 3.15 -7.2 3.4 -6.85 -0.35 -6.85 -0.5 -6.0 -0.75 -6.0 -2.7 -6.0 -2.75 -4.9 -3.45 -3.1 9.0 -0.1 8.45 0.0 8.4 0.1 8.45 3.15 9.0 4.95 -3.45 6.0 -2.75 6.0 -2.7 6.0 -0.75 6.9 -0.5 M4.7 11.6 L3.15 9.0 4.7 11.6" fill="#003366" fill-rule="evenodd" stroke="none"/>
      <path d="M1.65 0.45 L1.1 1.4 M-1.6 0.45 L-1.1 1.4" fill="none" stroke="#006699" stroke-linecap="round" stroke-linejoin="round" stroke-width="1.0"/>
      <path d="M0.05 0.85 L1.3 -0.85 0.05 -4.85 M0.0 0.8 L0.0 0.85 0.0 0.8 -1.25 -0.85 0.0 -4.85 M11.3 7.25 Q11.3 7.95 10.75 8.45 L9.3 9.0 Q8.5 8.95 7.95 8.45 7.35 7.95 7.35 7.25 7.35 6.5 7.95 6.0 8.5 5.5 9.3 5.5 10.15 5.5 10.75 6.0 11.3 6.5 11.3 7.25 M-9.3 5.5 Q-10.1 5.5 -10.7 6.0 -11.3 6.5 -11.3 7.25 -11.3 7.95 -10.7 8.45 -10.1 8.95 -9.3 9.0 -8.5 8.95 -7.9 8.45 -7.35 7.95 -7.3 7.25 -7.35 6.5 -7.9 6.0 -8.5 5.5 -9.3 5.5" fill="none" stroke="#999999" stroke-linecap="round" stroke-linejoin="round" stroke-width="0.1"/>
      <path d="M0.8 -8.25 L1.25 -4.05 M-0.75 -8.2 L-1.2 -4.0" fill="none" stroke="#000099" stroke-linecap="round" stroke-linejoin="round" stroke-width="1.0"/>
      <path d="M6.95 -6.9 L6.45 -6.9 6.45 -5.6 6.95 -5.3 6.95 -6.9 7.2 -6.9 7.2 -8.2 6.15 -8.2 6.15 -6.9 6.45 -6.9 M0.55 -11.0 L0.0 -12.05 -0.5 -11.0 0.0 -8.8 0.55 -11.0 0.95 -13.0 1.65 -8.15 6.45 -5.6 M0.1 0.85 L0.1 1.15 1.05 3.15 1.1 3.15 2.4 1.8 2.55 -1.5 2.2 -4.15 1.65 -8.15 M-0.05 0.85 L0.0 1.0 0.1 0.85 M4.95 -3.45 L2.2 -4.15 M6.9 -0.5 L6.9 -0.35 7.25 3.4 11.75 4.25 13.0 10.35 4.75 11.6 4.7 11.6 2.1 11.2 1.15 13.0 -1.1 13.0 -2.05 11.2 -4.65 11.6 -4.7 11.6 -13.0 10.35 -11.75 4.25 -7.2 3.4 -6.85 -0.35 -6.85 -0.5 -12.45 1.2 -11.8 -0.95 -11.15 -3.05 -5.95 -5.85 -5.95 -7.45 -6.15 -7.45 -6.15 -8.75 -5.15 -8.75 -5.15 -7.45 -5.4 -7.45 -5.4 -6.15 -1.6 -8.15 -0.95 -13.0 -0.5 -11.0 M6.0 -2.7 L6.0 -2.75 4.95 -3.45 3.15 9.0 4.7 11.6 5.95 3.15 7.25 3.4 M6.0 -2.75 L6.05 -2.7 11.85 -0.95 11.2 -3.05 Q9.05 -4.2 6.95 -5.3 M6.0 -2.7 L6.0 -0.75 6.9 -0.5 12.5 1.2 11.85 -0.95 M0.0 1.0 L0.1 1.15 M2.1 11.2 L2.1 10.2 -2.05 10.2 -2.05 11.2 M0.0 8.4 L0.1 8.45 0.1 8.4 0.0 8.4 -0.1 8.45 -3.1 9.0 -4.65 11.6 -5.9 3.15 -7.2 3.4 M0.1 8.45 L3.15 9.0 M-5.4 -7.45 L-5.95 -7.45 M-5.95 -5.85 L-5.4 -6.15 M-6.0 -2.7 L-6.0 -0.75 -6.85 -0.5 M-6.0 -2.7 L-6.0 -2.75 -4.9 -3.45 -2.15 -4.15 -1.6 -8.15 M1.05 3.15 L-1.0 3.15 -1.1 3.15 -2.4 1.8 -2.55 -1.5 -2.15 -4.15 M-11.8 -0.95 L-6.0 -2.7 M-0.05 1.15 L-1.0 3.15 M-0.05 0.85 L-0.05 1.15 0.0 1.0 M-0.1 8.45 L-0.1 8.4 0.0 8.4 M-4.9 -3.45 L-3.1 9.0" fill="none" stroke="#333333" stroke-linecap="round" stroke-linejoin="round" stroke-width="0.1"/>
    </g>
    <g id="sprite0" transform="matrix(1.0, 0.0, 0.0, 1.0, 2.5, 0.5)">
      <use data-characterId="606" height="1.0" transform="matrix(1.0, 0.0, 0.0, 1.0, -2.45, -0.5)" width="5.0" xlink:href="#shape1"/>
    </g>
    <g id="shape1" transform="matrix(1.0, 0.0, 0.0, 1.0, 2.45, 0.5)">
      <path d="M-1.95 0.0 L2.05 0.0" fill="none" stroke="#666666" stroke-linecap="round" stroke-linejoin="round" stroke-width="1.0"/>
    </g>
  </defs>
</svg>
