<?xml version="1.0" encoding="UTF-8" standalone="no"?>
<svg xmlns:xlink="http://www.w3.org/1999/xlink" height="112.2px" width="112.0px" xmlns="http://www.w3.org/2000/svg">
  <g transform="matrix(1.0, 0.0, 0.0, 1.0, 56.0, 56.05)">
    <use data-characterId="969" height="112.0" transform="matrix(1.0, 0.0, 0.0, 1.0, -56.0, -56.0)" width="112.0" xlink:href="#shape0"/>
  </g>
  <defs>
    <g id="shape0" transform="matrix(1.0, 0.0, 0.0, 1.0, 56.0, 56.0)">
      <path d="M42.05 -54.95 Q54.1 -53.7 55.0 -45.0 M55.0 44.0 Q53.05 53.6 42.05 55.0 M-41.0 55.0 Q-55.0 54.5 -55.0 41.0 M-55.0 -42.95 Q-52.6 -55.9 -40.05 -54.95" fill="none" stroke="#00aaff" stroke-linecap="round" stroke-linejoin="round" stroke-width="2.0"/>
      <path d="M55.0 -45.0 L55.0 44.0 M42.05 55.0 L-41.0 55.0 M-55.0 41.0 L-55.0 -42.95 M-40.05 -54.95 L42.05 -54.95" fill="none" stroke="#00aaff" stroke-linecap="round" stroke-linejoin="round" stroke-width="2.0"/>
    </g>
  </defs>
</svg>
