<?xml version="1.0" encoding="UTF-8" standalone="no"?>
<svg xmlns:xlink="http://www.w3.org/1999/xlink" height="904.7px" width="1158.55px" xmlns="http://www.w3.org/2000/svg">
  <g transform="matrix(1.0, 0.0, 0.0, 1.0, 286.35, 189.45)">
    <use data-characterId="1043" height="904.7" transform="matrix(1.0, 0.0, 0.0, 1.0, -286.35, -189.45)" width="1158.55" xlink:href="#shape0"/>
    <use data-characterId="931" data-characterName="sc346_fla.SelectionWindow_117" height="135.6" id="DisplayScreen" transform="matrix(1.0, 0.0, 0.0, 1.0, -54.1, -0.05)" width="550.1" xlink:href="#sprite0"/>
    <use data-characterId="1044" height="44.35" transform="matrix(1.0, 0.0, 0.0, 1.0, 16.0, -25.75)" width="523.75" xlink:href="#text0"/>
    <use data-characterId="1045" height="463.4" transform="matrix(1.0, 0.0, 0.0, 1.0, -196.7, 7.05)" width="736.3" xlink:href="#shape5"/>
    <use data-characterId="1046" height="281.3" id="shipDetails1" transform="matrix(1.0, 0.0, 0.0, 1.0, 51.0, 178.8)" width="238.35" xlink:href="#text1"/>
    <use data-characterId="1047" height="291.3" id="shipDetails2" transform="matrix(1.0, 0.0, 0.0, 1.0, 299.0, 178.8)" width="265.9" xlink:href="#text2"/>
    <use data-characterId="1048" height="30.5" transform="matrix(1.0, 0.0, 0.0, 1.0, 244.0, 157.85)" width="118.4" xlink:href="#text3"/>
    <use data-characterId="33" height="31.4" id="exit_button" transform="matrix(1.0, 0.0, 0.0, 1.0, -188.25, 89.9)" width="120.4" xlink:href="#sprite4"/>
    <use data-characterId="922" height="80.9" id="BuyQuestionBox" transform="matrix(1.0, 0.0, 0.0, 1.0, -194.05, 157.55)" width="136.0" xlink:href="#sprite5"/>
    <use data-characterId="33" height="31.4" id="cancel_button" transform="matrix(1.0, 0.0, 0.0, 1.0, -187.85, 89.45)" width="120.4" xlink:href="#sprite4"/>
    <use data-characterId="33" height="31.4" id="BuyShip" transform="matrix(1.0, 0.0, 0.0, 1.0, -187.85, 63.35)" width="120.4" xlink:href="#sprite4"/>
  </g>
  <defs>
    <g id="shape0" transform="matrix(1.0, 0.0, 0.0, 1.0, 286.35, 189.45)">
      <path d="M871.7 -188.95 L871.7 714.75 -285.85 714.75 -285.85 -188.95 871.7 -188.95" fill="#000000" fill-opacity="0.8980392" fill-rule="evenodd" stroke="none"/>
      <path d="M871.7 -188.95 L871.7 714.75 -285.85 714.75 -285.85 -188.95 871.7 -188.95 Z" fill="none" stroke="#000000" stroke-linecap="butt" stroke-linejoin="miter-clip" stroke-miterlimit="3.0" stroke-width="1.0"/>
    </g>
    <g id="sprite0" transform="matrix(1.0, 0.0, 0.0, 1.0, 0.05, 0.05)">
      <use data-characterId="924" height="124.15" transform="matrix(1.0, 0.0, 0.0, 1.0, -0.05, -0.05)" width="550.1" xlink:href="#shape1"/>
      <clipPath id="clipPath0" transform="matrix(1.0, 0.0, 0.0, 1.0, 0.0, 0.0)">
        <path d="M548.0 122.5 L2.95 122.5 2.95 2.5 548.0 2.5 548.0 122.5" fill="#ff0000" fill-rule="evenodd" stroke="none"/>
        <path d="M548.0 122.5 L2.95 122.5 2.95 2.5 548.0 2.5 548.0 122.5 Z" fill="none" stroke="#ff0000" stroke-linecap="butt" stroke-linejoin="miter-clip" stroke-miterlimit="3.0" stroke-width="0.1"/>
      </clipPath>
      <g clip-path="url(#clipPath0)">
        <use data-characterId="926" height="0.0" id="screen" transform="matrix(1.0, 0.0, 0.0, 1.0, 2.95, 2.5)" width="0.0" xlink:href="#sprite1"/>
      </g>
      <use data-characterId="930" height="11.55" id="slider" transform="matrix(1.0, 0.0, 0.0, 1.0, -0.05, 124.0)" width="550.1" xlink:href="#sprite2"/>
    </g>
    <g id="shape1" transform="matrix(1.0, 0.0, 0.0, 1.0, 0.05, 0.05)">
      <path d="M550.0 124.05 L0.0 124.05 0.0 0.0 550.0 0.0 550.0 124.05" fill="#000033" fill-rule="evenodd" stroke="none"/>
      <path d="M550.0 124.05 L0.0 124.05 0.0 0.0 550.0 0.0 550.0 124.05 Z" fill="none" stroke="#999999" stroke-linecap="butt" stroke-linejoin="miter-clip" stroke-miterlimit="3.0" stroke-width="0.1"/>
      <path d="M548.0 122.5 L2.95 122.5 2.95 2.5 548.0 2.5 548.0 122.5" fill="#000000" fill-rule="evenodd" stroke="none"/>
      <path d="M548.0 122.5 L2.95 122.5 2.95 2.5 548.0 2.5 548.0 122.5 Z" fill="none" stroke="#333333" stroke-linecap="butt" stroke-linejoin="miter-clip" stroke-miterlimit="3.0" stroke-width="0.1"/>
    </g>
    <g id="sprite2" transform="matrix(1.0, 0.0, 0.0, 1.0, 0.05, 0.05)">
      <use data-characterId="927" height="11.55" transform="matrix(1.0, 0.0, 0.0, 1.0, -0.05, -0.05)" width="550.1" xlink:href="#shape3"/>
      <use data-characterId="929" height="11.55" id="sliderBar" transform="matrix(1.0, 0.0, 0.0, 1.0, 14.95, -0.05)" width="520.15" xlink:href="#sprite3"/>
    </g>
    <g id="shape3" transform="matrix(1.0, 0.0, 0.0, 1.0, 0.05, 0.05)">
      <path d="M547.65 11.45 L0.5 11.45 0.5 0.0 547.65 0.0 547.65 11.45" fill="#333333" fill-rule="evenodd" stroke="none"/>
      <path d="M547.65 11.45 L0.5 11.45 0.5 0.0 547.65 0.0 547.65 11.45 Z" fill="none" stroke="#333333" stroke-linecap="butt" stroke-linejoin="miter-clip" stroke-miterlimit="3.0" stroke-width="0.1"/>
      <path d="M15.0 0.0 L15.0 11.45 0.0 11.45 0.0 0.0 15.0 0.0" fill="#999999" fill-rule="evenodd" stroke="none"/>
      <path d="M15.0 0.0 L15.0 11.45 0.0 11.45 0.0 0.0 15.0 0.0 Z" fill="none" stroke="#333333" stroke-linecap="butt" stroke-linejoin="miter-clip" stroke-miterlimit="3.0" stroke-width="0.1"/>
      <path d="M550.0 0.0 L550.0 11.45 535.0 11.45 535.0 0.0 550.0 0.0" fill="#999999" fill-rule="evenodd" stroke="none"/>
      <path d="M550.0 0.0 L550.0 11.45 535.0 11.45 535.0 0.0 550.0 0.0 Z" fill="none" stroke="#333333" stroke-linecap="butt" stroke-linejoin="miter-clip" stroke-miterlimit="3.0" stroke-width="0.1"/>
    </g>
    <g id="sprite3" transform="matrix(1.0, 0.0, 0.0, 1.0, 0.05, 0.05)">
      <use data-characterId="928" height="11.55" transform="matrix(1.0, 0.0, 0.0, 1.0, -0.05, -0.05)" width="520.15" xlink:href="#shape4"/>
    </g>
    <g id="shape4" transform="matrix(1.0, 0.0, 0.0, 1.0, 0.05, 0.05)">
      <path d="M520.05 11.45 L0.0 11.45 0.0 0.0 520.05 0.0 520.05 11.45" fill="#999999" fill-rule="evenodd" stroke="none"/>
      <path d="M520.05 11.45 L0.0 11.45 0.0 0.0 520.05 0.0 520.05 11.45 Z" fill="none" stroke="#333333" stroke-linecap="butt" stroke-linejoin="miter-clip" stroke-miterlimit="3.0" stroke-width="0.1"/>
    </g>
    <g id="shape5" transform="matrix(1.0, 0.0, 0.0, 1.0, 196.7, -7.05)">
      <path d="M-64.2 121.55 L-196.2 121.55 -196.2 7.55 -64.2 7.55 -64.2 121.55" fill="#000066" fill-opacity="0.14901961" fill-rule="evenodd" stroke="none"/>
      <path d="M-64.2 121.55 L-196.2 121.55 -196.2 7.55 -64.2 7.55 -64.2 121.55 Z" fill="none" stroke="#003366" stroke-linecap="butt" stroke-linejoin="miter-clip" stroke-miterlimit="3.0" stroke-width="1.0"/>
      <path d="M284.55 184.6 L284.55 456.55" fill="none" stroke="#003366" stroke-linecap="butt" stroke-linejoin="miter-clip" stroke-miterlimit="3.0" stroke-width="1.0"/>
      <path d="M539.1 149.95 L539.1 469.95 34.1 469.95 34.1 149.95 539.1 149.95" fill="#000099" fill-opacity="0.14901961" fill-rule="evenodd" stroke="none"/>
      <path d="M539.1 149.95 L539.1 469.95 34.1 469.95 34.1 149.95 539.1 149.95 Z" fill="none" stroke="#003366" stroke-linecap="butt" stroke-linejoin="miter-clip" stroke-miterlimit="3.0" stroke-width="1.0"/>
    </g>
    <g id="text1" transform="matrix(1.0, 0.0, 0.0, 1.0, 4.0, 2.0)">
      <g transform="matrix(1.0, 0.0, 0.0, 1.0, -4.0, -2.0)">
        <use fill="#ffffcc" height="281.3" transform="matrix(0.0117, 0.0, 0.0, 0.0117, 0.0, 10.85)" width="238.35" xlink:href="#font_Arial_d0"/>
        <use fill="#ffffcc" height="281.3" transform="matrix(0.0117, 0.0, 0.0, 0.0117, 7.35, 10.85)" width="238.35" xlink:href="#font_Arial_e0"/>
        <use fill="#ffffcc" height="281.3" transform="matrix(0.0117, 0.0, 0.0, 0.0117, 14.05, 10.85)" width="238.35" xlink:href="#font_Arial_t0"/>
        <use fill="#ffffcc" height="281.3" transform="matrix(0.0117, 0.0, 0.0, 0.0117, 18.05, 10.85)" width="238.35" xlink:href="#font_Arial_a0"/>
        <use fill="#ffffcc" height="281.3" transform="matrix(0.0117, 0.0, 0.0, 0.0117, 24.75, 10.85)" width="238.35" xlink:href="#font_Arial_i0"/>
        <use fill="#ffffcc" height="281.3" transform="matrix(0.0117, 0.0, 0.0, 0.0117, 28.1, 10.85)" width="238.35" xlink:href="#font_Arial_l0"/>
        <use fill="#ffffcc" height="281.3" transform="matrix(0.0117, 0.0, 0.0, 0.0117, 31.45, 10.85)" width="238.35" xlink:href="#font_Arial_s0"/>
        <use fill="#ffffcc" height="281.3" transform="matrix(0.0117, 0.0, 0.0, 0.0117, 38.15, 10.85)" width="238.35" xlink:href="#font_Arial_10"/>
      </g>
    </g>
    <g id="font_Arial_d0">
      <path d="M185.5 -277.0 Q185.5 -356.0 219.5 -395.5 253.0 -435.5 303.0 -435.5 354.5 -435.5 387.5 -395.0 420.5 -355.0 420.5 -263.5 420.5 -181.5 386.5 -140.0 352.5 -99.0 304.0 -99.0 243.0 -99.0 209.0 -154.0 185.5 -192.0 185.5 -277.0 M560.5 0.0 L560.5 -733.0 420.0 -733.0 420.0 -469.0 Q355.0 -543.0 266.0 -543.0 169.0 -543.0 105.5 -472.5 42.0 -402.5 42.0 -267.5 42.0 -135.5 107.5 -61.5 172.5 12.0 264.0 12.0 309.0 12.0 353.5 -10.0 397.5 -32.5 430.0 -78.0 L430.0 0.0 560.5 0.0" fill-rule="evenodd" stroke="none"/>
    </g>
    <g id="font_Arial_e0">
      <path d="M389.0 -311.0 L179.0 -311.0 Q178.5 -368.5 208.5 -402.0 238.5 -435.5 284.5 -435.5 327.5 -435.5 357.5 -403.5 387.5 -372.0 389.0 -311.0 M381.0 -169.0 Q369.5 -129.0 347.0 -111.0 324.5 -93.0 291.5 -93.0 243.0 -93.0 210.5 -127.5 178.0 -162.5 176.5 -225.0 L528.5 -225.0 Q531.5 -386.5 463.0 -464.5 394.5 -543.0 276.0 -543.0 170.5 -543.0 101.5 -468.0 32.5 -393.5 32.5 -261.5 32.5 -151.0 85.0 -78.5 151.5 12.0 290.0 12.0 377.5 12.0 436.0 -28.0 494.0 -68.5 521.0 -145.5 L381.0 -169.0" fill-rule="evenodd" stroke="none"/>
    </g>
    <g id="font_Arial_t0">
      <path d="M317.0 -531.0 L221.0 -531.0 221.0 -718.5 80.0 -636.5 80.0 -531.0 15.5 -531.0 15.5 -419.0 80.0 -419.0 80.0 -187.5 Q80.0 -113.0 84.5 -88.5 90.0 -54.0 104.5 -33.5 118.5 -13.5 149.0 -0.5 179.5 12.0 217.5 12.0 279.5 12.0 328.5 -9.0 L316.5 -118.0 Q279.5 -104.5 260.0 -104.5 246.0 -104.5 236.5 -111.5 226.5 -118.5 224.0 -129.0 221.0 -140.0 221.0 -205.0 L221.0 -419.0 317.0 -419.0 317.0 -531.0" fill-rule="evenodd" stroke="none"/>
    </g>
    <g id="font_Arial_a0">
      <path d="M366.5 -255.0 L366.5 -227.0 Q366.5 -176.5 361.0 -158.5 353.0 -131.0 327.5 -112.0 293.0 -87.0 255.0 -87.0 221.0 -87.0 199.0 -108.5 177.0 -130.0 177.0 -159.5 177.0 -189.5 204.5 -209.0 222.5 -221.0 281.0 -233.5 339.5 -246.0 366.5 -255.0 M178.5 -369.0 Q191.5 -406.0 212.5 -420.5 233.5 -435.5 271.0 -435.5 326.5 -435.5 346.5 -418.0 366.5 -401.0 366.5 -360.5 L366.5 -346.5 Q328.5 -330.5 230.0 -312.0 157.0 -298.0 118.5 -279.0 79.5 -260.5 58.0 -225.0 36.5 -190.0 36.5 -145.0 36.5 -77.0 84.0 -32.5 131.0 12.0 213.0 12.0 259.5 12.0 300.5 -5.5 341.5 -23.0 377.5 -58.0 379.0 -54.0 382.5 -41.5 390.5 -14.0 396.0 0.0 L535.0 0.0 Q516.5 -38.0 510.0 -71.0 503.0 -104.5 503.0 -174.5 L504.5 -338.5 Q504.5 -430.0 486.0 -464.0 467.0 -498.5 421.0 -520.5 375.0 -543.0 281.0 -543.0 177.5 -543.0 125.0 -506.0 72.5 -469.0 51.0 -392.0 L178.5 -369.0" fill-rule="evenodd" stroke="none"/>
    </g>
    <g id="font_Arial_i0">
      <path d="M73.5 0.0 L214.0 0.0 214.0 -531.0 73.5 -531.0 73.5 0.0 M73.5 -603.0 L214.0 -603.0 214.0 -733.0 73.5 -733.0 73.5 -603.0" fill-rule="evenodd" stroke="none"/>
    </g>
    <g id="font_Arial_l0">
      <path d="M73.5 0.0 L214.0 0.0 214.0 -733.0 73.5 -733.0 73.5 0.0" fill-rule="evenodd" stroke="none"/>
    </g>
    <g id="font_Arial_s0">
      <path d="M24.0 -151.5 Q43.5 -76.0 107.0 -32.0 170.0 12.0 278.5 12.0 398.0 12.0 459.0 -40.5 520.0 -93.0 520.0 -166.0 520.0 -233.0 476.0 -270.5 431.5 -307.5 319.5 -333.0 207.0 -358.5 188.0 -372.5 174.0 -383.0 174.0 -398.0 174.0 -415.5 190.0 -426.5 214.0 -442.0 269.5 -442.0 313.5 -442.0 337.5 -425.5 361.0 -409.0 369.5 -378.0 L502.0 -402.5 Q482.0 -472.0 429.0 -507.5 376.0 -543.0 267.0 -543.0 152.5 -543.0 98.0 -496.0 43.5 -449.0 43.5 -380.0 43.5 -303.5 106.5 -260.5 152.0 -229.5 322.0 -192.0 358.5 -183.5 369.0 -173.5 379.0 -163.0 379.0 -147.0 379.0 -123.5 360.5 -109.5 333.0 -89.5 278.5 -89.5 229.0 -89.5 201.5 -110.5 174.0 -132.0 165.0 -173.0 L24.0 -151.5" fill-rule="evenodd" stroke="none"/>
    </g>
    <g id="font_Arial_10">
      <path d="M403.0 0.0 L403.0 -736.0 289.0 -736.0 Q265.0 -669.0 200.5 -618.5 136.0 -568.5 81.0 -550.5 L81.0 -423.0 Q185.5 -457.5 262.5 -529.5 L262.5 0.0 403.0 0.0" fill-rule="evenodd" stroke="none"/>
    </g>
    <g id="text2" transform="matrix(1.0, 0.0, 0.0, 1.0, 4.0, 2.0)">
      <g transform="matrix(1.0, 0.0, 0.0, 1.0, -4.0, -2.0)">
        <use fill="#ffffcc" height="291.3" transform="matrix(0.0117, 0.0, 0.0, 0.0117, 0.0, 10.85)" width="265.9" xlink:href="#font_Arial_d0"/>
        <use fill="#ffffcc" height="291.3" transform="matrix(0.0117, 0.0, 0.0, 0.0117, 7.35, 10.85)" width="265.9" xlink:href="#font_Arial_e0"/>
        <use fill="#ffffcc" height="291.3" transform="matrix(0.0117, 0.0, 0.0, 0.0117, 14.05, 10.85)" width="265.9" xlink:href="#font_Arial_t0"/>
        <use fill="#ffffcc" height="291.3" transform="matrix(0.0117, 0.0, 0.0, 0.0117, 18.05, 10.85)" width="265.9" xlink:href="#font_Arial_a0"/>
        <use fill="#ffffcc" height="291.3" transform="matrix(0.0117, 0.0, 0.0, 0.0117, 24.75, 10.85)" width="265.9" xlink:href="#font_Arial_i0"/>
        <use fill="#ffffcc" height="291.3" transform="matrix(0.0117, 0.0, 0.0, 0.0117, 28.1, 10.85)" width="265.9" xlink:href="#font_Arial_l0"/>
        <use fill="#ffffcc" height="291.3" transform="matrix(0.0117, 0.0, 0.0, 0.0117, 31.45, 10.85)" width="265.9" xlink:href="#font_Arial_s0"/>
        <use fill="#ffffcc" height="291.3" transform="matrix(0.0117, 0.0, 0.0, 0.0117, 38.15, 10.85)" width="265.9" xlink:href="#font_Arial_10"/>
      </g>
    </g>
    <g id="text3" transform="matrix(1.0, 0.0, 0.0, 1.0, 4.0, 2.0)">
      <g transform="matrix(1.0, 0.0, 0.0, 1.0, -4.0, -2.0)">
        <use fill="#ffffcc" height="30.5" transform="matrix(0.0117, 0.0, 0.0, 0.0117, 0.0, 10.85)" width="118.4" xlink:href="#font_Arial_S0"/>
        <use fill="#ffffcc" height="30.5" transform="matrix(0.0117, 0.0, 0.0, 0.0117, 8.0, 10.85)" width="118.4" xlink:href="#font_Arial_h0"/>
        <use fill="#ffffcc" height="30.5" transform="matrix(0.0117, 0.0, 0.0, 0.0117, 15.35, 10.85)" width="118.4" xlink:href="#font_Arial_i0"/>
        <use fill="#ffffcc" height="30.5" transform="matrix(0.0117, 0.0, 0.0, 0.0117, 18.7, 10.85)" width="118.4" xlink:href="#font_Arial_p0"/>
      </g>
      <g transform="matrix(1.0, 0.0, 0.0, 1.0, -4.0, -2.0)">
        <use fill="#ffffcc" height="30.5" transform="matrix(0.0117, 0.0, 0.0, 0.0117, 29.4, 10.85)" width="118.4" xlink:href="#font_Arial_D0"/>
        <use fill="#ffffcc" height="30.5" transform="matrix(0.0117, 0.0, 0.0, 0.0117, 38.05, 10.85)" width="118.4" xlink:href="#font_Arial_e0"/>
        <use fill="#ffffcc" height="30.5" transform="matrix(0.0117, 0.0, 0.0, 0.0117, 44.75, 10.85)" width="118.4" xlink:href="#font_Arial_t0"/>
        <use fill="#ffffcc" height="30.5" transform="matrix(0.0117, 0.0, 0.0, 0.0117, 48.75, 10.85)" width="118.4" xlink:href="#font_Arial_a0"/>
        <use fill="#ffffcc" height="30.5" transform="matrix(0.0117, 0.0, 0.0, 0.0117, 55.45, 10.85)" width="118.4" xlink:href="#font_Arial_i0"/>
        <use fill="#ffffcc" height="30.5" transform="matrix(0.0117, 0.0, 0.0, 0.0117, 58.8, 10.85)" width="118.4" xlink:href="#font_Arial_l0"/>
        <use fill="#ffffcc" height="30.5" transform="matrix(0.0117, 0.0, 0.0, 0.0117, 62.15, 10.85)" width="118.4" xlink:href="#font_Arial_s0"/>
      </g>
    </g>
    <g id="font_Arial_S0">
      <path d="M37.0 -238.5 Q51.5 -115.5 126.0 -51.0 200.5 13.0 339.5 13.0 435.0 13.0 499.0 -13.5 563.0 -40.5 598.0 -95.5 633.0 -150.5 633.0 -213.5 633.0 -283.0 604.0 -330.0 574.5 -377.5 523.0 -404.5 471.0 -432.0 363.0 -457.5 255.0 -483.0 227.0 -506.5 205.0 -525.0 205.0 -551.0 205.0 -579.5 228.5 -596.5 265.0 -623.0 329.5 -623.0 392.0 -623.0 423.5 -598.0 454.5 -573.5 464.0 -517.0 L612.0 -523.5 Q608.5 -624.5 539.0 -685.0 469.0 -745.5 331.0 -745.5 246.5 -745.5 187.0 -720.0 127.0 -694.5 95.5 -645.5 63.5 -597.0 63.5 -541.0 63.5 -454.0 131.0 -393.5 179.0 -350.5 298.0 -321.0 390.5 -298.0 416.5 -289.0 454.5 -275.5 470.0 -257.0 485.0 -239.0 485.0 -213.0 485.0 -172.5 449.0 -142.0 412.5 -112.0 341.0 -112.0 273.5 -112.0 234.0 -146.0 194.0 -180.0 181.0 -252.5 L37.0 -238.5" fill-rule="evenodd" stroke="none"/>
    </g>
    <g id="font_Arial_h0">
      <path d="M213.5 -733.0 L73.0 -733.0 73.0 0.0 213.5 0.0 213.5 -266.0 Q213.5 -333.0 226.5 -367.0 239.0 -401.5 266.5 -418.5 294.0 -435.5 329.0 -435.5 359.5 -435.5 380.0 -422.0 400.0 -409.0 408.0 -386.5 416.0 -364.0 416.0 -280.5 L416.0 0.0 556.5 0.0 556.5 -311.5 Q556.5 -383.0 549.5 -417.0 542.0 -451.0 522.5 -479.0 502.5 -507.0 463.5 -525.0 424.5 -543.0 376.0 -543.0 281.5 -543.0 213.5 -463.5 L213.5 -733.0" fill-rule="evenodd" stroke="none"/>
    </g>
    <g id="font_Arial_p0">
      <path d="M208.5 -274.5 Q208.5 -352.5 242.5 -392.0 276.5 -432.0 328.0 -432.0 377.5 -432.0 411.0 -391.5 444.5 -351.0 444.5 -267.5 444.5 -178.0 412.0 -138.5 379.5 -99.5 330.5 -99.5 279.5 -99.5 244.0 -142.0 208.5 -185.0 208.5 -274.5 M69.5 -531.0 L69.5 202.0 210.0 202.0 210.0 -65.5 Q249.5 -23.0 285.5 -5.5 321.0 12.0 365.0 12.0 457.5 12.0 522.5 -61.5 587.5 -135.5 587.5 -268.5 587.5 -398.0 523.0 -470.5 458.5 -543.0 366.0 -543.0 313.0 -543.0 269.5 -518.0 226.0 -493.0 200.5 -453.0 L200.5 -531.0 69.5 -531.0" fill-rule="evenodd" stroke="none"/>
    </g>
    <g id="font_Arial_D0">
      <path d="M222.0 -609.0 L288.5 -609.0 Q379.0 -609.0 410.0 -602.0 451.5 -593.0 478.5 -567.5 505.5 -542.0 520.5 -496.5 535.5 -451.0 535.5 -366.0 535.5 -281.0 520.5 -231.5 505.5 -182.5 482.0 -161.0 458.0 -139.5 422.0 -130.5 394.5 -123.5 332.5 -123.5 L222.0 -123.5 222.0 -609.0 M74.0 -733.0 L74.0 0.0 352.5 0.0 Q434.5 0.0 483.5 -15.5 549.0 -36.5 587.5 -74.0 638.5 -123.5 666.0 -203.5 688.5 -269.0 688.5 -359.5 688.5 -462.5 664.5 -532.5 640.5 -603.0 594.5 -651.5 548.5 -700.0 484.0 -719.0 436.0 -733.0 344.5 -733.0 L74.0 -733.0" fill-rule="evenodd" stroke="none"/>
    </g>
    <g id="sprite4" transform="matrix(1.0, 0.0, 0.0, 1.0, 0.5, 1.25)">
      <use data-characterId="29" height="19.05" transform="matrix(1.0, 0.0, 0.0, 1.0, -0.5, -0.5)" width="115.5" xlink:href="#shape6"/>
      <use data-characterId="31" height="31.4" id="actionlabel" transform="matrix(1.0, 0.0, 0.0, 1.0, 1.5, -1.25)" width="118.4" xlink:href="#text4"/>
    </g>
    <g id="shape6" transform="matrix(1.0, 0.0, 0.0, 1.0, 0.5, 0.5)">
      <path d="M112.2 0.0 Q114.5 0.0 114.5 2.3 L114.5 15.75 Q114.5 18.05 112.2 18.05 L2.3 18.05 Q0.0 18.05 0.0 15.75 L0.0 2.3 Q0.0 0.0 2.3 0.0 L112.2 0.0" fill="#0066cc" fill-rule="evenodd" stroke="none"/>
      <path d="M112.2 0.0 L2.3 0.0 Q0.0 0.0 0.0 2.3 L0.0 15.75 Q0.0 18.05 2.3 18.05 L112.2 18.05 Q114.5 18.05 114.5 15.75 L114.5 2.3 Q114.5 0.0 112.2 0.0 Z" fill="none" stroke="#000000" stroke-linecap="butt" stroke-linejoin="miter-clip" stroke-miterlimit="3.0" stroke-width="1.0"/>
    </g>
    <g id="text4" transform="matrix(1.0, 0.0, 0.0, 1.0, 4.0, 2.0)">
      <g transform="matrix(1.0, 0.0, 0.0, 1.0, -4.0, -2.0)">
        <use fill="#ffff99" height="31.4" transform="matrix(0.0117, 0.0, 0.0, 0.0117, 40.5, 10.85)" width="118.4" xlink:href="#font_Arial_A0"/>
        <use fill="#ffff99" height="31.4" transform="matrix(0.0117, 0.0, 0.0, 0.0117, 49.15, 10.85)" width="118.4" xlink:href="#font_Arial_c0"/>
        <use fill="#ffff99" height="31.4" transform="matrix(0.0117, 0.0, 0.0, 0.0117, 55.85, 10.85)" width="118.4" xlink:href="#font_Arial_t0"/>
        <use fill="#ffff99" height="31.4" transform="matrix(0.0117, 0.0, 0.0, 0.0117, 59.85, 10.85)" width="118.4" xlink:href="#font_Arial_i0"/>
        <use fill="#ffff99" height="31.4" transform="matrix(0.0117, 0.0, 0.0, 0.0117, 63.2, 10.85)" width="118.4" xlink:href="#font_Arial_o0"/>
        <use fill="#ffff99" height="31.4" transform="matrix(0.0117, 0.0, 0.0, 0.0117, 70.55, 10.85)" width="118.4" xlink:href="#font_Arial_n0"/>
      </g>
    </g>
    <g id="font_Arial_A0">
      <path d="M463.0 -290.0 L263.0 -290.0 362.0 -562.0 463.0 -290.0 M735.5 0.0 L442.0 -733.0 285.5 -733.0 0.0 0.0 157.0 0.0 217.5 -166.5 510.5 -166.5 574.5 0.0 735.5 0.0" fill-rule="evenodd" stroke="none"/>
    </g>
    <g id="font_Arial_c0">
      <path d="M536.5 -374.0 Q511.5 -459.5 454.5 -501.0 397.0 -543.0 300.0 -543.0 181.5 -543.0 112.0 -469.5 42.5 -396.5 42.5 -265.0 42.5 -135.0 112.0 -61.5 181.0 12.0 297.5 12.0 400.0 12.0 461.0 -36.5 522.0 -85.0 543.5 -180.0 L405.5 -203.5 Q395.0 -148.0 369.5 -125.0 344.0 -102.5 304.0 -102.5 250.5 -102.5 219.0 -141.5 187.0 -180.5 187.0 -275.0 187.0 -360.0 218.5 -396.0 249.5 -432.5 302.0 -432.5 341.5 -432.5 366.5 -411.5 391.0 -390.5 398.0 -349.0 L536.5 -374.0" fill-rule="evenodd" stroke="none"/>
    </g>
    <g id="font_Arial_o0">
      <path d="M185.0 -265.5 Q185.0 -344.5 222.5 -386.5 260.0 -428.5 315.0 -428.5 370.0 -428.5 407.5 -386.5 444.5 -344.5 444.5 -266.5 444.5 -186.5 407.5 -144.5 370.0 -102.5 315.0 -102.5 260.0 -102.5 222.5 -144.5 185.0 -186.5 185.0 -265.5 M41.0 -273.0 Q41.0 -181.5 75.5 -117.5 110.0 -54.0 176.5 -21.0 242.5 12.0 315.5 12.0 433.5 12.0 511.5 -67.0 589.0 -146.5 589.0 -267.0 589.0 -386.5 512.0 -464.5 435.0 -543.0 314.5 -543.0 236.5 -543.0 173.5 -508.5 110.0 -474.0 75.5 -408.5 41.0 -343.0 41.0 -273.0" fill-rule="evenodd" stroke="none"/>
    </g>
    <g id="font_Arial_n0">
      <path d="M556.5 0.0 L556.5 -330.0 Q556.5 -391.5 549.0 -424.5 541.0 -457.5 521.5 -483.5 501.5 -509.5 463.0 -526.0 424.5 -543.0 378.0 -543.0 272.5 -543.0 203.0 -453.0 L203.0 -531.0 72.5 -531.0 72.5 0.0 213.0 0.0 213.0 -240.5 Q213.0 -329.5 224.0 -362.5 234.5 -395.5 263.5 -415.5 292.5 -435.5 329.0 -435.5 357.5 -435.5 378.0 -421.5 398.0 -407.5 407.0 -382.0 416.0 -357.0 416.0 -271.0 L416.0 0.0 556.5 0.0" fill-rule="evenodd" stroke="none"/>
    </g>
    <g id="sprite5" transform="matrix(1.0, 0.0, 0.0, 1.0, 62.4, 42.4)">
      <use data-characterId="918" height="80.9" transform="matrix(1.0, 0.0, 0.0, 1.0, -62.4, -42.4)" width="129.15" xlink:href="#shape7"/>
      <use data-characterId="919" height="58.0" id="question" transform="matrix(1.0, 0.0, 0.0, 1.0, -58.0, -38.25)" width="131.6" xlink:href="#text5"/>
      <use data-characterId="920" height="30.95" id="yes_button" transform="matrix(1.0, 0.0, 0.0, 1.0, -47.05, 4.5)" width="37.0" xlink:href="#button0"/>
      <use data-characterId="921" height="30.95" id="no_button" transform="matrix(1.0, 0.0, 0.0, 1.0, 13.95, 5.5)" width="37.0" xlink:href="#button1"/>
    </g>
    <g id="shape7" transform="matrix(1.0, 0.0, 0.0, 1.0, 62.4, 42.4)">
      <path d="M50.0 37.5 L50.0 37.55 -50.0 37.55 -50.0 37.5 50.0 37.5" fill="#ff0066" fill-rule="evenodd" stroke="none"/>
      <path d="M-50.0 37.5 L-55.35 37.5 Q-57.6 37.1 -59.3 35.45 -61.3 33.45 -61.4 30.65 L-61.4 -34.5 Q-61.3 -37.3 -59.3 -39.3 -57.2 -41.35 -54.25 -41.4 L58.4 -41.4 Q61.35 -41.35 63.45 -39.3 65.45 -37.3 65.75 -34.5 L65.75 30.75 Q65.5 33.3 63.65 35.2 61.55 37.25 58.6 37.5 L50.0 37.5 -50.0 37.5" fill="#003366" fill-rule="evenodd" stroke="none"/>
      <path d="M-50.0 37.5 L-55.35 37.5 Q-57.6 37.1 -59.3 35.45 -61.3 33.45 -61.4 30.65 L-61.4 -34.5 Q-61.3 -37.3 -59.3 -39.3 -57.2 -41.35 -54.25 -41.4 L58.4 -41.4 Q61.35 -41.35 63.45 -39.3 65.45 -37.3 65.75 -34.5 L65.75 30.75 Q65.5 33.3 63.65 35.2 61.55 37.25 58.6 37.5 L50.0 37.5 -50.0 37.5 Z" fill="none" stroke="#333333" stroke-linecap="butt" stroke-linejoin="miter-clip" stroke-miterlimit="3.0" stroke-width="2.0"/>
    </g>
    <g id="text5" transform="matrix(1.0, 0.0, 0.0, 1.0, 4.0, 2.0)">
      <g transform="matrix(1.0, 0.0, 0.0, 1.0, -4.0, -2.0)">
        <use fill="#ffffff" height="58.0" transform="matrix(0.0098, 0.0, 0.0, 0.0098, 44.95, 9.05)" width="131.6" xlink:href="#font_Arial_q0"/>
        <use fill="#ffffff" height="58.0" transform="matrix(0.0098, 0.0, 0.0, 0.0098, 51.05, 9.05)" width="131.6" xlink:href="#font_Arial_u0"/>
        <use fill="#ffffff" height="58.0" transform="matrix(0.0098, 0.0, 0.0, 0.0098, 57.15, 9.05)" width="131.6" xlink:href="#font_Arial_e0"/>
        <use fill="#ffffff" height="58.0" transform="matrix(0.0098, 0.0, 0.0, 0.0098, 62.7, 9.05)" width="131.6" xlink:href="#font_Arial_s0"/>
        <use fill="#ffffff" height="58.0" transform="matrix(0.0098, 0.0, 0.0, 0.0098, 68.25, 9.05)" width="131.6" xlink:href="#font_Arial_t0"/>
        <use fill="#ffffff" height="58.0" transform="matrix(0.0098, 0.0, 0.0, 0.0098, 71.6, 9.05)" width="131.6" xlink:href="#font_Arial_i0"/>
        <use fill="#ffffff" height="58.0" transform="matrix(0.0098, 0.0, 0.0, 0.0098, 74.4, 9.05)" width="131.6" xlink:href="#font_Arial_o0"/>
        <use fill="#ffffff" height="58.0" transform="matrix(0.0098, 0.0, 0.0, 0.0098, 80.5, 9.05)" width="131.6" xlink:href="#font_Arial_n0"/>
      </g>
    </g>
    <g id="font_Arial_q0">
      <path d="M425.0 -272.0 Q425.0 -186.0 388.5 -142.5 352.0 -99.0 303.5 -99.0 255.0 -99.0 222.0 -137.5 189.0 -176.5 189.0 -264.0 189.0 -352.0 223.5 -392.5 257.5 -433.0 308.5 -433.0 358.5 -433.0 392.0 -393.0 425.0 -353.5 425.0 -272.0 M420.5 202.0 L561.0 202.0 561.0 -531.0 431.5 -531.0 431.5 -452.5 Q401.5 -498.0 363.0 -520.5 324.0 -543.0 271.0 -543.0 175.0 -543.0 110.5 -471.0 45.5 -399.5 45.5 -271.5 45.5 -135.5 114.5 -56.0 173.0 12.0 263.5 12.0 311.0 12.0 352.0 -8.5 393.0 -29.5 420.5 -65.0 L420.5 202.0" fill-rule="evenodd" stroke="none"/>
    </g>
    <g id="font_Arial_u0">
      <path d="M423.0 0.0 L553.5 0.0 553.5 -531.0 413.0 -531.0 413.0 -307.0 Q413.0 -193.0 402.5 -163.5 392.0 -134.5 363.5 -114.5 335.0 -95.0 299.0 -95.0 267.5 -95.0 247.0 -109.5 226.5 -124.5 219.0 -149.5 211.0 -175.0 211.0 -287.0 L211.0 -531.0 70.5 -531.0 70.5 -195.0 Q70.5 -120.0 89.5 -77.5 108.5 -35.0 151.0 -11.5 193.5 12.0 247.0 12.0 299.5 12.0 347.0 -12.5 394.0 -37.0 423.0 -79.5 L423.0 0.0" fill-rule="evenodd" stroke="none"/>
    </g>
    <g id="button0" transform="matrix(1.0, 0.0, 0.0, 1.0, 18.5, 13.5)">
      <use data-characterId="695" height="27.0" transform="matrix(1.0, 0.0, 0.0, 1.0, -18.5, -13.5)" width="37.0" xlink:href="#shape8"/>
      <use data-characterId="696" height="21.7" transform="matrix(1.1667, 0.0, 0.0, 1.25, -14.1333, -9.6625)" width="27.2" xlink:href="#text6"/>
    </g>
    <g id="shape8" transform="matrix(1.0, 0.0, 0.0, 1.0, 18.5, 13.5)">
      <path d="M17.5 12.5 L-17.5 12.5 -17.5 -12.5 17.5 -12.5 17.5 12.5" fill="#ffffff" fill-rule="evenodd" stroke="none"/>
      <path d="M14.2 -12.5 L-14.1 -12.5 Q-15.35 -12.4 -16.3 -11.45 -17.25 -10.5 -17.5 -9.25 L-17.5 9.2 Q-17.35 10.45 -16.4 11.4 -15.45 12.35 -14.2 12.5 L13.3 12.5 13.75 12.5 14.2 12.5 Q15.45 12.35 16.4 11.4 17.35 10.45 17.5 9.2 L17.5 8.75 17.5 8.3 17.5 -9.25 Q17.35 -10.5 16.4 -11.45 15.45 -12.4 14.2 -12.5 Z" fill="none" stroke="#000000" stroke-linecap="butt" stroke-linejoin="miter-clip" stroke-miterlimit="3.0" stroke-width="2.0"/>
    </g>
    <g id="text6" transform="matrix(1.0, 0.0, 0.0, 1.0, 2.0, 2.05)">
      <g transform="matrix(1.0, 0.0, 0.0, 1.0, -2.0, -2.0)">
        <use fill="#000000" height="21.7" transform="matrix(0.0098, 0.0, 0.0, 0.0098, 0.0, 9.0)" width="27.2" xlink:href="#font_Arial_Y0"/>
        <use fill="#000000" height="21.7" transform="matrix(0.0098, 0.0, 0.0, 0.0098, 6.65, 9.0)" width="27.2" xlink:href="#font_Arial_E0"/>
        <use fill="#000000" height="21.7" transform="matrix(0.0098, 0.0, 0.0, 0.0098, 13.3, 9.0)" width="27.2" xlink:href="#font_Arial_S0"/>
      </g>
    </g>
    <g id="font_Arial_Y0">
      <path d="M267.0 0.0 L414.5 0.0 414.5 -307.5 684.0 -733.0 513.5 -733.0 344.5 -443.0 172.0 -733.0 -1.5 -733.0 267.0 -308.5 267.0 0.0" fill-rule="evenodd" stroke="none"/>
    </g>
    <g id="font_Arial_E0">
      <path d="M74.5 0.0 L632.0 0.0 632.0 -123.5 222.5 -123.5 222.5 -323.0 590.5 -323.0 590.5 -446.5 222.5 -446.5 222.5 -609.0 618.0 -609.0 618.0 -733.0 74.5 -733.0 74.5 0.0" fill-rule="evenodd" stroke="none"/>
    </g>
    <g id="button1" transform="matrix(1.0, 0.0, 0.0, 1.0, 99.5, 13.5)">
      <use data-characterId="698" height="27.0" transform="matrix(1.0, 0.0, 0.0, 1.0, -99.5, -13.5)" width="37.0" xlink:href="#shape9"/>
      <use data-characterId="699" height="21.7" transform="matrix(1.1667, 0.0, 0.0, 1.25, -90.125, -9.6625)" width="21.5" xlink:href="#text7"/>
    </g>
    <g id="shape9" transform="matrix(1.0, 0.0, 0.0, 1.0, 99.5, 13.5)">
      <path d="M-98.5 -9.25 L-98.5 -12.5 -95.1 -12.5 Q-96.35 -12.4 -97.3 -11.45 -98.25 -10.5 -98.5 -9.25 -98.25 -10.5 -97.3 -11.45 -96.35 -12.4 -95.1 -12.5 L-66.8 -12.5 -63.5 -12.5 -63.5 -9.25 -63.5 8.3 -63.5 8.75 -63.5 9.2 -63.5 12.5 -66.8 12.5 -67.25 12.5 -67.7 12.5 -95.2 12.5 -98.5 12.5 -98.5 9.2 -98.5 -9.25 M-98.5 9.2 Q-98.35 10.45 -97.4 11.4 -96.45 12.35 -95.2 12.5 -96.45 12.35 -97.4 11.4 -98.35 10.45 -98.5 9.2 M-63.5 9.2 Q-63.65 10.45 -64.6 11.4 -65.55 12.35 -66.8 12.5 -65.55 12.35 -64.6 11.4 -63.65 10.45 -63.5 9.2 M-63.5 -9.25 Q-63.65 -10.5 -64.6 -11.45 -65.55 -12.4 -66.8 -12.5 -65.55 -12.4 -64.6 -11.45 -63.65 -10.5 -63.5 -9.25" fill="#ffffff" fill-rule="evenodd" stroke="none"/>
      <path d="M-98.5 -9.25 Q-98.25 -10.5 -97.3 -11.45 -96.35 -12.4 -95.1 -12.5 L-66.8 -12.5 Q-65.55 -12.4 -64.6 -11.45 -63.65 -10.5 -63.5 -9.25 L-63.5 8.3 -63.5 8.75 -63.5 9.2 Q-63.65 10.45 -64.6 11.4 -65.55 12.35 -66.8 12.5 L-67.25 12.5 -67.7 12.5 -95.2 12.5 Q-96.45 12.35 -97.4 11.4 -98.35 10.45 -98.5 9.2 L-98.5 -9.25 Z" fill="none" stroke="#000000" stroke-linecap="butt" stroke-linejoin="miter-clip" stroke-miterlimit="3.0" stroke-width="2.0"/>
    </g>
    <g id="text7" transform="matrix(1.0, 0.0, 0.0, 1.0, -0.75, 2.05)">
      <g transform="matrix(1.0, 0.0, 0.0, 1.0, 0.0, -2.0)">
        <use fill="#000000" height="21.7" transform="matrix(0.0098, 0.0, 0.0, 0.0098, 0.0, 9.0)" width="21.5" xlink:href="#font_Arial_N0"/>
        <use fill="#000000" height="21.7" transform="matrix(0.0098, 0.0, 0.0, 0.0098, 7.2, 9.0)" width="21.5" xlink:href="#font_Arial_O0"/>
      </g>
    </g>
    <g id="font_Arial_N0">
      <path d="M76.0 0.0 L213.5 0.0 213.5 -478.0 509.0 0.0 657.5 0.0 657.5 -733.0 520.0 -733.0 520.0 -243.5 220.0 -733.0 76.0 -733.0 76.0 0.0" fill-rule="evenodd" stroke="none"/>
    </g>
    <g id="font_Arial_O0">
      <path d="M197.0 -367.0 Q197.0 -493.5 253.0 -556.0 309.0 -619.0 400.5 -619.0 492.0 -619.0 547.5 -557.0 602.5 -495.0 602.5 -369.0 602.5 -241.5 546.0 -177.5 489.0 -114.0 400.5 -114.0 312.0 -114.0 254.5 -178.0 197.0 -242.5 197.0 -367.0 M44.5 -362.0 Q44.5 -187.0 141.0 -87.0 237.5 12.5 401.0 12.5 562.5 12.5 659.0 -87.5 755.5 -188.0 755.5 -365.5 755.5 -544.5 658.5 -645.0 561.0 -745.5 399.0 -745.5 309.5 -745.5 241.0 -716.5 189.5 -695.0 146.5 -650.5 103.0 -606.0 78.0 -550.0 44.5 -474.0 44.5 -362.0" fill-rule="evenodd" stroke="none"/>
    </g>
  </defs>
</svg>
