<?xml version="1.0" encoding="UTF-8" standalone="no"?>
<svg xmlns:xlink="http://www.w3.org/1999/xlink" height="73.0px" width="233.35px" xmlns="http://www.w3.org/2000/svg">
  <g transform="matrix(1.0, 0.0, 0.0, 1.0, 117.25, 41.4)">
    <use data-characterId="595" height="73.0" transform="matrix(1.0, 0.0, 0.0, 1.0, -117.25, -41.4)" width="233.35" xlink:href="#morphshape0"/>
  </g>
  <defs>
    <g id="morphshape0" transform="matrix(1.0, 0.0, 0.0, 1.0, 117.25, 41.4)">
      <path d="M-55.25 -23.25 L-55.2 1.05 51.3 1.0 54.85 -13.45 Q54.8 -21.95 53.95 -29.55 53.75 -32.25 51.35 -34.65 47.95 -39.2 37.5 -39.55 L-34.85 -39.65 Q-48.3 -39.45 -51.6 -34.85 -55.15 -30.0 -55.25 -23.25" fill="url(#gradient0)" fill-rule="evenodd" stroke="none"/>
      <path d="M-55.25 1.05 Q-55.05 5.15 -52.5 8.5 -50.0 11.95 -46.35 13.45 L-43.95 14.4 Q-33.9 17.1 -17.95 16.95 L26.2 16.9 41.35 16.4 41.4 16.4 44.35 15.9 Q48.85 14.8 51.5 12.2 L52.35 10.85 53.05 9.45 54.0 7.65 54.3 5.9 51.05 4.05 45.1 1.0 -55.2 1.05 M21.4 2.25 L21.4 2.8 Q21.55 6.25 22.55 8.8 23.6 11.4 30.5 11.15 L45.2 10.7 Q52.8 10.55 53.8 7.7 L54.25 6.15 Q54.8 4.0 54.85 1.25 L21.35 2.25" fill="#0044ee" fill-rule="evenodd" stroke="none"/>
      <path d="M-55.25 -23.25 Q-55.2 -27.9 -52.45 -31.55 -50.1 -35.0 -46.75 -36.8 -36.05 -39.55 -17.6 -39.6 L14.55 -39.55 Q27.3 -39.35 34.85 -36.65 L35.8 -36.15 Q41.2 -33.55 45.8 -30.05 50.05 -27.55 52.35 -23.45 54.7 -19.5 54.8 -15.3 L54.85 0.95 54.65 3.05 52.65 8.25 52.6 8.35 52.15 9.05 Q50.35 11.5 47.8 13.3 L46.85 13.95 Q45.65 14.6 44.15 15.15 L44.1 15.15 Q36.1 16.85 24.05 16.9 L-13.15 16.95 Q-26.95 17.1 -34.9 14.4 -41.15 11.55 -46.4 7.7 L-47.05 7.3 Q-50.25 5.2 -52.55 1.4 -55.0 -2.35 -55.1 -6.85 L-55.15 -23.25 M-55.25 -23.25 Q-55.15 -30.0 -51.6 -34.85 -48.3 -39.45 -34.85 -39.65 L37.5 -39.55 Q47.95 -39.2 51.35 -34.65 53.75 -32.25 53.95 -29.55 54.8 -21.95 54.85 -13.45 L51.3 1.0 -55.2 1.05 -55.25 -23.25 M-55.2 1.05 L45.1 1.0 51.05 4.05 54.3 5.9 54.0 7.65 53.05 9.45 52.35 10.85 51.5 12.2 Q48.85 14.8 44.35 15.9 L41.4 16.4 41.35 16.4 26.2 16.9 -17.95 16.95 Q-33.9 17.1 -43.95 14.4 L-46.35 13.45 Q-50.0 11.95 -52.5 8.5 -55.05 5.15 -55.25 1.05 M14.6 7.45 Q33.65 7.0 52.15 5.8 52.4 9.05 51.85 11.45 51.0 13.6 48.25 14.4 45.9 15.15 42.25 15.35 34.1 15.9 25.75 16.25 18.3 16.55 16.7 14.0 15.2 11.25 14.7 7.45 M17.95 1.05 L54.35 1.0 Q54.55 4.35 54.05 6.9 51.95 10.25 44.4 10.35 L28.4 10.35 Q21.1 10.45 19.7 7.7 18.35 4.95 17.95 1.2 L17.95 1.0 M21.35 2.25 L54.85 1.25 Q54.8 4.0 54.25 6.15 L53.8 7.7 Q52.8 10.55 45.2 10.7 L30.5 11.15 Q23.6 11.4 22.55 8.8 21.55 6.25 21.4 2.8 L21.4 2.25" fill="none" stroke="#0000cc" stroke-linecap="round" stroke-linejoin="round" stroke-width="3.0"/>
    </g>
    <linearGradient gradientTransform="matrix(0.1406, 0.0, 0.0, 0.0305, -0.6, -14.9)" gradientUnits="userSpaceOnUse" id="gradient0" spreadMethod="pad" x1="-819.2" x2="819.2">
      <stop offset="0.0" stop-color="#f9f9fa"/>
      <stop offset="0.4980392156862745" stop-color="#ffffff"/>
      <stop offset="1.0" stop-color="#fff6f6"/>
    </linearGradient>
  </defs>
</svg>
