<?xml version="1.0" encoding="UTF-8" standalone="no"?>
<svg xmlns:xlink="http://www.w3.org/1999/xlink" height="32.0px" width="32.0px" xmlns="http://www.w3.org/2000/svg">
  <g transform="matrix(1.0, 0.0, 0.0, 1.0, 16.0, 16.0)">
    <use data-characterId="81" height="16.0" transform="matrix(2.0, 0.0, 0.0, 2.0, -16.0, -16.0)" width="16.0" xlink:href="#sprite0"/>
  </g>
  <defs>
    <g id="sprite0" transform="matrix(1.0, 0.0, 0.0, 1.0, 8.0, 8.0)">
      <use data-characterId="68" height="16.0" transform="matrix(1.0, 0.0, 0.0, 1.0, -8.0, -8.0)" width="16.0" xlink:href="#shape0"/>
    </g>
    <g id="shape0" transform="matrix(1.0, 0.0, 0.0, 1.0, 8.0, 8.0)">
      <pattern height="16" id="PatternID_68_1" overflow="visible" patternTransform="matrix(1.0, 0.0, 0.0, 1.0, -8.0, -8.0)" patternUnits="userSpaceOnUse" viewBox="0 0 16 16" width="16">
        <image height="16" width="16" xlink:href="data:image/PNG;base64,iVBORw0KGgoAAAANSUhEUgAAABAAAAAQCAYAAAAf8/9hAAAAS0lEQVR42mNgGAWDGKwtFvi/NJvj/7kpHP+LJRj+k6QZpAEZkGwAyHZkAOKT7YLnxzRJdwEIvN/r9P/YsWP/l2qSoRnmitGkRBwAAMSePwp8c4zGAAAAAElFTkSuQmCC"/>
      </pattern>
      <path d="M-8.0 -8.0 L8.0 -8.0 8.0 8.0 -8.0 8.0 -8.0 -8.0" style="fill:url(#PatternID_68_1)"/>
    </g>
  </defs>
</svg>
