<?xml version="1.0" encoding="UTF-8" standalone="no"?>
<svg xmlns:xlink="http://www.w3.org/1999/xlink" height="70.1px" width="71.2px" xmlns="http://www.w3.org/2000/svg">
  <g transform="matrix(1.0, 0.0, 0.0, 1.0, 36.9, 33.8)">
    <use data-characterId="121" height="70.1" transform="matrix(1.0, 0.0, 0.0, 1.0, -36.9, -33.8)" width="71.2" xlink:href="#shape0"/>
  </g>
  <defs>
    <g id="shape0" transform="matrix(1.0, 0.0, 0.0, 1.0, 36.9, 33.8)">
      <path d="M23.3 -29.15 L26.8 -25.05 22.45 -20.05 21.25 -21.55 23.3 -29.15 21.25 -21.55 22.45 -20.05 26.8 -25.05 30.3 -20.95 33.8 -16.8 25.05 -16.8 17.75 -10.9 Q20.4 -6.4 20.4 -0.8 L20.4 -0.6 Q20.35 7.55 14.55 13.35 L14.0 13.9 12.25 15.4 16.0 23.95 25.65 26.55 20.75 28.85 15.9 31.2 Q13.45 32.3 11.05 33.45 L6.1 35.8 8.35 27.35 4.6 18.8 1.2 19.2 0.4 19.2 Q-6.25 19.2 -11.3 15.45 L-13.7 13.35 Q-19.4 7.7 -19.6 -0.25 L-19.6 -0.8 -19.35 -4.0 -27.75 -7.25 -36.4 -2.25 -34.55 -7.35 -32.75 -12.45 -30.95 -17.5 -29.1 -22.65 -24.75 -15.05 -16.3 -11.8 Q-15.2 -13.45 -13.7 -14.9 L-11.35 -16.95 Q-6.3 -20.8 0.4 -20.8 L1.2 -20.8 Q7.3 -20.6 12.1 -17.05 L19.8 -23.3 19.8 -33.3 23.3 -29.15 M1.2 -6.6 L0.1 -6.7 -2.4 -6.3 -2.55 -6.2 -11.35 -16.95 -2.55 -6.2 -2.4 -6.3 0.1 -6.7 1.2 -6.6 1.2 -20.8 1.2 -6.6 Q3.05 -6.35 4.55 -5.1 L4.95 -4.75 Q6.7 -2.95 6.9 -0.5 L6.95 0.15 Q6.95 2.75 5.3 4.65 L4.95 4.95 Q3.3 6.6 1.2 6.9 L1.2 19.2 1.2 6.9 Q3.3 6.6 4.95 4.95 L5.3 4.65 Q6.95 2.75 6.95 0.15 L6.9 -0.5 Q6.7 -2.95 4.95 -4.75 L4.55 -5.1 Q3.05 -6.35 1.2 -6.6 M14.1 -15.35 L14.55 -14.9 Q16.45 -13.05 17.75 -10.9 16.45 -13.05 14.55 -14.9 L14.1 -15.35 5.65 -5.1 14.1 -15.35 12.1 -17.05 14.1 -15.35 M23.65 -18.55 L22.45 -20.05 23.65 -18.55 30.3 -20.95 23.65 -18.55 25.05 -16.8 23.65 -18.55 M8.0 -0.5 L20.4 -0.6 8.0 -0.5 M21.25 -21.55 L19.8 -23.3 21.25 -21.55 M6.4 4.65 L14.0 13.9 6.4 4.65 M12.25 15.4 Q8.75 17.95 4.6 18.8 8.75 17.95 12.25 15.4 M-11.3 15.45 L-3.5 6.0 Q-1.95 7.0 0.1 7.0 L1.2 6.9 0.1 7.0 Q-1.95 7.0 -3.5 6.0 L-11.3 15.45 M-26.95 -9.35 L-34.55 -7.35 -26.95 -9.35 -26.25 -11.15 -25.55 -12.95 -24.75 -15.05 -25.55 -12.95 -26.25 -11.15 -26.95 -9.35 -27.75 -7.25 -26.95 -9.35 M-30.95 -17.5 L-25.55 -12.95 -30.95 -17.5 M-26.25 -11.15 L-32.75 -12.45 -26.25 -11.15 M16.0 23.95 L13.95 24.85 20.75 28.85 13.95 24.85 12.2 25.65 15.9 31.2 12.2 25.65 13.95 24.85 16.0 23.95 M10.45 26.4 L11.05 33.45 10.45 26.4 Q9.4 26.85 8.35 27.35 9.4 26.85 10.45 26.4 L12.2 25.65 10.45 26.4 M-6.75 -0.35 L-6.75 0.15 Q-6.8 3.0 -4.75 4.95 L-4.2 5.5 -3.5 6.0 -4.2 5.5 -4.75 4.95 Q-6.8 3.0 -6.75 0.15 L-6.75 -0.35 -19.6 -0.25 -6.75 -0.35 Q-6.6 -2.9 -4.75 -4.75 -4.1 -5.4 -3.3 -5.85 L-2.55 -6.2 -3.3 -5.85 Q-4.1 -5.4 -4.75 -4.75 -6.6 -2.9 -6.75 -0.35 M-16.3 -11.8 Q-18.7 -8.3 -19.35 -4.0 -18.7 -8.3 -16.3 -11.8" fill="#6600cc" fill-rule="evenodd" stroke="none"/>
      <path d="M26.8 -25.05 L23.3 -29.15 21.25 -21.55 22.45 -20.05 26.8 -25.05 30.3 -20.95 33.8 -16.8 25.05 -16.8 17.75 -10.9 M12.25 15.4 L16.0 23.95 25.65 26.55 20.75 28.85 15.9 31.2 Q13.45 32.3 11.05 33.45 L6.1 35.8 8.35 27.35 4.6 18.8 M-19.35 -4.0 L-27.75 -7.25 -36.4 -2.25 -34.55 -7.35 -32.75 -12.45 -30.95 -17.5 -29.1 -22.65 -24.75 -15.05 -16.3 -11.8 M12.1 -17.05 L19.8 -23.3 19.8 -33.3 23.3 -29.15 M30.3 -20.95 L23.65 -18.55 25.05 -16.8 M22.45 -20.05 L23.65 -18.55 M19.8 -23.3 L21.25 -21.55 M20.75 28.85 L13.95 24.85 12.2 25.65 15.9 31.2 M8.35 27.35 Q9.4 26.85 10.45 26.4 L12.2 25.65 M11.05 33.45 L10.45 26.4 M13.95 24.85 L16.0 23.95 M-24.75 -15.05 L-25.55 -12.95 -26.25 -11.15 -26.95 -9.35 -27.75 -7.25 M-32.75 -12.45 L-26.25 -11.15 M-25.55 -12.95 L-30.95 -17.5 M-34.55 -7.35 L-26.95 -9.35" fill="none" stroke="#9900cc" stroke-linecap="round" stroke-linejoin="round" stroke-width="1.0"/>
      <path d="M17.75 -10.9 Q20.4 -6.4 20.4 -0.8 L20.4 -0.6 Q20.35 7.55 14.55 13.35 L14.0 13.9 12.25 15.4 Q8.75 17.95 4.6 18.8 L1.2 19.2 0.4 19.2 Q-6.25 19.2 -11.3 15.45 L-13.7 13.35 Q-19.4 7.7 -19.6 -0.25 L-19.6 -0.8 -19.35 -4.0 Q-18.7 -8.3 -16.3 -11.8 -15.2 -13.45 -13.7 -14.9 L-11.35 -16.95 Q-6.3 -20.8 0.4 -20.8 L1.2 -20.8 Q7.3 -20.6 12.1 -17.05 L14.1 -15.35 5.65 -5.1 M17.75 -10.9 Q16.45 -13.05 14.55 -14.9 L14.1 -15.35 M1.2 -20.8 L1.2 -6.6 Q3.05 -6.35 4.55 -5.1 L4.95 -4.75 Q6.7 -2.95 6.9 -0.5 L6.95 0.15 Q6.95 2.75 5.3 4.65 L4.95 4.95 Q3.3 6.6 1.2 6.9 L1.2 19.2 M-11.35 -16.95 L-2.55 -6.2 -2.4 -6.3 0.1 -6.7 1.2 -6.6 M20.4 -0.6 L8.0 -0.5 M1.2 6.9 L0.1 7.0 Q-1.95 7.0 -3.5 6.0 L-11.3 15.45 M14.0 13.9 L6.4 4.65 M-19.6 -0.25 L-6.75 -0.35 Q-6.6 -2.9 -4.75 -4.75 -4.1 -5.4 -3.3 -5.85 L-2.55 -6.2 M-3.5 6.0 L-4.2 5.5 -4.75 4.95 Q-6.8 3.0 -6.75 0.15 L-6.75 -0.35" fill="none" stroke="#ffcc00" stroke-linecap="round" stroke-linejoin="round" stroke-width="1.0"/>
    </g>
  </defs>
</svg>
