<?xml version="1.0" encoding="UTF-8" standalone="no"?>
<svg xmlns:xlink="http://www.w3.org/1999/xlink" height="6.45px" width="6.9px" xmlns="http://www.w3.org/2000/svg">
  <g transform="matrix(1.0, 0.0, 0.0, 1.0, 3.45, 1.5)">
    <use data-characterId="59" height="2.1" transform="matrix(1.0, 0.0, 0.0, 1.0, -3.2, -0.5)" width="6.25" xlink:href="#shape0"/>
  </g>
  <defs>
    <g id="shape0" transform="matrix(1.0, 0.0, 0.0, 1.0, 3.2, 0.5)">
      <path d="M2.0 0.0 Q0.2 2.15 -2.0 0.05 L2.0 0.0 Z" fill="none" stroke="#0099cc" stroke-linecap="butt" stroke-linejoin="miter-clip" stroke-miterlimit="3.0" stroke-width="1.0"/>
    </g>
  </defs>
</svg>
