<?xml version="1.0" encoding="UTF-8" standalone="no"?>
<svg xmlns:xlink="http://www.w3.org/1999/xlink" height="66.85px" width="75.7px" xmlns="http://www.w3.org/2000/svg">
  <g transform="matrix(1.0, 0.0, 0.0, 1.0, 35.75, 31.0)">
    <clipPath id="clipPath0" transform="matrix(1.0, 0.0, 0.0, 1.0, 0.0, 0.0)">
      <path d="M21.25 -21.25 Q30.1 -12.45 30.1 -0.05 30.1 12.35 21.25 21.1 12.5 29.95 0.05 29.95 -12.4 29.95 -21.25 21.1 -30.0 12.35 -30.0 -0.05 -30.0 -12.45 -21.25 -21.25 -12.4 -30.0 0.05 -30.0 12.5 -30.0 21.25 -21.25" fill="#ffffff" fill-rule="evenodd" stroke="none"/>
      <path d="M21.25 -21.25 Q30.1 -12.45 30.1 -0.05 30.1 12.35 21.25 21.1 12.5 29.95 0.05 29.95 -12.4 29.95 -21.25 21.1 -30.0 12.35 -30.0 -0.05 -30.0 -12.45 -21.25 -21.25 -12.4 -30.0 0.05 -30.0 12.5 -30.0 21.25 -21.25 Z" fill="none" stroke="#000000" stroke-linecap="round" stroke-linejoin="round" stroke-width="2.0"/>
    </clipPath>
    <g clip-path="url(#clipPath0)">
      <use data-characterId="17" height="66.5" transform="matrix(1.0, 0.0, 0.0, 1.0, -35.75, -30.65)" width="75.7" xlink:href="#shape1"/>
    </g>
  </g>
  <defs>
    <g id="shape1" transform="matrix(1.0, 0.0, 0.0, 1.0, 35.75, 30.65)">
      <path d="M28.15 -20.2 Q38.95 -10.75 38.95 2.6 38.95 15.95 28.15 25.4 17.35 34.85 2.1 34.85 -13.15 34.85 -23.95 25.4 -34.75 15.95 -34.75 2.6 -34.75 -10.75 -23.95 -20.2 -13.15 -29.65 2.1 -29.65 17.35 -29.65 28.15 -20.2" fill="#00cc00" fill-rule="evenodd" stroke="none"/>
      <path d="M28.15 -20.2 Q38.95 -10.75 38.95 2.6 38.95 15.95 28.15 25.4 17.35 34.85 2.1 34.85 -13.15 34.85 -23.95 25.4 -34.75 15.95 -34.75 2.6 -34.75 -10.75 -23.95 -20.2 -13.15 -29.65 2.1 -29.65 17.35 -29.65 28.15 -20.2 Z" fill="none" stroke="#33ff00" stroke-linecap="round" stroke-linejoin="round" stroke-width="2.0"/>
    </g>
  </defs>
</svg>
