<?xml version="1.0" encoding="UTF-8" standalone="no"?>
<svg xmlns:xlink="http://www.w3.org/1999/xlink" height="66.85px" width="75.7px" xmlns="http://www.w3.org/2000/svg">
  <g transform="matrix(1.0, 0.0, 0.0, 1.0, 35.75, 31.0)">
    <clipPath id="clipPath0" transform="matrix(1.0, 0.0, 0.0, 1.0, 0.0, 0.0)">
      <path d="M21.25 -21.25 Q30.1 -12.45 30.1 -0.05 30.1 12.35 21.25 21.1 12.5 29.95 0.05 29.95 -12.4 29.95 -21.25 21.1 -30.0 12.35 -30.0 -0.05 -30.0 -12.45 -21.25 -21.25 -12.4 -30.0 0.05 -30.0 12.5 -30.0 21.25 -21.25" fill="#ffffff" fill-rule="evenodd" stroke="none"/>
      <path d="M21.25 -21.25 Q30.1 -12.45 30.1 -0.05 30.1 12.35 21.25 21.1 12.5 29.95 0.05 29.95 -12.4 29.95 -21.25 21.1 -30.0 12.35 -30.0 -0.05 -30.0 -12.45 -21.25 -21.25 -12.4 -30.0 0.05 -30.0 12.5 -30.0 21.25 -21.25 Z" fill="none" stroke="#000000" stroke-linecap="round" stroke-linejoin="round" stroke-width="2.0"/>
    </clipPath>
    <g clip-path="url(#clipPath0)">
      <use data-characterId="19" height="72.3" transform="matrix(1.0, 0.0, 0.0, 1.0, -53.0, -33.7)" width="107.4" xlink:href="#shape1"/>
    </g>
  </g>
  <defs>
    <g id="shape1" transform="matrix(1.0, 0.0, 0.0, 1.0, 53.0, 33.7)">
      <path d="M37.95 -22.4 Q53.4 -12.1 53.4 2.45 53.4 17.0 37.95 27.3 22.55 37.6 0.7 37.6 -21.15 37.6 -36.6 27.3 -52.0 17.0 -52.0 2.45 -52.0 -12.1 -36.6 -22.4 -21.15 -32.7 0.7 -32.7 22.55 -32.7 37.95 -22.4" fill="#ffff00" fill-rule="evenodd" stroke="none"/>
      <path d="M37.95 -22.4 Q53.4 -12.1 53.4 2.45 53.4 17.0 37.95 27.3 22.55 37.6 0.7 37.6 -21.15 37.6 -36.6 27.3 -52.0 17.0 -52.0 2.45 -52.0 -12.1 -36.6 -22.4 -21.15 -32.7 0.7 -32.7 22.55 -32.7 37.95 -22.4 Z" fill="none" stroke="#33ff00" stroke-linecap="round" stroke-linejoin="round" stroke-width="2.0"/>
    </g>
  </defs>
</svg>
