<?xml version="1.0" encoding="UTF-8" standalone="no"?>
<svg xmlns:xlink="http://www.w3.org/1999/xlink" height="66.85px" width="75.7px" xmlns="http://www.w3.org/2000/svg">
  <g transform="matrix(1.0, 0.0, 0.0, 1.0, 35.75, 31.0)">
    <clipPath id="clipPath0" transform="matrix(1.0, 0.0, 0.0, 1.0, 0.0, 0.0)">
      <path d="M21.25 -21.25 Q30.1 -12.45 30.1 -0.05 30.1 12.35 21.25 21.1 12.5 29.95 0.05 29.95 -12.4 29.95 -21.25 21.1 -30.0 12.35 -30.0 -0.05 -30.0 -12.45 -21.25 -21.25 -12.4 -30.0 0.05 -30.0 12.5 -30.0 21.25 -21.25" fill="#ffffff" fill-rule="evenodd" stroke="none"/>
      <path d="M21.25 -21.25 Q30.1 -12.45 30.1 -0.05 30.1 12.35 21.25 21.1 12.5 29.95 0.05 29.95 -12.4 29.95 -21.25 21.1 -30.0 12.35 -30.0 -0.05 -30.0 -12.45 -21.25 -21.25 -12.4 -30.0 0.05 -30.0 12.5 -30.0 21.25 -21.25 Z" fill="none" stroke="#000000" stroke-linecap="round" stroke-linejoin="round" stroke-width="2.0"/>
    </clipPath>
    <g clip-path="url(#clipPath0)">
      <use data-characterId="20" height="60.8" transform="matrix(1.0, 0.0, 0.0, 1.0, -43.35, -30.45)" width="98.6" xlink:href="#shape1"/>
    </g>
  </g>
  <defs>
    <g id="shape1" transform="matrix(1.0, 0.0, 0.0, 1.0, 43.35, 30.45)">
      <path d="M40.1 -20.85 Q54.25 -12.25 54.25 -0.05 54.25 12.15 40.1 20.75 25.95 29.35 5.95 29.35 -14.05 29.35 -28.2 20.75 -42.35 12.15 -42.35 -0.05 -42.35 -12.25 -28.2 -20.85 -14.05 -29.45 5.95 -29.45 25.95 -29.45 40.1 -20.85" fill="#cc00ff" fill-rule="evenodd" stroke="none"/>
      <path d="M40.1 -20.85 Q54.25 -12.25 54.25 -0.05 54.25 12.15 40.1 20.75 25.95 29.35 5.95 29.35 -14.05 29.35 -28.2 20.75 -42.35 12.15 -42.35 -0.05 -42.35 -12.25 -28.2 -20.85 -14.05 -29.45 5.95 -29.45 25.95 -29.45 40.1 -20.85 Z" fill="none" stroke="#33ff00" stroke-linecap="round" stroke-linejoin="round" stroke-width="2.0"/>
    </g>
  </defs>
</svg>
