<?xml version="1.0" encoding="UTF-8" standalone="no"?>
<svg xmlns:xlink="http://www.w3.org/1999/xlink" height="33.0px" width="39.0px" xmlns="http://www.w3.org/2000/svg">
  <g transform="matrix(1.0, 0.0, 0.0, 1.0, 19.5, 16.5)">
    <use data-characterId="1074" height="33.0" transform="matrix(1.0, 0.0, 0.0, 1.0, -19.5, -16.5)" width="39.0" xlink:href="#shape0"/>
  </g>
  <defs>
    <g id="shape0" transform="matrix(1.0, 0.0, 0.0, 1.0, 19.5, 16.5)">
      <path d="M13.25 -16.0 L19.0 -16.0 19.0 -11.5 M19.0 10.5 L19.0 16.0 13.25 16.0 M-19.0 -11.5 L-19.0 -16.0 -11.75 -16.0 M-11.75 16.0 L-19.0 16.0 -19.0 10.5" fill="none" stroke="#ff0000" stroke-linecap="round" stroke-linejoin="round" stroke-width="1.0"/>
    </g>
  </defs>
</svg>
