<?xml version="1.0" encoding="UTF-8" standalone="no"?>
<svg xmlns:xlink="http://www.w3.org/1999/xlink" height="17.05px" width="9.0px" xmlns="http://www.w3.org/2000/svg">
  <g transform="matrix(1.0, 0.0, 0.0, 1.0, 4.5, 8.5)">
    <use data-characterId="233" height="17.05" transform="matrix(1.0, 0.0, 0.0, 1.0, -4.5, -8.5)" width="9.0" xlink:href="#shape0"/>
    <use data-characterId="231" height="4.35" transform="matrix(1.0, 0.0, 0.0, 1.0, -1.35, -0.8)" width="2.7" xlink:href="#shape1"/>
  </g>
  <defs>
    <g id="shape0" transform="matrix(1.0, 0.0, 0.0, 1.0, 4.5, 8.5)">
      <path d="M2.1 -2.35 L2.1 5.2 2.05 5.2 4.0 8.05 -4.0 8.05 -2.0 5.2 -2.1 5.2 -2.1 -2.35 -3.5 -2.8 Q0.2 -13.2 3.5 -2.8 L2.1 -2.35 M1.75 4.8 L2.05 5.2 1.45 5.2 -1.4 5.2 -2.0 5.2 -1.75 4.8 -2.0 5.2 -1.4 5.2 1.45 5.2 2.05 5.2 1.75 4.8 M-1.4 7.7 L-1.4 5.2 -1.4 7.7 M1.45 7.7 L1.45 5.2 1.45 7.7 M3.5 -2.8 L-3.5 -2.8 3.5 -2.8" fill="#0000ff" fill-rule="evenodd" stroke="none"/>
      <path d="M2.1 -2.35 L2.1 5.2 2.05 5.2 4.0 8.05 -4.0 8.05 -2.0 5.2 -2.1 5.2 -2.1 -2.35 -3.5 -2.8 Q0.2 -13.2 3.5 -2.8 L2.1 -2.35 M-1.75 4.8 L-2.0 5.2 -1.4 5.2 1.45 5.2 2.05 5.2 1.75 4.8 M-3.5 -2.8 L3.5 -2.8" fill="none" stroke="#999999" stroke-linecap="round" stroke-linejoin="round" stroke-width="1.0"/>
      <path d="M1.45 5.2 L1.45 7.7 M-1.4 5.2 L-1.4 7.7" fill="none" stroke="#999999" stroke-linecap="round" stroke-linejoin="round" stroke-width="1.0"/>
    </g>
    <g id="shape1" transform="matrix(1.0, 0.0, 0.0, 1.0, 1.35, 0.8)">
      <path d="M0.85 -0.3 L0.85 3.05 -0.85 3.05 -0.85 -0.3 0.85 -0.3" fill="#ffff00" fill-rule="evenodd" stroke="none"/>
      <path d="M0.85 -0.3 L0.85 3.05 -0.85 3.05 -0.85 -0.3 0.85 -0.3 Z" fill="none" stroke="#ffcc00" stroke-linecap="round" stroke-linejoin="round" stroke-width="1.0"/>
    </g>
  </defs>
</svg>
