<?xml version="1.0" encoding="UTF-8" standalone="no"?>
<svg xmlns:xlink="http://www.w3.org/1999/xlink" height="40.0px" width="40.0px" xmlns="http://www.w3.org/2000/svg">
  <g transform="matrix(1.0, 0.0, 0.0, 1.0, 20.0, 20.15)">
    <use data-characterId="729" height="40.0" transform="matrix(1.0, 0.0, 0.0, 1.0, -20.0, -20.15)" width="40.0" xlink:href="#shape0"/>
  </g>
  <defs>
    <g id="shape0" transform="matrix(1.0, 0.0, 0.0, 1.0, 20.0, 20.15)">
      <path d="M19.9 -10.8 L20.0 -10.9 20.0 -10.7 19.9 -10.8 M-19.9 -10.7 L-19.9 -10.9 -19.8 -10.8 -19.9 -10.7" fill="#5c4832" fill-rule="evenodd" stroke="none"/>
      <path d="M0.5 -14.0 L0.55 -14.0 1.4 -12.9 1.1 -10.65 0.0 -10.5 -1.05 -10.65 -1.35 -12.9 -0.5 -14.0 0.5 -14.0 M9.6 -8.8 L9.2 -8.8 9.2 -11.4 10.9 -11.4 10.9 -8.8 10.55 -8.8 9.6 -8.8 M-10.5 -8.8 L-10.9 -8.8 -10.9 -11.4 -9.15 -11.4 -9.15 -8.8 -9.6 -8.8 -10.5 -8.8 M-0.5 -15.8 L-0.85 -15.8 -0.85 -18.4 0.9 -18.4 0.9 -15.8 0.5 -15.8 -0.5 -15.8 M4.75 1.65 L5.3 -0.05 9.75 -0.05 10.3 1.65 4.75 1.65 M12.15 -1.4 L12.65 -3.05 17.1 -3.05 17.75 -1.4 12.15 -1.4 M-17.7 -1.4 L-17.05 -3.05 -12.6 -3.05 -12.1 -1.4 -17.7 -1.4" fill="#990000" fill-rule="evenodd" stroke="none"/>
      <path d="M1.4 -12.9 L2.4 -20.15 3.8 -10.35 3.8 -8.15 8.9 -6.3 9.6 -6.3 9.6 -8.8 10.55 -8.8 10.55 -6.3 10.6 -6.3 11.7 -6.25 12.3 -6.25 12.8 -6.25 13.25 -6.25 14.55 -6.25 19.9 -10.8 20.0 -10.7 20.0 1.9 18.4 9.35 11.75 16.95 9.2 17.8 6.0 17.8 3.75 17.8 1.85 17.8 -1.8 17.8 -3.7 17.8 -6.0 17.8 -9.2 17.8 -11.7 16.95 -18.4 9.35 -20.0 1.9 -20.0 -10.7 -19.9 -10.7 -19.8 -10.8 -14.5 -6.25 -10.5 -6.25 -10.5 -8.8 -9.6 -8.8 -9.6 -6.25 -8.9 -6.25 -3.75 -8.15 -3.8 -10.35 -2.4 -20.15 -1.35 -12.9 -1.05 -10.65 0.0 -10.5 1.1 -10.65 1.4 -12.9 M-0.5 -14.0 L-0.5 -15.8 0.5 -15.8 0.5 -14.0 -0.5 -14.0 M9.65 -6.3 L9.6 -6.3 9.65 -6.3 10.3 -6.3 9.65 -6.3 M10.55 -6.3 L10.3 -6.3 10.55 -6.3 M10.3 1.65 L9.75 -0.05 5.3 -0.05 4.75 1.65 4.7 1.65 4.7 10.5 10.3 10.5 10.3 1.65 M17.75 -1.4 L17.1 -3.05 12.65 -3.05 12.15 -1.4 12.15 7.45 17.75 7.45 17.75 -1.4 M3.75 17.8 L3.8 -8.15 3.75 17.8 M-12.1 -1.4 L-12.6 -3.05 -17.05 -3.05 -17.7 -1.4 -17.7 7.45 -12.1 7.45 -12.1 -1.4 M-4.7 1.65 L-5.25 -0.05 -9.7 -0.05 -10.3 1.65 -10.25 10.5 -4.65 10.5 -4.65 1.65 -4.7 1.65 M-3.75 -8.15 L-3.7 17.8 -3.75 -8.15" fill="url(#gradient0)" fill-rule="evenodd" stroke="none"/>
      <path d="M4.75 1.65 L10.3 1.65 10.3 10.5 4.7 10.5 4.7 1.65 4.75 1.65 M-10.3 1.65 L-9.7 -0.05 -5.25 -0.05 -4.7 1.65 -4.65 1.65 -4.65 10.5 -10.25 10.5 -10.3 1.65 M-4.7 1.65 L-10.25 1.65 -4.7 1.65" fill="#72593f" fill-rule="evenodd" stroke="none"/>
      <path d="M9.2 17.8 L10.0 19.85 5.2 19.85 6.0 17.8 9.2 17.8 M1.85 17.8 L2.5 19.45 -2.45 19.45 -1.8 17.8 1.85 17.8 M-6.0 17.8 L-5.2 19.85 -10.0 19.85 -9.2 17.8 -6.0 17.8 M12.15 -1.4 L17.75 -1.4 17.75 7.45 12.15 7.45 12.15 -1.4 M-12.1 -1.4 L-12.1 7.45 -17.7 7.45 -17.7 -1.4 -12.1 -1.4" fill="#644e36" fill-rule="evenodd" stroke="none"/>
      <path d="M9.65 -6.3 L10.3 -6.3" fill="none" stroke="#000000" stroke-linecap="round" stroke-linejoin="round" stroke-width="0.1"/>
      <path d="M8.9 -6.3 L9.6 -6.3 9.65 -6.3 M10.55 -6.3 L10.6 -6.3 11.7 -6.25 12.3 -6.25 12.8 -6.25 13.25 -6.25 14.55 -6.25 M10.3 -6.3 L10.55 -6.3 M4.75 1.65 L10.3 1.65 10.3 10.5 4.7 10.5 4.7 1.65 4.75 1.65 M12.15 -1.4 L17.75 -1.4 17.75 7.45 12.15 7.45 12.15 -1.4 M3.8 -8.15 L3.75 17.8 M-12.1 -1.4 L-12.1 7.45 -17.7 7.45 -17.7 -1.4 -12.1 -1.4 M-4.7 1.65 L-4.65 1.65 -4.65 10.5 -10.25 10.5 -10.3 1.65 M-10.25 1.65 L-4.7 1.65 M-3.7 17.8 L-3.75 -8.15" fill="none" stroke="#000000" stroke-linecap="round" stroke-linejoin="round" stroke-width="0.1"/>
      <path d="M10.3 1.65 L9.75 -0.05 5.3 -0.05 4.75 1.65 M17.75 -1.4 L17.1 -3.05 12.65 -3.05 12.15 -1.4 M-17.7 -1.4 L-17.05 -3.05 -12.6 -3.05 -12.1 -1.4 M-10.3 1.65 L-9.7 -0.05 -5.25 -0.05 -4.7 1.65" fill="none" stroke="#444444" stroke-linecap="round" stroke-linejoin="round" stroke-width="0.1"/>
    </g>
    <linearGradient gradientTransform="matrix(0.0244, 0.0, 0.0, 0.0232, 0.05, -1.0)" gradientUnits="userSpaceOnUse" id="gradient0" spreadMethod="pad" x1="-819.2" x2="819.2">
      <stop offset="0.0" stop-color="#5c4832"/>
      <stop offset="0.47843137254901963" stop-color="#927152"/>
      <stop offset="1.0" stop-color="#5c4832"/>
    </linearGradient>
  </defs>
</svg>
