<?xml version="1.0" encoding="UTF-8" standalone="no"?>
<svg xmlns:xlink="http://www.w3.org/1999/xlink" height="1043.35px" width="1557.6px" xmlns="http://www.w3.org/2000/svg">
  <g transform="matrix(1.0, 0.0, 0.0, 1.0, 429.0, 496.1)">
    <use data-characterId="1335" height="454.0" id="mov_members" transform="matrix(1.0, 0.0, 0.0, 1.0002, -236.0, -357.5754)" width="968.6" xlink:href="#sprite0"/>
  </g>
  <defs>
    <g id="sprite0" transform="matrix(1.0, 0.0, 0.0, 1.0, 101.0, 353.0)">
      <use data-characterId="1305" height="202.0" transform="matrix(1.0, 0.0, 0.0, 1.0, -101.0, -101.0)" width="202.0" xlink:href="#shape0"/>
      <use data-characterId="1306" height="19.6" transform="matrix(1.0, 0.0, 0.0, 1.0, 69.8, 70.05)" width="20.15" xlink:href="#shape1"/>
      <use data-characterId="398" height="550.0" transform="matrix(0.2858, 0.0, 0.0, 0.0018, -100.0183, -74.9993)" width="700.0" xlink:href="#shape2"/>
      <use data-characterId="398" height="550.0" transform="matrix(0.2858, 0.0, 0.0, 0.0018, -100.0183, -73.9993)" width="700.0" xlink:href="#shape2"/>
      <use data-characterId="1306" height="19.6" transform="matrix(1.0, 0.0, 0.0, 1.0, -90.2, 70.05)" width="20.15" xlink:href="#shape1"/>
      <use data-characterId="1307" height="59.7" transform="matrix(1.0, 0.0, 0.0, 1.0, -72.1, 38.35)" width="141.2" xlink:href="#text0"/>
      <use data-characterId="1308" height="59.7" transform="matrix(1.0, 0.0, 0.0, 1.0, -73.1, 37.35)" width="141.2" xlink:href="#text1"/>
      <use data-characterId="1313" height="120.0" transform="matrix(1.0, 0.0, 0.0, 1.0, -60.2, -86.85)" width="120.0" xlink:href="#button0"/>
    </g>
    <g id="shape0" transform="matrix(1.0, 0.0, 0.0, 1.0, 101.0, 101.0)">
      <path d="M95.0 -95.0 Q99.95 -90.0 100.0 -82.9 L100.0 82.95 Q99.95 90.0 95.0 95.0 90.0 100.0 82.9 100.0 L-82.95 100.0 Q-90.05 100.0 -95.05 95.0 -100.05 90.0 -100.0 82.95 L-100.0 -82.9 Q-100.05 -90.0 -95.05 -95.0 -90.05 -100.0 -82.95 -100.0 L82.9 -100.0 Q90.0 -100.0 95.0 -95.0" fill="url(#gradient0)" fill-rule="evenodd" stroke="none"/>
      <path d="M95.0 -95.0 Q90.0 -100.0 82.9 -100.0 L-82.95 -100.0 Q-90.05 -100.0 -95.05 -95.0 -100.05 -90.0 -100.0 -82.9 L-100.0 82.95 Q-100.05 90.0 -95.05 95.0 -90.05 100.0 -82.95 100.0 L82.9 100.0 Q90.0 100.0 95.0 95.0 99.95 90.0 100.0 82.95 L100.0 -82.9 Q99.95 -90.0 95.0 -95.0 Z" fill="none" stroke="#777777" stroke-linecap="round" stroke-linejoin="round" stroke-width="2.0"/>
    </g>
    <linearGradient gradientTransform="matrix(0.0, 0.1221, -0.1221, 0.0, 0.0, 0.0)" gradientUnits="userSpaceOnUse" id="gradient0" spreadMethod="pad" x1="-819.2" x2="819.2">
      <stop offset="0.0" stop-color="#e4e4e4"/>
      <stop offset="0.058823529411764705" stop-color="#ffffff"/>
      <stop offset="0.12549019607843137" stop-color="#e4e4e4"/>
      <stop offset="0.4117647058823529" stop-color="#adadad"/>
      <stop offset="0.8470588235294118" stop-color="#929292"/>
      <stop offset="0.9254901960784314" stop-color="#adadad"/>
      <stop offset="1.0" stop-color="#929292"/>
    </linearGradient>
    <g id="shape1" transform="matrix(1.0, 0.0, 0.0, 1.0, 10.05, 9.8)">
      <path d="M-7.8 3.25 Q-10.05 1.0 -10.05 -2.15 -10.05 -5.35 -7.8 -7.55 -5.5 -9.8 -2.35 -9.8 0.8 -9.8 3.05 -7.55 5.3 -5.35 5.3 -2.15 5.3 1.0 3.05 3.25 0.8 5.5 -2.35 5.5 -5.5 5.5 -7.8 3.25" fill="#b8b8b8" fill-rule="evenodd" stroke="none"/>
      <path d="M-5.2 2.15 Q-5.2 -1.0 -2.95 -3.25 -0.7 -5.5 2.45 -5.5 5.6 -5.5 7.85 -3.25 10.1 -1.0 10.1 2.15 10.1 5.3 7.85 7.55 5.6 9.8 2.45 9.8 -0.7 9.8 -2.95 7.55 -5.2 5.3 -5.2 2.15" fill="#e4e4e4" fill-rule="evenodd" stroke="none"/>
      <path d="M-7.7 0.2 Q-7.7 -2.95 -5.45 -5.2 -3.25 -7.5 -0.05 -7.5 3.1 -7.5 5.35 -5.2 7.55 -2.95 7.55 0.2 7.55 3.35 5.35 5.6 3.1 7.85 -0.05 7.85 -3.25 7.85 -5.45 5.6 -7.7 3.35 -7.7 0.2" fill="#777777" fill-rule="evenodd" stroke="none"/>
      <path d="M-3.65 3.85 Q-5.15 2.35 -5.15 0.2 -5.15 -1.95 -3.65 -3.45 -2.15 -5.0 0.0 -5.0 2.15 -5.0 3.65 -3.45 5.2 -1.95 5.2 0.2 5.2 2.35 3.65 3.85 2.15 5.35 0.0 5.35 -2.15 5.35 -3.65 3.85" fill="#adadad" fill-rule="evenodd" stroke="none"/>
      <path d="M-0.4 4.15 Q-2.2 4.15 -3.45 2.85 -4.75 1.6 -4.75 -0.2 -4.75 -2.0 -3.45 -3.25 -2.2 -4.55 -0.4 -4.55 1.4 -4.55 2.7 -3.25 3.95 -2.0 3.95 -0.2 3.95 1.6 2.7 2.85 1.4 4.15 -0.4 4.15" fill="#c3c3c3" fill-rule="evenodd" stroke="none"/>
      <path d="M-2.65 -1.0 Q-3.1 -1.0 -3.4 -1.3 L-3.7 -2.05 -3.4 -2.75 Q-3.0 -2.9 -2.65 -3.1 -2.25 -3.1 -1.95 -2.75 -1.65 -2.5 -1.65 -2.05 -1.65 -1.65 -1.95 -1.3 -2.25 -1.0 -2.65 -1.0" fill="#e4e4e4" fill-rule="evenodd" stroke="none"/>
      <path d="M1.8 1.2 Q1.55 1.2 1.4 1.05 L1.25 0.6 Q1.25 0.35 1.4 0.2 1.55 0.0 1.8 0.0 L2.2 0.2 2.4 0.6 2.2 1.05 1.8 1.2" fill="#e4e4e4" fill-rule="evenodd" stroke="none"/>
      <path d="M-4.55 3.0 L-1.0 -0.2 -2.55 -4.65 0.2 -0.9 4.6 -2.7 0.8 0.25 3.05 4.3 -0.45 0.95 -4.55 3.0" fill="#777777" fill-rule="evenodd" stroke="none"/>
    </g>
    <g id="shape2" transform="matrix(1.0, 0.0, 0.0, 1.0, 350.0, 275.0)">
      <path d="M350.0 -275.0 L350.0 275.0 -350.0 275.0 -350.0 -275.0 350.0 -275.0" fill="#dcdcdc" fill-rule="evenodd" stroke="none"/>
    </g>
    <g id="text0" transform="matrix(1.0, 0.0, 0.0, 1.0, 2.0, 2.0)">
      <g transform="matrix(1.0, 0.0, 0.0, 1.0, -2.0, -2.0)">
        <use fill="#c9c9c9" height="59.7" transform="matrix(0.0234, 0.0, 0.0, 0.0234, 0.0, 23.5)" width="141.2" xlink:href="#font_Arial_M0"/>
        <use fill="#c9c9c9" height="59.7" transform="matrix(0.0234, 0.0, 0.0, 0.0234, 20.0, 23.5)" width="141.2" xlink:href="#font_Arial_E0"/>
        <use fill="#c9c9c9" height="59.7" transform="matrix(0.0234, 0.0, 0.0, 0.0234, 36.0, 23.5)" width="141.2" xlink:href="#font_Arial_M0"/>
        <use fill="#c9c9c9" height="59.7" transform="matrix(0.0234, 0.0, 0.0, 0.0234, 56.0, 23.5)" width="141.2" xlink:href="#font_Arial_B0"/>
        <use fill="#c9c9c9" height="59.7" transform="matrix(0.0234, 0.0, 0.0, 0.0234, 72.0, 23.5)" width="141.2" xlink:href="#font_Arial_E0"/>
        <use fill="#c9c9c9" height="59.7" transform="matrix(0.0234, 0.0, 0.0, 0.0234, 88.0, 23.5)" width="141.2" xlink:href="#font_Arial_R0"/>
        <use fill="#c9c9c9" height="59.7" transform="matrix(0.0234, 0.0, 0.0, 0.0234, 105.35, 23.5)" width="141.2" xlink:href="#font_Arial_S0"/>
      </g>
    </g>
    <g id="font_Arial_M0">
      <path d="M76.0 0.0 L169.5 0.0 169.5 -624.0 381.5 0.0 469.0 0.0 682.0 -613.5 682.0 0.0 775.5 0.0 775.5 -733.0 645.0 -733.0 Q557.5 -478.0 469.5 -223.0 443.0 -145.5 430.5 -105.5 419.5 -141.5 395.5 -214.0 309.0 -473.5 222.0 -733.0 L76.0 -733.0 76.0 0.0" fill-rule="evenodd" stroke="none"/>
    </g>
    <g id="font_Arial_E0">
      <path d="M81.0 0.0 L628.0 0.0 628.0 -86.5 178.0 -86.5 178.0 -336.0 583.5 -336.0 583.5 -422.0 178.0 -422.0 178.0 -646.5 611.0 -646.5 611.0 -733.0 81.0 -733.0 81.0 0.0" fill-rule="evenodd" stroke="none"/>
    </g>
    <g id="font_Arial_B0">
      <path d="M172.0 -86.5 L172.0 -338.5 341.5 -338.5 Q411.5 -338.5 449.0 -326.0 486.0 -314.0 507.0 -283.5 528.0 -253.5 528.0 -212.5 528.0 -177.5 513.5 -150.5 499.0 -124.0 476.5 -110.0 454.0 -96.0 420.5 -90.0 401.5 -86.5 354.5 -86.5 L172.0 -86.5 M172.0 -425.0 L172.0 -646.5 318.5 -646.5 Q397.5 -646.5 430.0 -636.0 462.5 -626.0 480.0 -598.0 497.5 -570.5 497.5 -534.0 497.5 -495.5 479.0 -470.0 460.0 -444.5 423.0 -433.5 395.0 -425.0 330.5 -425.0 L172.0 -425.0 M75.0 0.0 L354.5 0.0 Q424.5 0.0 473.0 -12.0 521.0 -24.5 553.0 -48.5 585.0 -72.5 607.0 -116.5 628.5 -161.0 628.5 -212.5 628.5 -276.5 593.0 -323.5 557.0 -370.5 490.5 -390.0 542.0 -415.5 567.5 -457.0 593.0 -498.5 593.0 -545.5 593.0 -596.0 564.5 -642.0 535.5 -688.5 485.0 -710.5 434.0 -733.0 350.0 -733.0 L75.0 -733.0 75.0 0.0" fill-rule="evenodd" stroke="none"/>
    </g>
    <g id="font_Arial_R0">
      <path d="M177.5 -409.5 L177.5 -652.0 409.5 -652.0 Q491.0 -652.0 529.0 -618.5 566.5 -585.0 566.5 -533.0 566.5 -497.5 547.0 -467.0 527.5 -437.0 490.0 -423.0 452.5 -409.5 386.0 -409.5 L177.5 -409.5 M80.5 0.0 L177.5 0.0 177.5 -325.5 290.0 -325.5 Q327.5 -325.5 344.0 -322.0 366.5 -316.5 388.5 -302.5 410.0 -288.5 437.5 -253.5 465.0 -218.5 507.5 -152.5 L604.5 0.0 726.5 0.0 599.0 -199.5 Q561.0 -258.0 518.5 -297.0 498.5 -315.0 460.0 -333.5 565.5 -348.0 616.0 -401.5 666.5 -455.0 666.5 -533.0 666.5 -593.5 636.0 -643.5 605.5 -693.5 554.5 -713.0 503.5 -733.0 405.5 -733.0 L80.5 -733.0 80.5 0.0" fill-rule="evenodd" stroke="none"/>
    </g>
    <g id="font_Arial_S0">
      <path d="M46.0 -235.5 Q48.0 -162.0 86.5 -103.5 124.5 -45.5 192.0 -16.5 259.0 12.5 358.5 12.5 437.0 12.5 500.0 -16.0 562.5 -45.0 596.0 -96.5 629.5 -148.5 629.5 -207.0 629.5 -266.0 599.0 -311.0 568.5 -356.5 504.5 -386.0 460.5 -406.0 342.5 -432.5 224.0 -459.5 196.0 -485.0 167.5 -510.5 167.5 -550.0 167.5 -595.5 208.0 -627.5 248.0 -660.0 336.0 -660.0 420.5 -660.0 464.0 -624.5 507.0 -589.0 514.5 -519.5 L607.5 -526.5 Q605.0 -591.0 571.5 -642.0 538.0 -693.0 476.0 -719.0 413.5 -745.5 332.0 -745.5 258.0 -745.5 197.5 -720.5 137.0 -695.5 105.5 -647.0 74.0 -599.0 74.0 -543.5 74.0 -493.0 100.0 -452.0 125.5 -411.5 178.0 -384.0 218.5 -362.5 319.5 -338.0 420.5 -314.0 450.0 -302.5 496.0 -285.0 516.0 -259.0 536.0 -233.5 536.0 -199.0 536.0 -165.0 515.5 -136.0 494.5 -107.5 452.0 -91.0 409.5 -74.5 354.0 -74.5 291.5 -74.5 241.5 -96.0 191.5 -118.0 168.0 -153.0 144.0 -188.5 137.5 -243.5 L46.0 -235.5" fill-rule="evenodd" stroke="none"/>
    </g>
    <g id="text1" transform="matrix(1.0, 0.0, 0.0, 1.0, 2.0, 2.0)">
      <g transform="matrix(1.0, 0.0, 0.0, 1.0, -2.0, -2.0)">
        <use fill="#777777" height="59.7" transform="matrix(0.0234, 0.0, 0.0, 0.0234, 0.0, 23.5)" width="141.2" xlink:href="#font_Arial_M0"/>
        <use fill="#777777" height="59.7" transform="matrix(0.0234, 0.0, 0.0, 0.0234, 20.0, 23.5)" width="141.2" xlink:href="#font_Arial_E0"/>
        <use fill="#777777" height="59.7" transform="matrix(0.0234, 0.0, 0.0, 0.0234, 36.0, 23.5)" width="141.2" xlink:href="#font_Arial_M0"/>
        <use fill="#777777" height="59.7" transform="matrix(0.0234, 0.0, 0.0, 0.0234, 56.0, 23.5)" width="141.2" xlink:href="#font_Arial_B0"/>
        <use fill="#777777" height="59.7" transform="matrix(0.0234, 0.0, 0.0, 0.0234, 72.0, 23.5)" width="141.2" xlink:href="#font_Arial_E0"/>
        <use fill="#777777" height="59.7" transform="matrix(0.0234, 0.0, 0.0, 0.0234, 88.0, 23.5)" width="141.2" xlink:href="#font_Arial_R0"/>
        <use fill="#777777" height="59.7" transform="matrix(0.0234, 0.0, 0.0, 0.0234, 105.35, 23.5)" width="141.2" xlink:href="#font_Arial_S0"/>
      </g>
    </g>
    <g id="button0" transform="matrix(1.0, 0.0, 0.0, 1.0, 59.95, 59.95)">
      <use data-characterId="1309" height="114.95" transform="matrix(1.0, 0.0, 0.0, 1.0, -57.75, -57.7)" width="115.55" xlink:href="#shape3"/>
      <use data-characterId="1310" height="120.0" transform="matrix(1.0, 0.0, 0.0, 1.0, -59.95, -59.95)" width="120.0" xlink:href="#shape4"/>
    </g>
    <g id="shape3" transform="matrix(1.0, 0.0, 0.0, 1.0, 57.75, 57.7)">
      <path d="M-28.8 -49.95 L-29.5 -49.65 Q-22.9 -53.6 -15.45 -55.6 -7.95 -57.7 0.05 -57.7 5.8 -57.75 11.55 -56.65 18.4 -55.3 24.7 -52.25 31.15 -49.2 36.5 -44.7 L43.05 -38.45 -10.75 -55.3 52.55 -24.0 Q50.0 -29.45 46.6 -34.1 50.9 -28.55 53.6 -22.1 56.25 -15.65 57.3 -8.65 57.9 -4.35 57.8 0.05 L57.75 -1.1 43.45 -6.6 44.55 -6.2 45.5 -6.0 47.9 -6.3 49.5 -7.3 50.75 -8.8 51.3 -9.95 57.4 -6.45 Q56.8 -12.7 54.65 -18.6 L53.2 -22.5 25.9 -33.6 21.8 -36.75 Q20.2 -37.8 18.5 -38.35 L15.45 -38.55 14.75 -38.35 -13.75 -49.7 -21.2 -53.7 -23.85 -52.4 -24.0 -52.45 -28.8 -49.95 M-55.3 -16.55 L-56.1 -13.8 Q-54.05 -22.5 -49.3 -29.85 L-48.95 -30.45 -47.8 -32.15 -48.15 -31.5 -48.95 -30.45 -48.15 -31.5 -50.95 -26.95 Q-53.0 -23.3 -54.4 -19.25 L-54.75 -18.2 -55.3 -16.55 M7.45 -35.3 L5.15 -34.2 -0.5 -39.85 7.45 -35.3 M-42.6 -38.85 L-42.2 -39.3 -41.65 -39.85 -42.6 -38.85 M-38.35 30.35 L-34.4 30.35 -16.85 37.05 12.8 56.35 Q25.55 53.45 35.85 45.25 L-8.8 28.4 -7.35 28.1 -3.6 26.9 14.1 33.65 14.6 33.75 15.55 33.8 16.55 33.7 17.05 33.55 17.9 33.2 18.7 32.6 19.35 31.9 38.5 43.05 Q44.0 38.1 48.05 32.05 L16.3 18.3 19.05 16.2 21.25 14.1 21.45 13.9 49.4 29.95 Q52.95 24.0 55.1 17.4 L25.45 4.6 25.35 2.7 24.25 -1.55 55.5 16.05 Q56.65 12.15 57.25 8.25 54.8 26.9 40.85 40.85 27.4 54.3 9.55 57.05 L12.65 56.4 -39.35 30.2 -38.35 30.35 M-46.7 29.45 L-10.5 56.8 -7.8 57.25 Q-26.65 54.9 -40.75 40.85 -49.05 32.55 -53.25 22.55 -51.75 25.9 -49.8 29.15 L-46.7 29.45" fill="#e6c477" fill-rule="evenodd" stroke="none"/>
      <path d="M-28.8 -49.95 L-24.0 -52.45 -23.85 -52.4 Q-6.75 -45.05 6.05 -30.15 19.2 -14.85 23.15 3.15 24.95 11.55 11.45 18.7 L7.8 20.5 -20.05 9.8 -20.4 8.95 -21.3 7.2 -23.15 4.7 -26.4 1.7 -30.25 -0.9 -34.3 -2.75 -36.35 -3.35 -38.45 -3.6 -40.35 -3.55 Q-48.7 -8.75 -56.45 -11.95 L-55.3 -16.55 -54.75 -18.2 -54.4 -19.25 Q-53.0 -23.3 -50.95 -26.95 L-48.15 -31.5 -46.15 -34.3 -42.6 -38.85 -41.65 -39.85 -41.5 -40.0 Q-35.85 -45.9 -28.8 -49.95 M-46.4 -34.0 L-47.55 -32.45 -46.9 -33.4 -46.4 -34.0 M-45.4 -35.35 L-44.9 -36.1 -44.65 -36.35 -45.4 -35.35 M6.8 -32.55 Q10.15 -34.45 15.4 -36.2 19.45 -37.55 23.8 -32.65 28.15 -27.7 25.6 -24.35 L23.8 -22.0 18.6 -15.35 14.5 -22.65 7.8 -31.55 6.8 -32.55 M13.3 -15.75 Q10.05 -23.35 -0.3 -33.85 -12.0 -45.75 -19.55 -46.05 -26.9 -46.35 -32.15 -41.7 -37.4 -37.0 -32.15 -34.1 -24.3 -29.75 -17.1 -21.3 -9.4 -12.3 -8.4 -4.9 L-41.4 -20.65 -10.35 -1.95 -7.9 -3.35 Q-7.0 -2.25 -4.25 -2.5 -0.75 -2.85 3.85 -5.05 8.6 -7.35 11.3 -10.1 14.4 -13.25 13.3 -15.75 M23.15 -4.65 L20.5 -11.65 42.6 -3.2 Q45.25 -2.3 44.2 0.4 43.2 3.05 40.55 2.0 L23.15 -4.65 M22.7 -17.0 L26.25 -21.65 47.35 -13.6 Q50.0 -12.6 48.95 -9.95 47.95 -7.4 45.3 -8.35 L22.7 -17.0 M-43.5 -2.45 Q-47.2 -0.8 -50.7 1.2 -54.15 3.15 -57.45 5.4 L-57.1 8.0 Q-49.75 2.05 -40.8 -0.9 L-37.8 -1.4 Q-34.05 -1.0 -30.8 1.2 -28.1 2.95 -25.5 5.45 -23.95 6.95 -22.65 8.8 L-24.75 8.65 Q-27.05 8.95 -28.3 11.0 -29.15 12.3 -29.1 13.85 -29.1 15.5 -27.95 16.95 L-33.85 19.75 Q-37.4 18.45 -41.05 17.65 L-43.3 17.8 Q-45.6 18.65 -46.15 21.0 -46.55 22.4 -46.15 23.75 L-51.85 25.25 -53.7 21.2 -55.3 16.7 Q-56.75 11.95 -57.3 6.95 -58.35 -1.4 -56.9 -9.7 L-43.5 -2.45 M-25.1 16.3 Q-27.7 15.3 -26.7 12.65 -25.75 10.1 -23.05 11.05 L16.4 26.15 Q19.0 27.1 18.05 29.8 L17.45 30.8 Q16.4 32.15 14.45 31.4 L-25.1 16.3 M-25.15 14.2 L3.85 23.1 -22.75 12.1 -25.15 14.2 M-30.8 20.9 L-25.85 18.45 -6.75 25.7 Q-10.35 26.7 -13.95 27.3 L-30.8 20.9 M-40.25 19.7 L-0.75 34.75 Q1.8 35.75 0.85 38.4 -0.15 41.05 -2.8 40.0 L-42.3 24.9 -42.55 24.85 Q-44.9 23.75 -43.9 21.3 -42.95 18.7 -40.25 19.7 M-43.05 23.15 L-14.05 32.1 -40.65 21.1 -43.05 23.15 M-43.5 26.65 L-40.65 27.95 -49.2 26.95 -45.05 25.65 -43.5 26.65" fill="#ffd677" fill-rule="evenodd" stroke="none"/>
      <path d="M-2.8 -10.55 Q-5.3 -8.55 -7.65 -13.5 -9.5 -20.65 -15.3 -26.95 -20.65 -32.75 -29.65 -37.95 -20.1 -34.2 -13.6 -29.45 -6.1 -24.15 -1.85 -17.15 -0.3 -12.55 -2.8 -10.55 M-25.15 14.2 L-22.75 12.1 3.85 23.1 -25.15 14.2 M-43.05 23.15 L-40.65 21.1 -14.05 32.1 -43.05 23.15" fill="#ffebbd" fill-rule="evenodd" stroke="none"/>
    </g>
    <g id="shape4" transform="matrix(1.0, 0.0, 0.0, 1.0, 59.95, 59.95)">
      <path d="M-47.1 -33.0 L-48.95 -30.45 -49.3 -29.85 Q-54.05 -22.5 -56.1 -13.8 L-55.3 -16.55 -56.45 -11.95 Q-48.7 -8.75 -40.35 -3.55 L-38.45 -3.6 -36.35 -3.35 -34.3 -2.75 -30.25 -0.9 -26.4 1.7 -23.15 4.7 -21.3 7.2 -20.4 8.95 -20.05 9.8 7.8 20.5 11.45 18.7 Q24.95 11.55 23.15 3.15 19.2 -14.85 6.05 -30.15 -6.75 -45.05 -23.85 -52.4 L-21.2 -53.7 -13.75 -49.7 14.75 -38.35 15.45 -38.55 18.5 -38.35 Q20.2 -37.8 21.8 -36.75 L25.9 -33.6 53.2 -22.5 54.65 -18.6 Q56.8 -12.7 57.4 -6.45 L51.3 -9.95 50.75 -8.8 49.5 -7.3 47.9 -6.3 45.5 -6.0 44.55 -6.2 43.45 -6.6 57.75 -1.1 57.8 0.05 Q57.9 -4.35 57.3 -8.65 56.25 -15.65 53.6 -22.1 50.9 -28.55 46.6 -34.1 50.0 -29.45 52.55 -24.0 L-10.75 -55.3 43.05 -38.45 36.5 -44.7 Q31.15 -49.2 24.7 -52.25 18.4 -55.3 11.55 -56.65 5.8 -57.75 0.05 -57.7 -7.95 -57.7 -15.45 -55.6 -22.9 -53.6 -29.5 -49.65 L-28.8 -49.95 Q-35.85 -45.9 -41.5 -40.0 L-41.65 -39.85 -42.2 -39.3 -42.6 -38.85 -46.2 -34.3 -46.9 -33.4 -47.55 -32.45 -47.1 -33.0 M-45.4 -35.35 L-45.95 -34.6 -46.2 -34.3 -45.95 -34.6 -45.4 -35.35 -44.65 -36.35 -44.9 -36.1 -45.4 -35.35 M-44.45 -36.7 L-44.65 -36.35 -44.45 -36.7 M6.8 -32.55 L7.8 -31.55 14.5 -22.65 18.6 -15.35 23.8 -22.0 25.6 -24.35 Q28.15 -27.7 23.8 -32.65 19.45 -37.55 15.4 -36.2 10.15 -34.45 6.8 -32.55 M7.45 -35.3 L-0.5 -39.85 5.15 -34.2 7.45 -35.3 M13.3 -15.75 Q14.4 -13.25 11.3 -10.1 8.6 -7.35 3.85 -5.05 -0.75 -2.85 -4.25 -2.5 -7.0 -2.25 -7.9 -3.35 L-10.35 -1.95 -41.4 -20.65 -8.4 -4.9 Q-9.4 -12.3 -17.1 -21.3 -24.3 -29.75 -32.15 -34.1 -37.4 -37.0 -32.15 -41.7 -26.9 -46.35 -19.55 -46.05 -12.0 -45.75 -0.3 -33.85 10.05 -23.35 13.3 -15.75 M22.7 -17.0 L45.3 -8.35 Q47.95 -7.4 48.95 -9.95 50.0 -12.6 47.35 -13.6 L26.25 -21.65 22.7 -17.0 M23.15 -4.65 L40.55 2.0 Q43.2 3.05 44.2 0.4 45.25 -2.3 42.6 -3.2 L20.5 -11.65 23.15 -4.65 M42.45 -42.35 Q60.05 -24.75 60.05 0.05 60.05 24.8 42.45 42.45 24.8 60.05 0.05 60.05 -24.75 60.05 -42.35 42.45 -60.0 24.8 -59.95 0.05 -60.0 -24.75 -42.35 -42.35 -24.75 -60.0 0.05 -59.95 24.8 -60.0 42.45 -42.35 M-7.65 -13.5 Q-5.3 -8.55 -2.8 -10.55 -0.3 -12.55 -1.85 -17.15 -6.1 -24.15 -13.6 -29.45 -20.1 -34.2 -29.65 -37.95 -20.65 -32.75 -15.3 -26.95 -9.5 -20.65 -7.65 -13.5 M-43.5 -2.45 L-56.9 -9.7 Q-58.35 -1.4 -57.3 6.95 -56.75 11.95 -55.3 16.7 L-53.7 21.2 -51.85 25.25 -46.15 23.75 Q-46.55 22.4 -46.15 21.0 -45.6 18.65 -43.3 17.8 L-41.05 17.65 Q-37.4 18.45 -33.85 19.75 L-27.95 16.95 Q-29.1 15.5 -29.1 13.85 -29.15 12.3 -28.3 11.0 -27.05 8.95 -24.75 8.65 L-22.65 8.8 Q-23.95 6.95 -25.5 5.45 -28.1 2.95 -30.8 1.2 -34.05 -1.0 -37.8 -1.4 L-40.8 -0.9 Q-49.75 2.05 -57.1 8.0 L-57.45 5.4 Q-54.15 3.15 -50.7 1.2 -47.2 -0.8 -43.5 -2.45 M18.05 29.8 Q19.0 27.1 16.4 26.15 L-23.05 11.05 Q-25.75 10.1 -26.7 12.65 -27.7 15.3 -25.1 16.3 L14.45 31.4 Q16.4 32.15 17.45 30.8 L18.05 29.8 M-30.8 20.9 L-13.95 27.3 Q-10.35 26.7 -6.75 25.7 L-25.85 18.45 -30.8 20.9 M55.1 17.4 Q52.95 24.0 49.4 29.95 L21.45 13.9 21.25 14.1 19.05 16.2 16.3 18.3 48.05 32.05 Q44.0 38.1 38.5 43.05 L19.35 31.9 18.7 32.6 17.9 33.2 17.05 33.55 16.55 33.7 15.55 33.8 14.6 33.75 14.1 33.65 -3.6 26.9 -7.35 28.1 -8.8 28.4 35.85 45.25 Q25.55 53.45 12.8 56.35 L-16.85 37.05 -34.4 30.35 -38.35 30.35 -39.35 30.2 12.65 56.4 9.55 57.05 Q27.4 54.3 40.85 40.85 54.8 26.9 57.25 8.25 56.65 12.15 55.5 16.05 L24.25 -1.55 25.35 2.7 25.45 4.6 55.1 17.4 M-40.25 19.7 Q-42.95 18.7 -43.9 21.3 -44.9 23.75 -42.55 24.85 L-42.3 24.9 -2.8 40.0 Q-0.15 41.05 0.85 38.4 1.8 35.75 -0.75 34.75 L-40.25 19.7 M-45.05 25.65 L-49.2 26.95 -40.65 27.95 -43.5 26.65 -45.05 25.65 M-46.7 29.45 L-49.8 29.15 Q-51.75 25.9 -53.25 22.55 -49.05 32.55 -40.75 40.85 -26.65 54.9 -7.8 57.25 L-10.5 56.8 -46.7 29.45" fill="#777777" fill-rule="evenodd" stroke="none"/>
    </g>
  </defs>
</svg>
