<?xml version="1.0" encoding="UTF-8" standalone="no"?>
<svg xmlns:xlink="http://www.w3.org/1999/xlink" height="40.0px" width="522.95px" xmlns="http://www.w3.org/2000/svg">
  <g transform="matrix(1.0, 0.0, 0.0, 1.0, 0.0, 0.0)">
    <use data-characterId="918" height="40.0" id="chatdisplay" transform="matrix(1.0, 0.0, 0.0, 1.0, 0.0, 0.0)" width="522.95" xlink:href="#text0"/>
  </g>
  <defs/>
</svg>
