<?xml version="1.0" encoding="UTF-8" standalone="no"?>
<svg xmlns:xlink="http://www.w3.org/1999/xlink" height="342.0px" width="305.0px" xmlns="http://www.w3.org/2000/svg">
  <g transform="matrix(1.0, 0.0, 0.0, 1.0, 152.05, 170.05)">
    <use data-characterId="997" height="342.0" transform="matrix(1.0, 0.0, 0.0, 1.0, -152.05, -170.05)" width="305.0" xlink:href="#shape0"/>
  </g>
  <defs>
    <g id="shape0" transform="matrix(1.0, 0.0, 0.0, 1.0, 152.05, 170.05)">
      <path d="M-0.5 -170.0 L0.45 -170.0 1.4 -170.0 M-0.5 -162.25 L-0.5 -161.6 -0.5 -161.15 24.3 -148.95 24.3 -139.0 14.75 -115.75 30.0 -133.45 30.0 -152.3 0.45 -170.0 -29.1 -152.3 -29.1 -133.45 -13.85 -115.75 -23.35 -139.0 -23.35 -148.95 -0.5 -161.15 -0.5 -148.95 24.3 -148.95 M0.3 -1.8 L-25.25 -1.8 -25.25 108.85 26.2 108.85 26.2 -1.8 0.45 -1.8 0.3 -1.8 M102.3 -53.4 L102.3 -6.4 110.65 -6.4 110.65 -53.4 102.3 -53.4 98.1 -53.4 101.25 -69.0 111.65 -69.0 114.8 -53.4 110.65 -53.4 M26.2 -1.8 L14.75 -115.75 -0.5 -115.75 -13.85 -115.75 -25.25 -1.8 -53.85 10.35 -55.75 10.6 -55.75 154.2 -50.05 154.2 -25.25 108.85 M30.0 -152.3 L76.2 -6.0 114.8 12.25 114.8 2.3 Q106.45 11.05 98.1 2.3 L102.3 -6.4 M-23.35 -148.95 L-0.5 -148.95 -0.5 -139.0 24.3 -139.0 M-0.5 -161.6 L-0.95 -161.9 M-0.5 -115.75 L-0.5 -139.0 -23.35 -139.0 M-109.7 -53.4 L-109.7 -6.4 -101.35 -6.4 -101.35 -53.4 -109.7 -53.4 -113.85 -53.4 -110.7 -69.0 -100.3 -69.0 -97.2 -53.4 -101.35 -53.4 M-113.85 12.6 L-113.85 12.25 -152.0 30.3 -136.75 31.4 -81.45 13.7 -74.8 -6.25 -75.25 -6.0 -113.85 12.25 -113.85 2.3 -109.7 -6.4 M-75.25 -6.0 L-29.1 -152.3 M-0.5 31.4 L0.3 31.4 0.45 31.4 1.4 31.4 Q8.3 31.75 13.3 37.55 18.55 43.7 18.55 52.4 18.55 61.1 13.3 67.25 9.35 71.8 4.3 73.0 L1.4 73.4 0.45 73.45 0.3 73.45 -0.5 73.4 -3.35 73.0 Q-8.45 71.8 -12.35 67.25 -17.65 61.1 -17.65 52.4 -17.65 43.7 -12.35 37.55 -7.4 31.75 -0.5 31.4 M-101.35 -6.4 L-97.2 2.3 -97.5 2.6 Q-105.55 10.75 -113.6 2.6 L-113.85 2.3 M-55.05 155.3 L-55.75 154.2 -81.45 129.85 -136.75 115.95 -152.0 112.15 -152.0 30.3 M-50.05 154.2 L-49.9 154.2 -42.4 154.2 -11.9 154.2 -7.75 154.2 8.7 154.2 12.85 154.2 44.3 154.2 55.5 154.2 55.75 154.2 26.2 108.85 M-3.75 155.3 L-14.8 171.9 -23.35 171.9 -32.05 171.9 -39.55 171.9 -50.2 155.45 -49.9 154.2 M-8.5 155.3 L-7.75 154.2 M-11.9 154.2 L-23.35 171.9 M-42.4 154.2 L-32.05 171.9 M-55.75 10.6 L-81.45 13.7 -81.45 129.85 M-136.75 31.4 L-136.75 115.95 M76.2 -6.0 L82.4 13.7 137.65 31.4 152.9 30.3 114.8 12.25 114.8 12.6 M30.0 -133.45 L54.8 10.35 56.7 10.6 82.4 13.7 82.4 129.85 137.65 115.95 137.65 31.4 M51.2 155.3 L40.5 171.9 32.85 171.9 23.25 171.9 15.7 171.9 4.65 155.3 M23.25 171.9 L12.85 154.2 M8.7 154.2 L9.4 155.3 M55.75 155.3 L55.5 154.2 M56.0 155.3 L56.7 154.2 55.75 154.2 M44.3 154.2 L32.85 171.9 M152.9 30.3 L152.9 112.15 137.65 115.95 M82.4 129.85 L56.7 154.2 56.7 10.6 M54.8 10.35 L26.2 -1.8 M-55.75 10.6 L-29.1 -133.45 M110.65 -6.4 L114.8 2.3" fill="none" stroke="#cccccc" stroke-linecap="round" stroke-linejoin="round" stroke-width="0.1"/>
    </g>
  </defs>
</svg>
