<?xml version="1.0" encoding="UTF-8" standalone="no"?>
<svg xmlns:xlink="http://www.w3.org/1999/xlink" height="90.35px" width="233.15px" xmlns="http://www.w3.org/2000/svg">
  <g transform="matrix(1.0, 0.0, 0.0, 1.0, 117.1, 41.4)">
    <use data-characterId="153" height="90.35" transform="matrix(1.0, 0.0, 0.0, 1.0, -117.1, -41.4)" width="233.15" xlink:href="#morphshape0"/>
  </g>
  <defs>
    <g id="morphshape0" transform="matrix(1.0, 0.0, 0.0, 1.0, 117.1, 41.4)">
      <path d="M-25.0 -14.65 L-25.0 22.5 Q0.0 22.5 25.0 22.15 L24.95 -14.65 Q24.9 -23.85 23.4 -31.95 21.85 -38.95 12.5 -39.5 L-6.5 -39.5 Q-21.85 -39.35 -23.35 -32.35 -24.95 -24.95 -25.0 -14.65" fill="#ffffff" fill-rule="evenodd" stroke="none"/>
      <path d="M-25.0 22.5 Q-24.9 32.55 -23.3 39.85 -21.8 46.85 -11.5 46.5 L10.5 46.5 Q21.9 46.45 23.65 38.2 24.9 31.45 25.0 22.5 L-25.0 22.5" fill="#ff0000" fill-rule="evenodd" stroke="none"/>
      <path d="M-25.0 -14.65 Q-24.95 -24.95 -23.35 -32.35 -21.85 -39.35 -6.5 -39.5 L12.5 -39.5 Q21.85 -38.95 23.4 -31.95 24.9 -23.85 24.95 -14.65 L25.0 22.15 Q24.9 31.45 23.65 38.2 L23.4 39.45 Q21.9 46.45 10.5 46.5 L-11.5 46.5 Q-21.8 46.85 -23.3 39.85 -24.9 32.55 -25.0 22.5 L-25.0 -14.65 Q-24.95 -24.95 -23.35 -32.35 -21.85 -39.35 -6.5 -39.5 L12.5 -39.5 Q21.85 -38.95 23.4 -31.95 24.9 -23.85 24.95 -14.65 L25.0 22.15 Q0.0 22.5 -25.0 22.5 L-25.0 -14.65 M-25.0 22.5 L25.0 22.5 Q24.9 31.45 23.65 38.2 21.9 46.45 10.5 46.5 L-11.5 46.5 Q-21.8 46.85 -23.3 39.85 -24.9 32.55 -25.0 22.5 Z" fill="none" stroke="#ff0000" stroke-linecap="round" stroke-linejoin="round" stroke-width="3.0"/>
    </g>
  </defs>
</svg>
