<?xml version="1.0" encoding="UTF-8" standalone="no"?>
<svg xmlns:xlink="http://www.w3.org/1999/xlink" height="90.35px" width="233.15px" xmlns="http://www.w3.org/2000/svg">
  <g transform="matrix(1.0, 0.0, 0.0, 1.0, 117.1, 41.4)">
    <use data-characterId="153" height="90.35" transform="matrix(1.0, 0.0, 0.0, 1.0, -117.1, -41.4)" width="233.15" xlink:href="#morphshape0"/>
  </g>
  <defs>
    <g id="morphshape0" transform="matrix(1.0, 0.0, 0.0, 1.0, 117.1, 41.4)">
      <path d="M-85.25 -14.65 L-85.2 22.5 Q-0.15 22.4 84.85 22.2 L84.75 -14.65 Q84.55 -23.85 79.35 -31.95 74.15 -38.95 62.6 -39.5 L-62.95 -39.75 Q-74.5 -39.35 -79.65 -32.35 -85.15 -25.0 -85.3 -14.65" fill="#ffffff" fill-rule="evenodd" stroke="none"/>
      <path d="M-85.3 22.5 Q-85.05 32.6 -79.65 39.9 -74.5 46.85 -64.65 47.15 L61.9 46.85 Q74.15 46.45 80.2 38.25 84.45 31.45 84.7 22.5 L-85.35 22.5" fill="#ff0000" fill-rule="evenodd" stroke="none"/>
      <path d="M-85.4 -14.65 Q-85.25 -25.0 -79.75 -32.35 -74.6 -39.35 -63.05 -39.75 L62.5 -39.5 Q74.05 -38.95 79.25 -31.95 84.45 -23.85 84.65 -14.65 L84.75 22.2 Q84.5 31.45 80.25 38.25 L79.35 39.5 Q74.2 46.45 61.95 46.85 L-64.6 47.15 Q-74.45 46.85 -79.6 39.9 -85.0 32.6 -85.25 22.5 L-85.3 -14.65 Q-85.15 -25.0 -79.65 -32.35 -74.5 -39.35 -62.95 -39.75 L62.6 -39.5 Q74.15 -38.95 79.35 -31.95 84.55 -23.85 84.75 -14.65 L84.85 22.2 Q-0.15 22.4 -85.2 22.5 L-85.25 -14.65 M-85.35 22.5 L84.7 22.5 Q84.45 31.45 80.2 38.25 74.15 46.45 61.9 46.85 L-64.65 47.15 Q-74.5 46.85 -79.65 39.9 -85.05 32.6 -85.3 22.5" fill="none" stroke="#ff0000" stroke-linecap="round" stroke-linejoin="round" stroke-width="3.0"/>
    </g>
  </defs>
</svg>
