<?xml version="1.0" encoding="UTF-8" standalone="no"?>
<svg xmlns:xlink="http://www.w3.org/1999/xlink" height="110.0px" width="110.0px" xmlns="http://www.w3.org/2000/svg">
  <g transform="matrix(1.0, 0.0, 0.0, 1.0, 55.0, 55.0)">
    <use data-characterId="461" height="81.0" transform="matrix(1.0, 0.0, 0.0, 1.0, -40.5, -40.5)" width="81.0" xlink:href="#shape0"/>
  </g>
  <defs>
    <g id="shape0" transform="matrix(1.0, 0.0, 0.0, 1.0, 40.5, 40.5)">
      <path d="M26.05 -30.4 L28.25 -28.3 Q40.0 -16.55 40.0 0.0 40.0 16.55 28.25 28.25 L27.15 29.3 Q18.75 30.85 11.55 28.95 6.4 27.55 1.8 24.45 -1.5 22.15 -4.5 19.0 L-10.75 10.0 Q-10.2 6.85 -8.15 -0.75 L-7.6 -2.35 Q-6.05 -5.8 -2.25 -6.95 L0.35 -7.7 Q11.05 -11.0 18.5 -16.0 L18.65 -16.0 Q28.0 -20.4 26.05 -30.4 M21.5 8.5 L29.0 8.5 29.0 1.0 20.5 -5.0 12.0 1.0 5.0 7.5 13.0 14.5 21.5 8.5 M0.5 0.25 L0.5 -1.5 0.5 0.25 M-1.25 4.25 L-2.25 2.0 -1.25 4.25 M-1.75 11.75 L-3.25 8.5 -1.75 11.75" fill="#440044" fill-rule="evenodd" stroke="none"/>
      <path d="M-39.1 -8.7 Q-40.0 -11.7 -40.0 -15.0 -40.0 -25.35 -31.45 -32.7 -22.85 -40.0 -10.75 -40.0 L-5.6 -39.65 Q-12.3 -38.8 -18.1 -35.8 -23.6 -33.0 -28.3 -28.3 -33.2 -23.4 -36.0 -17.65 -38.15 -13.4 -39.1 -8.7 M21.5 -0.5 L19.0 -2.5 21.5 -0.5 M21.5 8.5 L21.5 1.0 29.0 1.0 21.5 1.0 21.5 8.5 13.0 14.5 5.0 7.5 12.0 1.0 20.5 -5.0 29.0 1.0 29.0 8.5 21.5 8.5 M21.5 1.0 L12.0 1.0 21.5 1.0 M17.5 6.0 L18.75 4.25 17.5 6.0 M12.25 6.5 L13.5 5.25 12.25 6.5 M17.0 9.5 L15.5 7.5 17.0 9.5" fill="#000000" fill-rule="evenodd" stroke="none"/>
      <path d="M26.05 -30.4 L28.25 -28.3 Q40.0 -16.55 40.0 0.0 40.0 16.55 28.25 28.25 L27.15 29.3 Q18.05 37.85 6.1 39.6 L0.0 40.0 Q-5.5 40.0 -10.45 38.7 -20.45 36.1 -28.3 28.25 -33.0 23.55 -35.8 18.05 -39.8 10.3 -40.0 0.95 L-40.0 0.0 Q-40.0 -4.5 -39.1 -8.7 -38.15 -13.4 -36.0 -17.65 -33.2 -23.4 -28.3 -28.3 -23.6 -33.0 -18.1 -35.8 -12.3 -38.8 -5.6 -39.65 L0.0 -40.0 5.1 -39.7 Q13.75 -38.7 20.95 -34.2 L26.05 -30.4" fill="none" stroke="#333333" stroke-linecap="round" stroke-linejoin="round" stroke-width="1.0"/>
      <path d="M9.5 -29.5 L11.25 -27.25 M10.25 -15.75 L11.0 -14.25 M3.0 -14.75 L2.25 -12.25 M19.0 -2.5 L21.5 -0.5 M2.25 -26.25 L3.0 -24.5 M15.5 7.5 L17.0 9.5 M13.5 5.25 L12.25 6.5 M18.75 4.25 L17.5 6.0 M6.0 30.0 L6.5 32.25 M14.75 31.75 L13.0 33.25 M0.5 -1.5 L0.5 0.25 M-10.75 -33.0 L-9.0 -31.5 M-25.0 -8.75 L-25.5 -6.0 M-8.0 -16.75 L-6.0 -13.5 M-3.75 -24.25 L-3.0 -22.5 M-13.5 -19.5 L-12.0 -18.25 M-18.5 -16.0 L-17.25 -13.5 M-15.5 -26.75 L-13.0 -24.5 M-2.25 2.0 L-1.25 4.25 M-14.0 17.0 L-13.25 19.5 M-3.25 8.5 L-1.75 11.75 M-24.0 8.25 L-23.0 10.25 M-7.5 25.25 L-4.5 27.75 M-26.75 -1.0 L-28.25 0.75 M-14.25 -0.5 L-12.25 2.25" fill="none" stroke="#999900" stroke-linecap="round" stroke-linejoin="round" stroke-width="0.1"/>
      <path d="M26.05 -30.4 Q28.0 -20.4 18.65 -16.0 L18.5 -16.0 Q11.05 -11.0 0.35 -7.7 L-1.5 -16.0 10.5 -24.5 20.95 -34.2 M-10.75 10.0 L-4.5 19.0 Q-1.5 22.15 1.8 24.45 6.4 27.55 11.55 28.95 18.75 30.85 27.15 29.3 M5.1 -39.7 L2.5 -31.05 10.5 -24.5 18.65 -16.0 M29.0 1.0 L21.5 1.0 21.5 8.5 29.0 8.5 29.0 1.0 20.5 -5.0 12.0 1.0 21.5 1.0 M12.0 1.0 L5.0 7.5 13.0 14.5 21.5 8.5 M11.55 28.95 L6.1 39.6 M1.8 24.45 L1.8 33.5 -10.45 38.7 -11.5 22.0 -18.5 25.0 -28.35 15.3 -35.8 18.05 M-18.1 -35.8 L-18.1 -22.5 -8.5 -22.5 -7.05 -31.05 -5.6 -39.65 M-36.0 -17.65 L-27.05 -20.1 -18.1 -22.5 M-27.05 -20.1 L-23.25 -14.8 -19.5 -9.5 -5.0 -19.25 -8.5 -22.5 M-23.25 -14.8 L-33.0 -6.0 -33.0 -0.5 -33.0 5.0 -21.0 2.0 -13.55 -5.9 -19.5 -9.5 M-5.0 -19.25 L-1.5 -16.0 M-7.6 -2.35 L-13.55 -5.9 M-11.5 22.0 L-4.5 19.0 M-21.0 2.0 L-21.0 12.5 -28.35 15.3 M-33.0 -0.5 L-40.0 0.95 M2.5 -31.05 L-7.05 -31.05" fill="none" stroke="#999999" stroke-linecap="round" stroke-linejoin="round" stroke-width="0.1"/>
      <path d="M-2.25 -6.95 Q-6.05 -5.8 -7.6 -2.35 L-8.15 -0.75 Q-10.2 6.85 -10.75 10.0" fill="none" stroke="#333333" stroke-linecap="round" stroke-linejoin="round" stroke-width="0.1"/>
      <path d="M0.35 -7.7 L-2.25 -6.95" fill="none" stroke="#333333" stroke-linecap="round" stroke-linejoin="round" stroke-width="0.1"/>
    </g>
  </defs>
</svg>
