<?xml version="1.0" encoding="UTF-8" standalone="no"?>
<svg xmlns:xlink="http://www.w3.org/1999/xlink" height="236.05px" width="174.0px" xmlns="http://www.w3.org/2000/svg">
  <g transform="matrix(1.0, 0.0, 0.0, 1.0, 87.0, 85.8)">
    <use data-characterId="469" height="236.05" transform="matrix(1.0, 0.0, 0.0, 1.0, -87.0, -85.8)" width="174.0" xlink:href="#shape0"/>
    <use data-characterId="497" height="15.15" transform="matrix(1.0, 0.0, 0.0, 1.0, -30.35, -59.05)" width="58.8" xlink:href="#text0"/>
    <use data-characterId="498" height="12.45" transform="matrix(1.0, 0.0, 0.0, 1.0, -39.75, -38.05)" width="47.4" xlink:href="#text1"/>
    <use data-characterId="499" height="20.25" transform="matrix(1.0, 0.0, 0.0, 1.0, -63.0, 89.1)" width="106.0" xlink:href="#text2"/>
    <use data-characterId="501" height="16.0" transform="matrix(1.0, 0.0, 0.0, 1.0, 54.5, -22.3)" width="26.0" xlink:href="#button0"/>
    <use data-characterId="503" height="16.0" transform="matrix(1.0, 0.0, 0.0, 1.0, 56.5, 68.7)" width="26.0" xlink:href="#button1"/>
    <use data-characterId="504" height="21.95" id="systemloc" transform="matrix(1.0, 0.0, 0.0, 1.0025, -62.0, 127.1951)" width="108.0" xlink:href="#text3"/>
    <use data-characterId="505" height="20.25" id="number" transform="matrix(1.0, 0.0, 0.0, 1.0025, 23.0, -41.9049)" width="46.0" xlink:href="#text4"/>
    <use data-characterId="506" height="103.8" id="members" transform="matrix(1.0, 0.0, 0.0, 1.0, -75.0, -19.8)" width="132.0" xlink:href="#text5"/>
    <use data-characterId="507" height="23.0" transform="matrix(1.0, 0.0, 0.0, 1.0, 44.5, 119.7)" width="37.0" xlink:href="#sprite0"/>
    <use data-characterId="508" height="23.15" id="baseloc" transform="matrix(1.0, 0.0, 0.0, 1.0025, -62.0, 112.9951)" width="108.0" xlink:href="#text7"/>
    <use data-characterId="487" height="28.0" id="createbase" transform="matrix(1.0, 0.0, 0.0, 1.0, -76.5, 116.0)" width="117.0" xlink:href="#sprite1"/>
    <use data-characterId="488" height="15.15" transform="matrix(1.0, 0.0, 0.0, 1.0, -19.95, -78.25)" width="41.1" xlink:href="#text9"/>
  </g>
  <defs>
    <g id="shape0" transform="matrix(1.0, 0.0, 0.0, 1.0, 87.0, 85.8)">
      <path d="M86.5 -85.3 L86.5 149.75 -86.5 149.75 -86.5 -85.3 86.5 -85.3" fill="#000000" fill-rule="evenodd" stroke="none"/>
      <path d="M86.5 -85.3 L86.5 149.75 -86.5 149.75 -86.5 -85.3 86.5 -85.3 Z" fill="none" stroke="#cccccc" stroke-linecap="round" stroke-linejoin="round" stroke-width="1.0"/>
    </g>
    <g id="text0" transform="matrix(1.0, 0.0, 0.0, 1.0, -20.15, -1.85)">
      <g transform="matrix(1.0, 0.0, 0.0, 1.0, 0.0, 0.0)">
        <use fill="#ffff00" height="15.15" transform="matrix(0.0137, 0.0, 0.0, 0.0137, 20.0, 13.0)" width="58.8" xlink:href="#font_Trebuchet_MS_S0"/>
        <use fill="#ffff00" height="15.15" transform="matrix(0.0137, 0.0, 0.0, 0.0137, 25.5, 13.0)" width="58.8" xlink:href="#font_Trebuchet_MS_q0"/>
        <use fill="#ffff00" height="15.15" transform="matrix(0.0137, 0.0, 0.0, 0.0137, 32.05, 13.0)" width="58.8" xlink:href="#font_Trebuchet_MS_u0"/>
        <use fill="#ffff00" height="15.15" transform="matrix(0.0137, 0.0, 0.0, 0.0137, 38.45, 13.0)" width="58.8" xlink:href="#font_Trebuchet_MS_a0"/>
        <use fill="#ffff00" height="15.15" transform="matrix(0.0137, 0.0, 0.0, 0.0137, 44.55, 13.0)" width="58.8" xlink:href="#font_Trebuchet_MS_d0"/>
        <use fill="#ffff00" height="15.15" transform="matrix(0.0137, 0.0, 0.0, 0.0137, 54.05, 13.0)" width="58.8" xlink:href="#font_Trebuchet_MS_I0"/>
        <use fill="#ffff00" height="15.15" transform="matrix(0.0137, 0.0, 0.0, 0.0137, 56.7, 13.0)" width="58.8" xlink:href="#font_Trebuchet_MS_n0"/>
        <use fill="#ffff00" height="15.15" transform="matrix(0.0137, 0.0, 0.0, 0.0137, 63.1, 13.0)" width="58.8" xlink:href="#font_Trebuchet_MS_f0"/>
        <use fill="#ffff00" height="15.15" transform="matrix(0.0137, 0.0, 0.0, 0.0137, 66.95, 13.0)" width="58.8" xlink:href="#font_Trebuchet_MS_o0"/>
      </g>
    </g>
    <g id="font_Trebuchet_MS_S0">
      <path d="M42.0 -33.5 Q111.0 12.5 208.5 12.5 319.5 12.5 386.0 -45.0 452.0 -102.5 452.0 -185.0 452.0 -261.0 422.0 -310.0 391.5 -359.5 316.5 -395.0 286.5 -409.0 256.5 -423.5 198.5 -451.5 180.0 -467.0 161.0 -482.5 150.5 -505.5 140.0 -528.5 140.0 -556.5 140.0 -602.0 169.5 -631.0 198.5 -660.0 249.5 -660.0 284.5 -660.0 325.5 -646.5 366.5 -633.0 386.5 -618.5 401.5 -662.0 416.0 -705.5 368.5 -745.0 247.0 -745.0 156.0 -745.0 98.0 -691.0 40.0 -637.0 40.0 -555.0 40.0 -487.5 70.0 -439.5 99.5 -391.5 174.5 -356.5 204.0 -342.5 233.5 -329.0 313.0 -291.5 333.0 -259.5 352.5 -228.0 352.5 -191.0 352.5 -141.5 317.0 -109.5 281.5 -77.5 223.0 -77.5 190.0 -77.5 148.5 -91.0 106.5 -105.0 78.5 -125.5 60.5 -79.5 42.0 -33.5" fill-rule="evenodd" stroke="none"/>
    </g>
    <g id="font_Trebuchet_MS_q0">
      <path d="M410.5 -424.5 L410.5 -105.0 Q372.5 -70.0 304.0 -70.0 227.5 -70.0 182.5 -121.5 137.5 -173.5 137.5 -266.5 137.5 -356.5 182.5 -411.0 227.5 -465.5 308.0 -465.5 369.5 -465.5 410.5 -424.5 M410.5 210.0 L505.5 210.0 505.5 -535.5 448.0 -535.5 Q435.5 -515.0 422.5 -495.0 362.0 -545.5 292.0 -545.5 180.0 -545.5 109.0 -470.0 37.5 -395.0 37.5 -266.5 37.5 -136.5 100.0 -63.0 162.0 10.0 271.5 10.0 369.0 10.0 410.5 -31.5 L410.5 210.0" fill-rule="evenodd" stroke="none"/>
    </g>
    <g id="font_Trebuchet_MS_u0">
      <path d="M157.5 -535.5 L62.5 -535.5 62.5 -184.0 Q62.5 -91.0 109.5 -40.5 156.0 10.0 244.0 10.0 290.0 10.0 338.5 -16.0 386.5 -42.5 402.5 -74.0 L402.5 0.0 497.5 0.0 497.5 -535.5 402.5 -535.5 402.5 -159.5 Q390.0 -124.0 351.0 -97.0 312.0 -70.0 265.0 -70.0 157.5 -70.0 157.5 -194.0 L157.5 -535.5" fill-rule="evenodd" stroke="none"/>
    </g>
    <g id="font_Trebuchet_MS_a0">
      <path d="M361.0 -263.0 L361.0 -133.5 Q305.5 -65.0 233.5 -65.0 135.0 -65.0 135.0 -148.5 135.0 -199.0 180.5 -236.0 226.0 -273.0 298.0 -273.0 316.0 -273.0 361.0 -263.0 M370.0 -61.5 Q382.5 -23.5 411.5 -7.0 440.0 9.5 498.0 9.5 L498.0 -38.0 Q456.0 -61.5 456.0 -132.0 L456.0 -324.0 Q456.0 -439.5 403.5 -492.5 350.5 -545.5 234.0 -545.5 190.5 -545.5 143.0 -529.5 95.0 -514.0 68.0 -492.0 L108.0 -412.5 Q156.0 -460.5 245.0 -460.5 361.0 -460.5 361.0 -330.5 323.0 -343.5 293.0 -343.5 182.5 -343.5 111.5 -287.0 40.0 -231.0 40.0 -149.5 40.0 -81.5 86.5 -35.5 132.5 10.0 195.5 10.0 313.0 10.0 370.0 -61.5" fill-rule="evenodd" stroke="none"/>
    </g>
    <g id="font_Trebuchet_MS_d0">
      <path d="M407.0 -411.5 L407.0 -114.5 Q399.0 -98.5 367.5 -84.0 336.0 -70.0 313.5 -70.0 137.5 -70.0 137.5 -263.5 137.5 -351.5 185.0 -408.5 232.0 -465.5 308.5 -465.5 371.0 -465.5 407.0 -411.5 M407.0 -0.5 L502.0 -0.5 502.0 -755.0 407.0 -755.0 407.0 -506.5 Q364.0 -545.5 281.0 -545.5 181.5 -545.5 109.5 -460.0 37.5 -375.0 37.5 -254.5 37.5 -134.5 100.0 -62.5 162.5 9.5 263.0 9.5 357.5 9.5 407.0 -40.0 L407.0 -0.5" fill-rule="evenodd" stroke="none"/>
    </g>
    <g id="font_Trebuchet_MS_I0">
      <path d="M92.5 0.0 L192.5 0.0 192.5 -732.5 92.5 -732.5 92.5 0.0" fill-rule="evenodd" stroke="none"/>
    </g>
    <g id="font_Trebuchet_MS_n0">
      <path d="M397.0 0.0 L492.0 0.0 492.0 -331.5 Q492.0 -545.5 316.0 -545.5 209.5 -545.5 162.5 -466.5 L132.5 -535.5 67.5 -535.5 67.5 0.0 162.5 0.0 162.5 -398.0 Q181.5 -426.5 217.0 -446.0 252.5 -465.5 285.0 -465.5 345.5 -465.5 371.5 -431.0 397.0 -397.0 397.0 -311.5 L397.0 0.0" fill-rule="evenodd" stroke="none"/>
    </g>
    <g id="font_Trebuchet_MS_f0">
      <path d="M357.0 -670.0 Q370.5 -705.0 383.5 -740.0 336.0 -755.0 294.5 -755.0 211.5 -755.0 161.0 -696.5 110.5 -638.0 110.5 -535.5 L32.5 -535.5 32.5 -455.5 110.5 -455.5 110.5 0.0 205.5 0.0 205.5 -455.5 314.5 -455.5 314.5 -535.5 205.5 -535.5 Q203.0 -550.0 203.0 -563.5 203.0 -614.0 231.5 -647.0 259.5 -680.0 303.0 -680.0 328.0 -680.0 357.0 -670.0" fill-rule="evenodd" stroke="none"/>
    </g>
    <g id="font_Trebuchet_MS_o0">
      <path d="M132.5 -269.0 Q132.5 -362.0 171.5 -415.0 210.0 -468.0 275.0 -468.0 417.0 -468.0 417.0 -269.0 417.0 -175.5 379.5 -121.5 341.5 -67.5 275.0 -67.5 132.5 -67.5 132.5 -269.0 M32.5 -269.0 Q32.5 -141.0 96.5 -65.5 160.5 10.0 275.0 10.0 387.0 10.0 452.0 -64.5 517.0 -139.5 517.0 -269.0 517.0 -399.0 453.5 -472.0 390.0 -545.5 275.0 -545.5 166.0 -545.5 99.5 -469.0 32.5 -393.0 32.5 -269.0" fill-rule="evenodd" stroke="none"/>
    </g>
    <g id="text1" transform="matrix(1.0, 0.0, 0.0, 1.0, -3.75, -1.85)">
      <g transform="matrix(1.0, 0.0, 0.0, 1.0, 0.0, 0.0)">
        <use fill="#ffff00" height="12.45" transform="matrix(0.0137, 0.0, 0.0, 0.0137, 4.0, 13.0)" width="47.4" xlink:href="#font_Trebuchet_MS_M0"/>
        <use fill="#ffff00" height="12.45" transform="matrix(0.0137, 0.0, 0.0, 0.0137, 11.9, 13.0)" width="47.4" xlink:href="#font_Trebuchet_MS_e0"/>
        <use fill="#ffff00" height="12.45" transform="matrix(0.0137, 0.0, 0.0, 0.0137, 17.5, 13.0)" width="47.4" xlink:href="#font_Trebuchet_MS_m0"/>
        <use fill="#ffff00" height="12.45" transform="matrix(0.0137, 0.0, 0.0, 0.0137, 27.05, 13.0)" width="47.4" xlink:href="#font_Trebuchet_MS_b0"/>
        <use fill="#ffff00" height="12.45" transform="matrix(0.0137, 0.0, 0.0, 0.0137, 32.8, 13.0)" width="47.4" xlink:href="#font_Trebuchet_MS_e0"/>
        <use fill="#ffff00" height="12.45" transform="matrix(0.0137, 0.0, 0.0, 0.0137, 38.4, 13.0)" width="47.4" xlink:href="#font_Trebuchet_MS_r0"/>
        <use fill="#ffff00" height="12.45" transform="matrix(0.0137, 0.0, 0.0, 0.0137, 41.8, 13.0)" width="47.4" xlink:href="#font_Trebuchet_MS_s0"/>
      </g>
    </g>
    <g id="font_Trebuchet_MS_M0">
      <path d="M626.5 0.0 L721.5 0.0 573.0 -732.5 528.0 -732.5 367.0 -198.0 192.5 -732.5 147.0 -732.5 10.0 0.0 105.0 0.0 190.0 -470.5 354.5 10.0 379.5 10.0 539.5 -470.5 626.5 0.0" fill-rule="evenodd" stroke="none"/>
    </g>
    <g id="font_Trebuchet_MS_e0">
      <path d="M288.0 -465.5 Q356.0 -465.5 395.5 -423.5 431.5 -385.0 431.5 -327.5 L135.0 -327.5 Q140.5 -385.5 181.5 -424.5 224.5 -465.5 288.0 -465.5 M518.5 -258.5 Q526.0 -285.0 526.0 -316.5 526.0 -419.0 463.0 -481.0 398.0 -545.5 283.5 -545.5 185.0 -545.5 113.0 -474.0 32.5 -394.0 32.5 -261.5 32.5 -134.0 111.0 -58.5 181.5 10.0 282.5 10.0 352.5 10.0 409.5 -11.0 455.0 -27.0 477.0 -49.0 L437.0 -117.5 Q382.5 -70.0 301.0 -70.0 229.5 -70.0 184.0 -114.0 132.5 -164.5 132.5 -258.5 L518.5 -258.5" fill-rule="evenodd" stroke="none"/>
    </g>
    <g id="font_Trebuchet_MS_m0">
      <path d="M687.5 0.0 L782.5 0.0 782.5 -358.0 Q782.5 -447.0 737.0 -496.0 691.5 -545.5 608.5 -545.5 562.5 -545.5 519.0 -525.0 475.5 -504.5 459.5 -474.0 413.5 -545.5 298.5 -545.5 216.0 -545.5 161.0 -473.5 L129.5 -535.5 67.5 -535.5 67.5 0.0 162.5 0.0 162.5 -395.0 Q176.0 -421.5 208.5 -443.5 240.5 -465.5 269.0 -465.5 318.0 -465.5 348.0 -442.5 377.5 -420.0 377.5 -380.5 L377.5 0.0 472.5 0.0 472.5 -396.0 Q483.5 -423.0 513.5 -444.0 543.5 -465.5 578.0 -465.5 687.5 -465.5 687.5 -339.0 L687.5 0.0" fill-rule="evenodd" stroke="none"/>
    </g>
    <g id="font_Trebuchet_MS_b0">
      <path d="M162.5 -423.5 Q172.0 -435.5 203.5 -450.5 234.5 -465.5 252.0 -465.5 335.0 -465.5 384.0 -414.5 433.0 -363.5 433.0 -272.5 433.0 -163.0 391.0 -116.5 349.0 -70.0 252.0 -70.0 233.5 -70.0 198.0 -88.0 162.5 -106.5 162.5 -114.5 L162.5 -423.5 M148.5 -38.5 Q167.5 -18.5 204.5 -4.0 241.0 10.0 279.0 10.0 396.0 10.0 464.5 -66.5 533.0 -143.5 533.0 -277.5 533.0 -393.5 465.0 -469.5 396.5 -545.5 286.5 -545.5 250.5 -545.5 213.5 -530.0 176.0 -514.5 162.5 -496.0 L162.5 -755.0 67.5 -755.0 67.5 10.0 115.0 10.0 Q132.0 -14.0 148.5 -38.5" fill-rule="evenodd" stroke="none"/>
    </g>
    <g id="font_Trebuchet_MS_r0">
      <path d="M358.5 -444.0 Q378.5 -490.0 398.0 -536.5 350.0 -545.5 324.5 -545.5 222.0 -545.5 170.0 -450.0 L170.0 -535.5 75.0 -535.5 75.0 0.0 170.0 0.0 170.0 -307.0 Q170.0 -372.5 208.0 -419.0 245.5 -465.5 296.0 -465.5 327.5 -465.5 358.5 -444.0" fill-rule="evenodd" stroke="none"/>
    </g>
    <g id="font_Trebuchet_MS_s0">
      <path d="M32.5 -32.0 Q107.0 10.0 191.5 10.0 281.0 10.0 331.5 -30.5 382.0 -71.5 382.0 -143.5 382.0 -198.5 353.5 -235.0 325.0 -271.5 262.5 -300.0 L194.5 -331.0 Q136.0 -357.5 136.0 -409.0 136.0 -433.5 159.5 -449.5 182.5 -465.5 216.5 -465.5 273.5 -465.5 330.0 -420.5 L357.0 -508.5 Q268.0 -545.5 209.5 -545.5 132.0 -545.5 84.0 -508.5 36.0 -471.5 36.0 -405.5 36.0 -380.0 44.5 -357.5 52.5 -335.5 69.5 -315.5 86.0 -296.0 109.0 -280.5 131.5 -265.0 197.0 -235.0 282.0 -197.0 282.0 -144.0 282.0 -70.0 194.0 -70.0 145.5 -70.0 66.0 -122.0 49.5 -77.0 32.5 -32.0" fill-rule="evenodd" stroke="none"/>
    </g>
    <g id="text2" transform="matrix(1.0, 0.0, 0.0, 1.0, 2.0, 2.0)">
      <g transform="matrix(1.0, 0.0, 0.0, 1.0, -2.0, -2.0)">
        <use fill="#ffff00" height="20.25" transform="matrix(0.0137, 0.0, 0.0, 0.0137, 53.0, 16.0)" width="106.0" xlink:href="#font_Trebuchet_MS_B0"/>
        <use fill="#ffff00" height="20.25" transform="matrix(0.0137, 0.0, 0.0, 0.0137, 53.0, 16.0)" width="106.0" xlink:href="#font_Trebuchet_MS_a0"/>
        <use fill="#ffff00" height="20.25" transform="matrix(0.0137, 0.0, 0.0, 0.0137, 53.0, 16.0)" width="106.0" xlink:href="#font_Trebuchet_MS_s0"/>
        <use fill="#ffff00" height="20.25" transform="matrix(0.0137, 0.0, 0.0, 0.0137, 53.0, 16.0)" width="106.0" xlink:href="#font_Trebuchet_MS_e0"/>
      </g>
      <g transform="matrix(1.0, 0.0, 0.0, 1.0, -2.0, -2.0)">
        <use fill="#ffff00" height="20.25" transform="matrix(0.0137, 0.0, 0.0, 0.0137, 53.0, 16.0)" width="106.0" xlink:href="#font_Trebuchet_MS_L0"/>
        <use fill="#ffff00" height="20.25" transform="matrix(0.0137, 0.0, 0.0, 0.0137, 53.0, 16.0)" width="106.0" xlink:href="#font_Trebuchet_MS_o0"/>
        <use fill="#ffff00" height="20.25" transform="matrix(0.0137, 0.0, 0.0, 0.0137, 53.0, 16.0)" width="106.0" xlink:href="#font_Trebuchet_MS_c0"/>
        <use fill="#ffff00" height="20.25" transform="matrix(0.0137, 0.0, 0.0, 0.0137, 53.0, 16.0)" width="106.0" xlink:href="#font_Trebuchet_MS_a0"/>
        <use fill="#ffff00" height="20.25" transform="matrix(0.0137, 0.0, 0.0, 0.0137, 53.0, 16.0)" width="106.0" xlink:href="#font_Trebuchet_MS_t0"/>
        <use fill="#ffff00" height="20.25" transform="matrix(0.0137, 0.0, 0.0, 0.0137, 53.0, 16.0)" width="106.0" xlink:href="#font_Trebuchet_MS_i0"/>
        <use fill="#ffff00" height="20.25" transform="matrix(0.0137, 0.0, 0.0, 0.0137, 53.0, 16.0)" width="106.0" xlink:href="#font_Trebuchet_MS_o0"/>
        <use fill="#ffff00" height="20.25" transform="matrix(0.0137, 0.0, 0.0, 0.0137, 53.0, 16.0)" width="106.0" xlink:href="#font_Trebuchet_MS_n0"/>
      </g>
    </g>
    <g id="font_Trebuchet_MS_B0">
      <path d="M175.0 -364.5 L255.5 -367.0 Q352.0 -367.0 393.5 -333.0 434.5 -299.0 434.5 -227.5 434.5 -150.5 391.5 -115.0 348.0 -80.0 254.0 -80.0 226.5 -80.0 175.0 -85.0 L175.0 -364.5 M175.0 -652.5 Q214.5 -656.0 264.5 -656.0 395.0 -656.0 395.0 -554.5 395.0 -439.0 253.0 -439.0 206.5 -439.0 175.0 -442.0 L175.0 -652.5 M284.0 0.0 Q398.0 0.0 469.0 -57.5 539.5 -115.0 539.5 -211.5 539.5 -295.0 500.0 -343.5 460.0 -392.0 373.0 -413.0 419.0 -423.5 457.0 -465.5 495.0 -507.5 495.0 -558.5 495.0 -645.5 435.5 -692.0 376.0 -739.0 267.5 -739.0 208.5 -739.0 75.0 -732.5 L75.0 0.0 284.0 0.0" fill-rule="evenodd" stroke="none"/>
    </g>
    <g id="font_Trebuchet_MS_L0">
      <path d="M75.0 0.0 L506.0 0.0 506.0 -90.0 175.0 -90.0 175.0 -732.5 75.0 -732.5 75.0 0.0" fill-rule="evenodd" stroke="none"/>
    </g>
    <g id="font_Trebuchet_MS_c0">
      <path d="M471.5 -492.0 Q448.5 -510.5 400.0 -528.0 351.5 -545.5 310.0 -545.5 181.0 -545.5 107.0 -468.0 32.5 -390.5 32.5 -262.5 32.5 -137.0 104.0 -63.5 175.5 10.0 285.0 10.0 398.0 10.0 474.5 -39.5 456.0 -79.5 437.0 -119.5 372.0 -70.0 308.0 -70.0 225.5 -70.0 179.0 -119.0 132.5 -168.5 132.5 -262.5 132.5 -357.0 178.0 -411.0 223.5 -465.5 301.0 -465.5 336.5 -465.5 373.5 -452.5 410.0 -439.5 424.5 -425.0 L471.5 -492.0" fill-rule="evenodd" stroke="none"/>
    </g>
    <g id="font_Trebuchet_MS_t0">
      <path d="M101.5 -460.5 L101.5 -156.5 Q101.5 -84.5 145.5 -37.0 189.0 10.0 252.5 10.0 323.0 10.0 382.0 -5.0 L368.0 -88.5 Q329.0 -70.0 292.5 -70.0 242.0 -70.0 219.5 -98.5 196.5 -127.0 196.5 -194.5 L196.5 -460.5 343.5 -460.5 343.5 -535.5 196.5 -535.5 196.5 -684.0 Q149.0 -665.5 101.5 -647.5 L101.5 -535.5 39.5 -535.5 39.5 -460.5 101.5 -460.5" fill-rule="evenodd" stroke="none"/>
    </g>
    <g id="font_Trebuchet_MS_i0">
      <path d="M113.5 0.0 L208.5 0.0 208.5 -535.5 40.0 -535.5 40.0 -455.5 113.5 -455.5 113.5 0.0 M165.5 -738.0 Q141.0 -738.0 124.0 -721.0 107.0 -704.0 107.0 -679.5 107.0 -655.0 124.5 -637.5 141.5 -620.5 165.5 -620.5 190.0 -620.5 207.5 -637.5 224.5 -655.0 224.5 -679.5 224.5 -703.5 207.5 -720.5 190.0 -738.0 165.5 -738.0" fill-rule="evenodd" stroke="none"/>
    </g>
    <g id="button0" transform="matrix(1.0, 0.0, 0.0, 1.0, 0.5, 0.5)">
      <use data-characterId="500" height="16.0" transform="matrix(1.0, 0.0, 0.0, 1.0, -0.5, -0.5)" width="26.0" xlink:href="#shape1"/>
    </g>
    <g id="shape1" transform="matrix(1.0, 0.0, 0.0, 1.0, 0.5, 0.5)">
      <path d="M19.5 10.5 L12.5 3.5 5.5 10.5 12.5 3.5 19.5 10.5 M0.0 15.0 L0.0 0.0 25.0 0.0 25.0 15.0 0.0 15.0" fill="#ccff00" fill-rule="evenodd" stroke="none"/>
      <path d="M5.5 10.5 L12.5 3.5 19.5 10.5" fill="none" stroke="#000000" stroke-linecap="round" stroke-linejoin="round" stroke-width="1.0"/>
      <path d="M0.0 15.0 L0.0 0.0 25.0 0.0 25.0 15.0 0.0 15.0 Z" fill="none" stroke="#cccccc" stroke-linecap="round" stroke-linejoin="round" stroke-width="1.0"/>
    </g>
    <g id="button1" transform="matrix(1.0, 0.0, 0.0, 1.0, 0.0, 0.0)">
      <use data-characterId="502" height="16.0" transform="matrix(1.0, 0.0, 0.0, 1.0, 0.0, 0.0)" width="26.0" xlink:href="#shape2"/>
    </g>
    <g id="shape2" transform="matrix(1.0, 0.0, 0.0, 1.0, 0.0, 0.0)">
      <path d="M20.0 5.0 L13.0 12.0 6.0 5.0 13.0 12.0 20.0 5.0 M0.5 15.5 L0.5 0.5 25.5 0.5 25.5 15.5 0.5 15.5" fill="#ccff00" fill-rule="evenodd" stroke="none"/>
      <path d="M6.0 5.0 L13.0 12.0 20.0 5.0" fill="none" stroke="#000000" stroke-linecap="round" stroke-linejoin="round" stroke-width="1.0"/>
      <path d="M0.5 15.5 L25.5 15.5 25.5 0.5 0.5 0.5 0.5 15.5 Z" fill="none" stroke="#cccccc" stroke-linecap="round" stroke-linejoin="round" stroke-width="1.0"/>
    </g>
    <g id="text3" transform="matrix(1.0, 0.0, 0.0, 1.0, 2.0, 2.0)">
      <g transform="matrix(1.0, 0.0, 0.0, 1.0, -2.0, -2.0)">
        <use fill="#00ff00" height="21.95" transform="matrix(0.0117, 0.0, 0.0, 0.0117, 0.0, 12.85)" width="108.0" xlink:href="#font__sans_a0"/>
        <use fill="#00ff00" height="21.95" transform="matrix(0.0117, 0.0, 0.0, 0.0117, 6.65, 12.85)" width="108.0" xlink:href="#font__sans_s0"/>
        <use fill="#00ff00" height="21.95" transform="matrix(0.0117, 0.0, 0.0, 0.0117, 12.65, 12.85)" width="108.0" xlink:href="#font__sans_e0"/>
      </g>
      <g transform="matrix(1.0, 0.0, 0.0, 1.0, -2.0, -2.0)">
        <use fill="#00ff00" height="21.95" transform="matrix(0.0117, 0.0, 0.0, 0.0117, 29.3, 12.85)" width="108.0" xlink:href="#font__sans_l0"/>
        <use fill="#00ff00" height="21.95" transform="matrix(0.0117, 0.0, 0.0, 0.0117, 31.95, 12.85)" width="108.0" xlink:href="#font__sans_o0"/>
        <use fill="#00ff00" height="21.95" transform="matrix(0.0117, 0.0, 0.0, 0.0117, 38.6, 12.85)" width="108.0" xlink:href="#font__sans_c0"/>
      </g>
    </g>
    <g id="font__sans_a0">
      <path d="M406.5 -266.5 L406.5 -233.5 Q406.5 -174.0 392.0 -143.5 373.0 -104.0 332.5 -81.0 292.0 -58.5 240.0 -58.5 187.5 -58.5 160.5 -82.5 133.0 -106.5 133.0 -142.5 133.0 -166.0 145.5 -185.0 158.0 -204.5 181.0 -214.5 204.0 -224.5 259.5 -232.5 357.5 -246.5 406.5 -266.5 M414.0 -65.5 Q418.0 -28.0 432.0 0.0 L526.0 0.0 Q509.0 -30.5 503.5 -63.5 497.5 -97.0 497.5 -222.5 L497.5 -342.5 Q497.5 -402.5 493.0 -425.5 485.0 -462.5 465.0 -486.5 445.0 -511.0 402.5 -527.0 360.0 -543.0 292.0 -543.0 223.5 -543.0 171.5 -524.0 119.5 -505.5 92.0 -470.5 64.5 -436.0 52.5 -379.5 L140.5 -367.5 Q155.0 -424.0 185.5 -446.0 215.5 -468.5 279.0 -468.5 347.0 -468.5 381.5 -438.0 407.0 -415.5 407.0 -360.5 L406.5 -337.0 Q355.0 -319.0 246.0 -306.0 192.5 -299.5 166.0 -292.5 130.0 -282.5 101.5 -263.0 72.5 -243.5 55.0 -211.0 37.0 -179.0 37.0 -140.0 37.0 -73.5 84.0 -30.5 131.0 12.0 218.5 12.0 271.5 12.0 318.0 -5.5 364.0 -23.0 414.0 -65.5" fill-rule="evenodd" stroke="none"/>
    </g>
    <g id="font__sans_s0">
      <path d="M31.5 -158.5 Q46.5 -74.0 101.0 -31.0 155.0 12.0 258.5 12.0 321.0 12.0 370.5 -9.5 420.0 -31.5 446.5 -71.0 472.5 -111.0 472.5 -156.0 472.5 -202.0 451.0 -233.0 429.5 -264.0 392.0 -280.0 354.0 -296.5 258.5 -322.0 192.5 -340.0 179.0 -345.0 155.5 -354.5 144.5 -369.0 133.5 -383.0 133.5 -400.5 133.5 -428.0 160.0 -448.5 186.5 -469.0 248.5 -469.0 301.0 -469.0 330.0 -446.0 358.5 -423.0 364.5 -382.0 L452.5 -394.0 Q444.0 -445.5 421.5 -476.0 399.0 -507.0 352.0 -525.0 304.5 -543.0 242.0 -543.0 200.5 -543.0 164.5 -532.0 128.0 -521.5 107.0 -506.0 79.0 -486.0 63.0 -455.5 46.5 -425.5 46.5 -390.0 46.5 -351.0 66.5 -318.5 86.0 -286.5 124.5 -268.0 162.5 -250.0 261.5 -225.0 335.0 -206.5 353.5 -194.5 380.0 -177.0 380.0 -146.5 380.0 -112.5 350.0 -87.0 320.0 -62.0 258.0 -62.0 196.5 -62.0 162.5 -90.5 128.0 -119.0 120.5 -172.5 L31.5 -158.5" fill-rule="evenodd" stroke="none"/>
    </g>
    <g id="font__sans_e0">
      <path d="M135.5 -316.5 Q140.0 -386.0 182.5 -427.5 224.5 -469.0 286.5 -469.0 355.0 -469.0 398.0 -417.0 426.0 -383.5 432.0 -316.5 L135.5 -316.5 M431.0 -171.0 Q410.5 -114.0 375.5 -88.0 340.5 -62.0 291.0 -62.0 224.5 -62.0 180.0 -108.5 135.5 -155.0 130.5 -242.5 L526.5 -242.5 527.0 -266.5 Q527.0 -398.0 459.5 -470.5 392.0 -543.0 285.5 -543.0 175.5 -543.0 106.5 -469.0 37.5 -395.0 37.5 -261.0 37.5 -131.5 106.0 -59.5 174.0 12.0 290.5 12.0 383.0 12.0 442.5 -33.0 502.0 -78.0 524.0 -159.5 L431.0 -171.0" fill-rule="evenodd" stroke="none"/>
    </g>
    <g id="font__sans_l0">
      <path d="M65.5 0.0 L155.5 0.0 155.5 -733.0 65.5 -733.0 65.5 0.0" fill-rule="evenodd" stroke="none"/>
    </g>
    <g id="font__sans_o0">
      <path d="M126.5 -265.5 Q126.5 -367.5 171.0 -418.0 215.5 -468.5 283.0 -468.5 349.5 -468.5 394.5 -417.5 439.0 -367.0 439.0 -268.5 439.0 -164.0 394.5 -113.0 350.0 -62.0 283.0 -62.0 215.5 -62.0 171.0 -112.5 126.5 -163.5 126.5 -265.5 M34.0 -265.5 Q34.0 -131.0 103.0 -59.5 171.5 12.0 283.0 12.0 352.5 12.0 411.5 -20.5 470.0 -53.0 501.0 -111.5 531.5 -170.5 531.5 -273.0 531.5 -399.5 462.0 -471.0 392.5 -543.0 283.0 -543.0 184.5 -543.0 116.0 -484.0 34.0 -413.0 34.0 -265.5" fill-rule="evenodd" stroke="none"/>
    </g>
    <g id="font__sans_c0">
      <path d="M414.0 -194.5 Q404.5 -127.0 369.0 -94.5 333.5 -62.0 280.5 -62.0 214.5 -62.0 173.5 -110.5 132.5 -159.0 132.5 -266.0 132.5 -371.5 175.0 -420.0 217.5 -469.0 285.5 -469.0 330.5 -469.0 362.5 -442.0 394.0 -415.0 406.5 -361.5 L494.0 -375.0 Q478.5 -455.5 423.5 -499.0 368.5 -543.0 282.0 -543.0 213.5 -543.0 155.5 -510.5 97.0 -478.5 68.5 -414.0 40.0 -349.5 40.0 -263.5 40.0 -130.5 106.5 -59.0 172.5 12.0 281.5 12.0 368.5 12.0 428.5 -39.5 488.0 -91.5 502.5 -183.0 L414.0 -194.5" fill-rule="evenodd" stroke="none"/>
    </g>
    <g id="text4" transform="matrix(1.0, 0.0, 0.0, 1.0, 2.0, 2.0)">
      <g transform="matrix(1.0, 0.0, 0.0, 1.0, -2.0, -2.0)">
        <use fill="#ffff00" height="20.25" transform="matrix(0.0137, 0.0, 0.0, 0.0137, 0.0, 16.0)" width="46.0" xlink:href="#font_Trebuchet_MS__1"/>
      </g>
    </g>
    <g id="font_Trebuchet_MS__1">
      <path d="M227.5 -473.5 L376.0 -473.5 Q351.5 -375.0 326.5 -277.0 L178.0 -277.0 Q203.0 -375.0 227.5 -473.5 M439.5 -473.5 L543.0 -473.5 543.0 -537.5 455.5 -537.5 Q481.5 -640.5 507.0 -743.5 L443.5 -743.5 Q418.0 -640.5 392.0 -537.5 L243.5 -537.5 Q269.5 -640.5 295.0 -743.5 L229.5 -743.5 178.5 -537.5 76.0 -537.5 76.0 -473.5 162.0 -473.5 Q137.5 -375.0 112.5 -277.0 L18.5 -277.0 18.5 -213.0 96.0 -213.0 Q65.5 -101.5 34.5 10.0 L99.5 10.0 161.5 -213.0 310.0 -213.0 248.0 10.0 311.5 10.0 373.5 -213.0 470.5 -213.0 470.5 -277.0 390.0 -277.0 Q415.0 -375.0 439.5 -473.5" fill-rule="evenodd" stroke="none"/>
    </g>
    <g id="sprite0" transform="matrix(1.0, 0.0, 0.0, 1.0, 1.5, 1.5)">
      <use data-characterId="458" height="23.0" transform="matrix(1.0, 0.0, 0.0, 1.0, -1.5, -1.5)" width="37.0" xlink:href="#shape3"/>
      <use data-characterId="459" height="10.9" transform="matrix(1.0, 0.0, 0.0, 1.0, 11.5, 3.25)" width="19.7" xlink:href="#text6"/>
    </g>
    <g id="shape3" transform="matrix(1.0, 0.0, 0.0, 1.0, 1.5, 1.5)">
      <path d="M35.0 -1.0 L35.0 21.0 -1.0 21.0 -1.0 -1.0 35.0 -1.0" fill="#808080" fill-rule="evenodd" stroke="none"/>
      <path d="M35.0 -1.0 L35.0 21.0 -1.0 21.0 -1.0 -1.0 35.0 -1.0 Z" fill="none" stroke="#cccccc" stroke-linecap="round" stroke-linejoin="round" stroke-width="1.0"/>
    </g>
    <g id="text6" transform="matrix(1.0, 0.0, 0.0, 1.0, -0.5, -2.05)">
      <g transform="matrix(1.0, 0.0, 0.0, 1.0, 0.0, 0.0)">
        <use fill="#ffffff" height="10.9" transform="matrix(0.0117, 0.0, 0.0, 0.0117, 0.0, 12.0)" width="19.7" xlink:href="#font_Trebuchet_MS_O0"/>
        <use fill="#ffffff" height="10.9" transform="matrix(0.0117, 0.0, 0.0, 0.0117, 8.05, 12.0)" width="19.7" xlink:href="#font_Trebuchet_MS_K0"/>
      </g>
    </g>
    <g id="font_Trebuchet_MS_O0">
      <path d="M145.0 -372.5 Q145.0 -503.5 193.5 -579.5 242.0 -655.5 335.0 -655.5 545.0 -655.5 545.0 -372.5 545.0 -232.5 491.5 -155.0 437.5 -77.5 335.0 -77.5 244.5 -77.5 195.0 -162.0 145.0 -246.5 145.0 -372.5 M40.0 -372.5 Q40.0 -203.5 118.5 -95.5 196.5 12.5 335.0 12.5 487.0 12.5 568.5 -89.5 650.0 -192.0 650.0 -372.5 650.0 -548.5 569.0 -647.0 487.5 -745.5 335.0 -745.5 199.5 -745.5 120.0 -638.5 40.0 -531.5 40.0 -372.5" fill-rule="evenodd" stroke="none"/>
    </g>
    <g id="font_Trebuchet_MS_K0">
      <path d="M479.0 0.0 L589.5 0.0 339.5 -415.0 558.5 -732.5 447.0 -732.5 Q311.0 -533.0 175.0 -334.0 L175.0 -732.5 75.0 -732.5 75.0 0.0 175.0 0.0 175.0 -198.5 Q224.0 -267.5 272.5 -337.0 376.0 -168.5 479.0 0.0" fill-rule="evenodd" stroke="none"/>
    </g>
    <g id="text7" transform="matrix(1.0, 0.0, 0.0, 1.0, 2.0, 2.0)">
      <g transform="matrix(1.0, 0.0, 0.0, 1.0, -2.0, -2.0)">
        <use fill="#00ff00" height="23.15" transform="matrix(0.0117, 0.0, 0.0, 0.0117, 0.0, 12.85)" width="108.0" xlink:href="#font__sans_a0"/>
        <use fill="#00ff00" height="23.15" transform="matrix(0.0117, 0.0, 0.0, 0.0117, 6.65, 12.85)" width="108.0" xlink:href="#font__sans_s0"/>
        <use fill="#00ff00" height="23.15" transform="matrix(0.0117, 0.0, 0.0, 0.0117, 12.65, 12.85)" width="108.0" xlink:href="#font__sans_e0"/>
      </g>
      <g transform="matrix(1.0, 0.0, 0.0, 1.0, -2.0, -2.0)">
        <use fill="#00ff00" height="23.15" transform="matrix(0.0117, 0.0, 0.0, 0.0117, 29.3, 12.85)" width="108.0" xlink:href="#font__sans_l0"/>
        <use fill="#00ff00" height="23.15" transform="matrix(0.0117, 0.0, 0.0, 0.0117, 31.95, 12.85)" width="108.0" xlink:href="#font__sans_o0"/>
        <use fill="#00ff00" height="23.15" transform="matrix(0.0117, 0.0, 0.0, 0.0117, 38.6, 12.85)" width="108.0" xlink:href="#font__sans_c0"/>
      </g>
    </g>
    <g id="sprite1" transform="matrix(1.0, 0.0, 0.0, 1.0, 58.55, 14.0)">
      <use data-characterId="485" height="28.0" transform="matrix(1.0, 0.0, 0.0, 1.0, -58.55, -14.0)" width="117.0" xlink:href="#shape4"/>
      <use data-characterId="486" height="19.8" id="label" transform="matrix(1.0, 0.0, 0.0, 1.0, -57.05, -9.9)" width="115.05" xlink:href="#text8"/>
    </g>
    <g id="shape4" transform="matrix(1.0, 0.0, 0.0, 1.0, 58.55, 14.0)">
      <path d="M57.95 13.5 L-58.05 13.5 -58.05 -13.5 57.95 -13.5 57.95 13.5" fill="#999999" fill-rule="evenodd" stroke="none"/>
      <path d="M57.95 13.5 L-58.05 13.5 -58.05 -13.5 57.95 -13.5 57.95 13.5 Z" fill="none" stroke="#cccccc" stroke-linecap="round" stroke-linejoin="round" stroke-width="1.0"/>
    </g>
    <g id="text8" transform="matrix(1.0, 0.0, 0.0, 1.0, 2.0, 2.0)">
      <g transform="matrix(1.0, 0.0, 0.0, 1.0, -2.0, -2.0)">
        <use fill="#00ff00" height="19.8" transform="matrix(0.0117, 0.0, 0.0, 0.0117, 57.5, 14.0)" width="115.05" xlink:href="#font_Trebuchet_MS_a0"/>
        <use fill="#00ff00" height="19.8" transform="matrix(0.0117, 0.0, 0.0, 0.0117, 57.5, 14.0)" width="115.05" xlink:href="#font_Trebuchet_MS_c0"/>
        <use fill="#00ff00" height="19.8" transform="matrix(0.0117, 0.0, 0.0, 0.0117, 57.5, 14.0)" width="115.05" xlink:href="#font_Trebuchet_MS_t0"/>
        <use fill="#00ff00" height="19.8" transform="matrix(0.0117, 0.0, 0.0, 0.0117, 57.5, 14.0)" width="115.05" xlink:href="#font_Trebuchet_MS_i0"/>
        <use fill="#00ff00" height="19.8" transform="matrix(0.0117, 0.0, 0.0, 0.0117, 57.5, 14.0)" width="115.05" xlink:href="#font_Trebuchet_MS_o0"/>
        <use fill="#00ff00" height="19.8" transform="matrix(0.0117, 0.0, 0.0, 0.0117, 57.5, 14.0)" width="115.05" xlink:href="#font_Trebuchet_MS_n0"/>
      </g>
    </g>
    <g id="text9" transform="matrix(1.0, 0.0, 0.0, 1.0, -58.55, -1.85)">
      <g transform="matrix(1.0, 0.0, 0.0, 1.0, 0.0, 0.0)">
        <use fill="#00ff00" height="15.15" transform="matrix(0.0137, 0.0, 0.0, 0.0137, 58.0, 13.0)" width="41.1" xlink:href="#font_Trebuchet_MS_S0"/>
        <use fill="#00ff00" height="15.15" transform="matrix(0.0137, 0.0, 0.0, 0.0137, 63.5, 13.0)" width="41.1" xlink:href="#font_Trebuchet_MS_q0"/>
        <use fill="#00ff00" height="15.15" transform="matrix(0.0137, 0.0, 0.0, 0.0137, 70.05, 13.0)" width="41.1" xlink:href="#font_Trebuchet_MS_u0"/>
        <use fill="#00ff00" height="15.15" transform="matrix(0.0137, 0.0, 0.0, 0.0137, 76.45, 13.0)" width="41.1" xlink:href="#font_Trebuchet_MS_a0"/>
        <use fill="#00ff00" height="15.15" transform="matrix(0.0137, 0.0, 0.0, 0.0137, 82.55, 13.0)" width="41.1" xlink:href="#font_Trebuchet_MS_d0"/>
        <use fill="#00ff00" height="15.15" transform="matrix(0.0137, 0.0, 0.0, 0.0137, 89.1, 13.0)" width="41.1" xlink:href="#font_Trebuchet_MS_s0"/>
      </g>
    </g>
  </defs>
</svg>
