<?xml version="1.0" encoding="UTF-8" standalone="no"?>
<svg xmlns:xlink="http://www.w3.org/1999/xlink" height="236.05px" width="174.0px" xmlns="http://www.w3.org/2000/svg">
  <g transform="matrix(1.0, 0.0, 0.0, 1.0, 87.0, 85.8)">
    <use data-characterId="469" height="236.05" transform="matrix(1.0, 0.0, 0.0, 1.0, -87.0, -85.8)" width="174.0" xlink:href="#shape0"/>
    <use data-characterId="521" height="24.0" transform="matrix(1.0, 0.0, 0.0, 1.0, -58.0, 58.2)" width="133.0" xlink:href="#shape1"/>
    <use data-characterId="522" height="23.0" transform="matrix(1.0, 0.0, 0.0, 1.0, -69.5, 116.7)" width="37.0" xlink:href="#button0"/>
    <use data-characterId="494" height="23.0" transform="matrix(1.0, 0.0, 0.0, 1.0, 27.0, 117.7)" width="46.0" xlink:href="#button1"/>
    <use data-characterId="523" height="48.25" transform="matrix(1.0, 0.0, 0.0, 1.0, -43.15, -57.3)" width="72.75" xlink:href="#text2"/>
    <use data-characterId="524" height="20.25" id="xgrid" transform="matrix(1.0, 0.0, 0.0, 1.0025, -57.0, 59.9951)" width="40.0" xlink:href="#text3"/>
    <use data-characterId="525" height="20.25" id="ygrid" transform="matrix(1.0, 0.0, 0.0, 1.0025, 34.0, 59.9951)" width="40.0" xlink:href="#text4"/>
    <use data-characterId="526" height="12.15" transform="matrix(1.0, 0.0, 0.0, 1.0025, -75.65, 64.1553)" width="18.85" xlink:href="#text5"/>
    <use data-characterId="527" height="12.15" transform="matrix(1.0, 0.0, 0.0, 1.0025, 13.25, 64.1553)" width="17.85" xlink:href="#text6"/>
    <use data-characterId="528" height="47.05" id="maxcoords" transform="matrix(1.0, 0.0, 0.0, 1.0, -59.0, -4.05)" width="123.0" xlink:href="#text7"/>
    <use data-characterId="488" height="15.15" transform="matrix(1.0, 0.0, 0.0, 1.0, -19.95, -78.25)" width="41.1" xlink:href="#text8"/>
  </g>
  <defs>
    <g id="shape0" transform="matrix(1.0, 0.0, 0.0, 1.0, 87.0, 85.8)">
      <path d="M86.5 -85.3 L86.5 149.75 -86.5 149.75 -86.5 -85.3 86.5 -85.3" fill="#000000" fill-rule="evenodd" stroke="none"/>
      <path d="M86.5 -85.3 L86.5 149.75 -86.5 149.75 -86.5 -85.3 86.5 -85.3 Z" fill="none" stroke="#cccccc" stroke-linecap="round" stroke-linejoin="round" stroke-width="1.0"/>
    </g>
    <g id="shape1" transform="matrix(1.0, 0.0, 0.0, 1.0, 58.0, -58.2)">
      <path d="M33.5 58.7 L74.5 58.7 74.5 80.7 33.5 80.7 33.5 58.7 M-57.5 58.7 L-16.5 58.7 -16.5 81.7 -57.5 81.7 -57.5 58.7 Z" fill="none" stroke="#cccccc" stroke-linecap="round" stroke-linejoin="round" stroke-width="1.0"/>
    </g>
    <g id="button0" transform="matrix(1.0, 0.0, 0.0, 1.0, 1.5, 1.5)">
      <use data-characterId="458" height="23.0" transform="matrix(1.0, 0.0, 0.0, 1.0, -1.5, -1.5)" width="37.0" xlink:href="#shape2"/>
      <use data-characterId="459" height="10.9" transform="matrix(1.0, 0.0, 0.0, 1.0, 11.5, 3.25)" width="19.7" xlink:href="#text0"/>
    </g>
    <g id="shape2" transform="matrix(1.0, 0.0, 0.0, 1.0, 1.5, 1.5)">
      <path d="M35.0 -1.0 L35.0 21.0 -1.0 21.0 -1.0 -1.0 35.0 -1.0" fill="#808080" fill-rule="evenodd" stroke="none"/>
      <path d="M35.0 -1.0 L35.0 21.0 -1.0 21.0 -1.0 -1.0 35.0 -1.0 Z" fill="none" stroke="#cccccc" stroke-linecap="round" stroke-linejoin="round" stroke-width="1.0"/>
    </g>
    <g id="text0" transform="matrix(1.0, 0.0, 0.0, 1.0, -0.5, -2.05)">
      <g transform="matrix(1.0, 0.0, 0.0, 1.0, 0.0, 0.0)">
        <use fill="#ffffff" height="10.9" transform="matrix(0.0117, 0.0, 0.0, 0.0117, 0.0, 12.0)" width="19.7" xlink:href="#font_Trebuchet_MS_O0"/>
        <use fill="#ffffff" height="10.9" transform="matrix(0.0117, 0.0, 0.0, 0.0117, 8.05, 12.0)" width="19.7" xlink:href="#font_Trebuchet_MS_K0"/>
      </g>
    </g>
    <g id="font_Trebuchet_MS_O0">
      <path d="M145.0 -372.5 Q145.0 -503.5 193.5 -579.5 242.0 -655.5 335.0 -655.5 545.0 -655.5 545.0 -372.5 545.0 -232.5 491.5 -155.0 437.5 -77.5 335.0 -77.5 244.5 -77.5 195.0 -162.0 145.0 -246.5 145.0 -372.5 M40.0 -372.5 Q40.0 -203.5 118.5 -95.5 196.5 12.5 335.0 12.5 487.0 12.5 568.5 -89.5 650.0 -192.0 650.0 -372.5 650.0 -548.5 569.0 -647.0 487.5 -745.5 335.0 -745.5 199.5 -745.5 120.0 -638.5 40.0 -531.5 40.0 -372.5" fill-rule="evenodd" stroke="none"/>
    </g>
    <g id="font_Trebuchet_MS_K0">
      <path d="M479.0 0.0 L589.5 0.0 339.5 -415.0 558.5 -732.5 447.0 -732.5 Q311.0 -533.0 175.0 -334.0 L175.0 -732.5 75.0 -732.5 75.0 0.0 175.0 0.0 175.0 -198.5 Q224.0 -267.5 272.5 -337.0 376.0 -168.5 479.0 0.0" fill-rule="evenodd" stroke="none"/>
    </g>
    <g id="button1" transform="matrix(1.0, 0.0, 0.0, 1.0, 1.55, 0.0)">
      <use data-characterId="455" height="23.0" transform="matrix(1.0, 0.0, 0.0, 1.0, -1.55, 0.0)" width="46.0" xlink:href="#shape3"/>
      <use data-characterId="456" height="9.4" transform="matrix(1.0, 0.0, 0.0, 1.0, 3.15, 7.2)" width="28.45" xlink:href="#text1"/>
    </g>
    <g id="shape3" transform="matrix(1.0, 0.0, 0.0, 1.0, 1.55, 0.0)">
      <path d="M43.95 22.5 L-1.05 22.5 -1.05 0.5 43.95 0.5 43.95 22.5" fill="#808080" fill-rule="evenodd" stroke="none"/>
      <path d="M43.95 22.5 L-1.05 22.5 -1.05 0.5 43.95 0.5 43.95 22.5 Z" fill="none" stroke="#cccccc" stroke-linecap="round" stroke-linejoin="round" stroke-width="1.0"/>
    </g>
    <g id="text1" transform="matrix(1.0, 0.0, 0.0, 1.0, -1.2, -1.5)">
      <g transform="matrix(1.0, 0.0, 0.0, 1.0, 0.0, 0.0)">
        <use fill="#ffffff" height="9.4" transform="matrix(0.0098, 0.0, 0.0, 0.0098, 1.0, 10.0)" width="28.45" xlink:href="#font_Trebuchet_MS_C0"/>
        <use fill="#ffffff" height="9.4" transform="matrix(0.0098, 0.0, 0.0, 0.0098, 5.3, 10.0)" width="28.45" xlink:href="#font_Trebuchet_MS_A0"/>
        <use fill="#ffffff" height="9.4" transform="matrix(0.0098, 0.0, 0.0, 0.0098, 9.45, 10.0)" width="28.45" xlink:href="#font_Trebuchet_MS_N0"/>
        <use fill="#ffffff" height="9.4" transform="matrix(0.0098, 0.0, 0.0, 0.0098, 14.15, 10.0)" width="28.45" xlink:href="#font_Trebuchet_MS_C0"/>
        <use fill="#ffffff" height="9.4" transform="matrix(0.0098, 0.0, 0.0, 0.0098, 18.45, 10.0)" width="28.45" xlink:href="#font_Trebuchet_MS_E0"/>
        <use fill="#ffffff" height="9.4" transform="matrix(0.0098, 0.0, 0.0, 0.0098, 22.1, 10.0)" width="28.45" xlink:href="#font_Trebuchet_MS_L0"/>
      </g>
    </g>
    <g id="font_Trebuchet_MS_C0">
      <path d="M542.5 -705.5 Q475.0 -745.0 355.5 -745.0 216.0 -745.0 128.0 -636.5 40.0 -528.0 40.0 -364.0 40.0 -194.5 122.5 -91.0 205.0 12.5 348.5 12.5 485.5 12.5 572.5 -74.0 545.0 -112.0 517.5 -150.5 462.0 -77.5 359.0 -77.5 264.5 -77.5 205.0 -155.0 145.0 -233.0 145.0 -358.0 145.0 -489.0 203.5 -572.0 261.5 -655.0 358.0 -655.0 461.0 -655.0 509.0 -620.0 526.0 -662.5 542.5 -705.5" fill-rule="evenodd" stroke="none"/>
    </g>
    <g id="font_Trebuchet_MS_A0">
      <path d="M308.0 -550.5 L412.0 -228.0 194.5 -228.0 Q251.5 -389.0 308.0 -550.5 M491.0 0.0 L602.0 0.0 326.0 -742.5 299.5 -742.5 Q151.0 -371.0 2.0 0.0 L114.0 0.0 168.0 -154.5 440.5 -154.5 491.0 0.0" fill-rule="evenodd" stroke="none"/>
    </g>
    <g id="font_Trebuchet_MS_N0">
      <path d="M548.5 10.0 L578.5 10.0 578.5 -732.5 483.5 -732.5 483.5 -226.0 115.0 -732.5 75.0 -732.5 75.0 0.0 170.0 0.0 170.0 -525.5 548.5 10.0" fill-rule="evenodd" stroke="none"/>
    </g>
    <g id="font_Trebuchet_MS_E0">
      <path d="M175.0 -642.5 L512.5 -642.5 512.5 -732.5 75.0 -732.5 75.0 0.0 507.0 0.0 507.0 -90.0 175.0 -90.0 175.0 -354.0 417.0 -354.0 417.0 -439.0 175.0 -439.0 175.0 -642.5" fill-rule="evenodd" stroke="none"/>
    </g>
    <g id="font_Trebuchet_MS_L0">
      <path d="M75.0 0.0 L506.0 0.0 506.0 -90.0 175.0 -90.0 175.0 -732.5 75.0 -732.5 75.0 0.0" fill-rule="evenodd" stroke="none"/>
    </g>
    <g id="text2" transform="matrix(1.0, 0.0, 0.0, 1.0, -20.35, -1.85)">
      <g transform="matrix(1.0, 0.0, 0.0, 1.0, 0.0, 0.0)">
        <use fill="#ffff00" height="48.25" transform="matrix(0.0137, 0.0, 0.0, 0.0137, 31.0, 13.0)" width="72.75" xlink:href="#font_Trebuchet_MS_E0"/>
        <use fill="#ffff00" height="48.25" transform="matrix(0.0137, 0.0, 0.0, 0.0137, 37.1, 13.0)" width="72.75" xlink:href="#font_Trebuchet_MS_n0"/>
        <use fill="#ffff00" height="48.25" transform="matrix(0.0137, 0.0, 0.0, 0.0137, 43.35, 13.0)" width="72.75" xlink:href="#font_Trebuchet_MS_t0"/>
        <use fill="#ffff00" height="48.25" transform="matrix(0.0137, 0.0, 0.0, 0.0137, 47.5, 13.0)" width="72.75" xlink:href="#font_Trebuchet_MS_e0"/>
        <use fill="#ffff00" height="48.25" transform="matrix(0.0137, 0.0, 0.0, 0.0137, 53.75, 13.0)" width="72.75" xlink:href="#font_Trebuchet_MS_r0"/>
        <use fill="#ffff00" height="48.25" transform="matrix(0.0137, 0.0, 0.0, 0.0137, 60.6, 13.0)" width="72.75" xlink:href="#font_Trebuchet_MS_G0"/>
        <use fill="#ffff00" height="48.25" transform="matrix(0.0137, 0.0, 0.0, 0.0137, 68.65, 13.0)" width="72.75" xlink:href="#font_Trebuchet_MS_r0"/>
        <use fill="#ffff00" height="48.25" transform="matrix(0.0137, 0.0, 0.0, 0.0137, 72.7, 13.0)" width="72.75" xlink:href="#font_Trebuchet_MS_i0"/>
        <use fill="#ffff00" height="48.25" transform="matrix(0.0137, 0.0, 0.0, 0.0137, 75.3, 13.0)" width="72.75" xlink:href="#font_Trebuchet_MS_d0"/>
      </g>
      <g transform="matrix(1.0, 0.0, 0.0, 1.0, 0.0, 0.0)">
        <use fill="#ffff00" height="48.25" transform="matrix(0.0137, 0.0, 0.0, 0.0137, 26.0, 31.0)" width="72.75" xlink:href="#font_Trebuchet_MS_C0"/>
        <use fill="#ffff00" height="48.25" transform="matrix(0.0137, 0.0, 0.0, 0.0137, 33.1, 31.0)" width="72.75" xlink:href="#font_Trebuchet_MS_o0"/>
        <use fill="#ffff00" height="48.25" transform="matrix(0.0137, 0.0, 0.0, 0.0137, 39.35, 31.0)" width="72.75" xlink:href="#font_Trebuchet_MS_o0"/>
        <use fill="#ffff00" height="48.25" transform="matrix(0.0137, 0.0, 0.0, 0.0137, 45.6, 31.0)" width="72.75" xlink:href="#font_Trebuchet_MS_r0"/>
        <use fill="#ffff00" height="48.25" transform="matrix(0.0137, 0.0, 0.0, 0.0137, 49.8, 31.0)" width="72.75" xlink:href="#font_Trebuchet_MS_d0"/>
        <use fill="#ffff00" height="48.25" transform="matrix(0.0137, 0.0, 0.0, 0.0137, 56.35, 31.0)" width="72.75" xlink:href="#font_Trebuchet_MS_i0"/>
        <use fill="#ffff00" height="48.25" transform="matrix(0.0137, 0.0, 0.0, 0.0137, 59.1, 31.0)" width="72.75" xlink:href="#font_Trebuchet_MS_n0"/>
        <use fill="#ffff00" height="48.25" transform="matrix(0.0137, 0.0, 0.0, 0.0137, 65.5, 31.0)" width="72.75" xlink:href="#font_Trebuchet_MS_a0"/>
        <use fill="#ffff00" height="48.25" transform="matrix(0.0137, 0.0, 0.0, 0.0137, 71.6, 31.0)" width="72.75" xlink:href="#font_Trebuchet_MS_t0"/>
        <use fill="#ffff00" height="48.25" transform="matrix(0.0137, 0.0, 0.0, 0.0137, 75.9, 31.0)" width="72.75" xlink:href="#font_Trebuchet_MS_e0"/>
        <use fill="#ffff00" height="48.25" transform="matrix(0.0137, 0.0, 0.0, 0.0137, 82.3, 31.0)" width="72.75" xlink:href="#font_Trebuchet_MS_s0"/>
      </g>
      <g transform="matrix(1.0, 0.0, 0.0, 1.0, 0.0, 0.0)">
        <use fill="#ffff00" height="48.25" transform="matrix(0.0137, 0.0, 0.0, 0.0137, 20.0, 49.0)" width="72.75" xlink:href="#font_Trebuchet_MS_f0"/>
        <use fill="#ffff00" height="48.25" transform="matrix(0.0137, 0.0, 0.0, 0.0137, 23.4, 49.0)" width="72.75" xlink:href="#font_Trebuchet_MS_o0"/>
        <use fill="#ffff00" height="48.25" transform="matrix(0.0137, 0.0, 0.0, 0.0137, 29.2, 49.0)" width="72.75" xlink:href="#font_Trebuchet_MS_r0"/>
        <use fill="#ffff00" height="48.25" transform="matrix(0.0137, 0.0, 0.0, 0.0137, 35.45, 49.0)" width="72.75" xlink:href="#font_Trebuchet_MS_N0"/>
        <use fill="#ffff00" height="48.25" transform="matrix(0.0137, 0.0, 0.0, 0.0137, 42.7, 49.0)" width="72.75" xlink:href="#font_Trebuchet_MS_e0"/>
        <use fill="#ffff00" height="48.25" transform="matrix(0.0137, 0.0, 0.0, 0.0137, 48.65, 49.0)" width="72.75" xlink:href="#font_Trebuchet_MS_w0"/>
        <use fill="#ffff00" height="48.25" transform="matrix(0.0137, 0.0, 0.0, 0.0137, 59.85, 49.0)" width="72.75" xlink:href="#font_Trebuchet_MS_B0"/>
        <use fill="#ffff00" height="48.25" transform="matrix(0.0137, 0.0, 0.0, 0.0137, 66.05, 49.0)" width="72.75" xlink:href="#font_Trebuchet_MS_a0"/>
        <use fill="#ffff00" height="48.25" transform="matrix(0.0137, 0.0, 0.0, 0.0137, 71.7, 49.0)" width="72.75" xlink:href="#font_Trebuchet_MS_s0"/>
        <use fill="#ffff00" height="48.25" transform="matrix(0.0137, 0.0, 0.0, 0.0137, 75.65, 49.0)" width="72.75" xlink:href="#font_Trebuchet_MS_e0"/>
        <use fill="#ffff00" height="48.25" transform="matrix(0.0137, 0.0, 0.0, 0.0137, 81.6, 49.0)" width="72.75" xlink:href="#font_Trebuchet_MS_:0"/>
      </g>
    </g>
    <g id="font_Trebuchet_MS_n0">
      <path d="M397.0 0.0 L492.0 0.0 492.0 -331.5 Q492.0 -545.5 316.0 -545.5 209.5 -545.5 162.5 -466.5 L132.5 -535.5 67.5 -535.5 67.5 0.0 162.5 0.0 162.5 -398.0 Q181.5 -426.5 217.0 -446.0 252.5 -465.5 285.0 -465.5 345.5 -465.5 371.5 -431.0 397.0 -397.0 397.0 -311.5 L397.0 0.0" fill-rule="evenodd" stroke="none"/>
    </g>
    <g id="font_Trebuchet_MS_t0">
      <path d="M101.5 -460.5 L101.5 -156.5 Q101.5 -84.5 145.5 -37.0 189.0 10.0 252.5 10.0 323.0 10.0 382.0 -5.0 L368.0 -88.5 Q329.0 -70.0 292.5 -70.0 242.0 -70.0 219.5 -98.5 196.5 -127.0 196.5 -194.5 L196.5 -460.5 343.5 -460.5 343.5 -535.5 196.5 -535.5 196.5 -684.0 Q149.0 -665.5 101.5 -647.5 L101.5 -535.5 39.5 -535.5 39.5 -460.5 101.5 -460.5" fill-rule="evenodd" stroke="none"/>
    </g>
    <g id="font_Trebuchet_MS_e0">
      <path d="M288.0 -465.5 Q356.0 -465.5 395.5 -423.5 431.5 -385.0 431.5 -327.5 L135.0 -327.5 Q140.5 -385.5 181.5 -424.5 224.5 -465.5 288.0 -465.5 M518.5 -258.5 Q526.0 -285.0 526.0 -316.5 526.0 -419.0 463.0 -481.0 398.0 -545.5 283.5 -545.5 185.0 -545.5 113.0 -474.0 32.5 -394.0 32.5 -261.5 32.5 -134.0 111.0 -58.5 181.5 10.0 282.5 10.0 352.5 10.0 409.5 -11.0 455.0 -27.0 477.0 -49.0 L437.0 -117.5 Q382.5 -70.0 301.0 -70.0 229.5 -70.0 184.0 -114.0 132.5 -164.5 132.5 -258.5 L518.5 -258.5" fill-rule="evenodd" stroke="none"/>
    </g>
    <g id="font_Trebuchet_MS_r0">
      <path d="M358.5 -444.0 Q378.5 -490.0 398.0 -536.5 350.0 -545.5 324.5 -545.5 222.0 -545.5 170.0 -450.0 L170.0 -535.5 75.0 -535.5 75.0 0.0 170.0 0.0 170.0 -307.0 Q170.0 -372.5 208.0 -419.0 245.5 -465.5 296.0 -465.5 327.5 -465.5 358.5 -444.0" fill-rule="evenodd" stroke="none"/>
    </g>
    <g id="font_Trebuchet_MS_G0">
      <path d="M582.5 -681.5 Q510.5 -745.0 396.0 -745.0 232.5 -745.0 136.5 -639.0 40.0 -533.5 40.0 -363.5 40.0 -193.0 128.0 -90.0 215.5 12.5 367.0 12.5 434.5 12.5 506.0 -8.0 577.5 -29.0 617.5 -63.0 L617.5 -382.0 416.0 -382.0 416.0 -297.0 517.5 -297.0 517.5 -125.5 Q468.0 -77.5 388.0 -77.5 275.5 -77.5 210.5 -155.0 145.0 -232.5 145.0 -359.5 145.0 -493.0 211.5 -574.0 278.0 -655.0 393.0 -655.0 465.5 -655.0 541.0 -599.0 562.0 -640.0 582.5 -681.5" fill-rule="evenodd" stroke="none"/>
    </g>
    <g id="font_Trebuchet_MS_i0">
      <path d="M113.5 0.0 L208.5 0.0 208.5 -535.5 40.0 -535.5 40.0 -455.5 113.5 -455.5 113.5 0.0 M165.5 -738.0 Q141.0 -738.0 124.0 -721.0 107.0 -704.0 107.0 -679.5 107.0 -655.0 124.5 -637.5 141.5 -620.5 165.5 -620.5 190.0 -620.5 207.5 -637.5 224.5 -655.0 224.5 -679.5 224.5 -703.5 207.5 -720.5 190.0 -738.0 165.5 -738.0" fill-rule="evenodd" stroke="none"/>
    </g>
    <g id="font_Trebuchet_MS_d0">
      <path d="M407.0 -411.5 L407.0 -114.5 Q399.0 -98.5 367.5 -84.0 336.0 -70.0 313.5 -70.0 137.5 -70.0 137.5 -263.5 137.5 -351.5 185.0 -408.5 232.0 -465.5 308.5 -465.5 371.0 -465.5 407.0 -411.5 M407.0 -0.5 L502.0 -0.5 502.0 -755.0 407.0 -755.0 407.0 -506.5 Q364.0 -545.5 281.0 -545.5 181.5 -545.5 109.5 -460.0 37.5 -375.0 37.5 -254.5 37.5 -134.5 100.0 -62.5 162.5 9.5 263.0 9.5 357.5 9.5 407.0 -40.0 L407.0 -0.5" fill-rule="evenodd" stroke="none"/>
    </g>
    <g id="font_Trebuchet_MS_o0">
      <path d="M132.5 -269.0 Q132.5 -362.0 171.5 -415.0 210.0 -468.0 275.0 -468.0 417.0 -468.0 417.0 -269.0 417.0 -175.5 379.5 -121.5 341.5 -67.5 275.0 -67.5 132.5 -67.5 132.5 -269.0 M32.5 -269.0 Q32.5 -141.0 96.5 -65.5 160.5 10.0 275.0 10.0 387.0 10.0 452.0 -64.5 517.0 -139.5 517.0 -269.0 517.0 -399.0 453.5 -472.0 390.0 -545.5 275.0 -545.5 166.0 -545.5 99.5 -469.0 32.5 -393.0 32.5 -269.0" fill-rule="evenodd" stroke="none"/>
    </g>
    <g id="font_Trebuchet_MS_a0">
      <path d="M361.0 -263.0 L361.0 -133.5 Q305.5 -65.0 233.5 -65.0 135.0 -65.0 135.0 -148.5 135.0 -199.0 180.5 -236.0 226.0 -273.0 298.0 -273.0 316.0 -273.0 361.0 -263.0 M370.0 -61.5 Q382.5 -23.5 411.5 -7.0 440.0 9.5 498.0 9.5 L498.0 -38.0 Q456.0 -61.5 456.0 -132.0 L456.0 -324.0 Q456.0 -439.5 403.5 -492.5 350.5 -545.5 234.0 -545.5 190.5 -545.5 143.0 -529.5 95.0 -514.0 68.0 -492.0 L108.0 -412.5 Q156.0 -460.5 245.0 -460.5 361.0 -460.5 361.0 -330.5 323.0 -343.5 293.0 -343.5 182.5 -343.5 111.5 -287.0 40.0 -231.0 40.0 -149.5 40.0 -81.5 86.5 -35.5 132.5 10.0 195.5 10.0 313.0 10.0 370.0 -61.5" fill-rule="evenodd" stroke="none"/>
    </g>
    <g id="font_Trebuchet_MS_s0">
      <path d="M32.5 -32.0 Q107.0 10.0 191.5 10.0 281.0 10.0 331.5 -30.5 382.0 -71.5 382.0 -143.5 382.0 -198.5 353.5 -235.0 325.0 -271.5 262.5 -300.0 L194.5 -331.0 Q136.0 -357.5 136.0 -409.0 136.0 -433.5 159.5 -449.5 182.5 -465.5 216.5 -465.5 273.5 -465.5 330.0 -420.5 L357.0 -508.5 Q268.0 -545.5 209.5 -545.5 132.0 -545.5 84.0 -508.5 36.0 -471.5 36.0 -405.5 36.0 -380.0 44.5 -357.5 52.5 -335.5 69.5 -315.5 86.0 -296.0 109.0 -280.5 131.5 -265.0 197.0 -235.0 282.0 -197.0 282.0 -144.0 282.0 -70.0 194.0 -70.0 145.5 -70.0 66.0 -122.0 49.5 -77.0 32.5 -32.0" fill-rule="evenodd" stroke="none"/>
    </g>
    <g id="font_Trebuchet_MS_f0">
      <path d="M357.0 -670.0 Q370.5 -705.0 383.5 -740.0 336.0 -755.0 294.5 -755.0 211.5 -755.0 161.0 -696.5 110.5 -638.0 110.5 -535.5 L32.5 -535.5 32.5 -455.5 110.5 -455.5 110.5 0.0 205.5 0.0 205.5 -455.5 314.5 -455.5 314.5 -535.5 205.5 -535.5 Q203.0 -550.0 203.0 -563.5 203.0 -614.0 231.5 -647.0 259.5 -680.0 303.0 -680.0 328.0 -680.0 357.0 -670.0" fill-rule="evenodd" stroke="none"/>
    </g>
    <g id="font_Trebuchet_MS_w0">
      <path d="M562.5 10.0 L754.5 -537.0 661.0 -537.0 538.0 -185.5 391.0 -537.0 366.0 -537.0 Q295.0 -361.0 223.5 -185.5 L109.0 -537.0 7.5 -537.0 Q103.5 -263.5 199.0 10.0 L224.0 10.0 Q302.5 -172.0 380.5 -354.5 L537.5 10.0 562.5 10.0" fill-rule="evenodd" stroke="none"/>
    </g>
    <g id="font_Trebuchet_MS_B0">
      <path d="M175.0 -364.5 L255.5 -367.0 Q352.0 -367.0 393.5 -333.0 434.5 -299.0 434.5 -227.5 434.5 -150.5 391.5 -115.0 348.0 -80.0 254.0 -80.0 226.5 -80.0 175.0 -85.0 L175.0 -364.5 M175.0 -652.5 Q214.5 -656.0 264.5 -656.0 395.0 -656.0 395.0 -554.5 395.0 -439.0 253.0 -439.0 206.5 -439.0 175.0 -442.0 L175.0 -652.5 M284.0 0.0 Q398.0 0.0 469.0 -57.5 539.5 -115.0 539.5 -211.5 539.5 -295.0 500.0 -343.5 460.0 -392.0 373.0 -413.0 419.0 -423.5 457.0 -465.5 495.0 -507.5 495.0 -558.5 495.0 -645.5 435.5 -692.0 376.0 -739.0 267.5 -739.0 208.5 -739.0 75.0 -732.5 L75.0 0.0 284.0 0.0" fill-rule="evenodd" stroke="none"/>
    </g>
    <g id="font_Trebuchet_MS_:0">
      <path d="M177.0 -140.5 Q146.0 -140.5 124.0 -118.5 102.0 -96.5 102.0 -65.5 102.0 -34.5 124.0 -12.0 146.0 10.0 177.0 10.0 208.0 10.0 230.0 -12.0 252.0 -34.5 252.0 -65.5 252.0 -96.5 230.0 -118.5 208.0 -140.5 177.0 -140.5 M177.0 -545.5 Q146.0 -545.5 124.0 -523.5 102.0 -501.5 102.0 -470.5 102.0 -439.5 124.0 -417.0 146.0 -395.0 177.0 -395.0 208.0 -395.0 230.0 -417.0 252.0 -439.5 252.0 -470.5 252.0 -501.5 230.0 -523.5 208.0 -545.5 177.0 -545.5" fill-rule="evenodd" stroke="none"/>
    </g>
    <g id="text3" transform="matrix(1.0, 0.0, 0.0, 1.0, 2.0, 2.0)">
      <g transform="matrix(1.0, 0.0, 0.0, 1.0, -2.0, -2.0)">
        <use fill="#00ff00" height="20.25" transform="matrix(0.0137, 0.0, 0.0, 0.0137, 0.0, 16.0)" width="40.0" xlink:href="#font_Trebuchet_MS_X0"/>
      </g>
    </g>
    <g id="font_Trebuchet_MS_X0">
      <path d="M457.5 0.0 L563.5 0.0 324.5 -378.0 Q438.5 -555.0 552.0 -732.5 L451.5 -732.5 Q365.5 -594.0 279.0 -455.5 201.0 -594.0 122.5 -732.5 73.5 -732.5 24.0 -733.0 L222.5 -380.0 6.5 0.0 107.5 0.0 275.5 -294.0 457.5 0.0" fill-rule="evenodd" stroke="none"/>
    </g>
    <g id="text4" transform="matrix(1.0, 0.0, 0.0, 1.0, 2.0, 2.0)">
      <g transform="matrix(1.0, 0.0, 0.0, 1.0, -2.0, -2.0)">
        <use fill="#00ff00" height="20.25" transform="matrix(0.0137, 0.0, 0.0, 0.0137, 0.0, 16.0)" width="40.0" xlink:href="#font_Trebuchet_MS_Y0"/>
      </g>
    </g>
    <g id="font_Trebuchet_MS_Y0">
      <path d="M342.5 -328.0 L577.5 -732.5 474.5 -732.5 292.0 -412.5 109.5 -732.5 6.5 -732.5 242.5 -328.0 242.5 0.0 342.5 0.0 342.5 -328.0" fill-rule="evenodd" stroke="none"/>
    </g>
    <g id="text5" transform="matrix(1.0, 0.0, 0.0, 1.0, -6.3, -2.15)">
      <g transform="matrix(1.0, 0.0, 0.0, 1.0, 6.15, 0.0)">
        <use fill="#ffff00" height="12.15" transform="matrix(0.0137, 0.0, 0.0, 0.0137, 0.0, 13.0)" width="18.85" xlink:href="#font_Trebuchet_MS_X0"/>
        <use fill="#ffff00" height="12.15" transform="matrix(0.0137, 0.0, 0.0, 0.0137, 7.75, 13.0)" width="18.85" xlink:href="#font_Trebuchet_MS_:0"/>
      </g>
    </g>
    <g id="text6" transform="matrix(1.0, 0.0, 0.0, 1.0, -6.2, -2.15)">
      <g transform="matrix(1.0, 0.0, 0.0, 1.0, 6.05, 0.0)">
        <use fill="#ffff00" height="12.15" transform="matrix(0.0137, 0.0, 0.0, 0.0137, 0.0, 13.0)" width="17.85" xlink:href="#font_Trebuchet_MS_Y0"/>
        <use fill="#ffff00" height="12.15" transform="matrix(0.0137, 0.0, 0.0, 0.0137, 6.75, 13.0)" width="17.85" xlink:href="#font_Trebuchet_MS_:0"/>
      </g>
    </g>
    <g id="text7" transform="matrix(1.0, 0.0, 0.0, 1.0, 2.0, 2.0)">
      <g transform="matrix(1.0, 0.0, 0.0, 1.0, -2.0, -2.0)">
        <use fill="#ffff00" height="47.05" transform="matrix(0.0137, 0.0, 0.0, 0.0137, 61.5, 16.0)" width="123.0" xlink:href="#font_Trebuchet_MS_M0"/>
        <use fill="#ffff00" height="47.05" transform="matrix(0.0137, 0.0, 0.0, 0.0137, 61.5, 16.0)" width="123.0" xlink:href="#font_Trebuchet_MS_A0"/>
        <use fill="#ffff00" height="47.05" transform="matrix(0.0137, 0.0, 0.0, 0.0137, 61.5, 16.0)" width="123.0" xlink:href="#font_Trebuchet_MS_X0"/>
      </g>
      <g transform="matrix(1.0, 0.0, 0.0, 1.0, -2.0, -2.0)">
        <use fill="#ffff00" height="47.05" transform="matrix(0.0137, 0.0, 0.0, 0.0137, 61.5, 16.0)" width="123.0" xlink:href="#font_Trebuchet_MS_X0"/>
      </g>
      <g transform="matrix(1.0, 0.0, 0.0, 1.0, -2.0, -2.0)">
        <use fill="#ffff00" height="47.05" transform="matrix(0.0137, 0.0, 0.0, 0.0137, 61.5, 32.0)" width="123.0" xlink:href="#font_Trebuchet_MS_M0"/>
        <use fill="#ffff00" height="47.05" transform="matrix(0.0137, 0.0, 0.0, 0.0137, 61.5, 32.0)" width="123.0" xlink:href="#font_Trebuchet_MS_A0"/>
        <use fill="#ffff00" height="47.05" transform="matrix(0.0137, 0.0, 0.0, 0.0137, 61.5, 32.0)" width="123.0" xlink:href="#font_Trebuchet_MS_X0"/>
      </g>
      <g transform="matrix(1.0, 0.0, 0.0, 1.0, -2.0, -2.0)">
        <use fill="#ffff00" height="47.05" transform="matrix(0.0137, 0.0, 0.0, 0.0137, 61.5, 32.0)" width="123.0" xlink:href="#font_Trebuchet_MS_Y0"/>
      </g>
    </g>
    <g id="font_Trebuchet_MS_M0">
      <path d="M626.5 0.0 L721.5 0.0 573.0 -732.5 528.0 -732.5 367.0 -198.0 192.5 -732.5 147.0 -732.5 10.0 0.0 105.0 0.0 190.0 -470.5 354.5 10.0 379.5 10.0 539.5 -470.5 626.5 0.0" fill-rule="evenodd" stroke="none"/>
    </g>
    <g id="text8" transform="matrix(1.0, 0.0, 0.0, 1.0, -58.55, -1.85)">
      <g transform="matrix(1.0, 0.0, 0.0, 1.0, 0.0, 0.0)">
        <use fill="#00ff00" height="15.15" transform="matrix(0.0137, 0.0, 0.0, 0.0137, 58.0, 13.0)" width="41.1" xlink:href="#font_Trebuchet_MS_S0"/>
        <use fill="#00ff00" height="15.15" transform="matrix(0.0137, 0.0, 0.0, 0.0137, 63.5, 13.0)" width="41.1" xlink:href="#font_Trebuchet_MS_q0"/>
        <use fill="#00ff00" height="15.15" transform="matrix(0.0137, 0.0, 0.0, 0.0137, 70.05, 13.0)" width="41.1" xlink:href="#font_Trebuchet_MS_u0"/>
        <use fill="#00ff00" height="15.15" transform="matrix(0.0137, 0.0, 0.0, 0.0137, 76.45, 13.0)" width="41.1" xlink:href="#font_Trebuchet_MS_a0"/>
        <use fill="#00ff00" height="15.15" transform="matrix(0.0137, 0.0, 0.0, 0.0137, 82.55, 13.0)" width="41.1" xlink:href="#font_Trebuchet_MS_d0"/>
        <use fill="#00ff00" height="15.15" transform="matrix(0.0137, 0.0, 0.0, 0.0137, 89.1, 13.0)" width="41.1" xlink:href="#font_Trebuchet_MS_s0"/>
      </g>
    </g>
    <g id="font_Trebuchet_MS_S0">
      <path d="M42.0 -33.5 Q111.0 12.5 208.5 12.5 319.5 12.5 386.0 -45.0 452.0 -102.5 452.0 -185.0 452.0 -261.0 422.0 -310.0 391.5 -359.5 316.5 -395.0 286.5 -409.0 256.5 -423.5 198.5 -451.5 180.0 -467.0 161.0 -482.5 150.5 -505.5 140.0 -528.5 140.0 -556.5 140.0 -602.0 169.5 -631.0 198.5 -660.0 249.5 -660.0 284.5 -660.0 325.5 -646.5 366.5 -633.0 386.5 -618.5 401.5 -662.0 416.0 -705.5 368.5 -745.0 247.0 -745.0 156.0 -745.0 98.0 -691.0 40.0 -637.0 40.0 -555.0 40.0 -487.5 70.0 -439.5 99.5 -391.5 174.5 -356.5 204.0 -342.5 233.5 -329.0 313.0 -291.5 333.0 -259.5 352.5 -228.0 352.5 -191.0 352.5 -141.5 317.0 -109.5 281.5 -77.5 223.0 -77.5 190.0 -77.5 148.5 -91.0 106.5 -105.0 78.5 -125.5 60.5 -79.5 42.0 -33.5" fill-rule="evenodd" stroke="none"/>
    </g>
    <g id="font_Trebuchet_MS_q0">
      <path d="M410.5 -424.5 L410.5 -105.0 Q372.5 -70.0 304.0 -70.0 227.5 -70.0 182.5 -121.5 137.5 -173.5 137.5 -266.5 137.5 -356.5 182.5 -411.0 227.5 -465.5 308.0 -465.5 369.5 -465.5 410.5 -424.5 M410.5 210.0 L505.5 210.0 505.5 -535.5 448.0 -535.5 Q435.5 -515.0 422.5 -495.0 362.0 -545.5 292.0 -545.5 180.0 -545.5 109.0 -470.0 37.5 -395.0 37.5 -266.5 37.5 -136.5 100.0 -63.0 162.0 10.0 271.5 10.0 369.0 10.0 410.5 -31.5 L410.5 210.0" fill-rule="evenodd" stroke="none"/>
    </g>
    <g id="font_Trebuchet_MS_u0">
      <path d="M157.5 -535.5 L62.5 -535.5 62.5 -184.0 Q62.5 -91.0 109.5 -40.5 156.0 10.0 244.0 10.0 290.0 10.0 338.5 -16.0 386.5 -42.5 402.5 -74.0 L402.5 0.0 497.5 0.0 497.5 -535.5 402.5 -535.5 402.5 -159.5 Q390.0 -124.0 351.0 -97.0 312.0 -70.0 265.0 -70.0 157.5 -70.0 157.5 -194.0 L157.5 -535.5" fill-rule="evenodd" stroke="none"/>
    </g>
  </defs>
</svg>
