<?xml version="1.0" encoding="UTF-8" standalone="no"?>
<svg xmlns:xlink="http://www.w3.org/1999/xlink" height="6.4px" width="22.0px" xmlns="http://www.w3.org/2000/svg">
  <g transform="matrix(1.0, 0.0, 0.0, 1.0, 12.25, 3.15)">
    <use data-characterId="1576" height="6.4" transform="matrix(1.0, 0.0, 0.0, 1.0, -12.25, -3.15)" width="22.0" xlink:href="#shape0"/>
  </g>
  <defs>
    <g id="shape0" transform="matrix(1.0, 0.0, 0.0, 1.0, 12.25, 3.15)">
      <path d="M-1.25 -2.65 Q3.05 -2.65 6.1 -1.85 9.25 -1.05 9.25 0.05 9.25 1.15 6.1 1.95 3.05 2.75 -1.25 2.75 L-8.75 1.95 Q-11.8 1.15 -11.75 0.05 -11.8 -1.05 -8.75 -1.85 L-1.25 -2.65" fill="#ff0000" fill-rule="evenodd" stroke="none"/>
      <path d="M-1.25 -2.65 Q3.05 -2.65 6.1 -1.85 9.25 -1.05 9.25 0.05 9.25 1.15 6.1 1.95 3.05 2.75 -1.25 2.75 L-8.75 1.95 Q-11.8 1.15 -11.75 0.05 -11.8 -1.05 -8.75 -1.85 L-1.25 -2.65 Z" fill="none" stroke="#000000" stroke-linecap="round" stroke-linejoin="round" stroke-width="1.0"/>
    </g>
  </defs>
</svg>
