<?xml version="1.0" encoding="UTF-8" standalone="no"?>
<svg xmlns:xlink="http://www.w3.org/1999/xlink" height="300.1px" width="300.6px" xmlns="http://www.w3.org/2000/svg">
  <g transform="matrix(1.0, 0.0, 0.0, 1.0, 150.0, 150.0)">
    <use data-characterId="472" height="14.35" transform="matrix(1.0, 0.0, 0.0, 1.0, -71.1, -38.55)" width="108.55" xlink:href="#text0"/>
  </g>
  <defs>
    <g id="text0" transform="matrix(1.0, 0.0, 0.0, 1.0, -0.4, -0.95)">
      <g transform="matrix(1.0, 0.0, 0.0, 1.0, 0.0, 0.0)">
        <use fill="#000000" height="14.35" transform="matrix(0.0117, 0.0, 0.0, 0.0117, 0.0, 12.0)" width="108.55" xlink:href="#font_Trebuchet_MS_s0"/>
        <use fill="#000000" height="14.35" transform="matrix(0.0117, 0.0, 0.0, 0.0117, 4.85, 12.0)" width="108.55" xlink:href="#font_Trebuchet_MS_e0"/>
        <use fill="#000000" height="14.35" transform="matrix(0.0117, 0.0, 0.0, 0.0117, 11.4, 12.0)" width="108.55" xlink:href="#font_Trebuchet_MS_t0"/>
        <use fill="#000000" height="14.35" transform="matrix(0.0117, 0.0, 0.0, 0.0117, 16.15, 12.0)" width="108.55" xlink:href="#font_Trebuchet_MS_u0"/>
        <use fill="#000000" height="14.35" transform="matrix(0.0117, 0.0, 0.0, 0.0117, 22.7, 12.0)" width="108.55" xlink:href="#font_Trebuchet_MS_p0"/>
        <use fill="#000000" height="14.35" transform="matrix(0.0117, 0.0, 0.0, 0.0117, 29.4, 12.0)" width="108.55" xlink:href="#font_Trebuchet_MS_f0"/>
        <use fill="#000000" height="14.35" transform="matrix(0.0117, 0.0, 0.0, 0.0117, 33.85, 12.0)" width="108.55" xlink:href="#font_Trebuchet_MS_i0"/>
        <use fill="#000000" height="14.35" transform="matrix(0.0117, 0.0, 0.0, 0.0117, 37.25, 12.0)" width="108.55" xlink:href="#font_Trebuchet_MS_g0"/>
        <use fill="#000000" height="14.35" transform="matrix(0.0117, 0.0, 0.0, 0.0117, 43.25, 12.0)" width="108.55" xlink:href="#font_Trebuchet_MS_h0"/>
        <use fill="#000000" height="14.35" transform="matrix(0.0117, 0.0, 0.0, 0.0117, 49.8, 12.0)" width="108.55" xlink:href="#font_Trebuchet_MS_t0"/>
        <use fill="#000000" height="14.35" transform="matrix(0.0117, 0.0, 0.0, 0.0117, 54.55, 12.0)" width="108.55" xlink:href="#font_Trebuchet_MS_i0"/>
        <use fill="#000000" height="14.35" transform="matrix(0.0117, 0.0, 0.0, 0.0117, 57.95, 12.0)" width="108.55" xlink:href="#font_Trebuchet_MS_n0"/>
        <use fill="#000000" height="14.35" transform="matrix(0.0117, 0.0, 0.0, 0.0117, 64.5, 12.0)" width="108.55" xlink:href="#font_Trebuchet_MS_g0"/>
        <use fill="#000000" height="14.35" transform="matrix(0.0117, 0.0, 0.0, 0.0117, 70.5, 12.0)" width="108.55" xlink:href="#font_Trebuchet_MS_b0"/>
        <use fill="#000000" height="14.35" transform="matrix(0.0117, 0.0, 0.0, 0.0117, 77.2, 12.0)" width="108.55" xlink:href="#font_Trebuchet_MS_a0"/>
        <use fill="#000000" height="14.35" transform="matrix(0.0117, 0.0, 0.0, 0.0117, 83.5, 12.0)" width="108.55" xlink:href="#font_Trebuchet_MS_s0"/>
        <use fill="#000000" height="14.35" transform="matrix(0.0117, 0.0, 0.0, 0.0117, 88.35, 12.0)" width="108.55" xlink:href="#font_Trebuchet_MS_e0"/>
        <use fill="#000000" height="14.35" transform="matrix(0.0117, 0.0, 0.0, 0.0117, 94.9, 12.0)" width="108.55" xlink:href="#font_Trebuchet_MS__0"/>
        <use fill="#000000" height="14.35" transform="matrix(0.0117, 0.0, 0.0, 0.0117, 99.3, 12.0)" width="108.55" xlink:href="#font_Trebuchet_MS__1"/>
      </g>
    </g>
    <g id="font_Trebuchet_MS_s0">
      <path d="M32.5 -32.0 L32.5 -32.0 Q107.0 10.0 191.5 10.0 281.0 10.0 331.5 -30.5 382.0 -71.5 382.0 -143.5 382.0 -198.5 353.5 -235.0 325.0 -271.5 262.5 -300.0 L194.5 -331.0 Q136.0 -357.5 136.0 -409.0 136.0 -433.5 159.5 -449.5 182.5 -465.5 216.5 -465.5 273.5 -465.5 330.0 -420.5 L357.0 -508.5 Q268.0 -545.5 209.5 -545.5 132.0 -545.5 84.0 -508.5 36.0 -471.5 36.0 -405.5 36.0 -380.0 44.5 -357.5 52.5 -335.5 69.5 -315.5 86.0 -296.0 109.0 -280.5 131.5 -265.0 197.0 -235.0 282.0 -197.0 282.0 -144.0 282.0 -70.0 194.0 -70.0 145.5 -70.0 66.0 -122.0 L32.5 -32.0" fill-rule="evenodd" stroke="none"/>
    </g>
    <g id="font_Trebuchet_MS_e0">
      <path d="M288.0 -465.5 L288.0 -465.5 Q356.0 -465.5 395.5 -423.5 431.5 -385.0 431.5 -327.5 L135.0 -327.5 Q140.5 -385.5 181.5 -424.5 224.5 -465.5 288.0 -465.5 M518.5 -258.5 L518.5 -258.5 Q526.0 -285.0 526.0 -316.5 526.0 -419.0 463.0 -481.0 398.0 -545.5 283.5 -545.5 185.0 -545.5 113.0 -474.0 32.5 -394.0 32.5 -261.5 32.5 -134.0 111.0 -58.5 181.5 10.0 282.5 10.0 352.5 10.0 409.5 -11.0 455.0 -27.0 477.0 -49.0 L437.0 -117.5 Q382.5 -70.0 301.0 -70.0 229.5 -70.0 184.0 -114.0 132.5 -164.5 132.5 -258.5 L518.5 -258.5" fill-rule="evenodd" stroke="none"/>
    </g>
    <g id="font_Trebuchet_MS_t0">
      <path d="M101.5 -460.5 L101.5 -156.5 Q101.5 -84.5 145.5 -37.0 189.0 10.0 252.5 10.0 323.0 10.0 382.0 -5.0 L368.0 -88.5 Q329.0 -70.0 292.5 -70.0 242.0 -70.0 219.5 -98.5 196.5 -127.0 196.5 -194.5 L196.5 -460.5 343.5 -460.5 343.5 -535.5 196.5 -535.5 196.5 -684.0 101.5 -647.5 101.5 -535.5 39.5 -535.5 39.5 -460.5 101.5 -460.5" fill-rule="evenodd" stroke="none"/>
    </g>
    <g id="font_Trebuchet_MS_u0">
      <path d="M157.5 -535.5 L62.5 -535.5 62.5 -184.0 Q62.5 -91.0 109.5 -40.5 156.0 10.0 244.0 10.0 290.0 10.0 338.5 -16.0 386.5 -42.5 402.5 -74.0 L402.5 0.0 497.5 0.0 497.5 -535.5 402.5 -535.5 402.5 -159.5 Q390.0 -124.0 351.0 -97.0 312.0 -70.0 265.0 -70.0 157.5 -70.0 157.5 -194.0 L157.5 -535.5" fill-rule="evenodd" stroke="none"/>
    </g>
    <g id="font_Trebuchet_MS_p0">
      <path d="M162.5 -420.0 L162.5 -420.0 Q179.5 -437.5 208.5 -451.5 237.5 -465.5 257.5 -465.5 350.0 -465.5 392.0 -418.5 434.0 -371.5 434.0 -270.0 434.0 -70.0 257.0 -70.0 229.5 -70.0 200.5 -82.0 171.5 -94.5 162.5 -108.0 L162.5 -420.0 M162.5 -29.5 L162.5 -29.5 Q173.5 -14.0 212.5 -2.0 251.0 10.0 285.0 10.0 406.0 10.0 470.0 -67.0 534.0 -144.5 534.0 -266.5 534.0 -403.5 470.5 -474.5 407.0 -545.5 293.0 -545.5 216.5 -545.5 162.5 -491.5 L162.5 -535.5 67.5 -535.5 67.5 210.0 162.5 210.0 162.5 -29.5" fill-rule="evenodd" stroke="none"/>
    </g>
    <g id="font_Trebuchet_MS_f0">
      <path d="M357.0 -670.0 L383.5 -740.0 Q336.0 -755.0 294.5 -755.0 211.5 -755.0 161.0 -696.5 110.5 -638.0 110.5 -535.5 L32.5 -535.5 32.5 -455.5 110.5 -455.5 110.5 0.0 205.5 0.0 205.5 -455.5 314.5 -455.5 314.5 -535.5 205.5 -535.5 Q203.0 -550.0 203.0 -563.5 203.0 -614.0 231.5 -647.0 259.5 -680.0 303.0 -680.0 328.0 -680.0 357.0 -670.0" fill-rule="evenodd" stroke="none"/>
    </g>
    <g id="font_Trebuchet_MS_i0">
      <path d="M113.5 0.0 L208.5 0.0 208.5 -535.5 40.0 -535.5 40.0 -455.5 113.5 -455.5 113.5 0.0 M165.5 -738.0 L165.5 -738.0 Q141.0 -738.0 124.0 -721.0 107.0 -704.0 107.0 -679.5 107.0 -655.0 124.5 -637.5 141.5 -620.5 165.5 -620.5 190.0 -620.5 207.5 -637.5 224.5 -655.0 224.5 -679.5 224.5 -703.5 207.5 -720.5 190.0 -738.0 165.5 -738.0" fill-rule="evenodd" stroke="none"/>
    </g>
    <g id="font_Trebuchet_MS_g0">
      <path d="M249.5 -469.0 L249.5 -469.0 Q295.5 -469.0 326.5 -434.0 357.0 -399.0 357.0 -349.0 357.0 -291.0 328.5 -255.0 300.0 -219.5 249.5 -219.5 198.0 -219.5 168.0 -256.0 137.5 -293.0 137.5 -349.0 137.5 -399.0 169.0 -434.0 200.0 -469.0 249.5 -469.0 M48.0 146.5 L48.0 146.5 Q83.0 173.0 140.5 191.5 198.0 210.0 250.0 210.0 351.5 210.0 418.0 164.5 484.0 119.0 484.0 45.0 484.0 -22.0 440.0 -59.5 395.5 -97.5 316.5 -97.5 294.5 -97.5 249.0 -89.5 203.5 -82.0 182.0 -82.0 133.0 -82.0 133.0 -102.5 133.0 -117.5 156.5 -126.5 180.0 -136.0 194.0 -137.5 L272.5 -145.5 Q354.5 -153.5 405.0 -208.5 455.5 -263.5 455.5 -344.5 455.5 -421.0 419.0 -468.5 L476.0 -511.5 414.0 -570.0 366.5 -513.0 Q322.0 -545.5 243.0 -545.5 157.0 -545.5 98.5 -489.5 40.0 -433.5 40.0 -349.5 40.0 -218.5 153.0 -165.5 113.5 -156.0 87.0 -134.5 60.0 -113.0 60.0 -86.5 60.0 -0.5 174.0 -0.5 197.5 -0.5 239.5 -8.5 281.5 -16.5 297.5 -16.5 391.5 -16.5 391.5 48.5 391.5 81.5 354.5 104.0 317.0 126.0 252.5 126.0 182.5 126.0 99.5 70.5 L48.0 146.5" fill-rule="evenodd" stroke="none"/>
    </g>
    <g id="font_Trebuchet_MS_h0">
      <path d="M397.5 0.0 L492.5 0.0 492.5 -336.5 Q492.5 -433.5 444.5 -489.5 396.0 -545.5 311.0 -545.5 266.0 -545.5 224.0 -525.5 181.5 -506.0 162.5 -476.5 L162.5 -755.0 67.5 -755.0 67.5 0.0 162.5 0.0 162.5 -398.0 Q181.0 -425.0 216.0 -445.0 250.5 -465.5 285.0 -465.5 338.5 -465.5 368.0 -431.0 397.5 -396.5 397.5 -336.5 L397.5 0.0" fill-rule="evenodd" stroke="none"/>
    </g>
    <g id="font_Trebuchet_MS_n0">
      <path d="M397.0 0.0 L492.0 0.0 492.0 -331.5 Q492.0 -545.5 316.0 -545.5 209.5 -545.5 162.5 -466.5 L132.5 -535.5 67.5 -535.5 67.5 0.0 162.5 0.0 162.5 -398.0 Q181.5 -426.5 217.0 -446.0 252.5 -465.5 285.0 -465.5 345.5 -465.5 371.5 -431.0 397.0 -397.0 397.0 -311.5 L397.0 0.0" fill-rule="evenodd" stroke="none"/>
    </g>
    <g id="font_Trebuchet_MS_b0">
      <path d="M162.5 -423.5 L162.5 -423.5 Q172.0 -435.5 203.5 -450.5 234.5 -465.5 252.0 -465.5 335.0 -465.5 384.0 -414.5 433.0 -363.5 433.0 -272.5 433.0 -163.0 391.0 -116.5 349.0 -70.0 252.0 -70.0 233.5 -70.0 198.0 -88.0 162.5 -106.5 162.5 -114.5 L162.5 -423.5 M148.5 -38.5 L148.5 -38.5 Q167.5 -18.5 204.5 -4.0 241.0 10.0 279.0 10.0 396.0 10.0 464.5 -66.5 533.0 -143.5 533.0 -277.5 533.0 -393.5 465.0 -469.5 396.5 -545.5 286.5 -545.5 250.5 -545.5 213.5 -530.0 176.0 -514.5 162.5 -496.0 L162.5 -755.0 67.5 -755.0 67.5 10.0 115.0 10.0 148.5 -38.5" fill-rule="evenodd" stroke="none"/>
    </g>
    <g id="font_Trebuchet_MS_a0">
      <path d="M361.0 -263.0 L361.0 -133.5 Q305.5 -65.0 233.5 -65.0 135.0 -65.0 135.0 -148.5 135.0 -199.0 180.5 -236.0 226.0 -273.0 298.0 -273.0 316.0 -273.0 361.0 -263.0 M370.0 -61.5 L370.0 -61.5 Q382.5 -23.5 411.5 -7.0 440.0 9.5 498.0 9.5 L498.0 -38.0 Q456.0 -61.5 456.0 -132.0 L456.0 -324.0 Q456.0 -439.5 403.5 -492.5 350.5 -545.5 234.0 -545.5 190.5 -545.5 143.0 -529.5 95.0 -514.0 68.0 -492.0 L108.0 -412.5 Q156.0 -460.5 245.0 -460.5 361.0 -460.5 361.0 -330.5 323.0 -343.5 293.0 -343.5 182.5 -343.5 111.5 -287.0 40.0 -231.0 40.0 -149.5 40.0 -81.5 86.5 -35.5 132.5 10.0 195.5 10.0 313.0 10.0 370.0 -61.5" fill-rule="evenodd" stroke="none"/>
    </g>
    <g id="font_Trebuchet_MS__0">
      <path d="M309.0 -737.5 L309.0 -737.5 Q223.5 -693.0 160.0 -554.0 96.5 -415.5 96.5 -279.5 96.5 -120.0 152.5 12.0 208.0 143.5 309.0 214.0 L309.0 161.5 Q210.0 47.5 210.0 -278.5 210.0 -553.0 309.0 -696.0 L309.0 -737.5" fill-rule="evenodd" stroke="none"/>
    </g>
    <g id="font_Trebuchet_MS__1">
      <path d="M96.5 214.0 L96.5 214.0 Q197.5 143.5 253.5 12.0 309.0 -120.0 309.0 -279.5 309.0 -415.5 245.5 -554.0 182.0 -693.0 96.5 -737.5 L96.5 -696.0 Q195.5 -553.0 195.5 -278.5 195.5 47.5 96.5 161.5 L96.5 214.0" fill-rule="evenodd" stroke="none"/>
    </g>
  </defs>
</svg>
