<?xml version="1.0" encoding="UTF-8" standalone="no"?>
<svg xmlns:xlink="http://www.w3.org/1999/xlink" height="172.75px" width="168.0px" xmlns="http://www.w3.org/2000/svg">
  <g transform="matrix(1.0, 0.0, 0.0, 1.0, 84.0, 80.0)">
    <use data-characterId="600" height="96.9" transform="matrix(1.0, 0.0, 0.0, 1.0, -51.0, -48.0)" width="100.85" xlink:href="#shape0"/>
    <use data-characterId="601" data-characterName="sc346_fla.squadbasetype1shield_141" height="112.2" id="shieldimage" transform="matrix(1.0, 0.0, 0.0, 1.0, -56.3, -55.5)" width="112.0" xlink:href="#sprite0"/>
    <use data-characterId="602" height="26.3" id="baseiddisp" transform="matrix(1.0, 0.0, 0.0, 1.0, -64.9, -60.55)" width="143.5" xlink:href="#text0"/>
  </g>
  <defs>
    <g id="shape0" transform="matrix(1.0, 0.0, 0.0, 1.0, 51.0, 48.0)">
      <path d="M42.95 -27.0 L32.25 -12.6 32.2 -12.6 31.55 -14.0 Q29.05 -19.2 24.65 -23.55 20.7 -27.55 16.15 -29.95 L16.55 -30.25 29.65 -38.9 Q29.35 -37.7 29.35 -36.35 29.35 -32.2 32.3 -29.3 35.2 -26.35 39.35 -26.35 41.3 -26.35 42.95 -27.0 M31.9 14.4 L42.3 28.3 Q40.65 27.65 38.7 27.65 34.55 27.65 31.65 30.6 28.7 33.5 28.7 37.65 28.7 39.0 29.0 40.2 L15.95 31.6 15.5 31.25 Q20.05 28.85 24.0 24.9 28.4 20.5 30.9 15.35 L31.55 13.9 31.9 14.4 M-16.75 31.5 L-30.3 40.45 Q-30.0 39.25 -30.0 37.9 -30.0 33.75 -32.95 30.85 -35.85 27.9 -40.0 27.9 -41.95 27.9 -43.6 28.55 L-32.85 14.15 -32.2 15.6 Q-29.7 20.75 -25.3 25.15 -23.3 27.15 -21.1 28.75 L-16.75 31.5 M-32.65 -13.25 L-43.4 -27.65 Q-41.75 -27.0 -39.8 -27.0 -35.65 -27.0 -32.75 -29.95 -29.8 -32.85 -29.8 -37.0 -29.8 -38.35 -30.1 -39.55 L-16.55 -30.6 Q-21.15 -28.2 -25.1 -24.2 -29.5 -19.85 -32.0 -14.65 L-32.65 -13.25" fill="#cccccc" fill-rule="evenodd" stroke="none"/>
      <path d="M29.65 -38.9 Q30.3 -41.45 32.3 -43.45 35.2 -46.35 39.35 -46.35 43.5 -46.35 46.45 -43.45 49.35 -40.5 49.35 -36.35 49.35 -32.2 46.45 -29.3 44.9 -27.75 42.95 -27.0 41.3 -26.35 39.35 -26.35 35.2 -26.35 32.3 -29.3 29.35 -32.2 29.35 -36.35 29.35 -37.7 29.65 -38.9 M42.3 28.3 Q44.25 29.05 45.8 30.6 48.7 33.5 48.7 37.65 48.7 41.8 45.8 44.75 42.85 47.65 38.7 47.65 34.55 47.65 31.65 44.75 29.65 42.75 29.0 40.2 28.7 39.0 28.7 37.65 28.7 33.5 31.65 30.6 34.55 27.65 38.7 27.65 40.65 27.65 42.3 28.3 M-30.3 40.45 Q-30.95 43.0 -32.95 45.0 -35.85 47.9 -40.0 47.9 -44.15 47.9 -47.1 45.0 -50.0 42.05 -50.0 37.9 -50.0 33.75 -47.1 30.85 -45.55 29.3 -43.6 28.55 -41.95 27.9 -40.0 27.9 -35.85 27.9 -32.95 30.85 -30.0 33.75 -30.0 37.9 -30.0 39.25 -30.3 40.45 M-43.4 -27.65 Q-45.35 -28.4 -46.9 -29.95 -49.8 -32.85 -49.8 -37.0 -49.8 -41.15 -46.9 -44.1 -43.95 -47.0 -39.8 -47.0 -35.65 -47.0 -32.75 -44.1 -30.75 -42.1 -30.1 -39.55 -29.8 -38.35 -29.8 -37.0 -29.8 -32.85 -32.75 -29.95 -35.65 -27.0 -39.8 -27.0 -41.75 -27.0 -43.4 -27.65" fill="#cc3300" fill-rule="evenodd" stroke="none"/>
      <path d="M32.25 -12.6 Q34.55 -6.95 34.7 -0.3 L34.7 0.5 Q34.65 8.0 31.9 14.4 L31.55 13.9 30.9 15.35 Q28.4 20.5 24.0 24.9 20.05 28.85 15.5 31.25 L15.95 31.6 Q8.8 35.4 0.05 35.5 L-0.3 35.5 Q-9.35 35.5 -16.75 31.5 L-21.1 28.75 -25.1 25.25 Q-35.35 15.0 -35.3 0.5 -35.35 -6.95 -32.65 -13.25 L-32.0 -14.65 Q-29.5 -19.85 -25.1 -24.2 -21.15 -28.2 -16.55 -30.6 -9.25 -34.5 -0.3 -34.5 9.0 -34.5 16.55 -30.25 L16.15 -29.95 Q20.7 -27.55 24.65 -23.55 29.05 -19.2 31.55 -14.0 L32.2 -12.6 32.25 -12.6 M23.0 -0.3 Q22.7 -9.45 16.2 -16.0 L14.6 -17.45 21.6 -25.05 14.6 -17.45 Q8.25 -22.85 -0.3 -22.8 -6.7 -22.85 -11.8 -19.85 -13.9 -18.7 -15.75 -17.0 L-16.8 -16.0 Q-23.65 -9.15 -23.65 0.5 -23.65 10.15 -16.8 17.0 L-15.8 17.95 Q-9.3 23.85 -0.3 23.85 L0.05 23.85 Q8.35 23.7 14.6 18.5 L14.95 18.15 16.2 17.0 Q23.0 10.15 23.0 0.5 L23.0 -0.3 34.7 -0.3 23.0 -0.3 M0.05 35.5 L0.05 23.85 0.05 35.5 M21.9 25.7 L14.95 18.15 21.9 25.7 M-0.3 -34.5 L-0.3 -22.8 -0.3 -34.5 M-22.75 -24.55 L-15.75 -17.0 -22.75 -24.55 M-22.8 25.5 L-15.8 17.95 -22.8 25.5 M-35.3 0.5 L-23.65 0.5 -35.3 0.5" fill="#0066ff" fill-rule="evenodd" stroke="none"/>
      <path d="M14.6 -17.45 L16.2 -16.0 Q22.7 -9.45 23.0 -0.3 L23.0 0.5 Q23.0 10.15 16.2 17.0 L14.95 18.15 14.6 18.5 Q8.35 23.7 0.05 23.85 L-0.3 23.85 Q-9.3 23.85 -15.8 17.95 L-16.8 17.0 Q-23.65 10.15 -23.65 0.5 -23.65 -9.15 -16.8 -16.0 L-15.75 -17.0 Q-13.9 -18.7 -11.8 -19.85 -6.7 -22.85 -0.3 -22.8 8.25 -22.85 14.6 -17.45 M3.85 4.6 Q5.55 2.9 5.55 0.5 5.55 -1.95 3.85 -3.65 2.15 -5.35 -0.3 -5.35 -2.7 -5.35 -4.4 -3.65 -6.1 -1.95 -6.1 0.5 -6.1 2.9 -4.4 4.6 -2.7 6.3 -0.3 6.3 2.15 6.3 3.85 4.6" fill="#3399ff" fill-rule="evenodd" stroke="none"/>
      <path d="M3.85 4.6 Q2.15 6.3 -0.3 6.3 -2.7 6.3 -4.4 4.6 -6.1 2.9 -6.1 0.5 -6.1 -1.95 -4.4 -3.65 -2.7 -5.35 -0.3 -5.35 2.15 -5.35 3.85 -3.65 5.55 -1.95 5.55 0.5 5.55 2.9 3.85 4.6" fill="#ff0000" fill-rule="evenodd" stroke="none"/>
      <path d="M3.85 4.6 Q2.15 6.3 -0.3 6.3 -2.7 6.3 -4.4 4.6 -6.1 2.9 -6.1 0.5 -6.1 -1.95 -4.4 -3.65 -2.7 -5.35 -0.3 -5.35 2.15 -5.35 3.85 -3.65 5.55 -1.95 5.55 0.5 5.55 2.9 3.85 4.6" fill="none" stroke="#00ff00" stroke-linecap="butt" stroke-linejoin="miter-clip" stroke-miterlimit="3.0" stroke-width="2.0"/>
      <path d="M15.5 31.25 Q20.05 28.85 24.0 24.9 28.4 20.5 30.9 15.35 L31.55 13.9" fill="none" stroke="#000099" stroke-linecap="butt" stroke-linejoin="miter-clip" stroke-miterlimit="3.0" stroke-width="2.0"/>
      <path d="M29.65 -38.9 Q30.3 -41.45 32.3 -43.45 35.2 -46.35 39.35 -46.35 43.5 -46.35 46.45 -43.45 49.35 -40.5 49.35 -36.35 49.35 -32.2 46.45 -29.3 44.9 -27.75 42.95 -27.0 L32.25 -12.6 Q34.55 -6.95 34.7 -0.3 L34.7 0.5 Q34.65 8.0 31.9 14.4 L42.3 28.3 M29.0 40.2 L15.95 31.6 Q8.8 35.4 0.05 35.5 L-0.3 35.5 Q-9.35 35.5 -16.75 31.5 L-30.3 40.45 M-21.1 28.75 L-25.1 25.25 Q-35.35 15.0 -35.3 0.5 -35.35 -6.95 -32.65 -13.25 L-32.0 -14.65 Q-29.5 -19.85 -25.1 -24.2 -21.15 -28.2 -16.55 -30.6 -9.25 -34.5 -0.3 -34.5 9.0 -34.5 16.55 -30.25 L29.65 -38.9 Q29.35 -37.7 29.35 -36.35 29.35 -32.2 32.3 -29.3 35.2 -26.35 39.35 -26.35 41.3 -26.35 42.95 -27.0 M32.25 -12.6 L32.2 -12.6 31.55 -14.0 Q29.05 -19.2 24.65 -23.55 20.7 -27.55 16.15 -29.95 L16.55 -30.25 M14.6 -17.45 L16.2 -16.0 Q22.7 -9.45 23.0 -0.3 L34.7 -0.3 M14.95 18.15 L14.6 18.5 Q8.35 23.7 0.05 23.85 L0.05 35.5 M23.0 -0.3 L23.0 0.5 Q23.0 10.15 16.2 17.0 L14.95 18.15 M-15.75 -17.0 Q-13.9 -18.7 -11.8 -19.85 -6.7 -22.85 -0.3 -22.8 L-0.3 -34.5 M-23.65 0.5 Q-23.65 -9.15 -16.8 -16.0 L-15.75 -17.0 M0.05 23.85 L-0.3 23.85 Q-9.3 23.85 -15.8 17.95 L-16.8 17.0 Q-23.65 10.15 -23.65 0.5 L-35.3 0.5 M-0.3 -22.8 Q8.25 -22.85 14.6 -17.45" fill="none" stroke="#000099" stroke-linecap="round" stroke-linejoin="miter-clip" stroke-miterlimit="3.0" stroke-width="1.0"/>
      <path d="M42.3 28.3 Q44.25 29.05 45.8 30.6 48.7 33.5 48.7 37.65 48.7 41.8 45.8 44.75 42.85 47.65 38.7 47.65 34.55 47.65 31.65 44.75 29.65 42.75 29.0 40.2 28.7 39.0 28.7 37.65 28.7 33.5 31.65 30.6 34.55 27.65 38.7 27.65 40.65 27.65 42.3 28.3 M-30.3 40.45 Q-30.95 43.0 -32.95 45.0 -35.85 47.9 -40.0 47.9 -44.15 47.9 -47.1 45.0 -50.0 42.05 -50.0 37.9 -50.0 33.75 -47.1 30.85 -45.55 29.3 -43.6 28.55 L-32.85 14.15 -32.2 15.6 Q-29.7 20.75 -25.3 25.15 -23.3 27.15 -21.1 28.75 L-16.75 31.5 M-32.65 -13.25 L-43.4 -27.65 Q-45.35 -28.4 -46.9 -29.95 -49.8 -32.85 -49.8 -37.0 -49.8 -41.15 -46.9 -44.1 -43.95 -47.0 -39.8 -47.0 -35.65 -47.0 -32.75 -44.1 -30.75 -42.1 -30.1 -39.55 L-16.55 -30.6 M-30.1 -39.55 Q-29.8 -38.35 -29.8 -37.0 -29.8 -32.85 -32.75 -29.95 -35.65 -27.0 -39.8 -27.0 -41.75 -27.0 -43.4 -27.65 M-30.3 40.45 Q-30.0 39.25 -30.0 37.9 -30.0 33.75 -32.95 30.85 -35.85 27.9 -40.0 27.9 -41.95 27.9 -43.6 28.55" fill="none" stroke="#000099" stroke-linecap="round" stroke-linejoin="miter-clip" stroke-miterlimit="3.0" stroke-width="2.0"/>
      <path d="M14.6 -17.45 L21.6 -25.05 M14.95 18.15 L21.9 25.7 M15.95 31.6 L15.5 31.25 M-15.75 -17.0 L-22.75 -24.55 M-15.8 17.95 L-22.8 25.5" fill="none" stroke="#000099" stroke-linecap="round" stroke-linejoin="miter-clip" stroke-miterlimit="3.0" stroke-width="1.0"/>
      <path d="M31.55 13.9 L31.9 14.4" fill="none" stroke="#000099" stroke-linecap="butt" stroke-linejoin="miter-clip" stroke-miterlimit="3.0" stroke-width="1.0"/>
    </g>
  </defs>
</svg>
