<?xml version="1.0" encoding="UTF-8" standalone="no"?>
<svg xmlns:xlink="http://www.w3.org/1999/xlink" height="227.9px" width="83.05px" xmlns="http://www.w3.org/2000/svg">
  <g transform="matrix(1.0, 0.0, 0.0, 1.0, 30.0, 57.75)">
    <use data-characterId="1597" height="73.0" transform="matrix(1.0, 0.0, 0.0, 1.0, -29.0, -36.0)" width="58.0" xlink:href="#shape0"/>
  </g>
  <defs>
    <g id="shape0" transform="matrix(1.0, 0.0, 0.0, 1.0, 29.0, 36.0)">
      <path d="M2.65 -9.15 L2.5 -9.2 1.95 -8.95 1.75 -8.3 1.95 -7.7 2.5 -7.4 Q2.8 -7.4 3.0 -7.7 L3.25 -8.3 3.2 -8.6 3.25 -8.3 3.0 -7.7 Q2.8 -7.4 2.5 -7.4 L1.95 -7.7 1.75 -8.3 1.95 -8.95 2.5 -9.2 2.65 -9.15 2.6 -9.15 2.5 -8.85 2.6 -8.6 Q2.75 -8.45 2.9 -8.45 L3.15 -8.6 3.2 -8.6 3.3 -8.85 3.15 -9.15 2.9 -9.25 2.65 -9.15 M4.45 -7.05 Q3.95 -7.05 3.6 -6.65 3.25 -6.25 3.25 -5.65 3.25 -5.05 3.6 -4.65 3.95 -4.25 4.45 -4.25 4.95 -4.25 5.3 -4.65 5.65 -5.05 5.65 -5.65 5.65 -6.25 5.3 -6.65 4.95 -7.05 4.45 -7.05 4.95 -7.05 5.3 -6.65 5.65 -6.25 5.65 -5.65 5.65 -5.05 5.3 -4.65 4.95 -4.25 4.45 -4.25 3.95 -4.25 3.6 -4.65 3.25 -5.05 3.25 -5.65 3.25 -6.25 3.6 -6.65 3.95 -7.05 4.45 -7.05 M0.35 -4.45 L0.0 -4.9 Q-0.5 -5.4 -1.2 -5.4 -1.9 -5.4 -2.4 -4.9 L-2.85 -3.9 -2.4 -4.9 Q-1.9 -5.4 -1.2 -5.4 -0.5 -5.4 0.0 -4.9 L0.35 -4.45 0.85 -4.45 Q3.35 -4.45 5.1 -3.7 6.85 -2.9 6.85 -1.8 6.85 -0.7 5.1 0.05 3.35 0.85 0.85 0.85 -1.65 0.85 -3.4 0.05 -5.15 -0.7 -5.15 -1.8 -5.15 -2.9 -3.4 -3.7 L-2.85 -3.9 -3.4 -3.7 Q-5.15 -2.9 -5.15 -1.8 -5.15 -0.7 -3.4 0.05 -1.65 0.85 0.85 0.85 3.35 0.85 5.1 0.05 6.85 -0.7 6.85 -1.8 6.85 -2.9 5.1 -3.7 3.35 -4.45 0.85 -4.45 L0.35 -4.45 -2.85 -3.9 0.35 -4.45 0.5 -3.65 Q0.5 -2.95 0.0 -2.45 -0.5 -1.9 -1.2 -1.9 -1.9 -1.9 -2.4 -2.45 -2.9 -2.95 -2.9 -3.65 L-2.85 -3.9 -2.9 -3.65 Q-2.9 -2.95 -2.4 -2.45 -1.9 -1.9 -1.2 -1.9 -0.5 -1.9 0.0 -2.45 0.5 -2.95 0.5 -3.65 L0.35 -4.45 M28.5 36.5 L-28.5 36.5 -28.5 -35.5 28.5 -35.5 28.5 36.5" fill="#000000" fill-rule="evenodd" stroke="none"/>
      <path d="M2.65 -9.15 L2.9 -9.25 3.15 -9.15 3.3 -8.85 3.2 -8.6 3.0 -8.95 2.65 -9.15 3.0 -8.95 3.2 -8.6 3.15 -8.6 2.9 -8.45 Q2.75 -8.45 2.6 -8.6 L2.5 -8.85 2.6 -9.15 2.65 -9.15" fill="#cc9900" fill-rule="evenodd" stroke="none"/>
      <path d="M4.45 -7.05 Q4.95 -7.05 5.3 -6.65 5.65 -6.25 5.65 -5.65 5.65 -5.05 5.3 -4.65 4.95 -4.25 4.45 -4.25 3.95 -4.25 3.6 -4.65 3.25 -5.05 3.25 -5.65 3.25 -6.25 3.6 -6.65 3.95 -7.05 4.45 -7.05" fill="none" stroke="#000000" stroke-linecap="butt" stroke-linejoin="miter-clip" stroke-miterlimit="3.0" stroke-width="0.1"/>
      <path d="M28.5 36.5 L-28.5 36.5 -28.5 -35.5 28.5 -35.5 28.5 36.5" fill="none" stroke="#333333" stroke-linecap="butt" stroke-linejoin="miter-clip" stroke-miterlimit="3.0" stroke-width="1.0"/>
      <path d="M3.2 -8.6 L3.25 -8.3 3.0 -7.7 Q2.8 -7.4 2.5 -7.4 L1.95 -7.7 1.75 -8.3 1.95 -8.95 2.5 -9.2 2.65 -9.15 2.9 -9.25 3.15 -9.15 3.3 -8.85 3.2 -8.6 3.0 -8.95 2.65 -9.15 2.6 -9.15 2.5 -8.85 2.6 -8.6 Q2.75 -8.45 2.9 -8.45 L3.15 -8.6 3.2 -8.6 M0.35 -4.45 L0.85 -4.45 Q3.35 -4.45 5.1 -3.7 6.85 -2.9 6.85 -1.8 6.85 -0.7 5.1 0.05 3.35 0.85 0.85 0.85 -1.65 0.85 -3.4 0.05 -5.15 -0.7 -5.15 -1.8 -5.15 -2.9 -3.4 -3.7 L-2.85 -3.9 0.35 -4.45" fill="none" stroke="#000000" stroke-linecap="round" stroke-linejoin="miter-clip" stroke-miterlimit="3.0" stroke-width="0.1"/>
      <path d="M-2.85 -3.9 L-2.4 -4.9 Q-1.9 -5.4 -1.2 -5.4 -0.5 -5.4 0.0 -4.9 L0.35 -4.45 0.5 -3.65 Q0.5 -2.95 0.0 -2.45 -0.5 -1.9 -1.2 -1.9 -1.9 -1.9 -2.4 -2.45 -2.9 -2.95 -2.9 -3.65 L-2.85 -3.9" fill="none" stroke="#000000" stroke-linecap="round" stroke-linejoin="miter-clip" stroke-miterlimit="3.0" stroke-width="1.0"/>
    </g>
  </defs>
</svg>
