<?xml version="1.0" encoding="UTF-8" standalone="no"?>
<svg xmlns:xlink="http://www.w3.org/1999/xlink" height="880.6px" width="1455.75px" xmlns="http://www.w3.org/2000/svg">
  <g transform="matrix(1.0, 0.0, 0.0, 1.0, 753.25, 402.8)">
    <use data-characterId="968" height="734.15" transform="matrix(1.0, 0.0, 0.0, 1.0, -538.1, -402.8)" width="1000.25" xlink:href="#shape0"/>
    <use data-characterId="33" height="31.4" id="gameoptions" transform="matrix(1.0, 0.0, 0.0, 1.0, -355.2, -119.2)" width="120.4" xlink:href="#sprite0"/>
    <use data-characterId="33" height="31.4" id="exit_button" transform="matrix(1.0, 0.0, 0.0, 1.0, -355.2, -55.15)" width="120.4" xlink:href="#sprite0"/>
    <use data-characterId="33" height="31.4" id="squadoptions" transform="matrix(1.0, 0.0, 0.0, 1.0, -355.2, -88.15)" width="120.4" xlink:href="#sprite0"/>
    <use data-characterId="1023" height="361.15" transform="matrix(1.0, 0.0, 0.0, 1.0, -180.5, -235.55)" width="554.2" xlink:href="#shape2"/>
    <use data-characterId="1024" height="25.45" transform="matrix(1.0, 0.0, 0.0, 1.0, -12.0, -229.1)" width="75.9" xlink:href="#text1"/>
    <use data-characterId="1025" height="31.4" id="nameLabel" transform="matrix(1.0, 0.0, 0.0, 1.0, -181.95, -206.2)" width="134.45" xlink:href="#text2"/>
    <use data-characterId="1026" height="29.1" id="squadsNameDisp" transform="matrix(1.0, 0.0, 0.0, 1.0, -55.95, -207.2)" width="166.8" xlink:href="#text3"/>
    <use data-characterId="33" height="31.4" id="squadAction_button" transform="matrix(1.0, 0.0, 0.0, 1.0, 107.8, -207.2)" width="120.4" xlink:href="#sprite0"/>
    <use data-characterId="33" height="31.4" id="squadBaseTwoButton" transform="matrix(1.0, 0.0, 0.0, 1.0, 104.9, -61.8)" width="120.4" xlink:href="#sprite0"/>
    <use data-characterId="33" height="31.4" id="squadBaseButton" transform="matrix(1.0, 0.0, 0.0, 1.0, 103.4, -88.2)" width="120.4" xlink:href="#sprite0"/>
    <use data-characterId="1027" height="31.4" id="passLabel" transform="matrix(1.0, 0.0, 0.0, 1.0, -175.95, -185.2)" width="128.3" xlink:href="#text4"/>
    <use data-characterId="1028" height="29.1" id="squadsPassDisp" transform="matrix(1.0, 0.0, 0.0, 1.0, -55.95, -184.2)" width="166.8" xlink:href="#text5"/>
    <use data-characterId="1029" height="31.4" id="messageBox" transform="matrix(1.0, 0.0, 0.0, 1.0, -161.85, -161.1)" width="266.8" xlink:href="#text6"/>
    <use data-characterId="33" height="31.4" id="squadAction_buttontwo" transform="matrix(1.0, 0.0, 0.0, 1.0, 107.8, -184.2)" width="120.4" xlink:href="#sprite0"/>
    <use data-characterId="1030" height="269.9" id="MemberList" transform="matrix(1.0, 0.0, 0.0, 1.0, 255.5, -203.4)" width="127.1" xlink:href="#text7"/>
    <use data-characterId="1031" height="24.8" transform="matrix(1.0, 0.0, 0.0, 1.0, 287.6, -227.4)" width="53.9" xlink:href="#text8"/>
    <use data-characterId="1032" height="25.45" transform="matrix(1.0, 0.0, 0.0, 1.0, 1.8, -112.45)" width="76.7" xlink:href="#text9"/>
    <use data-characterId="1033" height="31.4" id="BaseMessageBox" transform="matrix(1.0, 0.0, 0.0, 1.0, -146.55, -36.1)" width="266.8" xlink:href="#text10"/>
    <use data-characterId="33" height="31.4" id="changeSquadMessage" transform="matrix(1.0, 0.0, 0.0, 1.0, 120.95, 99.95)" width="120.4" xlink:href="#sprite0"/>
    <use data-characterId="1034" height="25.45" transform="matrix(1.0, 0.0, 0.0, 1.0, -7.15, 2.2)" width="98.7" xlink:href="#text11"/>
    <use data-characterId="1035" height="70.75" id="SquadMessage" transform="matrix(1.0, 0.0, 0.0, 1.0, -171.5, 23.0)" width="447.75" xlink:href="#text12"/>
    <use data-characterId="1036" height="30.7" id="SquadMessageInfoBox" transform="matrix(1.0, 0.0, 0.0, 1.0, -89.5, 100.25)" width="199.7" xlink:href="#text13"/>
    <use data-characterId="1037" height="31.4" id="BaseLocationHeader" transform="matrix(1.0, 0.0, 0.0, 1.0, -172.55, -86.5)" width="115.7" xlink:href="#text14"/>
    <use data-characterId="1038" height="31.4" id="squadbase_info" transform="matrix(1.0, 0.0, 0.0, 1.0, -64.05, -86.2)" width="161.3" xlink:href="#text15"/>
    <use data-characterId="1039" height="31.4" id="BaseLocationDetails" transform="matrix(1.0, 0.0, 0.0, 1.0, -163.05, -63.4)" width="280.0" xlink:href="#text16"/>
    <use data-characterId="1040" height="31.4" id="baseXgrid" transform="matrix(1.0, 0.0, 0.0, 1.0, -47.55, -63.5)" width="50.75" xlink:href="#text17"/>
    <use data-characterId="1041" height="31.4" id="baseYgrid" transform="matrix(1.0, 0.0, 0.0, 1.0, 31.1, -63.5)" width="50.75" xlink:href="#text18"/>
  </g>
  <defs>
    <g id="shape0" transform="matrix(1.0, 0.0, 0.0, 1.0, 538.1, 402.8)">
      <path d="M-538.1 -402.8 L462.15 -402.8 462.15 331.35 -538.1 331.35 -538.1 -402.8" fill="#000000" fill-opacity="0.8980392" fill-rule="evenodd" stroke="none"/>
      <path d="M-372.1 -159.0 L-222.1 -159.0 -222.1 -9.0 -372.1 -9.0 -372.1 -159.0" fill="#000066" fill-opacity="0.14901961" fill-rule="evenodd" stroke="none"/>
      <path d="M-372.1 -159.0 L-222.1 -159.0 -222.1 -9.0 -372.1 -9.0 -372.1 -159.0 Z" fill="none" stroke="#003366" stroke-linecap="butt" stroke-linejoin="miter-clip" stroke-miterlimit="3.0" stroke-width="1.0"/>
    </g>
    <g id="sprite0" transform="matrix(1.0, 0.0, 0.0, 1.0, 0.5, 1.25)">
      <use data-characterId="29" height="19.05" transform="matrix(1.0, 0.0, 0.0, 1.0, -0.5, -0.5)" width="115.5" xlink:href="#shape1"/>
      <use data-characterId="31" height="31.4" id="actionlabel" transform="matrix(1.0, 0.0, 0.0, 1.0, 1.5, -1.25)" width="118.4" xlink:href="#text0"/>
    </g>
    <g id="shape1" transform="matrix(1.0, 0.0, 0.0, 1.0, 0.5, 0.5)">
      <path d="M112.2 0.0 Q114.5 0.0 114.5 2.3 L114.5 15.75 Q114.5 18.05 112.2 18.05 L2.3 18.05 Q0.0 18.05 0.0 15.75 L0.0 2.3 Q0.0 0.0 2.3 0.0 L112.2 0.0" fill="#0066cc" fill-rule="evenodd" stroke="none"/>
      <path d="M112.2 0.0 L2.3 0.0 Q0.0 0.0 0.0 2.3 L0.0 15.75 Q0.0 18.05 2.3 18.05 L112.2 18.05 Q114.5 18.05 114.5 15.75 L114.5 2.3 Q114.5 0.0 112.2 0.0 Z" fill="none" stroke="#000000" stroke-linecap="butt" stroke-linejoin="miter-clip" stroke-miterlimit="3.0" stroke-width="1.0"/>
    </g>
    <g id="text0" transform="matrix(1.0, 0.0, 0.0, 1.0, 4.0, 2.0)">
      <g transform="matrix(1.0, 0.0, 0.0, 1.0, -4.0, -2.0)">
        <use fill="#ffff99" height="31.4" transform="matrix(0.0117, 0.0, 0.0, 0.0117, 40.5, 10.85)" width="118.4" xlink:href="#font_Arial_A0"/>
        <use fill="#ffff99" height="31.4" transform="matrix(0.0117, 0.0, 0.0, 0.0117, 49.15, 10.85)" width="118.4" xlink:href="#font_Arial_c0"/>
        <use fill="#ffff99" height="31.4" transform="matrix(0.0117, 0.0, 0.0, 0.0117, 55.85, 10.85)" width="118.4" xlink:href="#font_Arial_t0"/>
        <use fill="#ffff99" height="31.4" transform="matrix(0.0117, 0.0, 0.0, 0.0117, 59.85, 10.85)" width="118.4" xlink:href="#font_Arial_i0"/>
        <use fill="#ffff99" height="31.4" transform="matrix(0.0117, 0.0, 0.0, 0.0117, 63.2, 10.85)" width="118.4" xlink:href="#font_Arial_o0"/>
        <use fill="#ffff99" height="31.4" transform="matrix(0.0117, 0.0, 0.0, 0.0117, 70.55, 10.85)" width="118.4" xlink:href="#font_Arial_n0"/>
      </g>
    </g>
    <g id="font_Arial_A0">
      <path d="M463.0 -290.0 L263.0 -290.0 362.0 -562.0 463.0 -290.0 M735.5 0.0 L442.0 -733.0 285.5 -733.0 0.0 0.0 157.0 0.0 217.5 -166.5 510.5 -166.5 574.5 0.0 735.5 0.0" fill-rule="evenodd" stroke="none"/>
    </g>
    <g id="font_Arial_c0">
      <path d="M536.5 -374.0 Q511.5 -459.5 454.5 -501.0 397.0 -543.0 300.0 -543.0 181.5 -543.0 112.0 -469.5 42.5 -396.5 42.5 -265.0 42.5 -135.0 112.0 -61.5 181.0 12.0 297.5 12.0 400.0 12.0 461.0 -36.5 522.0 -85.0 543.5 -180.0 L405.5 -203.5 Q395.0 -148.0 369.5 -125.0 344.0 -102.5 304.0 -102.5 250.5 -102.5 219.0 -141.5 187.0 -180.5 187.0 -275.0 187.0 -360.0 218.5 -396.0 249.5 -432.5 302.0 -432.5 341.5 -432.5 366.5 -411.5 391.0 -390.5 398.0 -349.0 L536.5 -374.0" fill-rule="evenodd" stroke="none"/>
    </g>
    <g id="font_Arial_t0">
      <path d="M317.0 -531.0 L221.0 -531.0 221.0 -718.5 80.0 -636.5 80.0 -531.0 15.5 -531.0 15.5 -419.0 80.0 -419.0 80.0 -187.5 Q80.0 -113.0 84.5 -88.5 90.0 -54.0 104.5 -33.5 118.5 -13.5 149.0 -0.5 179.5 12.0 217.5 12.0 279.5 12.0 328.5 -9.0 L316.5 -118.0 Q279.5 -104.5 260.0 -104.5 246.0 -104.5 236.5 -111.5 226.5 -118.5 224.0 -129.0 221.0 -140.0 221.0 -205.0 L221.0 -419.0 317.0 -419.0 317.0 -531.0" fill-rule="evenodd" stroke="none"/>
    </g>
    <g id="font_Arial_i0">
      <path d="M73.5 0.0 L214.0 0.0 214.0 -531.0 73.5 -531.0 73.5 0.0 M73.5 -603.0 L214.0 -603.0 214.0 -733.0 73.5 -733.0 73.5 -603.0" fill-rule="evenodd" stroke="none"/>
    </g>
    <g id="font_Arial_o0">
      <path d="M185.0 -265.5 Q185.0 -344.5 222.5 -386.5 260.0 -428.5 315.0 -428.5 370.0 -428.5 407.5 -386.5 444.5 -344.5 444.5 -266.5 444.5 -186.5 407.5 -144.5 370.0 -102.5 315.0 -102.5 260.0 -102.5 222.5 -144.5 185.0 -186.5 185.0 -265.5 M41.0 -273.0 Q41.0 -181.5 75.5 -117.5 110.0 -54.0 176.5 -21.0 242.5 12.0 315.5 12.0 433.5 12.0 511.5 -67.0 589.0 -146.5 589.0 -267.0 589.0 -386.5 512.0 -464.5 435.0 -543.0 314.5 -543.0 236.5 -543.0 173.5 -508.5 110.0 -474.0 75.5 -408.5 41.0 -343.0 41.0 -273.0" fill-rule="evenodd" stroke="none"/>
    </g>
    <g id="font_Arial_n0">
      <path d="M556.5 0.0 L556.5 -330.0 Q556.5 -391.5 549.0 -424.5 541.0 -457.5 521.5 -483.5 501.5 -509.5 463.0 -526.0 424.5 -543.0 378.0 -543.0 272.5 -543.0 203.0 -453.0 L203.0 -531.0 72.5 -531.0 72.5 0.0 213.0 0.0 213.0 -240.5 Q213.0 -329.5 224.0 -362.5 234.5 -395.5 263.5 -415.5 292.5 -435.5 329.0 -435.5 357.5 -435.5 378.0 -421.5 398.0 -407.5 407.0 -382.0 416.0 -357.0 416.0 -271.0 L416.0 0.0 556.5 0.0" fill-rule="evenodd" stroke="none"/>
    </g>
    <g id="shape2" transform="matrix(1.0, 0.0, 0.0, 1.0, 180.5, 235.55)">
      <path d="M234.9 89.95 L-170.5 89.95 -170.5 20.5 234.9 20.5 234.9 89.95 Z" fill="none" stroke="#0033cc" stroke-linecap="butt" stroke-linejoin="miter-clip" stroke-miterlimit="3.0" stroke-width="1.0"/>
      <path d="M240.0 -125.05 L-180.0 -125.05 -180.0 -235.05 240.0 -235.05 240.0 -125.05" fill="#000066" fill-opacity="0.14901961" fill-rule="evenodd" stroke="none"/>
      <path d="M240.0 -125.05 L-180.0 -125.05 -180.0 -235.05 240.0 -235.05 240.0 -125.05 Z" fill="none" stroke="#003366" stroke-linecap="butt" stroke-linejoin="miter-clip" stroke-miterlimit="3.0" stroke-width="1.0"/>
      <path d="M240.0 -6.65 L-180.0 -6.65 -180.0 -116.65 240.0 -116.65 240.0 -6.65" fill="#000066" fill-opacity="0.14901961" fill-rule="evenodd" stroke="none"/>
      <path d="M240.0 -6.65 L-180.0 -6.65 -180.0 -116.65 240.0 -116.65 240.0 -6.65 Z" fill="none" stroke="#003366" stroke-linecap="butt" stroke-linejoin="miter-clip" stroke-miterlimit="3.0" stroke-width="1.0"/>
      <path d="M240.55 125.1 L-179.45 125.1 -179.45 0.1 240.55 0.1 240.55 125.1" fill="#000066" fill-opacity="0.14901961" fill-rule="evenodd" stroke="none"/>
      <path d="M240.55 125.1 L-179.45 125.1 -179.45 0.1 240.55 0.1 240.55 125.1 Z" fill="none" stroke="#003366" stroke-linecap="butt" stroke-linejoin="miter-clip" stroke-miterlimit="3.0" stroke-width="1.0"/>
      <path d="M373.2 -234.95 L373.2 65.0 253.2 65.0 253.2 -234.95 373.2 -234.95" fill="#000066" fill-opacity="0.14901961" fill-rule="evenodd" stroke="none"/>
      <path d="M373.2 -234.95 L373.2 65.0 253.2 65.0 253.2 -234.95 373.2 -234.95 Z" fill="none" stroke="#003366" stroke-linecap="butt" stroke-linejoin="miter-clip" stroke-miterlimit="3.0" stroke-width="1.0"/>
    </g>
    <g id="text1" transform="matrix(1.0, 0.0, 0.0, 1.0, 2.0, 1.4)">
      <g transform="matrix(1.0, 0.0, 0.0, 1.0, -2.0, -1.8)">
        <use fill="#ffffcc" height="25.45" transform="matrix(0.0117, 0.0, 0.0, 0.0117, 0.0, 11.0)" width="75.9" xlink:href="#font_Arial_Y0"/>
        <use fill="#ffffcc" height="25.45" transform="matrix(0.0117, 0.0, 0.0, 0.0117, 8.0, 11.0)" width="75.9" xlink:href="#font_Arial_o0"/>
        <use fill="#ffffcc" height="25.45" transform="matrix(0.0117, 0.0, 0.0, 0.0117, 15.35, 11.0)" width="75.9" xlink:href="#font_Arial_u0"/>
        <use fill="#ffffcc" height="25.45" transform="matrix(0.0117, 0.0, 0.0, 0.0117, 22.7, 11.0)" width="75.9" xlink:href="#font_Arial_r0"/>
        <use fill="#ffffcc" height="25.45" transform="matrix(0.0117, 0.0, 0.0, 0.0117, 30.7, 11.0)" width="75.9" xlink:href="#font_Arial_S0"/>
        <use fill="#ffffcc" height="25.45" transform="matrix(0.0117, 0.0, 0.0, 0.0117, 38.7, 11.0)" width="75.9" xlink:href="#font_Arial_q0"/>
        <use fill="#ffffcc" height="25.45" transform="matrix(0.0117, 0.0, 0.0, 0.0117, 46.05, 11.0)" width="75.9" xlink:href="#font_Arial_u0"/>
        <use fill="#ffffcc" height="25.45" transform="matrix(0.0117, 0.0, 0.0, 0.0117, 53.4, 11.0)" width="75.9" xlink:href="#font_Arial_a0"/>
        <use fill="#ffffcc" height="25.45" transform="matrix(0.0117, 0.0, 0.0, 0.0117, 60.05, 11.0)" width="75.9" xlink:href="#font_Arial_d0"/>
      </g>
    </g>
    <g id="font_Arial_Y0">
      <path d="M267.0 0.0 L414.5 0.0 414.5 -307.5 684.0 -733.0 513.5 -733.0 344.5 -443.0 172.0 -733.0 -1.5 -733.0 267.0 -308.5 267.0 0.0" fill-rule="evenodd" stroke="none"/>
    </g>
    <g id="font_Arial_u0">
      <path d="M423.0 0.0 L553.5 0.0 553.5 -531.0 413.0 -531.0 413.0 -307.0 Q413.0 -193.0 402.5 -163.5 392.0 -134.5 363.5 -114.5 335.0 -95.0 299.0 -95.0 267.5 -95.0 247.0 -109.5 226.5 -124.5 219.0 -149.5 211.0 -175.0 211.0 -287.0 L211.0 -531.0 70.5 -531.0 70.5 -195.0 Q70.5 -120.0 89.5 -77.5 108.5 -35.0 151.0 -11.5 193.5 12.0 247.0 12.0 299.5 12.0 347.0 -12.5 394.0 -37.0 423.0 -79.5 L423.0 0.0" fill-rule="evenodd" stroke="none"/>
    </g>
    <g id="font_Arial_r0">
      <path d="M208.0 0.0 L208.0 -164.0 Q208.0 -299.5 220.0 -342.0 231.5 -384.5 252.0 -400.5 272.5 -417.0 302.0 -417.0 332.5 -417.0 368.0 -394.0 L411.5 -516.5 Q367.0 -543.0 319.0 -543.0 285.0 -543.0 258.5 -526.0 231.5 -509.0 198.0 -455.5 L198.0 -531.0 67.5 -531.0 67.5 0.0 208.0 0.0" fill-rule="evenodd" stroke="none"/>
    </g>
    <g id="font_Arial_S0">
      <path d="M37.0 -238.5 Q51.5 -115.5 126.0 -51.0 200.5 13.0 339.5 13.0 435.0 13.0 499.0 -13.5 563.0 -40.5 598.0 -95.5 633.0 -150.5 633.0 -213.5 633.0 -283.0 604.0 -330.0 574.5 -377.5 523.0 -404.5 471.0 -432.0 363.0 -457.5 255.0 -483.0 227.0 -506.5 205.0 -525.0 205.0 -551.0 205.0 -579.5 228.5 -596.5 265.0 -623.0 329.5 -623.0 392.0 -623.0 423.5 -598.0 454.5 -573.5 464.0 -517.0 L612.0 -523.5 Q608.5 -624.5 539.0 -685.0 469.0 -745.5 331.0 -745.5 246.5 -745.5 187.0 -720.0 127.0 -694.5 95.5 -645.5 63.5 -597.0 63.5 -541.0 63.5 -454.0 131.0 -393.5 179.0 -350.5 298.0 -321.0 390.5 -298.0 416.5 -289.0 454.5 -275.5 470.0 -257.0 485.0 -239.0 485.0 -213.0 485.0 -172.5 449.0 -142.0 412.5 -112.0 341.0 -112.0 273.5 -112.0 234.0 -146.0 194.0 -180.0 181.0 -252.5 L37.0 -238.5" fill-rule="evenodd" stroke="none"/>
    </g>
    <g id="font_Arial_q0">
      <path d="M425.0 -272.0 Q425.0 -186.0 388.5 -142.5 352.0 -99.0 303.5 -99.0 255.0 -99.0 222.0 -137.5 189.0 -176.5 189.0 -264.0 189.0 -352.0 223.5 -392.5 257.5 -433.0 308.5 -433.0 358.5 -433.0 392.0 -393.0 425.0 -353.5 425.0 -272.0 M420.5 202.0 L561.0 202.0 561.0 -531.0 431.5 -531.0 431.5 -452.5 Q401.5 -498.0 363.0 -520.5 324.0 -543.0 271.0 -543.0 175.0 -543.0 110.5 -471.0 45.5 -399.5 45.5 -271.5 45.5 -135.5 114.5 -56.0 173.0 12.0 263.5 12.0 311.0 12.0 352.0 -8.5 393.0 -29.5 420.5 -65.0 L420.5 202.0" fill-rule="evenodd" stroke="none"/>
    </g>
    <g id="font_Arial_a0">
      <path d="M366.5 -255.0 L366.5 -227.0 Q366.5 -176.5 361.0 -158.5 353.0 -131.0 327.5 -112.0 293.0 -87.0 255.0 -87.0 221.0 -87.0 199.0 -108.5 177.0 -130.0 177.0 -159.5 177.0 -189.5 204.5 -209.0 222.5 -221.0 281.0 -233.5 339.5 -246.0 366.5 -255.0 M178.5 -369.0 Q191.5 -406.0 212.5 -420.5 233.5 -435.5 271.0 -435.5 326.5 -435.5 346.5 -418.0 366.5 -401.0 366.5 -360.5 L366.5 -346.5 Q328.5 -330.5 230.0 -312.0 157.0 -298.0 118.5 -279.0 79.5 -260.5 58.0 -225.0 36.5 -190.0 36.5 -145.0 36.5 -77.0 84.0 -32.5 131.0 12.0 213.0 12.0 259.5 12.0 300.5 -5.5 341.5 -23.0 377.5 -58.0 379.0 -54.0 382.5 -41.5 390.5 -14.0 396.0 0.0 L535.0 0.0 Q516.5 -38.0 510.0 -71.0 503.0 -104.5 503.0 -174.5 L504.5 -338.5 Q504.5 -430.0 486.0 -464.0 467.0 -498.5 421.0 -520.5 375.0 -543.0 281.0 -543.0 177.5 -543.0 125.0 -506.0 72.5 -469.0 51.0 -392.0 L178.5 -369.0" fill-rule="evenodd" stroke="none"/>
    </g>
    <g id="font_Arial_d0">
      <path d="M185.5 -277.0 Q185.5 -356.0 219.5 -395.5 253.0 -435.5 303.0 -435.5 354.5 -435.5 387.5 -395.0 420.5 -355.0 420.5 -263.5 420.5 -181.5 386.5 -140.0 352.5 -99.0 304.0 -99.0 243.0 -99.0 209.0 -154.0 185.5 -192.0 185.5 -277.0 M560.5 0.0 L560.5 -733.0 420.0 -733.0 420.0 -469.0 Q355.0 -543.0 266.0 -543.0 169.0 -543.0 105.5 -472.5 42.0 -402.5 42.0 -267.5 42.0 -135.5 107.5 -61.5 172.5 12.0 264.0 12.0 309.0 12.0 353.5 -10.0 397.5 -32.5 430.0 -78.0 L430.0 0.0 560.5 0.0" fill-rule="evenodd" stroke="none"/>
    </g>
    <g id="text2" transform="matrix(1.0, 0.0, 0.0, 1.0, 4.0, 2.0)">
      <g transform="matrix(1.0, 0.0, 0.0, 1.0, -4.0, -2.0)">
        <use fill="#ffffcc" height="31.4" transform="matrix(0.0117, 0.0, 0.0, 0.0117, 57.6, 10.85)" width="134.45" xlink:href="#font_Arial_S0"/>
        <use fill="#ffffcc" height="31.4" transform="matrix(0.0117, 0.0, 0.0, 0.0117, 65.6, 10.85)" width="134.45" xlink:href="#font_Arial_q0"/>
        <use fill="#ffffcc" height="31.4" transform="matrix(0.0117, 0.0, 0.0, 0.0117, 72.95, 10.85)" width="134.45" xlink:href="#font_Arial_u0"/>
        <use fill="#ffffcc" height="31.4" transform="matrix(0.0117, 0.0, 0.0, 0.0117, 80.3, 10.85)" width="134.45" xlink:href="#font_Arial_a0"/>
        <use fill="#ffffcc" height="31.4" transform="matrix(0.0117, 0.0, 0.0, 0.0117, 87.0, 10.85)" width="134.45" xlink:href="#font_Arial_d0"/>
      </g>
      <g transform="matrix(1.0, 0.0, 0.0, 1.0, -4.0, -2.0)">
        <use fill="#ffffcc" height="31.4" transform="matrix(0.0117, 0.0, 0.0, 0.0117, 97.7, 10.85)" width="134.45" xlink:href="#font_Arial_N0"/>
        <use fill="#ffffcc" height="31.4" transform="matrix(0.0117, 0.0, 0.0, 0.0117, 106.35, 10.85)" width="134.45" xlink:href="#font_Arial_a0"/>
        <use fill="#ffffcc" height="31.4" transform="matrix(0.0117, 0.0, 0.0, 0.0117, 113.05, 10.85)" width="134.45" xlink:href="#font_Arial_m0"/>
        <use fill="#ffffcc" height="31.4" transform="matrix(0.0117, 0.0, 0.0, 0.0117, 123.75, 10.85)" width="134.45" xlink:href="#font_Arial_e0"/>
        <use fill="#ffffcc" height="31.4" transform="matrix(0.0117, 0.0, 0.0, 0.0117, 130.45, 10.85)" width="134.45" xlink:href="#font_Arial_:0"/>
      </g>
    </g>
    <g id="font_Arial_N0">
      <path d="M76.0 0.0 L213.5 0.0 213.5 -478.0 509.0 0.0 657.5 0.0 657.5 -733.0 520.0 -733.0 520.0 -243.5 220.0 -733.0 76.0 -733.0 76.0 0.0" fill-rule="evenodd" stroke="none"/>
    </g>
    <g id="font_Arial_m0">
      <path d="M63.0 -531.0 L63.0 0.0 203.5 0.0 203.5 -258.0 Q203.5 -334.5 215.0 -367.5 226.0 -400.5 252.0 -418.0 278.0 -435.5 310.5 -435.5 337.5 -435.5 353.5 -424.5 369.0 -413.5 376.5 -391.0 384.0 -368.5 384.0 -291.0 L384.0 0.0 524.5 0.0 524.5 -255.0 Q524.5 -330.0 536.0 -364.5 547.5 -399.5 573.5 -417.5 599.5 -435.5 629.0 -435.5 669.5 -435.5 689.0 -405.5 703.5 -382.5 703.5 -303.5 L703.5 0.0 844.0 0.0 844.0 -339.5 Q844.0 -415.5 829.5 -449.5 809.5 -495.5 769.0 -519.0 728.5 -543.0 670.0 -543.0 624.0 -543.0 583.5 -522.0 543.0 -501.0 508.0 -458.5 484.0 -501.0 446.5 -522.0 409.0 -543.0 358.0 -543.0 262.0 -543.0 192.5 -458.5 L192.5 -531.0 63.0 -531.0" fill-rule="evenodd" stroke="none"/>
    </g>
    <g id="font_Arial_e0">
      <path d="M389.0 -311.0 L179.0 -311.0 Q178.5 -368.5 208.5 -402.0 238.5 -435.5 284.5 -435.5 327.5 -435.5 357.5 -403.5 387.5 -372.0 389.0 -311.0 M381.0 -169.0 Q369.5 -129.0 347.0 -111.0 324.5 -93.0 291.5 -93.0 243.0 -93.0 210.5 -127.5 178.0 -162.5 176.5 -225.0 L528.5 -225.0 Q531.5 -386.5 463.0 -464.5 394.5 -543.0 276.0 -543.0 170.5 -543.0 101.5 -468.0 32.5 -393.5 32.5 -261.5 32.5 -151.0 85.0 -78.5 151.5 12.0 290.0 12.0 377.5 12.0 436.0 -28.0 494.0 -68.5 521.0 -145.5 L381.0 -169.0" fill-rule="evenodd" stroke="none"/>
    </g>
    <g id="font_Arial_:0">
      <path d="M100.5 0.0 L241.0 0.0 241.0 -140.5 100.5 -140.5 100.5 0.0 M100.5 -390.5 L241.0 -390.5 241.0 -531.0 100.5 -531.0 100.5 -390.5" fill-rule="evenodd" stroke="none"/>
    </g>
    <g id="text3" transform="matrix(1.0, 0.0, 0.0, 1.0, 4.0, 2.0)">
      <g transform="matrix(1.0, 0.0, 0.0, 1.0, -4.0, -2.0)">
        <path d="M0.0 0.0 L0.0 29.1 166.8 29.1 166.8 0.0 0.0 0.0" fill="#ffffff" fill-rule="evenodd" stroke="none"/>
        <path d="M0.0 0.0 L166.8 0.0 166.8 29.1 0.0 29.1 0.0 0.0 Z" fill="none" stroke="#000000" stroke-linecap="round" stroke-linejoin="round" stroke-width="1.0"/>
      </g>
      <g transform="matrix(1.0, 0.0, 0.0, 1.0, -4.0, -2.0)">
        <use fill="#000000" height="29.1" transform="matrix(0.0107, 0.0, 0.0, 0.0107, 0.0, 9.95)" width="166.8" xlink:href="#font_Arial_N0"/>
        <use fill="#000000" height="29.1" transform="matrix(0.0107, 0.0, 0.0, 0.0107, 7.95, 9.95)" width="166.8" xlink:href="#font_Arial_o0"/>
        <use fill="#000000" height="29.1" transform="matrix(0.0107, 0.0, 0.0, 0.0107, 14.65, 9.95)" width="166.8" xlink:href="#font_Arial_n0"/>
        <use fill="#000000" height="29.1" transform="matrix(0.0107, 0.0, 0.0, 0.0107, 21.35, 9.95)" width="166.8" xlink:href="#font_Arial_e0"/>
      </g>
    </g>
    <g id="text4" transform="matrix(1.0, 0.0, 0.0, 1.0, 4.0, 2.0)">
      <g transform="matrix(1.0, 0.0, 0.0, 1.0, -4.0, -2.0)">
        <use fill="#ffffcc" height="31.4" transform="matrix(0.0117, 0.0, 0.0, 0.0117, 27.35, 10.85)" width="128.3" xlink:href="#font_Arial_S0"/>
        <use fill="#ffffcc" height="31.4" transform="matrix(0.0117, 0.0, 0.0, 0.0117, 35.35, 10.85)" width="128.3" xlink:href="#font_Arial_q0"/>
        <use fill="#ffffcc" height="31.4" transform="matrix(0.0117, 0.0, 0.0, 0.0117, 42.7, 10.85)" width="128.3" xlink:href="#font_Arial_u0"/>
        <use fill="#ffffcc" height="31.4" transform="matrix(0.0117, 0.0, 0.0, 0.0117, 50.05, 10.85)" width="128.3" xlink:href="#font_Arial_a0"/>
        <use fill="#ffffcc" height="31.4" transform="matrix(0.0117, 0.0, 0.0, 0.0117, 56.75, 10.85)" width="128.3" xlink:href="#font_Arial_d0"/>
      </g>
      <g transform="matrix(1.0, 0.0, 0.0, 1.0, -4.0, -2.0)">
        <use fill="#ffffcc" height="31.4" transform="matrix(0.0117, 0.0, 0.0, 0.0117, 67.45, 10.85)" width="128.3" xlink:href="#font_Arial_P0"/>
        <use fill="#ffffcc" height="31.4" transform="matrix(0.0117, 0.0, 0.0, 0.0117, 75.45, 10.85)" width="128.3" xlink:href="#font_Arial_a0"/>
        <use fill="#ffffcc" height="31.4" transform="matrix(0.0117, 0.0, 0.0, 0.0117, 82.15, 10.85)" width="128.3" xlink:href="#font_Arial_s0"/>
        <use fill="#ffffcc" height="31.4" transform="matrix(0.0117, 0.0, 0.0, 0.0117, 88.85, 10.85)" width="128.3" xlink:href="#font_Arial_s0"/>
        <use fill="#ffffcc" height="31.4" transform="matrix(0.0117, 0.0, 0.0, 0.0117, 95.55, 10.85)" width="128.3" xlink:href="#font_Arial_w0"/>
        <use fill="#ffffcc" height="31.4" transform="matrix(0.0117, 0.0, 0.0, 0.0117, 104.9, 10.85)" width="128.3" xlink:href="#font_Arial_o0"/>
        <use fill="#ffffcc" height="31.4" transform="matrix(0.0117, 0.0, 0.0, 0.0117, 112.25, 10.85)" width="128.3" xlink:href="#font_Arial_r0"/>
        <use fill="#ffffcc" height="31.4" transform="matrix(0.0117, 0.0, 0.0, 0.0117, 116.95, 10.85)" width="128.3" xlink:href="#font_Arial_d0"/>
        <use fill="#ffffcc" height="31.4" transform="matrix(0.0117, 0.0, 0.0, 0.0117, 124.3, 10.85)" width="128.3" xlink:href="#font_Arial_:0"/>
      </g>
    </g>
    <g id="font_Arial_P0">
      <path d="M222.5 -609.0 L294.0 -609.0 Q374.0 -609.0 400.5 -604.0 436.5 -597.5 460.0 -571.5 483.5 -545.5 483.5 -505.5 483.5 -473.0 467.0 -448.5 450.0 -424.0 420.5 -412.5 391.0 -401.0 303.5 -401.0 L222.5 -401.0 222.5 -609.0 M74.5 0.0 L222.5 0.0 222.5 -276.5 319.0 -276.5 Q419.5 -276.5 472.5 -287.0 511.5 -295.5 549.5 -321.5 587.0 -348.0 611.5 -394.0 636.0 -440.0 636.0 -507.5 636.0 -595.0 593.5 -650.0 551.0 -705.5 488.0 -722.0 447.0 -733.0 312.0 -733.0 L74.5 -733.0 74.5 0.0" fill-rule="evenodd" stroke="none"/>
    </g>
    <g id="font_Arial_s0">
      <path d="M24.0 -151.5 Q43.5 -76.0 107.0 -32.0 170.0 12.0 278.5 12.0 398.0 12.0 459.0 -40.5 520.0 -93.0 520.0 -166.0 520.0 -233.0 476.0 -270.5 431.5 -307.5 319.5 -333.0 207.0 -358.5 188.0 -372.5 174.0 -383.0 174.0 -398.0 174.0 -415.5 190.0 -426.5 214.0 -442.0 269.5 -442.0 313.5 -442.0 337.5 -425.5 361.0 -409.0 369.5 -378.0 L502.0 -402.5 Q482.0 -472.0 429.0 -507.5 376.0 -543.0 267.0 -543.0 152.5 -543.0 98.0 -496.0 43.5 -449.0 43.5 -380.0 43.5 -303.5 106.5 -260.5 152.0 -229.5 322.0 -192.0 358.5 -183.5 369.0 -173.5 379.0 -163.0 379.0 -147.0 379.0 -123.5 360.5 -109.5 333.0 -89.5 278.5 -89.5 229.0 -89.5 201.5 -110.5 174.0 -132.0 165.0 -173.0 L24.0 -151.5" fill-rule="evenodd" stroke="none"/>
    </g>
    <g id="font_Arial_w0">
      <path d="M172.5 0.0 L309.0 0.0 399.0 -341.5 490.5 0.0 625.5 0.0 796.0 -531.0 657.5 -531.0 556.0 -183.0 467.5 -531.0 332.0 -531.0 240.5 -183.0 141.0 -531.0 4.5 -531.0 172.5 0.0" fill-rule="evenodd" stroke="none"/>
    </g>
    <g id="text5" transform="matrix(1.0, 0.0, 0.0, 1.0, 4.0, 2.0)">
      <g transform="matrix(1.0, 0.0, 0.0, 1.0, -4.0, -2.0)">
        <path d="M0.0 0.0 L0.0 29.1 166.8 29.1 166.8 0.0 0.0 0.0" fill="#ffffff" fill-rule="evenodd" stroke="none"/>
        <path d="M0.0 0.0 L166.8 0.0 166.8 29.1 0.0 29.1 0.0 0.0 Z" fill="none" stroke="#000000" stroke-linecap="round" stroke-linejoin="round" stroke-width="1.0"/>
      </g>
      <g transform="matrix(1.0, 0.0, 0.0, 1.0, -4.0, -2.0)">
        <use fill="#000000" height="29.1" transform="matrix(0.0107, 0.0, 0.0, 0.0107, 0.0, 9.95)" width="166.8" xlink:href="#font_Arial_N0"/>
        <use fill="#000000" height="29.1" transform="matrix(0.0107, 0.0, 0.0, 0.0107, 7.95, 9.95)" width="166.8" xlink:href="#font_Arial_o0"/>
        <use fill="#000000" height="29.1" transform="matrix(0.0107, 0.0, 0.0, 0.0107, 14.65, 9.95)" width="166.8" xlink:href="#font_Arial_n0"/>
        <use fill="#000000" height="29.1" transform="matrix(0.0107, 0.0, 0.0, 0.0107, 21.35, 9.95)" width="166.8" xlink:href="#font_Arial_e0"/>
      </g>
    </g>
    <g id="text6" transform="matrix(1.0, 0.0, 0.0, 1.0, 4.0, 2.0)">
      <g transform="matrix(1.0, 0.0, 0.0, 1.0, -4.0, -2.0)">
        <use fill="#ffffcc" height="31.4" transform="matrix(0.0117, 0.0, 0.0, 0.0117, 101.65, 10.85)" width="266.8" xlink:href="#font_Arial_g0"/>
        <use fill="#ffffcc" height="31.4" transform="matrix(0.0117, 0.0, 0.0, 0.0117, 109.0, 10.85)" width="266.8" xlink:href="#font_Arial_d0"/>
        <use fill="#ffffcc" height="31.4" transform="matrix(0.0117, 0.0, 0.0, 0.0117, 116.35, 10.85)" width="266.8" xlink:href="#font_Arial_f0"/>
        <use fill="#ffffcc" height="31.4" transform="matrix(0.0117, 0.0, 0.0, 0.0117, 120.35, 10.85)" width="266.8" xlink:href="#font_Arial_g0"/>
        <use fill="#ffffcc" height="31.4" transform="matrix(0.0117, 0.0, 0.0, 0.0117, 127.7, 10.85)" width="266.8" xlink:href="#font_Arial_d0"/>
        <use fill="#ffffcc" height="31.4" transform="matrix(0.0117, 0.0, 0.0, 0.0117, 135.05, 10.85)" width="266.8" xlink:href="#font_Arial_f0"/>
        <use fill="#ffffcc" height="31.4" transform="matrix(0.0117, 0.0, 0.0, 0.0117, 139.05, 10.85)" width="266.8" xlink:href="#font_Arial_g0"/>
        <use fill="#ffffcc" height="31.4" transform="matrix(0.0117, 0.0, 0.0, 0.0117, 146.4, 10.85)" width="266.8" xlink:href="#font_Arial_d0"/>
        <use fill="#ffffcc" height="31.4" transform="matrix(0.0117, 0.0, 0.0, 0.0117, 153.75, 10.85)" width="266.8" xlink:href="#font_Arial_f0"/>
        <use fill="#ffffcc" height="31.4" transform="matrix(0.0117, 0.0, 0.0, 0.0117, 157.75, 10.85)" width="266.8" xlink:href="#font_Arial_g0"/>
      </g>
    </g>
    <g id="font_Arial_g0">
      <path d="M186.0 -276.5 Q186.0 -357.0 219.0 -396.0 251.5 -435.5 302.0 -435.5 354.0 -435.5 388.0 -395.5 422.0 -355.5 422.0 -273.0 422.0 -194.0 386.5 -153.5 351.0 -113.5 299.5 -113.5 251.5 -113.5 219.0 -152.5 186.0 -192.0 186.0 -276.5 M60.5 35.0 Q60.0 45.0 60.0 52.0 60.0 123.0 116.5 169.5 173.0 215.5 308.0 215.5 379.5 215.5 426.5 200.5 473.0 185.5 501.0 159.0 529.0 132.5 544.5 86.0 560.0 39.5 560.0 -54.5 L560.0 -531.0 428.5 -531.0 428.5 -456.5 Q364.5 -543.0 266.0 -543.0 170.5 -543.0 106.5 -472.5 42.0 -402.0 42.0 -268.5 42.0 -162.0 91.0 -90.5 153.5 0.0 260.5 0.0 356.5 0.0 419.5 -86.0 L419.5 -8.5 Q419.5 38.5 413.0 56.0 403.5 80.5 385.0 91.5 357.5 108.0 302.5 108.0 259.5 108.0 239.5 93.0 225.0 82.5 221.0 54.5 L60.5 35.0" fill-rule="evenodd" stroke="none"/>
    </g>
    <g id="font_Arial_f0">
      <path d="M12.0 -531.0 L12.0 -420.5 90.0 -420.5 90.0 0.0 230.5 0.0 230.5 -420.5 335.5 -420.5 335.5 -531.0 230.5 -531.0 230.5 -568.5 Q230.5 -609.0 244.0 -623.0 257.0 -637.5 287.5 -637.5 318.5 -637.5 352.0 -629.5 L371.0 -727.5 Q313.5 -745.5 253.5 -745.5 195.0 -745.5 157.0 -724.5 118.5 -704.0 104.5 -671.0 90.0 -638.0 90.0 -571.0 L90.0 -531.0 12.0 -531.0" fill-rule="evenodd" stroke="none"/>
    </g>
    <g id="text7" transform="matrix(1.0, 0.0, 0.0, 1.0, 4.0, 2.0)">
      <g transform="matrix(1.0, 0.0, 0.0, 1.0, -4.0, -2.0)">
        <use fill="#ffffff" height="269.9" transform="matrix(0.0107, 0.0, 0.0, 0.0107, 0.0, 10.35)" width="127.1" xlink:href="#font_Trebuchet_MS_s0"/>
        <use fill="#ffffff" height="269.9" transform="matrix(0.0107, 0.0, 0.0, 0.0107, 4.45, 10.35)" width="127.1" xlink:href="#font_Trebuchet_MS_d0"/>
        <use fill="#ffffff" height="269.9" transform="matrix(0.0107, 0.0, 0.0, 0.0107, 10.6, 10.35)" width="127.1" xlink:href="#font_Trebuchet_MS_f0"/>
        <use fill="#ffffff" height="269.9" transform="matrix(0.0107, 0.0, 0.0, 0.0107, 14.65, 10.35)" width="127.1" xlink:href="#font_Trebuchet_MS_s0"/>
        <use fill="#ffffff" height="269.9" transform="matrix(0.0107, 0.0, 0.0, 0.0107, 19.1, 10.35)" width="127.1" xlink:href="#font_Trebuchet_MS_d0"/>
        <use fill="#ffffff" height="269.9" transform="matrix(0.0107, 0.0, 0.0, 0.0107, 25.25, 10.35)" width="127.1" xlink:href="#font_Trebuchet_MS_f0"/>
        <use fill="#ffffff" height="269.9" transform="matrix(0.0107, 0.0, 0.0, 0.0107, 29.3, 10.35)" width="127.1" xlink:href="#font_Trebuchet_MS_s0"/>
        <use fill="#ffffff" height="269.9" transform="matrix(0.0107, 0.0, 0.0, 0.0107, 33.75, 10.35)" width="127.1" xlink:href="#font_Trebuchet_MS_d0"/>
        <use fill="#ffffff" height="269.9" transform="matrix(0.0107, 0.0, 0.0, 0.0107, 39.9, 10.35)" width="127.1" xlink:href="#font_Trebuchet_MS_f0"/>
        <use fill="#ffffff" height="269.9" transform="matrix(0.0107, 0.0, 0.0, 0.0107, 43.95, 10.35)" width="127.1" xlink:href="#font_Trebuchet_MS_s0"/>
        <use fill="#ffffff" height="269.9" transform="matrix(0.0107, 0.0, 0.0, 0.0107, 48.4, 10.35)" width="127.1" xlink:href="#font_Trebuchet_MS_d0"/>
        <use fill="#ffffff" height="269.9" transform="matrix(0.0107, 0.0, 0.0, 0.0107, 54.55, 10.35)" width="127.1" xlink:href="#font_Trebuchet_MS_f0"/>
        <use fill="#ffffff" height="269.9" transform="matrix(0.0107, 0.0, 0.0, 0.0107, 58.6, 10.35)" width="127.1" xlink:href="#font_Trebuchet_MS_s0"/>
        <use fill="#ffffff" height="269.9" transform="matrix(0.0107, 0.0, 0.0, 0.0107, 63.05, 10.35)" width="127.1" xlink:href="#font_Trebuchet_MS_d0"/>
        <use fill="#ffffff" height="269.9" transform="matrix(0.0107, 0.0, 0.0, 0.0107, 69.2, 10.35)" width="127.1" xlink:href="#font_Trebuchet_MS_f0"/>
        <use fill="#ffffff" height="269.9" transform="matrix(0.0107, 0.0, 0.0, 0.0107, 73.25, 10.35)" width="127.1" xlink:href="#font_Trebuchet_MS_s0"/>
        <use fill="#ffffff" height="269.9" transform="matrix(0.0107, 0.0, 0.0, 0.0107, 77.7, 10.35)" width="127.1" xlink:href="#font_Trebuchet_MS_d0"/>
        <use fill="#ffffff" height="269.9" transform="matrix(0.0107, 0.0, 0.0, 0.0107, 83.85, 10.35)" width="127.1" xlink:href="#font_Trebuchet_MS_f0"/>
        <use fill="#ffffff" height="269.9" transform="matrix(0.0107, 0.0, 0.0, 0.0107, 87.9, 10.35)" width="127.1" xlink:href="#font_Trebuchet_MS_s0"/>
        <use fill="#ffffff" height="269.9" transform="matrix(0.0107, 0.0, 0.0, 0.0107, 92.35, 10.35)" width="127.1" xlink:href="#font_Trebuchet_MS_d0"/>
      </g>
    </g>
    <g id="font_Trebuchet_MS_s0">
      <path d="M32.5 -32.0 Q107.0 10.0 191.5 10.0 281.0 10.0 331.5 -30.5 382.0 -71.5 382.0 -143.5 382.0 -198.5 353.5 -235.0 325.0 -271.5 262.5 -300.0 L194.5 -331.0 Q136.0 -357.5 136.0 -409.0 136.0 -433.5 159.5 -449.5 182.5 -465.5 216.5 -465.5 273.5 -465.5 330.0 -420.5 L357.0 -508.5 Q268.0 -545.5 209.5 -545.5 132.0 -545.5 84.0 -508.5 36.0 -471.5 36.0 -405.5 36.0 -380.0 44.5 -357.5 52.5 -335.5 69.5 -315.5 86.0 -296.0 109.0 -280.5 131.5 -265.0 197.0 -235.0 282.0 -197.0 282.0 -144.0 282.0 -70.0 194.0 -70.0 145.5 -70.0 66.0 -122.0 L32.5 -32.0" fill-rule="evenodd" stroke="none"/>
    </g>
    <g id="font_Trebuchet_MS_d0">
      <path d="M407.0 -411.5 L407.0 -114.5 Q399.0 -98.5 367.5 -84.0 336.0 -70.0 313.5 -70.0 137.5 -70.0 137.5 -263.5 137.5 -351.5 185.0 -408.5 232.0 -465.5 308.5 -465.5 371.0 -465.5 407.0 -411.5 M407.0 -0.5 L502.0 -0.5 502.0 -755.0 407.0 -755.0 407.0 -506.5 Q364.0 -545.5 281.0 -545.5 181.5 -545.5 109.5 -460.0 37.5 -375.0 37.5 -254.5 37.5 -134.5 100.0 -62.5 162.5 9.5 263.0 9.5 357.5 9.5 407.0 -40.0 L407.0 -0.5" fill-rule="evenodd" stroke="none"/>
    </g>
    <g id="font_Trebuchet_MS_f0">
      <path d="M357.0 -670.0 L383.5 -740.0 Q336.0 -755.0 294.5 -755.0 211.5 -755.0 161.0 -696.5 110.5 -638.0 110.5 -535.5 L32.5 -535.5 32.5 -455.5 110.5 -455.5 110.5 0.0 205.5 0.0 205.5 -455.5 314.5 -455.5 314.5 -535.5 205.5 -535.5 Q203.0 -550.0 203.0 -563.5 203.0 -614.0 231.5 -647.0 259.5 -680.0 303.0 -680.0 328.0 -680.0 357.0 -670.0" fill-rule="evenodd" stroke="none"/>
    </g>
    <g id="text8" transform="matrix(1.0, 0.0, 0.0, 1.0, 1.9, 0.25)">
      <g transform="matrix(1.0, 0.0, 0.0, 1.0, -2.0, -1.2)">
        <use fill="#ffffff" height="24.8" transform="matrix(0.0117, 0.0, 0.0, 0.0117, 0.0, 12.0)" width="53.9" xlink:href="#font_Trebuchet_MS_M0"/>
        <use fill="#ffffff" height="24.8" transform="matrix(0.0117, 0.0, 0.0, 0.0117, 8.5, 12.0)" width="53.9" xlink:href="#font_Trebuchet_MS_e0"/>
        <use fill="#ffffff" height="24.8" transform="matrix(0.0117, 0.0, 0.0, 0.0117, 15.05, 12.0)" width="53.9" xlink:href="#font_Trebuchet_MS_m0"/>
        <use fill="#ffffff" height="24.8" transform="matrix(0.0117, 0.0, 0.0, 0.0117, 25.0, 12.0)" width="53.9" xlink:href="#font_Trebuchet_MS_b0"/>
        <use fill="#ffffff" height="24.8" transform="matrix(0.0117, 0.0, 0.0, 0.0117, 31.7, 12.0)" width="53.9" xlink:href="#font_Trebuchet_MS_e0"/>
        <use fill="#ffffff" height="24.8" transform="matrix(0.0117, 0.0, 0.0, 0.0117, 38.25, 12.0)" width="53.9" xlink:href="#font_Trebuchet_MS_r0"/>
        <use fill="#ffffff" height="24.8" transform="matrix(0.0117, 0.0, 0.0, 0.0117, 42.9, 12.0)" width="53.9" xlink:href="#font_Trebuchet_MS_s0"/>
      </g>
    </g>
    <g id="font_Trebuchet_MS_M0">
      <path d="M626.5 0.0 L721.5 0.0 573.0 -732.5 528.0 -732.5 367.0 -198.0 192.5 -732.5 147.0 -732.5 10.0 0.0 105.0 0.0 190.0 -470.5 354.5 10.0 379.5 10.0 539.5 -470.5 626.5 0.0" fill-rule="evenodd" stroke="none"/>
    </g>
    <g id="font_Trebuchet_MS_e0">
      <path d="M288.0 -465.5 Q356.0 -465.5 395.5 -423.5 431.5 -385.0 431.5 -327.5 L135.0 -327.5 Q140.5 -385.5 181.5 -424.5 224.5 -465.5 288.0 -465.5 M518.5 -258.5 Q526.0 -285.0 526.0 -316.5 526.0 -419.0 463.0 -481.0 398.0 -545.5 283.5 -545.5 185.0 -545.5 113.0 -474.0 32.5 -394.0 32.5 -261.5 32.5 -134.0 111.0 -58.5 181.5 10.0 282.5 10.0 352.5 10.0 409.5 -11.0 455.0 -27.0 477.0 -49.0 L437.0 -117.5 Q382.5 -70.0 301.0 -70.0 229.5 -70.0 184.0 -114.0 132.5 -164.5 132.5 -258.5 L518.5 -258.5" fill-rule="evenodd" stroke="none"/>
    </g>
    <g id="font_Trebuchet_MS_m0">
      <path d="M687.5 0.0 L782.5 0.0 782.5 -358.0 Q782.5 -447.0 737.0 -496.0 691.5 -545.5 608.5 -545.5 562.5 -545.5 519.0 -525.0 475.5 -504.5 459.5 -474.0 413.5 -545.5 298.5 -545.5 216.0 -545.5 161.0 -473.5 L129.5 -535.5 67.5 -535.5 67.5 0.0 162.5 0.0 162.5 -395.0 Q176.0 -421.5 208.5 -443.5 240.5 -465.5 269.0 -465.5 318.0 -465.5 348.0 -442.5 377.5 -420.0 377.5 -380.5 L377.5 0.0 472.5 0.0 472.5 -396.0 Q483.5 -423.0 513.5 -444.0 543.5 -465.5 578.0 -465.5 687.5 -465.5 687.5 -339.0 L687.5 0.0" fill-rule="evenodd" stroke="none"/>
    </g>
    <g id="font_Trebuchet_MS_b0">
      <path d="M162.5 -423.5 Q172.0 -435.5 203.5 -450.5 234.5 -465.5 252.0 -465.5 335.0 -465.5 384.0 -414.5 433.0 -363.5 433.0 -272.5 433.0 -163.0 391.0 -116.5 349.0 -70.0 252.0 -70.0 233.5 -70.0 198.0 -88.0 162.5 -106.5 162.5 -114.5 L162.5 -423.5 M148.5 -38.5 Q167.5 -18.5 204.5 -4.0 241.0 10.0 279.0 10.0 396.0 10.0 464.5 -66.5 533.0 -143.5 533.0 -277.5 533.0 -393.5 465.0 -469.5 396.5 -545.5 286.5 -545.5 250.5 -545.5 213.5 -530.0 176.0 -514.5 162.5 -496.0 L162.5 -755.0 67.5 -755.0 67.5 10.0 115.0 10.0 148.5 -38.5" fill-rule="evenodd" stroke="none"/>
    </g>
    <g id="font_Trebuchet_MS_r0">
      <path d="M358.5 -444.0 L398.0 -536.5 Q350.0 -545.5 324.5 -545.5 222.0 -545.5 170.0 -450.0 L170.0 -535.5 75.0 -535.5 75.0 0.0 170.0 0.0 170.0 -307.0 Q170.0 -372.5 208.0 -419.0 245.5 -465.5 296.0 -465.5 327.5 -465.5 358.5 -444.0" fill-rule="evenodd" stroke="none"/>
    </g>
    <g id="text9" transform="matrix(1.0, 0.0, 0.0, 1.0, 1.55, 1.4)">
      <g transform="matrix(1.0, 0.0, 0.0, 1.0, -2.0, -1.8)">
        <use fill="#ffffcc" height="25.45" transform="matrix(0.0117, 0.0, 0.0, 0.0117, 0.0, 11.0)" width="76.7" xlink:href="#font_Arial_S0"/>
        <use fill="#ffffcc" height="25.45" transform="matrix(0.0117, 0.0, 0.0, 0.0117, 8.0, 11.0)" width="76.7" xlink:href="#font_Arial_q0"/>
        <use fill="#ffffcc" height="25.45" transform="matrix(0.0117, 0.0, 0.0, 0.0117, 15.35, 11.0)" width="76.7" xlink:href="#font_Arial_u0"/>
        <use fill="#ffffcc" height="25.45" transform="matrix(0.0117, 0.0, 0.0, 0.0117, 22.7, 11.0)" width="76.7" xlink:href="#font_Arial_a0"/>
        <use fill="#ffffcc" height="25.45" transform="matrix(0.0117, 0.0, 0.0, 0.0117, 29.35, 11.0)" width="76.7" xlink:href="#font_Arial_d0"/>
        <use fill="#ffffcc" height="25.45" transform="matrix(0.0117, 0.0, 0.0, 0.0117, 40.05, 11.0)" width="76.7" xlink:href="#font_Arial_B0"/>
        <use fill="#ffffcc" height="25.45" transform="matrix(0.0117, 0.0, 0.0, 0.0117, 48.7, 11.0)" width="76.7" xlink:href="#font_Arial_a0"/>
        <use fill="#ffffcc" height="25.45" transform="matrix(0.0117, 0.0, 0.0, 0.0117, 55.35, 11.0)" width="76.7" xlink:href="#font_Arial_s0"/>
        <use fill="#ffffcc" height="25.45" transform="matrix(0.0117, 0.0, 0.0, 0.0117, 62.0, 11.0)" width="76.7" xlink:href="#font_Arial_e0"/>
      </g>
    </g>
    <g id="font_Arial_B0">
      <path d="M223.0 -319.5 L342.5 -319.5 Q443.5 -319.5 474.0 -309.0 504.0 -298.5 520.0 -275.5 536.0 -252.5 536.0 -219.5 536.0 -180.5 515.5 -157.0 494.5 -134.0 461.5 -128.0 440.0 -123.5 360.0 -123.5 L223.0 -123.5 223.0 -319.5 M223.0 -611.0 L308.0 -611.0 Q412.5 -611.0 434.5 -608.5 471.5 -604.0 490.5 -582.5 509.0 -561.5 509.0 -527.5 509.0 -492.0 487.5 -470.0 465.5 -448.5 427.5 -444.0 406.5 -441.5 320.0 -441.5 L223.0 -441.5 223.0 -611.0 M75.0 -733.0 L75.0 0.0 324.5 0.0 Q466.0 -1.0 503.0 -5.0 562.0 -11.5 602.5 -39.5 642.5 -68.0 666.0 -115.0 689.0 -162.5 689.0 -212.5 689.0 -276.0 653.0 -323.0 617.0 -370.0 550.0 -389.5 597.5 -411.0 625.5 -454.0 653.0 -497.0 653.0 -548.5 653.0 -596.0 630.5 -634.0 608.0 -672.5 574.5 -695.5 540.5 -718.5 498.0 -725.5 455.0 -733.0 368.0 -733.0 L75.0 -733.0" fill-rule="evenodd" stroke="none"/>
    </g>
    <g id="text10" transform="matrix(1.0, 0.0, 0.0, 1.0, 4.0, 2.0)">
      <g transform="matrix(1.0, 0.0, 0.0, 1.0, -4.0, -2.0)">
        <use fill="#ffffcc" height="31.4" transform="matrix(0.0117, 0.0, 0.0, 0.0117, 101.65, 10.85)" width="266.8" xlink:href="#font_Arial_g0"/>
        <use fill="#ffffcc" height="31.4" transform="matrix(0.0117, 0.0, 0.0, 0.0117, 109.0, 10.85)" width="266.8" xlink:href="#font_Arial_d0"/>
        <use fill="#ffffcc" height="31.4" transform="matrix(0.0117, 0.0, 0.0, 0.0117, 116.35, 10.85)" width="266.8" xlink:href="#font_Arial_f0"/>
        <use fill="#ffffcc" height="31.4" transform="matrix(0.0117, 0.0, 0.0, 0.0117, 120.35, 10.85)" width="266.8" xlink:href="#font_Arial_g0"/>
        <use fill="#ffffcc" height="31.4" transform="matrix(0.0117, 0.0, 0.0, 0.0117, 127.7, 10.85)" width="266.8" xlink:href="#font_Arial_d0"/>
        <use fill="#ffffcc" height="31.4" transform="matrix(0.0117, 0.0, 0.0, 0.0117, 135.05, 10.85)" width="266.8" xlink:href="#font_Arial_f0"/>
        <use fill="#ffffcc" height="31.4" transform="matrix(0.0117, 0.0, 0.0, 0.0117, 139.05, 10.85)" width="266.8" xlink:href="#font_Arial_g0"/>
        <use fill="#ffffcc" height="31.4" transform="matrix(0.0117, 0.0, 0.0, 0.0117, 146.4, 10.85)" width="266.8" xlink:href="#font_Arial_d0"/>
        <use fill="#ffffcc" height="31.4" transform="matrix(0.0117, 0.0, 0.0, 0.0117, 153.75, 10.85)" width="266.8" xlink:href="#font_Arial_f0"/>
        <use fill="#ffffcc" height="31.4" transform="matrix(0.0117, 0.0, 0.0, 0.0117, 157.75, 10.85)" width="266.8" xlink:href="#font_Arial_g0"/>
      </g>
    </g>
    <g id="text11" transform="matrix(1.0, 0.0, 0.0, 1.0, 1.55, 1.4)">
      <g transform="matrix(1.0, 0.0, 0.0, 1.0, -2.0, -1.8)">
        <use fill="#ffffcc" height="25.45" transform="matrix(0.0117, 0.0, 0.0, 0.0117, 0.0, 11.0)" width="98.7" xlink:href="#font_Arial_S0"/>
        <use fill="#ffffcc" height="25.45" transform="matrix(0.0117, 0.0, 0.0, 0.0117, 8.0, 11.0)" width="98.7" xlink:href="#font_Arial_q0"/>
        <use fill="#ffffcc" height="25.45" transform="matrix(0.0117, 0.0, 0.0, 0.0117, 15.35, 11.0)" width="98.7" xlink:href="#font_Arial_u0"/>
        <use fill="#ffffcc" height="25.45" transform="matrix(0.0117, 0.0, 0.0, 0.0117, 22.7, 11.0)" width="98.7" xlink:href="#font_Arial_a0"/>
        <use fill="#ffffcc" height="25.45" transform="matrix(0.0117, 0.0, 0.0, 0.0117, 29.35, 11.0)" width="98.7" xlink:href="#font_Arial_d0"/>
        <use fill="#ffffcc" height="25.45" transform="matrix(0.0117, 0.0, 0.0, 0.0117, 40.05, 11.0)" width="98.7" xlink:href="#font_Arial_M0"/>
        <use fill="#ffffcc" height="25.45" transform="matrix(0.0117, 0.0, 0.0, 0.0117, 50.05, 11.0)" width="98.7" xlink:href="#font_Arial_e0"/>
        <use fill="#ffffcc" height="25.45" transform="matrix(0.0117, 0.0, 0.0, 0.0117, 56.7, 11.0)" width="98.7" xlink:href="#font_Arial_s0"/>
        <use fill="#ffffcc" height="25.45" transform="matrix(0.0117, 0.0, 0.0, 0.0117, 63.35, 11.0)" width="98.7" xlink:href="#font_Arial_s0"/>
        <use fill="#ffffcc" height="25.45" transform="matrix(0.0117, 0.0, 0.0, 0.0117, 70.0, 11.0)" width="98.7" xlink:href="#font_Arial_a0"/>
        <use fill="#ffffcc" height="25.45" transform="matrix(0.0117, 0.0, 0.0, 0.0117, 76.65, 11.0)" width="98.7" xlink:href="#font_Arial_g0"/>
        <use fill="#ffffcc" height="25.45" transform="matrix(0.0117, 0.0, 0.0, 0.0117, 84.0, 11.0)" width="98.7" xlink:href="#font_Arial_e0"/>
      </g>
    </g>
    <g id="font_Arial_M0">
      <path d="M72.5 0.0 L210.0 0.0 210.0 -577.0 355.0 0.0 497.5 0.0 643.0 -577.0 643.0 0.0 780.5 0.0 780.5 -733.0 558.5 -733.0 427.0 -233.0 294.0 -733.0 72.5 -733.0 72.5 0.0" fill-rule="evenodd" stroke="none"/>
    </g>
    <g id="text12" transform="matrix(1.0, 0.0, 0.0, 1.0, 4.0, 2.0)">
      <g transform="matrix(1.0, 0.0, 0.0, 1.0, -4.0, -2.0)">
        <use fill="#ffffff" height="70.75" transform="matrix(0.0117, 0.0, 0.0, 0.0117, 0.0, 10.85)" width="447.75" xlink:href="#font_Arial_E0"/>
        <use fill="#ffffff" height="70.75" transform="matrix(0.0117, 0.0, 0.0, 0.0117, 8.0, 10.85)" width="447.75" xlink:href="#font_Arial_n0"/>
        <use fill="#ffffff" height="70.75" transform="matrix(0.0117, 0.0, 0.0, 0.0117, 15.35, 10.85)" width="447.75" xlink:href="#font_Arial_t0"/>
        <use fill="#ffffff" height="70.75" transform="matrix(0.0117, 0.0, 0.0, 0.0117, 19.35, 10.85)" width="447.75" xlink:href="#font_Arial_e0"/>
        <use fill="#ffffff" height="70.75" transform="matrix(0.0117, 0.0, 0.0, 0.0117, 26.05, 10.85)" width="447.75" xlink:href="#font_Arial_r0"/>
      </g>
      <g transform="matrix(1.0, 0.0, 0.0, 1.0, -4.0, -2.0)">
        <use fill="#ffffff" height="70.75" transform="matrix(0.0117, 0.0, 0.0, 0.0117, 34.1, 10.85)" width="447.75" xlink:href="#font_Arial_L0"/>
        <use fill="#ffffff" height="70.75" transform="matrix(0.0117, 0.0, 0.0, 0.0117, 41.45, 10.85)" width="447.75" xlink:href="#font_Arial_o0"/>
        <use fill="#ffffff" height="70.75" transform="matrix(0.0117, 0.0, 0.0, 0.0117, 48.8, 10.85)" width="447.75" xlink:href="#font_Arial_c0"/>
        <use fill="#ffffff" height="70.75" transform="matrix(0.0117, 0.0, 0.0, 0.0117, 55.5, 10.85)" width="447.75" xlink:href="#font_Arial_a0"/>
        <use fill="#ffffff" height="70.75" transform="matrix(0.0117, 0.0, 0.0, 0.0117, 62.2, 10.85)" width="447.75" xlink:href="#font_Arial_t0"/>
        <use fill="#ffffff" height="70.75" transform="matrix(0.0117, 0.0, 0.0, 0.0117, 66.2, 10.85)" width="447.75" xlink:href="#font_Arial_i0"/>
        <use fill="#ffffff" height="70.75" transform="matrix(0.0117, 0.0, 0.0, 0.0117, 69.55, 10.85)" width="447.75" xlink:href="#font_Arial_o0"/>
        <use fill="#ffffff" height="70.75" transform="matrix(0.0117, 0.0, 0.0, 0.0117, 76.9, 10.85)" width="447.75" xlink:href="#font_Arial_n0"/>
        <use fill="#ffffff" height="70.75" transform="matrix(0.0117, 0.0, 0.0, 0.0117, 84.25, 10.85)" width="447.75" xlink:href="#font_Arial_:0"/>
      </g>
      <g transform="matrix(1.0, 0.0, 0.0, 1.0, -4.0, -2.0)">
        <use fill="#ffffff" height="70.75" transform="matrix(0.0117, 0.0, 0.0, 0.0117, 0.0, 24.25)" width="447.75" xlink:href="#font_Arial_s0"/>
        <use fill="#ffffff" height="70.75" transform="matrix(0.0117, 0.0, 0.0, 0.0117, 6.7, 24.25)" width="447.75" xlink:href="#font_Arial_d0"/>
        <use fill="#ffffff" height="70.75" transform="matrix(0.0117, 0.0, 0.0, 0.0117, 14.05, 24.25)" width="447.75" xlink:href="#font_Arial_f0"/>
        <use fill="#ffffff" height="70.75" transform="matrix(0.0117, 0.0, 0.0, 0.0117, 18.05, 24.25)" width="447.75" xlink:href="#font_Arial_s0"/>
        <use fill="#ffffff" height="70.75" transform="matrix(0.0117, 0.0, 0.0, 0.0117, 24.75, 24.25)" width="447.75" xlink:href="#font_Arial_d0"/>
        <use fill="#ffffff" height="70.75" transform="matrix(0.0117, 0.0, 0.0, 0.0117, 32.1, 24.25)" width="447.75" xlink:href="#font_Arial_f0"/>
        <use fill="#ffffff" height="70.75" transform="matrix(0.0117, 0.0, 0.0, 0.0117, 36.1, 24.25)" width="447.75" xlink:href="#font_Arial_s0"/>
        <use fill="#ffffff" height="70.75" transform="matrix(0.0117, 0.0, 0.0, 0.0117, 42.8, 24.25)" width="447.75" xlink:href="#font_Arial_d0"/>
        <use fill="#ffffff" height="70.75" transform="matrix(0.0117, 0.0, 0.0, 0.0117, 50.15, 24.25)" width="447.75" xlink:href="#font_Arial_f0"/>
      </g>
      <g transform="matrix(1.0, 0.0, 0.0, 1.0, -4.0, -2.0)">
        <use fill="#ffffff" height="70.75" transform="matrix(0.0117, 0.0, 0.0, 0.0117, 0.0, 37.65)" width="447.75" xlink:href="#font_Arial_s0"/>
        <use fill="#ffffff" height="70.75" transform="matrix(0.0117, 0.0, 0.0, 0.0117, 6.7, 37.65)" width="447.75" xlink:href="#font_Arial_d0"/>
        <use fill="#ffffff" height="70.75" transform="matrix(0.0117, 0.0, 0.0, 0.0117, 14.05, 37.65)" width="447.75" xlink:href="#font_Arial_f0"/>
        <use fill="#ffffff" height="70.75" transform="matrix(0.0117, 0.0, 0.0, 0.0117, 18.05, 37.65)" width="447.75" xlink:href="#font_Arial_s0"/>
        <use fill="#ffffff" height="70.75" transform="matrix(0.0117, 0.0, 0.0, 0.0117, 24.75, 37.65)" width="447.75" xlink:href="#font_Arial_d0"/>
        <use fill="#ffffff" height="70.75" transform="matrix(0.0117, 0.0, 0.0, 0.0117, 32.1, 37.65)" width="447.75" xlink:href="#font_Arial_f0"/>
        <use fill="#ffffff" height="70.75" transform="matrix(0.0117, 0.0, 0.0, 0.0117, 36.1, 37.65)" width="447.75" xlink:href="#font_Arial_s0"/>
        <use fill="#ffffff" height="70.75" transform="matrix(0.0117, 0.0, 0.0, 0.0117, 42.8, 37.65)" width="447.75" xlink:href="#font_Arial_d0"/>
      </g>
      <g transform="matrix(1.0, 0.0, 0.0, 1.0, -4.0, -2.0)">
        <use fill="#ffffff" height="70.75" transform="matrix(0.0117, 0.0, 0.0, 0.0117, 0.0, 51.05)" width="447.75" xlink:href="#font_Arial_10"/>
        <use fill="#ffffff" height="70.75" transform="matrix(0.0117, 0.0, 0.0, 0.0117, 6.7, 51.05)" width="447.75" xlink:href="#font_Arial_20"/>
        <use fill="#ffffff" height="70.75" transform="matrix(0.0117, 0.0, 0.0, 0.0117, 13.4, 51.05)" width="447.75" xlink:href="#font_Arial_30"/>
        <use fill="#ffffff" height="70.75" transform="matrix(0.0117, 0.0, 0.0, 0.0117, 20.1, 51.05)" width="447.75" xlink:href="#font_Arial_40"/>
        <use fill="#ffffff" height="70.75" transform="matrix(0.0117, 0.0, 0.0, 0.0117, 26.8, 51.05)" width="447.75" xlink:href="#font_Arial_50"/>
        <use fill="#ffffff" height="70.75" transform="matrix(0.0117, 0.0, 0.0, 0.0117, 33.5, 51.05)" width="447.75" xlink:href="#font_Arial_60"/>
        <use fill="#ffffff" height="70.75" transform="matrix(0.0117, 0.0, 0.0, 0.0117, 40.2, 51.05)" width="447.75" xlink:href="#font_Arial_70"/>
        <use fill="#ffffff" height="70.75" transform="matrix(0.0117, 0.0, 0.0, 0.0117, 46.9, 51.05)" width="447.75" xlink:href="#font_Arial_80"/>
        <use fill="#ffffff" height="70.75" transform="matrix(0.0117, 0.0, 0.0, 0.0117, 53.6, 51.05)" width="447.75" xlink:href="#font_Arial_90"/>
        <use fill="#ffffff" height="70.75" transform="matrix(0.0117, 0.0, 0.0, 0.0117, 60.3, 51.05)" width="447.75" xlink:href="#font_Arial_00"/>
        <use fill="#ffffff" height="70.75" transform="matrix(0.0117, 0.0, 0.0, 0.0117, 67.0, 51.05)" width="447.75" xlink:href="#font_Arial_10"/>
        <use fill="#ffffff" height="70.75" transform="matrix(0.0117, 0.0, 0.0, 0.0117, 73.7, 51.05)" width="447.75" xlink:href="#font_Arial_20"/>
        <use fill="#ffffff" height="70.75" transform="matrix(0.0117, 0.0, 0.0, 0.0117, 80.4, 51.05)" width="447.75" xlink:href="#font_Arial_30"/>
        <use fill="#ffffff" height="70.75" transform="matrix(0.0117, 0.0, 0.0, 0.0117, 87.1, 51.05)" width="447.75" xlink:href="#font_Arial_40"/>
        <use fill="#ffffff" height="70.75" transform="matrix(0.0117, 0.0, 0.0, 0.0117, 93.8, 51.05)" width="447.75" xlink:href="#font_Arial_50"/>
        <use fill="#ffffff" height="70.75" transform="matrix(0.0117, 0.0, 0.0, 0.0117, 100.5, 51.05)" width="447.75" xlink:href="#font_Arial_60"/>
        <use fill="#ffffff" height="70.75" transform="matrix(0.0117, 0.0, 0.0, 0.0117, 107.2, 51.05)" width="447.75" xlink:href="#font_Arial_70"/>
        <use fill="#ffffff" height="70.75" transform="matrix(0.0117, 0.0, 0.0, 0.0117, 113.9, 51.05)" width="447.75" xlink:href="#font_Arial_80"/>
        <use fill="#ffffff" height="70.75" transform="matrix(0.0117, 0.0, 0.0, 0.0117, 120.6, 51.05)" width="447.75" xlink:href="#font_Arial_90"/>
        <use fill="#ffffff" height="70.75" transform="matrix(0.0117, 0.0, 0.0, 0.0117, 127.3, 51.05)" width="447.75" xlink:href="#font_Arial_00"/>
        <use fill="#ffffff" height="70.75" transform="matrix(0.0117, 0.0, 0.0, 0.0117, 134.0, 51.05)" width="447.75" xlink:href="#font_Arial_10"/>
        <use fill="#ffffff" height="70.75" transform="matrix(0.0117, 0.0, 0.0, 0.0117, 140.7, 51.05)" width="447.75" xlink:href="#font_Arial_20"/>
        <use fill="#ffffff" height="70.75" transform="matrix(0.0117, 0.0, 0.0, 0.0117, 147.4, 51.05)" width="447.75" xlink:href="#font_Arial_30"/>
        <use fill="#ffffff" height="70.75" transform="matrix(0.0117, 0.0, 0.0, 0.0117, 154.1, 51.05)" width="447.75" xlink:href="#font_Arial_40"/>
        <use fill="#ffffff" height="70.75" transform="matrix(0.0117, 0.0, 0.0, 0.0117, 160.8, 51.05)" width="447.75" xlink:href="#font_Arial_50"/>
        <use fill="#ffffff" height="70.75" transform="matrix(0.0117, 0.0, 0.0, 0.0117, 167.5, 51.05)" width="447.75" xlink:href="#font_Arial_60"/>
        <use fill="#ffffff" height="70.75" transform="matrix(0.0117, 0.0, 0.0, 0.0117, 174.2, 51.05)" width="447.75" xlink:href="#font_Arial_70"/>
        <use fill="#ffffff" height="70.75" transform="matrix(0.0117, 0.0, 0.0, 0.0117, 180.9, 51.05)" width="447.75" xlink:href="#font_Arial_80"/>
        <use fill="#ffffff" height="70.75" transform="matrix(0.0117, 0.0, 0.0, 0.0117, 187.6, 51.05)" width="447.75" xlink:href="#font_Arial_90"/>
        <use fill="#ffffff" height="70.75" transform="matrix(0.0117, 0.0, 0.0, 0.0117, 194.3, 51.05)" width="447.75" xlink:href="#font_Arial_00"/>
        <use fill="#ffffff" height="70.75" transform="matrix(0.0117, 0.0, 0.0, 0.0117, 201.0, 51.05)" width="447.75" xlink:href="#font_Arial_10"/>
        <use fill="#ffffff" height="70.75" transform="matrix(0.0117, 0.0, 0.0, 0.0117, 207.7, 51.05)" width="447.75" xlink:href="#font_Arial_20"/>
        <use fill="#ffffff" height="70.75" transform="matrix(0.0117, 0.0, 0.0, 0.0117, 214.4, 51.05)" width="447.75" xlink:href="#font_Arial_30"/>
        <use fill="#ffffff" height="70.75" transform="matrix(0.0117, 0.0, 0.0, 0.0117, 221.1, 51.05)" width="447.75" xlink:href="#font_Arial_40"/>
        <use fill="#ffffff" height="70.75" transform="matrix(0.0117, 0.0, 0.0, 0.0117, 227.8, 51.05)" width="447.75" xlink:href="#font_Arial_50"/>
        <use fill="#ffffff" height="70.75" transform="matrix(0.0117, 0.0, 0.0, 0.0117, 234.5, 51.05)" width="447.75" xlink:href="#font_Arial_60"/>
        <use fill="#ffffff" height="70.75" transform="matrix(0.0117, 0.0, 0.0, 0.0117, 241.2, 51.05)" width="447.75" xlink:href="#font_Arial_70"/>
        <use fill="#ffffff" height="70.75" transform="matrix(0.0117, 0.0, 0.0, 0.0117, 247.9, 51.05)" width="447.75" xlink:href="#font_Arial_80"/>
        <use fill="#ffffff" height="70.75" transform="matrix(0.0117, 0.0, 0.0, 0.0117, 254.6, 51.05)" width="447.75" xlink:href="#font_Arial_90"/>
        <use fill="#ffffff" height="70.75" transform="matrix(0.0117, 0.0, 0.0, 0.0117, 261.3, 51.05)" width="447.75" xlink:href="#font_Arial_00"/>
        <use fill="#ffffff" height="70.75" transform="matrix(0.0117, 0.0, 0.0, 0.0117, 268.0, 51.05)" width="447.75" xlink:href="#font_Arial_10"/>
        <use fill="#ffffff" height="70.75" transform="matrix(0.0117, 0.0, 0.0, 0.0117, 274.7, 51.05)" width="447.75" xlink:href="#font_Arial_20"/>
        <use fill="#ffffff" height="70.75" transform="matrix(0.0117, 0.0, 0.0, 0.0117, 281.4, 51.05)" width="447.75" xlink:href="#font_Arial_30"/>
        <use fill="#ffffff" height="70.75" transform="matrix(0.0117, 0.0, 0.0, 0.0117, 288.1, 51.05)" width="447.75" xlink:href="#font_Arial_40"/>
        <use fill="#ffffff" height="70.75" transform="matrix(0.0117, 0.0, 0.0, 0.0117, 294.8, 51.05)" width="447.75" xlink:href="#font_Arial_50"/>
        <use fill="#ffffff" height="70.75" transform="matrix(0.0117, 0.0, 0.0, 0.0117, 301.5, 51.05)" width="447.75" xlink:href="#font_Arial_60"/>
        <use fill="#ffffff" height="70.75" transform="matrix(0.0117, 0.0, 0.0, 0.0117, 308.2, 51.05)" width="447.75" xlink:href="#font_Arial_70"/>
        <use fill="#ffffff" height="70.75" transform="matrix(0.0117, 0.0, 0.0, 0.0117, 314.9, 51.05)" width="447.75" xlink:href="#font_Arial_80"/>
        <use fill="#ffffff" height="70.75" transform="matrix(0.0117, 0.0, 0.0, 0.0117, 321.6, 51.05)" width="447.75" xlink:href="#font_Arial_90"/>
        <use fill="#ffffff" height="70.75" transform="matrix(0.0117, 0.0, 0.0, 0.0117, 328.3, 51.05)" width="447.75" xlink:href="#font_Arial_00"/>
        <use fill="#ffffff" height="70.75" transform="matrix(0.0117, 0.0, 0.0, 0.0117, 335.0, 51.05)" width="447.75" xlink:href="#font_Arial_10"/>
        <use fill="#ffffff" height="70.75" transform="matrix(0.0117, 0.0, 0.0, 0.0117, 341.7, 51.05)" width="447.75" xlink:href="#font_Arial_20"/>
        <use fill="#ffffff" height="70.75" transform="matrix(0.0117, 0.0, 0.0, 0.0117, 348.4, 51.05)" width="447.75" xlink:href="#font_Arial_30"/>
        <use fill="#ffffff" height="70.75" transform="matrix(0.0117, 0.0, 0.0, 0.0117, 355.1, 51.05)" width="447.75" xlink:href="#font_Arial_40"/>
        <use fill="#ffffff" height="70.75" transform="matrix(0.0117, 0.0, 0.0, 0.0117, 361.8, 51.05)" width="447.75" xlink:href="#font_Arial_50"/>
        <use fill="#ffffff" height="70.75" transform="matrix(0.0117, 0.0, 0.0, 0.0117, 368.5, 51.05)" width="447.75" xlink:href="#font_Arial_60"/>
        <use fill="#ffffff" height="70.75" transform="matrix(0.0117, 0.0, 0.0, 0.0117, 375.2, 51.05)" width="447.75" xlink:href="#font_Arial_70"/>
        <use fill="#ffffff" height="70.75" transform="matrix(0.0117, 0.0, 0.0, 0.0117, 381.9, 51.05)" width="447.75" xlink:href="#font_Arial_80"/>
        <use fill="#ffffff" height="70.75" transform="matrix(0.0117, 0.0, 0.0, 0.0117, 388.6, 51.05)" width="447.75" xlink:href="#font_Arial_90"/>
        <use fill="#ffffff" height="70.75" transform="matrix(0.0117, 0.0, 0.0, 0.0117, 395.3, 51.05)" width="447.75" xlink:href="#font_Arial_00"/>
      </g>
    </g>
    <g id="font_Arial_E0">
      <path d="M74.5 0.0 L632.0 0.0 632.0 -123.5 222.5 -123.5 222.5 -323.0 590.5 -323.0 590.5 -446.5 222.5 -446.5 222.5 -609.0 618.0 -609.0 618.0 -733.0 74.5 -733.0 74.5 0.0" fill-rule="evenodd" stroke="none"/>
    </g>
    <g id="font_Arial_L0">
      <path d="M78.5 0.0 L594.5 0.0 594.5 -123.5 226.5 -123.5 226.5 -727.0 78.5 -727.0 78.5 0.0" fill-rule="evenodd" stroke="none"/>
    </g>
    <g id="font_Arial_10">
      <path d="M403.0 0.0 L403.0 -736.0 289.0 -736.0 Q265.0 -669.0 200.5 -618.5 136.0 -568.5 81.0 -550.5 L81.0 -423.0 Q185.5 -457.5 262.5 -529.5 L262.5 0.0 403.0 0.0" fill-rule="evenodd" stroke="none"/>
    </g>
    <g id="font_Arial_20">
      <path d="M518.0 -130.5 L239.0 -130.5 Q250.0 -149.5 268.0 -169.5 285.5 -189.5 352.0 -250.5 418.5 -311.5 444.0 -344.0 482.5 -393.0 500.5 -437.5 518.0 -482.5 518.0 -532.0 518.0 -619.0 456.0 -677.5 394.0 -736.0 285.5 -736.0 186.5 -736.0 120.5 -685.5 54.5 -635.0 42.0 -519.0 L182.0 -505.0 Q186.0 -566.5 212.0 -593.0 238.0 -619.5 282.0 -619.5 326.5 -619.5 352.0 -594.0 377.0 -569.0 377.0 -522.0 377.0 -479.5 348.0 -436.0 326.5 -404.5 231.5 -316.0 113.5 -206.5 73.5 -140.0 33.5 -74.0 25.5 0.0 L518.0 0.0 518.0 -130.5" fill-rule="evenodd" stroke="none"/>
    </g>
    <g id="font_Arial_30">
      <path d="M38.5 -194.5 Q49.0 -102.0 114.5 -44.5 180.0 12.5 279.5 12.5 384.5 12.5 455.0 -55.5 525.5 -123.5 525.5 -220.0 525.5 -286.5 488.0 -333.5 450.0 -380.5 387.0 -394.0 492.5 -451.5 492.5 -548.0 492.5 -616.0 441.0 -670.0 378.5 -736.0 275.0 -736.0 214.5 -736.0 166.0 -713.0 117.0 -690.5 90.0 -650.5 62.5 -611.0 49.0 -544.5 L178.5 -522.5 Q184.0 -570.5 209.5 -595.5 235.0 -620.5 271.0 -620.5 307.5 -620.5 329.5 -598.5 351.5 -576.5 351.5 -539.5 351.5 -496.0 321.5 -469.5 291.5 -443.5 234.5 -445.0 L219.0 -330.5 Q256.5 -341.0 283.5 -341.0 324.5 -341.0 353.0 -310.0 381.5 -279.0 381.5 -226.0 381.5 -170.0 352.0 -137.0 322.0 -104.0 278.5 -104.0 238.0 -104.0 209.5 -131.5 181.0 -159.0 174.5 -211.0 L38.5 -194.5" fill-rule="evenodd" stroke="none"/>
    </g>
    <g id="font_Arial_40">
      <path d="M319.0 -271.0 L150.5 -271.0 319.0 -521.5 319.0 -271.0 M319.0 0.0 L455.0 0.0 455.0 -147.5 546.0 -147.5 546.0 -271.0 455.0 -271.0 455.0 -736.0 337.0 -736.0 19.0 -270.5 19.0 -147.5 319.0 -147.5 319.0 0.0" fill-rule="evenodd" stroke="none"/>
    </g>
    <g id="font_Arial_50">
      <path d="M45.5 -188.5 Q58.0 -96.5 122.0 -42.0 186.0 12.5 287.5 12.5 414.5 12.5 486.0 -84.5 538.5 -155.5 538.5 -246.0 538.5 -354.5 473.5 -422.5 408.5 -490.5 315.0 -490.5 266.0 -490.5 219.0 -467.0 L241.0 -591.5 506.0 -591.5 506.0 -723.0 134.5 -723.0 62.5 -341.5 176.5 -325.0 Q224.5 -378.5 285.0 -378.5 333.5 -378.5 364.0 -344.5 394.0 -311.0 394.0 -243.5 394.0 -171.5 363.5 -135.5 333.0 -100.0 289.0 -100.0 250.5 -100.0 221.0 -127.5 191.5 -155.5 185.5 -203.0 L45.5 -188.5" fill-rule="evenodd" stroke="none"/>
    </g>
    <g id="font_Arial_60">
      <path d="M201.0 -247.0 Q201.0 -309.0 229.0 -340.5 257.0 -372.5 297.5 -372.5 339.5 -372.5 367.5 -339.0 395.5 -306.0 395.5 -234.5 395.5 -165.0 369.5 -134.5 343.5 -104.0 304.5 -104.0 264.0 -104.0 232.5 -141.0 201.0 -178.5 201.0 -247.0 M519.5 -553.5 Q504.5 -642.5 450.0 -689.0 395.0 -736.0 311.5 -736.0 192.5 -736.0 118.0 -647.0 43.5 -558.0 43.5 -356.5 43.5 -160.0 115.0 -73.5 186.5 12.5 297.5 12.5 401.0 12.5 467.0 -55.5 533.0 -123.5 533.0 -236.0 533.0 -342.0 470.5 -409.0 407.5 -476.0 319.5 -476.0 241.5 -476.0 189.0 -414.0 197.0 -540.5 228.0 -580.5 258.5 -620.5 303.0 -620.5 336.5 -620.5 357.5 -600.5 378.5 -580.5 383.5 -538.5 L519.5 -553.5" fill-rule="evenodd" stroke="none"/>
    </g>
    <g id="font_Arial_70">
      <path d="M43.5 -592.5 L363.0 -592.5 Q264.0 -468.0 205.0 -310.0 145.5 -152.0 142.0 0.0 L277.5 0.0 Q277.0 -97.0 309.5 -220.0 341.5 -343.5 403.0 -453.0 464.5 -562.5 524.0 -621.0 L524.0 -723.0 43.5 -723.0 43.5 -592.5" fill-rule="evenodd" stroke="none"/>
    </g>
    <g id="font_Arial_80">
      <path d="M180.0 -223.0 Q180.0 -264.5 205.5 -300.0 230.5 -335.5 282.0 -335.5 326.5 -335.5 355.5 -304.0 384.5 -273.0 384.5 -221.5 384.5 -162.5 356.0 -131.0 327.5 -100.0 284.0 -100.0 239.5 -100.0 210.0 -132.5 180.0 -165.0 180.0 -223.0 M193.0 -537.0 Q193.0 -576.5 217.0 -600.5 241.0 -624.5 281.5 -624.5 320.5 -624.5 344.5 -600.5 368.0 -577.0 368.0 -537.5 368.0 -495.5 344.0 -471.5 320.0 -448.0 280.0 -448.0 240.5 -448.0 217.0 -471.5 193.0 -495.0 193.0 -537.0 M164.0 -395.5 Q100.5 -368.5 71.0 -318.5 41.5 -269.0 41.5 -209.5 41.5 -101.5 120.0 -39.5 186.5 13.0 286.5 13.0 394.0 13.0 459.0 -50.5 523.5 -114.0 523.5 -215.5 523.5 -277.0 492.0 -324.0 460.0 -371.0 399.0 -395.5 447.0 -416.5 473.5 -456.0 500.0 -496.0 500.0 -547.0 500.0 -629.0 442.5 -682.5 384.5 -736.0 280.0 -736.0 174.5 -736.0 117.5 -682.5 60.0 -629.0 60.0 -547.0 60.0 -499.0 85.0 -458.5 109.5 -418.5 164.0 -395.5" fill-rule="evenodd" stroke="none"/>
    </g>
    <g id="font_Arial_90">
      <path d="M364.5 -476.5 Q364.5 -414.5 337.0 -382.5 309.0 -350.5 268.5 -350.5 226.5 -350.5 198.5 -383.5 170.5 -417.0 170.5 -488.0 170.5 -558.0 196.5 -588.5 222.0 -619.5 261.0 -619.5 302.0 -619.5 333.5 -582.0 364.5 -544.5 364.5 -476.5 M46.5 -169.5 Q61.5 -78.5 114.5 -32.5 167.5 13.0 253.5 13.0 373.0 13.0 447.5 -76.0 522.0 -165.0 522.0 -366.0 522.0 -563.5 450.5 -649.5 379.0 -736.0 267.5 -736.0 165.0 -736.0 99.0 -667.5 32.5 -599.5 32.5 -488.0 32.5 -381.0 95.5 -314.0 158.0 -247.5 244.5 -247.5 324.0 -247.5 377.0 -309.0 368.5 -183.0 338.0 -143.0 307.5 -103.0 264.0 -103.0 229.5 -103.0 208.5 -123.0 187.5 -143.0 182.5 -184.5 L46.5 -169.5" fill-rule="evenodd" stroke="none"/>
    </g>
    <g id="font_Arial_00">
      <path d="M281.0 -619.5 Q306.5 -619.5 326.5 -603.0 346.0 -587.0 359.0 -538.5 372.0 -490.5 372.0 -361.5 372.0 -232.5 357.5 -178.5 346.5 -136.5 326.5 -120.0 306.5 -104.0 281.0 -104.0 255.5 -104.0 236.0 -120.0 216.0 -136.0 203.0 -184.0 190.0 -232.5 190.0 -361.5 190.0 -490.5 204.5 -545.0 215.5 -587.0 235.5 -603.0 255.5 -619.5 281.0 -619.5 M281.0 -736.0 Q174.5 -736.0 115.0 -661.0 43.0 -570.0 43.0 -363.0 43.0 -152.0 108.5 -69.5 174.0 12.5 281.0 12.5 387.5 12.5 447.0 -62.5 519.0 -153.5 519.0 -361.5 519.0 -570.0 447.5 -660.0 387.5 -736.0 281.0 -736.0" fill-rule="evenodd" stroke="none"/>
    </g>
    <g id="text13" transform="matrix(1.0, 0.0, 0.0, 1.0, 4.0, 2.0)">
      <g transform="matrix(1.0, 0.0, 0.0, 1.0, -4.0, -2.0)">
        <use fill="#ffffff" height="30.7" transform="matrix(0.0117, 0.0, 0.0, 0.0117, 37.65, 10.85)" width="199.7" xlink:href="#font_Arial_S1"/>
        <use fill="#ffffff" height="30.7" transform="matrix(0.0117, 0.0, 0.0, 0.0117, 45.65, 10.85)" width="199.7" xlink:href="#font_Arial_q1"/>
        <use fill="#ffffff" height="30.7" transform="matrix(0.0117, 0.0, 0.0, 0.0117, 52.35, 10.85)" width="199.7" xlink:href="#font_Arial_u1"/>
        <use fill="#ffffff" height="30.7" transform="matrix(0.0117, 0.0, 0.0, 0.0117, 59.05, 10.85)" width="199.7" xlink:href="#font_Arial_a1"/>
        <use fill="#ffffff" height="30.7" transform="matrix(0.0117, 0.0, 0.0, 0.0117, 65.75, 10.85)" width="199.7" xlink:href="#font_Arial_d1"/>
        <use fill="#ffffff" height="30.7" transform="matrix(0.0117, 0.0, 0.0, 0.0117, 72.45, 10.85)" width="199.7" xlink:href="#font_Arial_M1"/>
        <use fill="#ffffff" height="30.7" transform="matrix(0.0117, 0.0, 0.0, 0.0117, 82.45, 10.85)" width="199.7" xlink:href="#font_Arial_e1"/>
        <use fill="#ffffff" height="30.7" transform="matrix(0.0117, 0.0, 0.0, 0.0117, 89.15, 10.85)" width="199.7" xlink:href="#font_Arial_s1"/>
        <use fill="#ffffff" height="30.7" transform="matrix(0.0117, 0.0, 0.0, 0.0117, 95.15, 10.85)" width="199.7" xlink:href="#font_Arial_s1"/>
        <use fill="#ffffff" height="30.7" transform="matrix(0.0117, 0.0, 0.0, 0.0117, 101.15, 10.85)" width="199.7" xlink:href="#font_Arial_a1"/>
        <use fill="#ffffff" height="30.7" transform="matrix(0.0117, 0.0, 0.0, 0.0117, 107.85, 10.85)" width="199.7" xlink:href="#font_Arial_g1"/>
        <use fill="#ffffff" height="30.7" transform="matrix(0.0117, 0.0, 0.0, 0.0117, 114.55, 10.85)" width="199.7" xlink:href="#font_Arial_e1"/>
        <use fill="#ffffff" height="30.7" transform="matrix(0.0117, 0.0, 0.0, 0.0117, 121.25, 10.85)" width="199.7" xlink:href="#font_Arial_I0"/>
        <use fill="#ffffff" height="30.7" transform="matrix(0.0117, 0.0, 0.0, 0.0117, 124.6, 10.85)" width="199.7" xlink:href="#font_Arial_n1"/>
        <use fill="#ffffff" height="30.7" transform="matrix(0.0117, 0.0, 0.0, 0.0117, 131.3, 10.85)" width="199.7" xlink:href="#font_Arial_f1"/>
        <use fill="#ffffff" height="30.7" transform="matrix(0.0117, 0.0, 0.0, 0.0117, 134.65, 10.85)" width="199.7" xlink:href="#font_Arial_o1"/>
        <use fill="#ffffff" height="30.7" transform="matrix(0.0117, 0.0, 0.0, 0.0117, 141.35, 10.85)" width="199.7" xlink:href="#font_Arial_B1"/>
        <use fill="#ffffff" height="30.7" transform="matrix(0.0117, 0.0, 0.0, 0.0117, 149.35, 10.85)" width="199.7" xlink:href="#font_Arial_o1"/>
        <use fill="#ffffff" height="30.7" transform="matrix(0.0117, 0.0, 0.0, 0.0117, 156.05, 10.85)" width="199.7" xlink:href="#font_Arial_x0"/>
      </g>
    </g>
    <g id="font_Arial_S1">
      <path d="M46.0 -235.5 Q48.0 -162.0 86.5 -103.5 124.5 -45.5 192.0 -16.5 259.0 12.5 358.5 12.5 437.0 12.5 500.0 -16.0 562.5 -45.0 596.0 -96.5 629.5 -148.5 629.5 -207.0 629.5 -266.0 599.0 -311.0 568.5 -356.5 504.5 -386.0 460.5 -406.0 342.5 -432.5 224.0 -459.5 196.0 -485.0 167.5 -510.5 167.5 -550.0 167.5 -595.5 208.0 -627.5 248.0 -660.0 336.0 -660.0 420.5 -660.0 464.0 -624.5 507.0 -589.0 514.5 -519.5 L607.5 -526.5 Q605.0 -591.0 571.5 -642.0 538.0 -693.0 476.0 -719.0 413.5 -745.5 332.0 -745.5 258.0 -745.5 197.5 -720.5 137.0 -695.5 105.5 -647.0 74.0 -599.0 74.0 -543.5 74.0 -493.0 100.0 -452.0 125.5 -411.5 178.0 -384.0 218.5 -362.5 319.5 -338.0 420.5 -314.0 450.0 -302.5 496.0 -285.0 516.0 -259.0 536.0 -233.5 536.0 -199.0 536.0 -165.0 515.5 -136.0 494.5 -107.5 452.0 -91.0 409.5 -74.5 354.0 -74.5 291.5 -74.5 241.5 -96.0 191.5 -118.0 168.0 -153.0 144.0 -188.5 137.5 -243.5 L46.0 -235.5" fill-rule="evenodd" stroke="none"/>
    </g>
    <g id="font_Arial_q1">
      <path d="M128.5 -267.0 Q128.5 -372.5 169.5 -422.0 210.0 -472.0 268.5 -472.0 327.5 -472.0 371.5 -418.5 415.0 -365.0 415.0 -259.0 415.0 -159.5 373.5 -110.5 332.0 -62.0 274.5 -62.0 214.5 -62.0 171.5 -113.0 128.5 -164.5 128.5 -267.0 M406.0 203.5 L496.0 203.5 496.0 -531.0 415.0 -531.0 415.0 -460.0 Q358.5 -543.0 260.0 -543.0 197.0 -543.0 144.5 -510.0 91.5 -477.5 64.0 -414.0 36.0 -350.5 36.0 -270.5 36.0 -139.0 104.5 -63.5 172.5 12.0 267.0 12.0 309.5 12.0 347.5 -7.5 385.0 -27.0 406.0 -56.5 L406.0 203.5" fill-rule="evenodd" stroke="none"/>
    </g>
    <g id="font_Arial_u1">
      <path d="M415.5 0.0 L496.0 0.0 496.0 -531.0 406.0 -531.0 406.0 -246.5 Q406.0 -178.5 391.5 -142.5 376.5 -107.0 341.0 -86.0 305.5 -65.5 265.0 -65.5 224.5 -65.5 197.0 -85.5 169.5 -106.0 161.0 -141.5 155.5 -166.0 155.5 -236.5 L155.5 -531.0 65.5 -531.0 65.5 -202.0 Q65.5 -144.5 71.0 -118.0 79.0 -78.5 99.0 -51.0 118.5 -24.0 159.5 -6.0 200.0 12.0 247.0 12.0 353.5 12.0 415.5 -78.0 L415.5 0.0" fill-rule="evenodd" stroke="none"/>
    </g>
    <g id="font_Arial_a1">
      <path d="M406.5 -266.5 L406.5 -233.5 Q406.5 -174.0 392.0 -143.5 373.0 -104.0 332.5 -81.0 292.0 -58.5 240.0 -58.5 187.5 -58.5 160.5 -82.5 133.0 -106.5 133.0 -142.5 133.0 -166.0 145.5 -185.0 158.0 -204.5 181.0 -214.5 204.0 -224.5 259.5 -232.5 357.5 -246.5 406.5 -266.5 M414.0 -65.5 Q418.0 -28.0 432.0 0.0 L526.0 0.0 Q509.0 -30.5 503.5 -63.5 497.5 -97.0 497.5 -222.5 L497.5 -342.5 Q497.5 -402.5 493.0 -425.5 485.0 -462.5 465.0 -486.5 445.0 -511.0 402.5 -527.0 360.0 -543.0 292.0 -543.0 223.5 -543.0 171.5 -524.0 119.5 -505.5 92.0 -470.5 64.5 -436.0 52.5 -379.5 L140.5 -367.5 Q155.0 -424.0 185.5 -446.0 215.5 -468.5 279.0 -468.5 347.0 -468.5 381.5 -438.0 407.0 -415.5 407.0 -360.5 407.0 -355.5 406.5 -337.0 355.0 -319.0 246.0 -306.0 192.5 -299.5 166.0 -292.5 130.0 -282.5 101.5 -263.0 72.5 -243.5 55.0 -211.0 37.0 -179.0 37.0 -140.0 37.0 -73.5 84.0 -30.5 131.0 12.0 218.5 12.0 271.5 12.0 318.0 -5.5 364.0 -23.0 414.0 -65.5" fill-rule="evenodd" stroke="none"/>
    </g>
    <g id="font_Arial_d1">
      <path d="M127.5 -265.0 Q127.5 -370.5 168.0 -419.5 208.0 -468.5 268.0 -468.5 329.5 -468.5 371.5 -417.5 413.5 -366.5 413.5 -257.5 413.5 -158.5 372.5 -110.0 331.0 -62.0 272.0 -62.0 213.5 -62.0 170.5 -112.5 127.5 -163.0 127.5 -265.0 M412.0 0.0 L495.5 0.0 495.5 -733.0 406.0 -733.0 406.0 -470.0 Q382.5 -502.5 345.0 -522.5 307.5 -543.0 259.5 -543.0 194.0 -543.0 141.0 -508.5 88.0 -474.0 61.5 -409.0 35.0 -344.5 35.0 -265.0 35.0 -183.5 64.5 -120.5 93.5 -58.0 147.0 -23.0 200.0 12.0 263.5 12.0 361.5 12.0 412.0 -67.0 L412.0 0.0" fill-rule="evenodd" stroke="none"/>
    </g>
    <g id="font_Arial_M1">
      <path d="M76.0 0.0 L169.5 0.0 169.5 -624.0 381.5 0.0 469.0 0.0 682.0 -613.5 682.0 0.0 775.5 0.0 775.5 -733.0 645.0 -733.0 469.5 -223.0 Q443.0 -145.5 430.5 -105.5 419.5 -141.5 395.5 -214.0 L222.0 -733.0 76.0 -733.0 76.0 0.0" fill-rule="evenodd" stroke="none"/>
    </g>
    <g id="font_Arial_e1">
      <path d="M135.5 -316.5 Q140.0 -386.0 182.5 -427.5 224.5 -469.0 286.5 -469.0 355.0 -469.0 398.0 -417.0 426.0 -383.5 432.0 -316.5 L135.5 -316.5 M431.0 -171.0 Q410.5 -114.0 375.5 -88.0 340.5 -62.0 291.0 -62.0 224.5 -62.0 180.0 -108.5 135.5 -155.0 130.5 -242.5 L526.5 -242.5 Q527.0 -258.5 527.0 -266.5 527.0 -398.0 459.5 -470.5 392.0 -543.0 285.5 -543.0 175.5 -543.0 106.5 -469.0 37.5 -395.0 37.5 -261.0 37.5 -131.5 106.0 -59.5 174.0 12.0 290.5 12.0 383.0 12.0 442.5 -33.0 502.0 -78.0 524.0 -159.5 L431.0 -171.0" fill-rule="evenodd" stroke="none"/>
    </g>
    <g id="font_Arial_s1">
      <path d="M31.5 -158.5 Q46.5 -74.0 101.0 -31.0 155.0 12.0 258.5 12.0 321.0 12.0 370.5 -9.5 420.0 -31.5 446.5 -71.0 472.5 -111.0 472.5 -156.0 472.5 -202.0 451.0 -233.0 429.5 -264.0 392.0 -280.0 354.0 -296.5 258.5 -322.0 192.5 -340.0 179.0 -345.0 155.5 -354.5 144.5 -369.0 133.5 -383.0 133.5 -400.5 133.5 -428.0 160.0 -448.5 186.5 -469.0 248.5 -469.0 301.0 -469.0 330.0 -446.0 358.5 -423.0 364.5 -382.0 L452.5 -394.0 Q444.0 -445.5 421.5 -476.0 399.0 -507.0 352.0 -525.0 304.5 -543.0 242.0 -543.0 200.5 -543.0 164.5 -532.0 128.0 -521.5 107.0 -506.0 79.0 -486.0 63.0 -455.5 46.5 -425.5 46.5 -390.0 46.5 -351.0 66.5 -318.5 86.0 -286.5 124.5 -268.0 162.5 -250.0 261.5 -225.0 335.0 -206.5 353.5 -194.5 380.0 -177.0 380.0 -146.5 380.0 -112.5 350.0 -87.0 320.0 -62.0 258.0 -62.0 196.5 -62.0 162.5 -90.5 128.0 -119.0 120.5 -172.5 L31.5 -158.5" fill-rule="evenodd" stroke="none"/>
    </g>
    <g id="font_Arial_g1">
      <path d="M125.5 -275.0 Q125.5 -371.0 167.5 -419.5 209.5 -468.5 269.5 -468.5 330.5 -468.5 374.0 -419.0 417.0 -369.5 417.0 -272.0 417.0 -170.0 375.0 -122.0 333.0 -74.5 271.0 -74.5 208.5 -74.5 167.0 -122.5 125.5 -170.5 125.5 -275.0 M51.0 44.0 Q49.0 130.0 107.5 173.0 166.0 215.5 261.0 215.5 341.0 215.5 396.0 185.5 450.5 155.5 476.0 104.0 501.0 52.0 501.0 -72.0 L501.0 -531.0 418.0 -531.0 418.0 -467.0 Q357.0 -543.0 263.0 -543.0 192.5 -543.0 140.5 -508.0 88.0 -473.0 60.5 -408.5 33.0 -344.5 33.0 -268.5 33.0 -158.0 93.0 -79.0 153.0 0.0 262.5 0.0 350.5 0.0 409.5 -69.5 410.0 18.5 403.0 46.0 391.0 91.0 357.0 116.0 323.0 141.0 260.5 141.0 202.5 141.0 169.0 116.0 144.0 97.5 138.5 57.0 L51.0 44.0" fill-rule="evenodd" stroke="none"/>
    </g>
    <g id="font_Arial_I0">
      <path d="M95.5 0.0 L192.5 0.0 192.5 -733.0 95.5 -733.0 95.5 0.0" fill-rule="evenodd" stroke="none"/>
    </g>
    <g id="font_Arial_n1">
      <path d="M67.5 0.0 L157.5 0.0 157.5 -290.0 Q157.5 -392.0 199.5 -428.5 241.0 -465.0 298.5 -465.0 334.5 -465.0 361.5 -448.5 388.0 -432.5 398.5 -405.0 409.0 -378.0 409.0 -323.0 L409.0 0.0 499.0 0.0 499.0 -326.5 Q499.0 -389.0 494.0 -414.0 486.0 -452.5 466.0 -480.5 446.0 -508.5 406.0 -525.5 365.5 -543.0 317.5 -543.0 207.0 -543.0 148.5 -455.5 L148.5 -531.0 67.5 -531.0 67.5 0.0" fill-rule="evenodd" stroke="none"/>
    </g>
    <g id="font_Arial_f1">
      <path d="M89.0 0.0 L178.5 0.0 178.5 -461.0 282.0 -461.0 282.0 -531.0 178.5 -531.0 178.5 -580.0 Q178.5 -628.0 195.5 -645.5 212.5 -663.0 253.5 -663.0 278.5 -663.0 306.5 -658.0 L320.0 -736.5 Q274.0 -745.5 236.0 -745.5 177.0 -745.5 144.5 -723.5 111.5 -702.0 98.5 -667.0 89.0 -641.0 89.0 -587.5 L89.0 -531.0 9.5 -531.0 9.5 -461.0 89.0 -461.0 89.0 0.0" fill-rule="evenodd" stroke="none"/>
    </g>
    <g id="font_Arial_o1">
      <path d="M126.5 -265.5 Q126.5 -367.5 171.0 -418.0 215.5 -468.5 283.0 -468.5 349.5 -468.5 394.5 -417.5 439.0 -367.0 439.0 -268.5 439.0 -164.0 394.5 -113.0 350.0 -62.0 283.0 -62.0 215.5 -62.0 171.0 -112.5 126.5 -163.5 126.5 -265.5 M34.0 -265.5 Q34.0 -131.0 103.0 -59.5 171.5 12.0 283.0 12.0 352.5 12.0 411.5 -20.5 470.0 -53.0 501.0 -111.5 531.5 -170.5 531.5 -273.0 531.5 -399.5 462.0 -471.0 392.5 -543.0 283.0 -543.0 184.5 -543.0 116.0 -484.0 34.0 -413.0 34.0 -265.5" fill-rule="evenodd" stroke="none"/>
    </g>
    <g id="font_Arial_B1">
      <path d="M172.0 -86.5 L172.0 -338.5 341.5 -338.5 Q411.5 -338.5 449.0 -326.0 486.0 -314.0 507.0 -283.5 528.0 -253.5 528.0 -212.5 528.0 -177.5 513.5 -150.5 499.0 -124.0 476.5 -110.0 454.0 -96.0 420.5 -90.0 401.5 -86.5 354.5 -86.5 L172.0 -86.5 M172.0 -425.0 L172.0 -646.5 318.5 -646.5 Q397.5 -646.5 430.0 -636.0 462.5 -626.0 480.0 -598.0 497.5 -570.5 497.5 -534.0 497.5 -495.5 479.0 -470.0 460.0 -444.5 423.0 -433.5 395.0 -425.0 330.5 -425.0 L172.0 -425.0 M75.0 0.0 L354.5 0.0 Q424.5 0.0 473.0 -12.0 521.0 -24.5 553.0 -48.5 585.0 -72.5 607.0 -116.5 628.5 -161.0 628.5 -212.5 628.5 -276.5 593.0 -323.5 557.0 -370.5 490.5 -390.0 542.0 -415.5 567.5 -457.0 593.0 -498.5 593.0 -545.5 593.0 -596.0 564.5 -642.0 535.5 -688.5 485.0 -710.5 434.0 -733.0 350.0 -733.0 L75.0 -733.0 75.0 0.0" fill-rule="evenodd" stroke="none"/>
    </g>
    <g id="font_Arial_x0">
      <path d="M7.5 0.0 L116.5 0.0 256.0 -209.5 285.0 -165.0 394.0 0.0 504.5 0.0 307.0 -281.0 490.5 -531.0 383.0 -531.0 293.5 -405.5 Q275.0 -380.0 253.0 -347.0 239.0 -371.0 216.0 -406.5 L134.5 -531.0 22.0 -531.0 201.5 -276.0 7.5 0.0" fill-rule="evenodd" stroke="none"/>
    </g>
    <g id="text14" transform="matrix(1.0, 0.0, 0.0, 1.0, 4.0, 2.0)">
      <g transform="matrix(1.0, 0.0, 0.0, 1.0, -4.0, -2.0)">
        <use fill="#ffffff" height="31.4" transform="matrix(0.0117, 0.0, 0.0, 0.0117, 27.45, 10.85)" width="115.7" xlink:href="#font_Arial_E0"/>
        <use fill="#ffffff" height="31.4" transform="matrix(0.0117, 0.0, 0.0, 0.0117, 35.45, 10.85)" width="115.7" xlink:href="#font_Arial_n0"/>
        <use fill="#ffffff" height="31.4" transform="matrix(0.0117, 0.0, 0.0, 0.0117, 42.8, 10.85)" width="115.7" xlink:href="#font_Arial_t0"/>
        <use fill="#ffffff" height="31.4" transform="matrix(0.0117, 0.0, 0.0, 0.0117, 46.8, 10.85)" width="115.7" xlink:href="#font_Arial_e0"/>
        <use fill="#ffffff" height="31.4" transform="matrix(0.0117, 0.0, 0.0, 0.0117, 53.5, 10.85)" width="115.7" xlink:href="#font_Arial_r0"/>
      </g>
      <g transform="matrix(1.0, 0.0, 0.0, 1.0, -4.0, -2.0)">
        <use fill="#ffffff" height="31.4" transform="matrix(0.0117, 0.0, 0.0, 0.0117, 61.55, 10.85)" width="115.7" xlink:href="#font_Arial_L0"/>
        <use fill="#ffffff" height="31.4" transform="matrix(0.0117, 0.0, 0.0, 0.0117, 68.9, 10.85)" width="115.7" xlink:href="#font_Arial_o0"/>
        <use fill="#ffffff" height="31.4" transform="matrix(0.0117, 0.0, 0.0, 0.0117, 76.25, 10.85)" width="115.7" xlink:href="#font_Arial_c0"/>
        <use fill="#ffffff" height="31.4" transform="matrix(0.0117, 0.0, 0.0, 0.0117, 82.95, 10.85)" width="115.7" xlink:href="#font_Arial_a0"/>
        <use fill="#ffffff" height="31.4" transform="matrix(0.0117, 0.0, 0.0, 0.0117, 89.65, 10.85)" width="115.7" xlink:href="#font_Arial_t0"/>
        <use fill="#ffffff" height="31.4" transform="matrix(0.0117, 0.0, 0.0, 0.0117, 93.65, 10.85)" width="115.7" xlink:href="#font_Arial_i0"/>
        <use fill="#ffffff" height="31.4" transform="matrix(0.0117, 0.0, 0.0, 0.0117, 97.0, 10.85)" width="115.7" xlink:href="#font_Arial_o0"/>
        <use fill="#ffffff" height="31.4" transform="matrix(0.0117, 0.0, 0.0, 0.0117, 104.35, 10.85)" width="115.7" xlink:href="#font_Arial_n0"/>
        <use fill="#ffffff" height="31.4" transform="matrix(0.0117, 0.0, 0.0, 0.0117, 111.7, 10.85)" width="115.7" xlink:href="#font_Arial_:0"/>
      </g>
    </g>
    <g id="text15" transform="matrix(1.0, 0.0, 0.0, 1.0, 4.0, 2.0)">
      <g transform="matrix(1.0, 0.0, 0.0, 1.0, -4.0, -2.0)">
        <use fill="#ffffff" height="31.4" transform="matrix(0.0117, 0.0, 0.0, 0.0117, 0.0, 10.85)" width="161.3" xlink:href="#font_Arial_z0"/>
        <use fill="#ffffff" height="31.4" transform="matrix(0.0117, 0.0, 0.0, 0.0117, 6.0, 10.85)" width="161.3" xlink:href="#font_Arial_o0"/>
        <use fill="#ffffff" height="31.4" transform="matrix(0.0117, 0.0, 0.0, 0.0117, 13.35, 10.85)" width="161.3" xlink:href="#font_Arial_n0"/>
        <use fill="#ffffff" height="31.4" transform="matrix(0.0117, 0.0, 0.0, 0.0117, 20.7, 10.85)" width="161.3" xlink:href="#font_Arial_e0"/>
      </g>
      <g transform="matrix(1.0, 0.0, 0.0, 1.0, -4.0, -2.0)">
        <use fill="#ffffff" height="31.4" transform="matrix(0.0117, 0.0, 0.0, 0.0117, 30.75, 10.85)" width="161.3" xlink:href="#font_Arial_10"/>
        <use fill="#ffffff" height="31.4" transform="matrix(0.0117, 0.0, 0.0, 0.0117, 37.45, 10.85)" width="161.3" xlink:href="#font_Arial_00"/>
        <use fill="#ffffff" height="31.4" transform="matrix(0.0117, 0.0, 0.0, 0.0117, 44.15, 10.85)" width="161.3" xlink:href="#font_Arial_00"/>
      </g>
      <g transform="matrix(1.0, 0.0, 0.0, 1.0, -4.0, -2.0)">
        <use fill="#ffffff" height="31.4" transform="matrix(0.0117, 0.0, 0.0, 0.0117, 54.2, 10.85)" width="161.3" xlink:href="#font_Arial_x1"/>
        <use fill="#ffffff" height="31.4" transform="matrix(0.0117, 0.0, 0.0, 0.0117, 60.9, 10.85)" width="161.3" xlink:href="#font_Arial_:0"/>
        <use fill="#ffffff" height="31.4" transform="matrix(0.0117, 0.0, 0.0, 0.0117, 64.9, 10.85)" width="161.3" xlink:href="#font_Arial_50"/>
      </g>
      <g transform="matrix(1.0, 0.0, 0.0, 1.0, -4.0, -2.0)">
        <use fill="#ffffff" height="31.4" transform="matrix(0.0117, 0.0, 0.0, 0.0117, 74.95, 10.85)" width="161.3" xlink:href="#font_Arial_y0"/>
        <use fill="#ffffff" height="31.4" transform="matrix(0.0117, 0.0, 0.0, 0.0117, 81.65, 10.85)" width="161.3" xlink:href="#font_Arial_:0"/>
        <use fill="#ffffff" height="31.4" transform="matrix(0.0117, 0.0, 0.0, 0.0117, 85.65, 10.85)" width="161.3" xlink:href="#font_Arial_60"/>
      </g>
    </g>
    <g id="font_Arial_z0">
      <path d="M17.0 0.0 L491.0 0.0 491.0 -123.5 273.5 -123.5 Q259.5 -123.5 201.0 -120.0 L272.5 -197.5 475.5 -431.5 475.5 -531.0 36.5 -531.0 36.5 -414.5 224.0 -415.5 Q264.0 -416.0 288.5 -417.5 265.0 -394.0 216.0 -338.0 L17.0 -109.5 17.0 0.0" fill-rule="evenodd" stroke="none"/>
    </g>
    <g id="font_Arial_x1">
      <path d="M6.0 0.0 L170.5 0.0 279.5 -164.5 387.5 0.0 560.0 0.0 363.5 -279.5 543.5 -531.0 378.5 -531.0 279.5 -385.0 185.5 -531.0 14.0 -531.0 197.5 -273.5 6.0 0.0" fill-rule="evenodd" stroke="none"/>
    </g>
    <g id="font_Arial_y0">
      <path d="M7.0 -531.0 L209.0 1.5 Q196.5 46.0 173.0 75.0 149.5 103.5 100.5 103.5 74.0 103.5 41.0 97.0 L53.5 207.0 Q92.5 215.5 133.0 215.5 173.0 215.5 205.0 207.0 236.5 198.5 258.5 183.5 280.0 168.0 297.0 143.5 313.5 119.0 332.0 72.5 L365.5 -20.0 553.0 -531.0 407.5 -531.0 283.5 -154.0 156.5 -531.0 7.0 -531.0" fill-rule="evenodd" stroke="none"/>
    </g>
    <g id="text16" transform="matrix(1.0, 0.0, 0.0, 1.0, 4.0, 2.0)">
      <g transform="matrix(1.0, 0.0, 0.0, 1.0, -4.0, -2.0)">
        <use fill="#ffffff" height="31.4" transform="matrix(0.0117, 0.0, 0.0, 0.0117, 0.0, 10.85)" width="280.0" xlink:href="#font_Arial_E0"/>
        <use fill="#ffffff" height="31.4" transform="matrix(0.0117, 0.0, 0.0, 0.0117, 8.0, 10.85)" width="280.0" xlink:href="#font_Arial_n0"/>
        <use fill="#ffffff" height="31.4" transform="matrix(0.0117, 0.0, 0.0, 0.0117, 15.35, 10.85)" width="280.0" xlink:href="#font_Arial_t0"/>
        <use fill="#ffffff" height="31.4" transform="matrix(0.0117, 0.0, 0.0, 0.0117, 19.35, 10.85)" width="280.0" xlink:href="#font_Arial_e0"/>
        <use fill="#ffffff" height="31.4" transform="matrix(0.0117, 0.0, 0.0, 0.0117, 26.05, 10.85)" width="280.0" xlink:href="#font_Arial_r0"/>
      </g>
      <g transform="matrix(1.0, 0.0, 0.0, 1.0, -4.0, -2.0)">
        <use fill="#ffffff" height="31.4" transform="matrix(0.0117, 0.0, 0.0, 0.0117, 34.1, 10.85)" width="280.0" xlink:href="#font_Arial_L0"/>
        <use fill="#ffffff" height="31.4" transform="matrix(0.0117, 0.0, 0.0, 0.0117, 41.45, 10.85)" width="280.0" xlink:href="#font_Arial_o0"/>
        <use fill="#ffffff" height="31.4" transform="matrix(0.0117, 0.0, 0.0, 0.0117, 48.8, 10.85)" width="280.0" xlink:href="#font_Arial_c0"/>
        <use fill="#ffffff" height="31.4" transform="matrix(0.0117, 0.0, 0.0, 0.0117, 55.5, 10.85)" width="280.0" xlink:href="#font_Arial_a0"/>
        <use fill="#ffffff" height="31.4" transform="matrix(0.0117, 0.0, 0.0, 0.0117, 62.2, 10.85)" width="280.0" xlink:href="#font_Arial_t0"/>
        <use fill="#ffffff" height="31.4" transform="matrix(0.0117, 0.0, 0.0, 0.0117, 66.2, 10.85)" width="280.0" xlink:href="#font_Arial_i0"/>
        <use fill="#ffffff" height="31.4" transform="matrix(0.0117, 0.0, 0.0, 0.0117, 69.55, 10.85)" width="280.0" xlink:href="#font_Arial_o0"/>
        <use fill="#ffffff" height="31.4" transform="matrix(0.0117, 0.0, 0.0, 0.0117, 76.9, 10.85)" width="280.0" xlink:href="#font_Arial_n0"/>
        <use fill="#ffffff" height="31.4" transform="matrix(0.0117, 0.0, 0.0, 0.0117, 84.25, 10.85)" width="280.0" xlink:href="#font_Arial_:0"/>
      </g>
      <g transform="matrix(1.0, 0.0, 0.0, 1.0, -4.0, -2.0)">
        <use fill="#ffffff" height="31.4" transform="matrix(0.0117, 0.0, 0.0, 0.0117, 94.95, 10.85)" width="280.0" xlink:href="#font_Arial_X0"/>
        <use fill="#ffffff" height="31.4" transform="matrix(0.0117, 0.0, 0.0, 0.0117, 102.95, 10.85)" width="280.0" xlink:href="#font_Arial_:0"/>
      </g>
      <g transform="matrix(1.0, 0.0, 0.0, 1.0, -4.0, -2.0)">
        <use fill="#ffffff" height="31.4" transform="matrix(0.0117, 0.0, 0.0, 0.0117, 167.25, 10.85)" width="280.0" xlink:href="#font_Arial_Y0"/>
        <use fill="#ffffff" height="31.4" transform="matrix(0.0117, 0.0, 0.0, 0.0117, 175.25, 10.85)" width="280.0" xlink:href="#font_Arial_:0"/>
      </g>
    </g>
    <g id="font_Arial_X0">
      <path d="M0.0 0.0 L177.5 0.0 340.5 -253.5 503.0 0.0 681.5 0.0 431.0 -377.0 659.0 -733.0 487.5 -733.0 343.5 -497.5 196.5 -733.0 23.5 -733.0 250.5 -382.5 0.0 0.0" fill-rule="evenodd" stroke="none"/>
    </g>
    <g id="text17" transform="matrix(1.0, 0.0, 0.0, 1.0, 4.0, 2.0)">
      <g transform="matrix(1.0, 0.0, 0.0, 1.0, -4.0, -2.0)">
        <path d="M0.0 0.0 L0.0 31.4 50.75 31.4 50.75 0.0 0.0 0.0" fill="#ffffff" fill-rule="evenodd" stroke="none"/>
        <path d="M0.0 0.0 L50.75 0.0 50.75 31.4 0.0 31.4 0.0 0.0 Z" fill="none" stroke="#000000" stroke-linecap="round" stroke-linejoin="round" stroke-width="1.0"/>
      </g>
      <g transform="matrix(1.0, 0.0, 0.0, 1.0, -4.0, -2.0)">
        <use fill="#000000" height="31.4" transform="matrix(0.0117, 0.0, 0.0, 0.0117, 0.0, 10.85)" width="50.75" xlink:href="#font_Arial_10"/>
        <use fill="#000000" height="31.4" transform="matrix(0.0117, 0.0, 0.0, 0.0117, 6.7, 10.85)" width="50.75" xlink:href="#font_Arial_20"/>
        <use fill="#000000" height="31.4" transform="matrix(0.0117, 0.0, 0.0, 0.0117, 13.4, 10.85)" width="50.75" xlink:href="#font_Arial_30"/>
        <use fill="#000000" height="31.4" transform="matrix(0.0117, 0.0, 0.0, 0.0117, 20.1, 10.85)" width="50.75" xlink:href="#font_Arial_40"/>
      </g>
    </g>
    <g id="text18" transform="matrix(1.0, 0.0, 0.0, 1.0, 4.0, 2.0)">
      <g transform="matrix(1.0, 0.0, 0.0, 1.0, -4.0, -2.0)">
        <path d="M0.0 0.0 L0.0 31.4 50.75 31.4 50.75 0.0 0.0 0.0" fill="#ffffff" fill-rule="evenodd" stroke="none"/>
        <path d="M0.0 0.0 L50.75 0.0 50.75 31.4 0.0 31.4 0.0 0.0 Z" fill="none" stroke="#000000" stroke-linecap="round" stroke-linejoin="round" stroke-width="1.0"/>
      </g>
      <g transform="matrix(1.0, 0.0, 0.0, 1.0, -4.0, -2.0)">
        <use fill="#000000" height="31.4" transform="matrix(0.0117, 0.0, 0.0, 0.0117, 0.0, 10.85)" width="50.75" xlink:href="#font_Arial_10"/>
        <use fill="#000000" height="31.4" transform="matrix(0.0117, 0.0, 0.0, 0.0117, 6.7, 10.85)" width="50.75" xlink:href="#font_Arial_20"/>
        <use fill="#000000" height="31.4" transform="matrix(0.0117, 0.0, 0.0, 0.0117, 13.4, 10.85)" width="50.75" xlink:href="#font_Arial_30"/>
        <use fill="#000000" height="31.4" transform="matrix(0.0117, 0.0, 0.0, 0.0117, 20.1, 10.85)" width="50.75" xlink:href="#font_Arial_40"/>
      </g>
    </g>
  </defs>
</svg>
