<?xml version="1.0" encoding="UTF-8" standalone="no"?>
<svg xmlns:xlink="http://www.w3.org/1999/xlink" height="880.6px" width="1455.75px" xmlns="http://www.w3.org/2000/svg">
  <g transform="matrix(1.0, 0.0, 0.0, 1.0, 753.25, 402.8)">
    <use data-characterId="968" height="734.15" transform="matrix(1.0, 0.0, 0.0, 1.0, -538.1, -402.8)" width="1000.25" xlink:href="#shape0"/>
    <use data-characterId="33" height="31.4" id="gameoptions" transform="matrix(1.0, 0.0, 0.0, 1.0, -355.2, -119.2)" width="120.4" xlink:href="#sprite0"/>
    <use data-characterId="33" height="31.4" id="exit_button" transform="matrix(1.0, 0.0, 0.0, 1.0, -355.2, -55.15)" width="120.4" xlink:href="#sprite0"/>
    <use data-characterId="33" height="31.4" id="squadoptions" transform="matrix(1.0, 0.0, 0.0, 1.0, -355.2, -88.15)" width="120.4" xlink:href="#sprite0"/>
    <use data-characterId="1023" height="361.15" transform="matrix(1.0, 0.0, 0.0, 1.0, -180.5, -235.55)" width="554.2" xlink:href="#shape2"/>
  </g>
  <defs>
    <g id="shape0" transform="matrix(1.0, 0.0, 0.0, 1.0, 538.1, 402.8)">
      <path d="M-538.1 -402.8 L462.15 -402.8 462.15 331.35 -538.1 331.35 -538.1 -402.8" fill="#000000" fill-opacity="0.8980392" fill-rule="evenodd" stroke="none"/>
      <path d="M-372.1 -159.0 L-222.1 -159.0 -222.1 -9.0 -372.1 -9.0 -372.1 -159.0" fill="#000066" fill-opacity="0.14901961" fill-rule="evenodd" stroke="none"/>
      <path d="M-372.1 -159.0 L-222.1 -159.0 -222.1 -9.0 -372.1 -9.0 -372.1 -159.0 Z" fill="none" stroke="#003366" stroke-linecap="butt" stroke-linejoin="miter-clip" stroke-miterlimit="3.0" stroke-width="1.0"/>
    </g>
    <g id="sprite0" transform="matrix(1.0, 0.0, 0.0, 1.0, 0.5, 1.25)">
      <use data-characterId="29" height="19.05" transform="matrix(1.0, 0.0, 0.0, 1.0, -0.5, -0.5)" width="115.5" xlink:href="#shape1"/>
      <use data-characterId="31" height="31.4" id="actionlabel" transform="matrix(1.0, 0.0, 0.0, 1.0, 1.5, -1.25)" width="118.4" xlink:href="#text0"/>
    </g>
    <g id="shape1" transform="matrix(1.0, 0.0, 0.0, 1.0, 0.5, 0.5)">
      <path d="M112.2 0.0 Q114.5 0.0 114.5 2.3 L114.5 15.75 Q114.5 18.05 112.2 18.05 L2.3 18.05 Q0.0 18.05 0.0 15.75 L0.0 2.3 Q0.0 0.0 2.3 0.0 L112.2 0.0" fill="#0066cc" fill-rule="evenodd" stroke="none"/>
      <path d="M112.2 0.0 L2.3 0.0 Q0.0 0.0 0.0 2.3 L0.0 15.75 Q0.0 18.05 2.3 18.05 L112.2 18.05 Q114.5 18.05 114.5 15.75 L114.5 2.3 Q114.5 0.0 112.2 0.0 Z" fill="none" stroke="#000000" stroke-linecap="butt" stroke-linejoin="miter-clip" stroke-miterlimit="3.0" stroke-width="1.0"/>
    </g>
    <g id="text0" transform="matrix(1.0, 0.0, 0.0, 1.0, 4.0, 2.0)">
      <g transform="matrix(1.0, 0.0, 0.0, 1.0, -4.0, -2.0)">
        <use fill="#ffff99" height="31.4" transform="matrix(0.0117, 0.0, 0.0, 0.0117, 40.5, 10.85)" width="118.4" xlink:href="#font_Arial_A0"/>
        <use fill="#ffff99" height="31.4" transform="matrix(0.0117, 0.0, 0.0, 0.0117, 49.15, 10.85)" width="118.4" xlink:href="#font_Arial_c0"/>
        <use fill="#ffff99" height="31.4" transform="matrix(0.0117, 0.0, 0.0, 0.0117, 55.85, 10.85)" width="118.4" xlink:href="#font_Arial_t0"/>
        <use fill="#ffff99" height="31.4" transform="matrix(0.0117, 0.0, 0.0, 0.0117, 59.85, 10.85)" width="118.4" xlink:href="#font_Arial_i0"/>
        <use fill="#ffff99" height="31.4" transform="matrix(0.0117, 0.0, 0.0, 0.0117, 63.2, 10.85)" width="118.4" xlink:href="#font_Arial_o0"/>
        <use fill="#ffff99" height="31.4" transform="matrix(0.0117, 0.0, 0.0, 0.0117, 70.55, 10.85)" width="118.4" xlink:href="#font_Arial_n0"/>
      </g>
    </g>
    <g id="font_Arial_A0">
      <path d="M463.0 -290.0 L263.0 -290.0 362.0 -562.0 463.0 -290.0 M735.5 0.0 L442.0 -733.0 285.5 -733.0 0.0 0.0 157.0 0.0 217.5 -166.5 510.5 -166.5 574.5 0.0 735.5 0.0" fill-rule="evenodd" stroke="none"/>
    </g>
    <g id="font_Arial_c0">
      <path d="M536.5 -374.0 Q511.5 -459.5 454.5 -501.0 397.0 -543.0 300.0 -543.0 181.5 -543.0 112.0 -469.5 42.5 -396.5 42.5 -265.0 42.5 -135.0 112.0 -61.5 181.0 12.0 297.5 12.0 400.0 12.0 461.0 -36.5 522.0 -85.0 543.5 -180.0 L405.5 -203.5 Q395.0 -148.0 369.5 -125.0 344.0 -102.5 304.0 -102.5 250.5 -102.5 219.0 -141.5 187.0 -180.5 187.0 -275.0 187.0 -360.0 218.5 -396.0 249.5 -432.5 302.0 -432.5 341.5 -432.5 366.5 -411.5 391.0 -390.5 398.0 -349.0 L536.5 -374.0" fill-rule="evenodd" stroke="none"/>
    </g>
    <g id="font_Arial_t0">
      <path d="M317.0 -531.0 L221.0 -531.0 221.0 -718.5 80.0 -636.5 80.0 -531.0 15.5 -531.0 15.5 -419.0 80.0 -419.0 80.0 -187.5 Q80.0 -113.0 84.5 -88.5 90.0 -54.0 104.5 -33.5 118.5 -13.5 149.0 -0.5 179.5 12.0 217.5 12.0 279.5 12.0 328.5 -9.0 L316.5 -118.0 Q279.5 -104.5 260.0 -104.5 246.0 -104.5 236.5 -111.5 226.5 -118.5 224.0 -129.0 221.0 -140.0 221.0 -205.0 L221.0 -419.0 317.0 -419.0 317.0 -531.0" fill-rule="evenodd" stroke="none"/>
    </g>
    <g id="font_Arial_i0">
      <path d="M73.5 0.0 L214.0 0.0 214.0 -531.0 73.5 -531.0 73.5 0.0 M73.5 -603.0 L214.0 -603.0 214.0 -733.0 73.5 -733.0 73.5 -603.0" fill-rule="evenodd" stroke="none"/>
    </g>
    <g id="font_Arial_o0">
      <path d="M185.0 -265.5 Q185.0 -344.5 222.5 -386.5 260.0 -428.5 315.0 -428.5 370.0 -428.5 407.5 -386.5 444.5 -344.5 444.5 -266.5 444.5 -186.5 407.5 -144.5 370.0 -102.5 315.0 -102.5 260.0 -102.5 222.5 -144.5 185.0 -186.5 185.0 -265.5 M41.0 -273.0 Q41.0 -181.5 75.5 -117.5 110.0 -54.0 176.5 -21.0 242.5 12.0 315.5 12.0 433.5 12.0 511.5 -67.0 589.0 -146.5 589.0 -267.0 589.0 -386.5 512.0 -464.5 435.0 -543.0 314.5 -543.0 236.5 -543.0 173.5 -508.5 110.0 -474.0 75.5 -408.5 41.0 -343.0 41.0 -273.0" fill-rule="evenodd" stroke="none"/>
    </g>
    <g id="font_Arial_n0">
      <path d="M556.5 0.0 L556.5 -330.0 Q556.5 -391.5 549.0 -424.5 541.0 -457.5 521.5 -483.5 501.5 -509.5 463.0 -526.0 424.5 -543.0 378.0 -543.0 272.5 -543.0 203.0 -453.0 L203.0 -531.0 72.5 -531.0 72.5 0.0 213.0 0.0 213.0 -240.5 Q213.0 -329.5 224.0 -362.5 234.5 -395.5 263.5 -415.5 292.5 -435.5 329.0 -435.5 357.5 -435.5 378.0 -421.5 398.0 -407.5 407.0 -382.0 416.0 -357.0 416.0 -271.0 L416.0 0.0 556.5 0.0" fill-rule="evenodd" stroke="none"/>
    </g>
    <g id="shape2" transform="matrix(1.0, 0.0, 0.0, 1.0, 180.5, 235.55)">
      <path d="M234.9 89.95 L-170.5 89.95 -170.5 20.5 234.9 20.5 234.9 89.95 Z" fill="none" stroke="#0033cc" stroke-linecap="butt" stroke-linejoin="miter-clip" stroke-miterlimit="3.0" stroke-width="1.0"/>
      <path d="M240.0 -125.05 L-180.0 -125.05 -180.0 -235.05 240.0 -235.05 240.0 -125.05" fill="#000066" fill-opacity="0.14901961" fill-rule="evenodd" stroke="none"/>
      <path d="M240.0 -125.05 L-180.0 -125.05 -180.0 -235.05 240.0 -235.05 240.0 -125.05 Z" fill="none" stroke="#003366" stroke-linecap="butt" stroke-linejoin="miter-clip" stroke-miterlimit="3.0" stroke-width="1.0"/>
      <path d="M240.0 -6.65 L-180.0 -6.65 -180.0 -116.65 240.0 -116.65 240.0 -6.65" fill="#000066" fill-opacity="0.14901961" fill-rule="evenodd" stroke="none"/>
      <path d="M240.0 -6.65 L-180.0 -6.65 -180.0 -116.65 240.0 -116.65 240.0 -6.65 Z" fill="none" stroke="#003366" stroke-linecap="butt" stroke-linejoin="miter-clip" stroke-miterlimit="3.0" stroke-width="1.0"/>
      <path d="M240.55 125.1 L-179.45 125.1 -179.45 0.1 240.55 0.1 240.55 125.1" fill="#000066" fill-opacity="0.14901961" fill-rule="evenodd" stroke="none"/>
      <path d="M240.55 125.1 L-179.45 125.1 -179.45 0.1 240.55 0.1 240.55 125.1 Z" fill="none" stroke="#003366" stroke-linecap="butt" stroke-linejoin="miter-clip" stroke-miterlimit="3.0" stroke-width="1.0"/>
      <path d="M373.2 -234.95 L373.2 65.0 253.2 65.0 253.2 -234.95 373.2 -234.95" fill="#000066" fill-opacity="0.14901961" fill-rule="evenodd" stroke="none"/>
      <path d="M373.2 -234.95 L373.2 65.0 253.2 65.0 253.2 -234.95 373.2 -234.95 Z" fill="none" stroke="#003366" stroke-linecap="butt" stroke-linejoin="miter-clip" stroke-miterlimit="3.0" stroke-width="1.0"/>
    </g>
  </defs>
</svg>
