<?xml version="1.0" encoding="UTF-8" standalone="no"?>
<svg xmlns:xlink="http://www.w3.org/1999/xlink" height="100.35px" width="137.0px" xmlns="http://www.w3.org/2000/svg">
  <g transform="matrix(1.0, 0.0, 0.0, 1.0, 51.0, 61.7)">
    <use data-characterId="244" height="100.35" transform="matrix(1.0, 0.0, 0.0, 1.0, -51.0, -61.7)" width="137.0" xlink:href="#shape0"/>
    <use data-characterId="245" height="61.1" id="question" transform="matrix(1.0, 0.0, 0.0, 1.0, -47.5, -60.1)" width="127.45" xlink:href="#text0"/>
    <use data-characterId="246" height="27.0" transform="matrix(1.0, 0.0, 0.0, 1.0, -42.05, 4.95)" width="37.25" xlink:href="#button0"/>
    <use data-characterId="247" height="27.0" transform="matrix(1.0, 0.0, 0.0, 1.0, 39.5, 5.5)" width="37.0" xlink:href="#button1"/>
  </g>
  <defs>
    <g id="shape0" transform="matrix(1.0, 0.0, 0.0, 1.0, 51.0, 61.7)">
      <path d="M-50.0 37.1 L-50.0 -60.7 85.0 -60.7 85.0 37.1 -50.0 37.1" fill="#000000" fill-rule="evenodd" stroke="none"/>
      <path d="M-50.0 37.1 L-50.0 -60.7 85.0 -60.7 85.0 37.1 85.0 37.65 -50.0 37.65 -50.0 37.1 Z" fill="none" stroke="#cccccc" stroke-linecap="round" stroke-linejoin="round" stroke-width="2.0"/>
    </g>
    <g id="text0" transform="matrix(1.0, 0.0, 0.0, 1.0, 2.0, 2.0)">
      <g transform="matrix(1.0, 0.0, 0.0, 1.0, -2.0, -2.0)">
        <use fill="#ffffff" height="61.1" transform="matrix(0.0098, 0.0, 0.0, 0.0098, 52.05, 11.0)" width="127.45" xlink:href="#font_Arial_u0"/>
        <use fill="#ffffff" height="61.1" transform="matrix(0.0098, 0.0, 0.0, 0.0098, 52.05, 11.0)" width="127.45" xlink:href="#font_Arial_e0"/>
        <use fill="#ffffff" height="61.1" transform="matrix(0.0098, 0.0, 0.0, 0.0098, 52.05, 11.0)" width="127.45" xlink:href="#font_Arial_t0"/>
        <use fill="#ffffff" height="61.1" transform="matrix(0.0098, 0.0, 0.0, 0.0098, 52.05, 11.0)" width="127.45" xlink:href="#font_Arial_i0"/>
        <use fill="#ffffff" height="61.1" transform="matrix(0.0098, 0.0, 0.0, 0.0098, 52.05, 11.0)" width="127.45" xlink:href="#font_Arial_o0"/>
        <use fill="#ffffff" height="61.1" transform="matrix(0.0098, 0.0, 0.0, 0.0098, 52.05, 11.0)" width="127.45" xlink:href="#font_Arial_n0"/>
      </g>
      <g transform="matrix(1.0, 0.0, 0.0, 1.0, -2.0, -2.0)">
        <use fill="#ffffff" height="61.1" transform="matrix(0.0098, 0.0, 0.0, 0.0098, 63.7, 11.0)" width="127.45" xlink:href="#font_Arial_o0"/>
        <use fill="#ffffff" height="61.1" transform="matrix(0.0098, 0.0, 0.0, 0.0098, 63.7, 11.0)" width="127.45" xlink:href="#font_Arial_e0"/>
      </g>
      <g transform="matrix(1.0, 0.0, 0.0, 1.0, -2.0, -2.0)">
        <use fill="#ffffff" height="61.1" transform="matrix(0.0098, 0.0, 0.0, 0.0098, 63.7, 22.0)" width="127.45" xlink:href="#font_Arial_h0"/>
        <use fill="#ffffff" height="61.1" transform="matrix(0.0098, 0.0, 0.0, 0.0098, 63.7, 22.0)" width="127.45" xlink:href="#font_Arial_e0"/>
        <use fill="#ffffff" height="61.1" transform="matrix(0.0098, 0.0, 0.0, 0.0098, 63.7, 22.0)" width="127.45" xlink:href="#font_Arial_r0"/>
        <use fill="#ffffff" height="61.1" transform="matrix(0.0098, 0.0, 0.0, 0.0098, 63.7, 22.0)" width="127.45" xlink:href="#font_Arial_e0"/>
      </g>
    </g>
    <g id="font_Arial_u0">
      <path d="M423.0 0.0 L553.5 0.0 553.5 -531.0 413.0 -531.0 413.0 -307.0 Q413.0 -193.0 402.5 -163.5 392.0 -134.5 363.5 -114.5 335.0 -95.0 299.0 -95.0 267.5 -95.0 247.0 -109.5 226.5 -124.5 219.0 -149.5 211.0 -175.0 211.0 -287.0 L211.0 -531.0 70.5 -531.0 70.5 -195.0 Q70.5 -120.0 89.5 -77.5 108.5 -35.0 151.0 -11.5 193.5 12.0 247.0 12.0 299.5 12.0 347.0 -12.5 394.0 -37.0 423.0 -79.5 L423.0 0.0" fill-rule="evenodd" stroke="none"/>
    </g>
    <g id="font_Arial_e0">
      <path d="M389.0 -311.0 L179.0 -311.0 Q178.5 -368.5 208.5 -402.0 238.5 -435.5 284.5 -435.5 327.5 -435.5 357.5 -403.5 387.5 -372.0 389.0 -311.0 M381.0 -169.0 L381.0 -169.0 Q369.5 -129.0 347.0 -111.0 324.5 -93.0 291.5 -93.0 243.0 -93.0 210.5 -127.5 178.0 -162.5 176.5 -225.0 L528.5 -225.0 Q531.5 -386.5 463.0 -464.5 394.5 -543.0 276.0 -543.0 170.5 -543.0 101.5 -468.0 32.5 -393.5 32.5 -261.5 32.5 -151.0 85.0 -78.5 151.5 12.0 290.0 12.0 377.5 12.0 436.0 -28.0 494.0 -68.5 521.0 -145.5 L381.0 -169.0" fill-rule="evenodd" stroke="none"/>
    </g>
    <g id="font_Arial_t0">
      <path d="M317.0 -531.0 L221.0 -531.0 221.0 -718.5 80.0 -636.5 80.0 -531.0 15.5 -531.0 15.5 -419.0 80.0 -419.0 80.0 -187.5 Q80.0 -113.0 84.5 -88.5 90.0 -54.0 104.5 -33.5 118.5 -13.5 149.0 -0.5 179.5 12.0 217.5 12.0 279.5 12.0 328.5 -9.0 L316.5 -118.0 Q279.5 -104.5 260.0 -104.5 246.0 -104.5 236.5 -111.5 226.5 -118.5 224.0 -129.0 221.0 -140.0 221.0 -205.0 L221.0 -419.0 317.0 -419.0 317.0 -531.0" fill-rule="evenodd" stroke="none"/>
    </g>
    <g id="font_Arial_i0">
      <path d="M73.5 0.0 L214.0 0.0 214.0 -531.0 73.5 -531.0 73.5 0.0 M73.5 -603.0 L214.0 -603.0 214.0 -733.0 73.5 -733.0 73.5 -603.0" fill-rule="evenodd" stroke="none"/>
    </g>
    <g id="font_Arial_o0">
      <path d="M185.0 -265.5 L185.0 -265.5 Q185.0 -344.5 222.5 -386.5 260.0 -428.5 315.0 -428.5 370.0 -428.5 407.5 -386.5 444.5 -344.5 444.5 -266.5 444.5 -186.5 407.5 -144.5 370.0 -102.5 315.0 -102.5 260.0 -102.5 222.5 -144.5 185.0 -186.5 185.0 -265.5 M41.0 -273.0 L41.0 -273.0 Q41.0 -181.5 75.5 -117.5 110.0 -54.0 176.5 -21.0 242.5 12.0 315.5 12.0 433.5 12.0 511.5 -67.0 589.0 -146.5 589.0 -267.0 589.0 -386.5 512.0 -464.5 435.0 -543.0 314.5 -543.0 236.5 -543.0 173.5 -508.5 110.0 -474.0 75.5 -408.5 41.0 -343.0 41.0 -273.0" fill-rule="evenodd" stroke="none"/>
    </g>
    <g id="font_Arial_n0">
      <path d="M556.5 0.0 L556.5 -330.0 Q556.5 -391.5 549.0 -424.5 541.0 -457.5 521.5 -483.5 501.5 -509.5 463.0 -526.0 424.5 -543.0 378.0 -543.0 272.5 -543.0 203.0 -453.0 L203.0 -531.0 72.5 -531.0 72.5 0.0 213.0 0.0 213.0 -240.5 Q213.0 -329.5 224.0 -362.5 234.5 -395.5 263.5 -415.5 292.5 -435.5 329.0 -435.5 357.5 -435.5 378.0 -421.5 398.0 -407.5 407.0 -382.0 416.0 -357.0 416.0 -271.0 L416.0 0.0 556.5 0.0" fill-rule="evenodd" stroke="none"/>
    </g>
    <g id="font_Arial_h0">
      <path d="M213.5 -733.0 L73.0 -733.0 73.0 0.0 213.5 0.0 213.5 -266.0 Q213.5 -333.0 226.5 -367.0 239.0 -401.5 266.5 -418.5 294.0 -435.5 329.0 -435.5 359.5 -435.5 380.0 -422.0 400.0 -409.0 408.0 -386.5 416.0 -364.0 416.0 -280.5 L416.0 0.0 556.5 0.0 556.5 -311.5 Q556.5 -383.0 549.5 -417.0 542.0 -451.0 522.5 -479.0 502.5 -507.0 463.5 -525.0 424.5 -543.0 376.0 -543.0 281.5 -543.0 213.5 -463.5 L213.5 -733.0" fill-rule="evenodd" stroke="none"/>
    </g>
    <g id="font_Arial_r0">
      <path d="M208.0 0.0 L208.0 -164.0 Q208.0 -299.5 220.0 -342.0 231.5 -384.5 252.0 -400.5 272.5 -417.0 302.0 -417.0 332.5 -417.0 368.0 -394.0 L411.5 -516.5 Q367.0 -543.0 319.0 -543.0 285.0 -543.0 258.5 -526.0 231.5 -509.0 198.0 -455.5 L198.0 -531.0 67.5 -531.0 67.5 0.0 208.0 0.0" fill-rule="evenodd" stroke="none"/>
    </g>
    <g id="button0" transform="matrix(1.0, 0.0, 0.0, 1.0, 18.5, 13.5)">
      <use data-characterId="236" height="27.0" transform="matrix(1.0, 0.0, 0.0, 1.0, -18.5, -13.5)" width="37.0" xlink:href="#shape1"/>
      <use data-characterId="237" height="9.45" transform="matrix(1.1667, 0.0, 0.0, 1.25, -11.8, -5.9125)" width="26.2" xlink:href="#text1"/>
    </g>
    <g id="shape1" transform="matrix(1.0, 0.0, 0.0, 1.0, 18.5, 13.5)">
      <path d="M17.5 -12.5 L17.5 12.5 -17.5 12.5 -17.5 -12.5 17.5 -12.5" fill="#ffffff" fill-rule="evenodd" stroke="none"/>
      <path d="M14.2 -12.5 L-14.1 -12.5 Q-15.35 -12.4 -16.3 -11.45 -17.25 -10.5 -17.5 -9.25 L-17.5 9.2 Q-17.35 10.45 -16.4 11.4 -15.45 12.35 -14.2 12.5 L13.3 12.5 14.2 12.5 Q15.45 12.35 16.4 11.4 17.35 10.45 17.5 9.2 L17.5 8.3 17.5 -9.25 Q17.35 -10.5 16.4 -11.45 15.45 -12.4 14.2 -12.5 M13.3 12.5 L13.75 12.5 14.2 12.5 M17.5 9.2 L17.5 8.75 17.5 8.3" fill="none" stroke="#000000" stroke-linecap="round" stroke-linejoin="round" stroke-width="2.0"/>
    </g>
    <g id="text1" transform="matrix(1.0, 0.0, 0.0, 1.0, 0.0, -0.95)">
      <g transform="matrix(1.0, 0.0, 0.0, 1.0, 0.0, 0.0)">
        <use fill="#000000" height="9.45" transform="matrix(0.0098, 0.0, 0.0, 0.0098, 0.0, 9.0)" width="26.2" xlink:href="#font_Arial_Y0"/>
        <use fill="#000000" height="9.45" transform="matrix(0.0098, 0.0, 0.0, 0.0098, 6.65, 9.0)" width="26.2" xlink:href="#font_Arial_E0"/>
        <use fill="#000000" height="9.45" transform="matrix(0.0098, 0.0, 0.0, 0.0098, 13.3, 9.0)" width="26.2" xlink:href="#font_Arial_S0"/>
      </g>
    </g>
    <g id="font_Arial_Y0">
      <path d="M267.0 0.0 L414.5 0.0 414.5 -307.5 684.0 -733.0 513.5 -733.0 344.5 -443.0 172.0 -733.0 -1.5 -733.0 267.0 -308.5 267.0 0.0" fill-rule="evenodd" stroke="none"/>
    </g>
    <g id="font_Arial_E0">
      <path d="M74.5 0.0 L632.0 0.0 632.0 -123.5 222.5 -123.5 222.5 -323.0 590.5 -323.0 590.5 -446.5 222.5 -446.5 222.5 -609.0 618.0 -609.0 618.0 -733.0 74.5 -733.0 74.5 0.0" fill-rule="evenodd" stroke="none"/>
    </g>
    <g id="font_Arial_S0">
      <path d="M37.0 -238.5 L37.0 -238.5 Q51.5 -115.5 126.0 -51.0 200.5 13.0 339.5 13.0 435.0 13.0 499.0 -13.5 563.0 -40.5 598.0 -95.5 633.0 -150.5 633.0 -213.5 633.0 -283.0 604.0 -330.0 574.5 -377.5 523.0 -404.5 471.0 -432.0 363.0 -457.5 255.0 -483.0 227.0 -506.5 205.0 -525.0 205.0 -551.0 205.0 -579.5 228.5 -596.5 265.0 -623.0 329.5 -623.0 392.0 -623.0 423.5 -598.0 454.5 -573.5 464.0 -517.0 L612.0 -523.5 Q608.5 -624.5 539.0 -685.0 469.0 -745.5 331.0 -745.5 246.5 -745.5 187.0 -720.0 127.0 -694.5 95.5 -645.5 63.5 -597.0 63.5 -541.0 63.5 -454.0 131.0 -393.5 179.0 -350.5 298.0 -321.0 390.5 -298.0 416.5 -289.0 454.5 -275.5 470.0 -257.0 485.0 -239.0 485.0 -213.0 485.0 -172.5 449.0 -142.0 412.5 -112.0 341.0 -112.0 273.5 -112.0 234.0 -146.0 194.0 -180.0 181.0 -252.5 L37.0 -238.5" fill-rule="evenodd" stroke="none"/>
    </g>
    <g id="button1" transform="matrix(1.0, 0.0, 0.0, 1.0, 99.5, 13.5)">
      <use data-characterId="239" height="27.0" transform="matrix(1.0, 0.0, 0.0, 1.0, -99.5, -13.5)" width="37.0" xlink:href="#shape2"/>
      <use data-characterId="240" height="9.4" transform="matrix(1.1667, 0.0, 0.0, 1.25, -88.375, -5.9125)" width="20.5" xlink:href="#text2"/>
    </g>
    <g id="shape2" transform="matrix(1.0, 0.0, 0.0, 1.0, 99.5, 13.5)">
      <path d="M-95.1 -12.5 Q-96.35 -12.4 -97.3 -11.45 -98.25 -10.5 -98.5 -9.25 -98.25 -10.5 -97.3 -11.45 -96.35 -12.4 -95.1 -12.5 L-66.8 -12.5 -63.5 -12.5 -63.5 -9.25 -63.5 8.3 -63.5 9.2 Q-63.65 10.45 -64.6 11.4 -65.55 12.35 -66.8 12.5 -65.55 12.35 -64.6 11.4 -63.65 10.45 -63.5 9.2 L-63.5 12.5 -66.8 12.5 -67.7 12.5 -95.2 12.5 Q-96.45 12.35 -97.4 11.4 -98.35 10.45 -98.5 9.2 -98.35 10.45 -97.4 11.4 -96.45 12.35 -95.2 12.5 L-98.5 12.5 -98.5 9.2 -98.5 -9.25 -98.5 -12.5 -95.1 -12.5 M-66.8 -12.5 Q-65.55 -12.4 -64.6 -11.45 -63.65 -10.5 -63.5 -9.25 -63.65 -10.5 -64.6 -11.45 -65.55 -12.4 -66.8 -12.5" fill="#ffffff" fill-rule="evenodd" stroke="none"/>
      <path d="M-98.5 -9.25 Q-98.25 -10.5 -97.3 -11.45 -96.35 -12.4 -95.1 -12.5 L-66.8 -12.5 Q-65.55 -12.4 -64.6 -11.45 -63.65 -10.5 -63.5 -9.25 L-63.5 8.3 -63.5 9.2 -63.5 8.75 -63.5 8.3 M-98.5 -9.25 L-98.5 9.2 Q-98.35 10.45 -97.4 11.4 -96.45 12.35 -95.2 12.5 L-67.7 12.5 -66.8 12.5 Q-65.55 12.35 -64.6 11.4 -63.65 10.45 -63.5 9.2 M-66.8 12.5 L-67.25 12.5 -67.7 12.5" fill="none" stroke="#000000" stroke-linecap="round" stroke-linejoin="round" stroke-width="2.0"/>
    </g>
    <g id="text2" transform="matrix(1.0, 0.0, 0.0, 1.0, -2.25, -0.95)">
      <g transform="matrix(1.0, 0.0, 0.0, 1.0, 0.0, 0.0)">
        <use fill="#000000" height="9.4" transform="matrix(0.0098, 0.0, 0.0, 0.0098, 2.0, 9.0)" width="20.5" xlink:href="#font_Arial_N0"/>
        <use fill="#000000" height="9.4" transform="matrix(0.0098, 0.0, 0.0, 0.0098, 9.2, 9.0)" width="20.5" xlink:href="#font_Arial_O0"/>
      </g>
    </g>
    <g id="font_Arial_N0">
      <path d="M76.0 0.0 L213.5 0.0 213.5 -478.0 509.0 0.0 657.5 0.0 657.5 -733.0 520.0 -733.0 520.0 -243.5 220.0 -733.0 76.0 -733.0 76.0 0.0" fill-rule="evenodd" stroke="none"/>
    </g>
    <g id="font_Arial_O0">
      <path d="M197.0 -367.0 L197.0 -367.0 Q197.0 -493.5 253.0 -556.0 309.0 -619.0 400.5 -619.0 492.0 -619.0 547.5 -557.0 602.5 -495.0 602.5 -369.0 602.5 -241.5 546.0 -177.5 489.0 -114.0 400.5 -114.0 312.0 -114.0 254.5 -178.0 197.0 -242.5 197.0 -367.0 M44.5 -362.0 L44.5 -362.0 Q44.5 -187.0 141.0 -87.0 237.5 12.5 401.0 12.5 562.5 12.5 659.0 -87.5 755.5 -188.0 755.5 -365.5 755.5 -544.5 658.5 -645.0 561.0 -745.5 399.0 -745.5 309.5 -745.5 241.0 -716.5 189.5 -695.0 146.5 -650.5 103.0 -606.0 78.0 -550.0 44.5 -474.0 44.5 -362.0" fill-rule="evenodd" stroke="none"/>
    </g>
  </defs>
</svg>
