<?xml version="1.0" encoding="UTF-8" standalone="no"?>
<svg xmlns:xlink="http://www.w3.org/1999/xlink" height="32.55px" width="30.05px" xmlns="http://www.w3.org/2000/svg">
  <g transform="matrix(1.0, 0.0, 0.0, 1.0, 15.05, 15.0)">
    <use data-characterId="778" height="29.95" transform="matrix(1.0, 0.0, 0.0, 1.0, -15.05, -15.0)" width="30.05" xlink:href="#shape0"/>
    <use data-characterId="613" data-characterName="sc313_fla.regshipengine_130" height="5.45" id="Eng2" transform="matrix(0.75, 0.0, 0.0, 0.7605, 3.475, 13.4198)" width="5.05" xlink:href="#sprite0"/>
    <use data-characterId="613" data-characterName="sc313_fla.regshipengine_130" height="5.45" id="Eng1" transform="matrix(0.75, 0.0, 0.0, 0.7605, -7.375, 13.4198)" width="5.05" xlink:href="#sprite0"/>
  </g>
  <defs>
    <g id="shape0" transform="matrix(1.0, 0.0, 0.0, 1.0, 15.05, 15.0)">
      <path d="M15.0 1.5 L14.95 1.65 14.9 1.55 15.0 1.5 M-15.0 1.6 L-15.0 1.5 -14.95 1.55 -15.0 1.6" fill="#000099" fill-rule="evenodd" stroke="none"/>
      <path d="M5.0 10.9 L5.0 -5.0 7.0 -2.8 8.4 4.5 6.6 12.15 5.0 10.9 6.6 12.15 -0.05 12.15 -6.65 12.15 -8.45 4.5 -7.05 -2.8 -5.05 -5.0 -5.05 10.9 -0.85 10.9 -0.85 -2.95 -5.05 -5.0 -3.35 -7.75 -0.05 -8.9 3.25 -7.75 4.95 -5.0 0.85 -2.95 0.8 -2.95 0.0 -1.05 0.8 -2.95 0.8 10.9 5.0 10.9 M2.2 -6.15 Q2.1 -6.95 1.5 -7.5 0.85 -8.1 -0.05 -8.1 L-0.1 -8.1 Q-1.05 -8.1 -1.7 -7.5 -2.35 -6.95 -2.4 -6.15 L-2.4 -6.0 Q-2.4 -5.15 -1.7 -4.5 -1.05 -3.9 -0.1 -3.9 L-0.05 -3.9 Q0.85 -3.95 1.5 -4.5 2.15 -5.15 2.2 -6.0 L2.2 -6.15 M-0.05 -1.05 L-0.85 -2.95 -0.05 -1.05 0.0 1.45 0.0 -1.05 -0.05 -1.05 M0.8 10.9 L-0.05 12.15 0.0 1.45 -0.05 12.15 0.8 10.9 M-6.65 12.15 L-5.05 10.9 -6.65 12.15 M-0.05 12.15 L-0.85 10.9 -0.05 12.15" fill="#555500" fill-rule="evenodd" stroke="none"/>
      <path d="M-1.8 -10.65 L-1.05 -11.9 1.0 -11.9 1.75 -10.65 1.5 -8.9 -0.05 -9.7 -1.5 -8.9 -1.8 -10.65" fill="#990000" fill-rule="evenodd" stroke="none"/>
      <path d="M2.2 -6.15 L2.2 -6.0 Q2.15 -5.15 1.5 -4.5 0.85 -3.95 -0.05 -3.9 L-0.1 -3.9 Q-1.05 -3.9 -1.7 -4.5 -2.4 -5.15 -2.4 -6.0 L-2.4 -6.15 Q-2.35 -6.95 -1.7 -7.5 -1.05 -8.1 -0.1 -8.1 L-0.05 -8.1 Q0.85 -8.1 1.5 -7.5 2.1 -6.95 2.2 -6.15 M11.35 5.2 Q10.35 5.15 9.7 4.55 9.05 3.95 9.05 3.05 9.05 2.2 9.7 1.6 10.35 1.0 11.35 1.0 12.25 1.0 12.95 1.6 13.6 2.2 13.6 3.05 13.6 3.95 12.95 4.55 12.25 5.15 11.35 5.2 M-9.1 3.05 Q-9.1 3.95 -9.75 4.55 -10.45 5.15 -11.4 5.2 -12.35 5.15 -13.0 4.55 L-13.55 3.65 -13.65 3.05 -13.55 2.5 Q-13.45 2.0 -13.0 1.6 -12.35 1.0 -11.4 1.0 -10.45 1.0 -9.75 1.6 -9.1 2.2 -9.1 3.05" fill="#333300" fill-rule="evenodd" stroke="none"/>
      <path d="M7.1 13.85 L7.65 14.95 3.15 14.95 3.7 13.85 7.1 13.85 M-3.6 13.85 L-3.15 14.85 -7.7 14.85 -7.1 13.85 -7.0 13.75 -3.65 13.75 -3.6 13.85" fill="#5c4832" fill-rule="evenodd" stroke="none"/>
      <path d="M4.95 -5.0 L5.0 -5.0 5.0 10.9 0.8 10.9 0.8 -2.95 0.85 -2.95 4.95 -5.0 M-5.05 -5.0 L-0.85 -2.95 -0.85 10.9 -5.05 10.9 -5.05 -5.0" fill="#7e7e01" fill-rule="evenodd" stroke="none"/>
      <path d="M1.75 -10.65 L2.4 -15.0 9.85 0.0 11.95 -2.15 14.9 1.55 14.95 1.65 12.5 10.3 8.1 13.85 7.1 13.85 3.7 13.85 -3.6 13.85 -3.65 13.75 -7.0 13.75 -7.1 13.85 -8.15 13.85 -12.5 10.3 -15.0 1.6 -14.95 1.55 -12.0 -2.15 -9.9 0.0 -2.45 -15.0 -1.8 -10.65 -1.5 -8.9 -0.05 -9.7 1.5 -8.9 1.75 -10.65 M5.0 -5.0 L4.95 -5.0 3.25 -7.75 -0.05 -8.9 -3.35 -7.75 -5.05 -5.0 -7.05 -2.8 -8.45 4.5 -6.65 12.15 -0.05 12.15 6.6 12.15 8.4 4.5 7.0 -2.8 5.0 -5.0 M11.35 5.2 Q12.25 5.15 12.95 4.55 13.6 3.95 13.6 3.05 13.6 2.2 12.95 1.6 12.25 1.0 11.35 1.0 10.35 1.0 9.7 1.6 9.05 2.2 9.05 3.05 9.05 3.95 9.7 4.55 10.35 5.15 11.35 5.2 M-9.1 3.05 Q-9.1 2.2 -9.75 1.6 -10.45 1.0 -11.4 1.0 -12.35 1.0 -13.0 1.6 -13.45 2.0 -13.55 2.5 L-13.65 3.05 -13.55 3.65 -13.0 4.55 Q-12.35 5.15 -11.4 5.2 -10.45 5.15 -9.75 4.55 -9.1 3.95 -9.1 3.05" fill="url(#gradient0)" fill-rule="evenodd" stroke="none"/>
      <path d="M11.95 -2.15 L12.1 -2.3 15.0 -2.9 15.0 1.5 14.9 1.55 11.95 -2.15 M-15.0 1.5 L-15.0 -2.9 -12.15 -2.3 -12.0 -2.15 -14.95 1.55 -15.0 1.5" fill="#760101" fill-rule="evenodd" stroke="none"/>
      <path d="M9.85 0.0 L11.95 -2.15 12.1 -2.3 M-12.15 -2.3 L-12.0 -2.15 -9.9 0.0 M5.0 -5.0 L4.95 -5.0 3.25 -7.75 -0.05 -8.9 -3.35 -7.75 -5.05 -5.0 -0.85 -2.95 -0.05 -1.05 0.0 1.45 -0.05 12.15 0.8 10.9 0.8 -2.95 0.85 -2.95 4.95 -5.0 M5.0 -5.0 L5.0 10.9 6.6 12.15 8.4 4.5 7.0 -2.8 5.0 -5.0 M2.2 -6.15 Q2.1 -6.95 1.5 -7.5 0.85 -8.1 -0.05 -8.1 L-0.1 -8.1 Q-1.05 -8.1 -1.7 -7.5 -2.35 -6.95 -2.4 -6.15 L-2.4 -6.0 Q-2.4 -5.15 -1.7 -4.5 -1.05 -3.9 -0.1 -3.9 L-0.05 -3.9 Q0.85 -3.95 1.5 -4.5 2.15 -5.15 2.2 -6.0 L2.2 -6.15 M0.0 -1.05 L0.8 -2.95 0.85 -2.95 M0.0 -1.05 L0.0 1.45 M14.9 1.55 L14.95 1.65 M11.35 5.2 Q10.35 5.15 9.7 4.55 9.05 3.95 9.05 3.05 9.05 2.2 9.7 1.6 10.35 1.0 11.35 1.0 12.25 1.0 12.95 1.6 13.6 2.2 13.6 3.05 13.6 3.95 12.95 4.55 12.25 5.15 11.35 5.2 M0.8 10.9 L5.0 10.9 M6.6 12.15 L-0.05 12.15 -6.65 12.15 -8.45 4.5 -7.05 -2.8 -5.05 -5.0 -5.05 10.9 -0.85 10.9 -0.85 -2.95 M-5.05 10.9 L-6.65 12.15 M-9.1 3.05 Q-9.1 2.2 -9.75 1.6 -10.45 1.0 -11.4 1.0 -12.35 1.0 -13.0 1.6 -13.45 2.0 -13.55 2.5 L-13.65 3.05 -13.55 3.65 -13.0 4.55 Q-12.35 5.15 -11.4 5.2 -10.45 5.15 -9.75 4.55 -9.1 3.95 -9.1 3.05 M-0.85 10.9 L-0.05 12.15 M-15.0 1.6 L-14.95 1.55" fill="none" stroke="#000000" stroke-linecap="round" stroke-linejoin="round" stroke-width="0.1"/>
    </g>
    <linearGradient gradientTransform="matrix(0.0183, 0.0, 0.0, 0.0176, 0.0, -0.6)" gradientUnits="userSpaceOnUse" id="gradient0" spreadMethod="pad" x1="-819.2" x2="819.2">
      <stop offset="0.0" stop-color="#483726"/>
      <stop offset="0.47843137254901963" stop-color="#927152"/>
      <stop offset="1.0" stop-color="#4e3c29"/>
    </linearGradient>
    <g id="sprite0" transform="matrix(1.0, 0.0, 0.0, 1.0, 2.5, 0.5)">
      <use data-characterId="606" height="1.0" transform="matrix(1.0, 0.0, 0.0, 1.0, -2.45, -0.5)" width="5.0" xlink:href="#shape1"/>
    </g>
    <g id="shape1" transform="matrix(1.0, 0.0, 0.0, 1.0, 2.45, 0.5)">
      <path d="M-1.95 0.0 L2.05 0.0" fill="none" stroke="#666666" stroke-linecap="round" stroke-linejoin="round" stroke-width="1.0"/>
    </g>
  </defs>
</svg>
