<?xml version="1.0" encoding="UTF-8" standalone="no"?>
<svg xmlns:xlink="http://www.w3.org/1999/xlink" height="11.55px" width="550.1px" xmlns="http://www.w3.org/2000/svg">
  <g transform="matrix(1.0, 0.0, 0.0, 1.0, 0.05, 0.05)">
    <use data-characterId="927" height="11.55" transform="matrix(1.0, 0.0, 0.0, 1.0, -0.05, -0.05)" width="550.1" xlink:href="#shape0"/>
    <use data-characterId="929" height="11.55" id="sliderBar" transform="matrix(1.0, 0.0, 0.0, 1.0, 14.95, -0.05)" width="520.15" xlink:href="#sprite0"/>
  </g>
  <defs>
    <g id="shape0" transform="matrix(1.0, 0.0, 0.0, 1.0, 0.05, 0.05)">
      <path d="M547.65 11.45 L0.5 11.45 0.5 0.0 547.65 0.0 547.65 11.45" fill="#333333" fill-rule="evenodd" stroke="none"/>
      <path d="M547.65 11.45 L0.5 11.45 0.5 0.0 547.65 0.0 547.65 11.45 Z" fill="none" stroke="#333333" stroke-linecap="butt" stroke-linejoin="miter-clip" stroke-miterlimit="3.0" stroke-width="0.1"/>
      <path d="M15.0 0.0 L15.0 11.45 0.0 11.45 0.0 0.0 15.0 0.0" fill="#999999" fill-rule="evenodd" stroke="none"/>
      <path d="M15.0 0.0 L15.0 11.45 0.0 11.45 0.0 0.0 15.0 0.0 Z" fill="none" stroke="#333333" stroke-linecap="butt" stroke-linejoin="miter-clip" stroke-miterlimit="3.0" stroke-width="0.1"/>
      <path d="M550.0 0.0 L550.0 11.45 535.0 11.45 535.0 0.0 550.0 0.0" fill="#999999" fill-rule="evenodd" stroke="none"/>
      <path d="M550.0 0.0 L550.0 11.45 535.0 11.45 535.0 0.0 550.0 0.0 Z" fill="none" stroke="#333333" stroke-linecap="butt" stroke-linejoin="miter-clip" stroke-miterlimit="3.0" stroke-width="0.1"/>
    </g>
    <g id="sprite0" transform="matrix(1.0, 0.0, 0.0, 1.0, 0.05, 0.05)">
      <use data-characterId="928" height="11.55" transform="matrix(1.0, 0.0, 0.0, 1.0, -0.05, -0.05)" width="520.15" xlink:href="#shape1"/>
    </g>
    <g id="shape1" transform="matrix(1.0, 0.0, 0.0, 1.0, 0.05, 0.05)">
      <path d="M520.05 11.45 L0.0 11.45 0.0 0.0 520.05 0.0 520.05 11.45" fill="#999999" fill-rule="evenodd" stroke="none"/>
      <path d="M520.05 11.45 L0.0 11.45 0.0 0.0 520.05 0.0 520.05 11.45 Z" fill="none" stroke="#333333" stroke-linecap="butt" stroke-linejoin="miter-clip" stroke-miterlimit="3.0" stroke-width="0.1"/>
    </g>
  </defs>
</svg>
