<?xml version="1.0" encoding="UTF-8" standalone="no"?>
<svg xmlns:xlink="http://www.w3.org/1999/xlink" height="300.3px" width="300.1px" xmlns="http://www.w3.org/2000/svg">
  <g transform="matrix(1.0, 0.0, 0.0, 1.0, 150.05, 150.25)">
    <use data-characterId="224" height="300.3" transform="matrix(1.0, 0.0, 0.0, 1.0, -150.05, -150.25)" width="300.1" xlink:href="#shape0"/>
  </g>
  <defs>
    <g id="shape0" transform="matrix(1.0, 0.0, 0.0, 1.0, 150.05, 150.25)">
      <path d="M50.1 59.65 Q50.5 54.2 54.25 50.25 58.7 46.05 65.0 46.0 L66.05 46.05 Q71.7 46.4 75.5 50.25 78.85 53.55 79.7 57.95 L80.0 61.0 Q80.0 67.4 75.5 71.5 71.4 76.0 65.0 76.0 L64.1 76.0 Q58.35 75.65 54.25 71.5 50.05 67.4 50.0 61.0 L50.1 59.65 M-80.95 57.85 Q-80.55 52.25 -76.75 48.25 -72.35 44.1 -66.15 44.0 L-66.0 44.0 Q-59.6 44.05 -55.5 48.25 -51.0 52.7 -51.0 59.0 L-51.0 59.6 Q-51.2 65.55 -55.5 69.5 -59.05 73.35 -64.2 73.9 L-66.0 74.0 Q-72.3 74.0 -76.75 69.5 -80.95 65.4 -81.0 59.0 L-80.95 57.85" fill="#000000" fill-rule="evenodd" stroke="none"/>
      <path d="M-44.6 91.25 L-21.2 116.0 -10.1 137.65 -0.7 137.65" fill="none" stroke="#cccccc" stroke-linecap="butt" stroke-linejoin="miter-clip" stroke-miterlimit="3.0" stroke-width="0.1"/>
      <path d="M15.4 -78.95 L18.3 -29.45 M-15.35 -78.85 L-18.25 -29.4" fill="none" stroke="#cccccc" stroke-linecap="butt" stroke-linejoin="miter-clip" stroke-miterlimit="3.0" stroke-width="5.0"/>
      <path d="M31.0 70.0 L21.0 85.0 M-31.0 70.05 L-21.0 85.05" fill="none" stroke="#cccccc" stroke-linecap="butt" stroke-linejoin="miter-clip" stroke-miterlimit="3.0" stroke-width="5.0"/>
      <path d="M0.75 -134.6 L10.1 -118.15 M21.25 112.9 L19.8 112.9 M-0.7 -134.55 L-10.1 -118.05 M-128.45 -18.55 L-128.45 4.15 -125.1 4.15 M-0.7 -17.0 L-24.15 47.95 M-0.7 112.9 L-21.2 112.9 -0.7 75.75" fill="none" stroke="#cccccc" stroke-linecap="butt" stroke-linejoin="miter-clip" stroke-miterlimit="3.0" stroke-width="0.1"/>
      <path d="M10.1 -118.15 L18.3 -150.1 41.45 -3.65 59.75 3.95 70.85 -27.35 71.65 -29.6 81.45 14.75 117.0 29.4 117.0 4.1 113.05 4.1 113.05 -18.65 128.5 -18.65 128.5 4.1 125.15 4.1 125.15 32.7 138.8 38.35 144.75 72.85 150.0 103.6 81.4 86.2 59.3 150.0 39.3 61.85 39.9 60.25 50.1 59.65 50.0 61.0 Q50.05 67.4 54.25 71.5 58.35 75.65 64.1 76.0 L65.0 76.0 Q71.4 76.0 75.5 71.5 80.0 67.4 80.0 61.0 L79.7 57.95 Q78.85 53.55 75.5 50.25 71.7 46.4 66.05 46.05 L70.85 -27.35 M10.1 -118.15 L0.75 -82.05 0.75 -17.1 24.15 47.95 0.75 75.75 0.75 29.4 0.75 -17.1 M144.75 72.85 L89.3 50.5 90.8 57.3 91.05 58.3 81.4 86.2 M81.45 14.75 L89.3 50.5 M125.15 4.1 L117.0 4.1 M117.0 29.4 L125.15 32.7 M50.1 59.65 Q50.5 54.2 54.25 50.25 58.7 46.05 65.0 46.0 L66.05 46.05 M59.75 3.95 L47.85 37.35 39.9 60.25 M24.15 47.95 L0.75 29.4 M90.8 57.3 L79.7 57.95 M59.3 150.0 L64.1 76.0 M41.45 -3.65 L47.85 37.35 M-10.1 -118.05 L-18.25 -149.95 -41.4 -3.55 -47.85 37.35 -39.85 60.25 -39.25 61.85 -59.25 150.0 -81.35 86.2 -150.0 103.6 -144.7 72.85 -138.8 38.35 -125.1 32.7 -125.1 4.15 -117.0 4.15 -117.0 29.4 -125.1 32.7 M-66.15 44.0 L-70.8 -27.3 -71.6 -29.55 -81.4 14.75 -89.25 50.5 -90.8 57.3 -80.95 57.85 Q-80.55 52.25 -76.75 48.25 -72.35 44.1 -66.15 44.0 L-66.0 44.0 Q-59.6 44.05 -55.5 48.25 -51.0 52.7 -51.0 59.0 L-51.0 59.6 -39.85 60.25 M-47.85 37.35 L-59.7 4.0 -70.8 -27.3 M-80.95 57.85 L-81.0 59.0 Q-80.95 65.4 -76.75 69.5 -72.3 74.0 -66.0 74.0 L-64.2 73.9 Q-59.05 73.35 -55.5 69.5 -51.2 65.55 -51.0 59.6 M-0.7 75.75 L-24.15 47.95 M-81.4 14.75 L-117.0 29.4 M-90.8 57.3 L-91.0 58.3 -81.35 86.2 M-144.7 72.85 L-89.25 50.5 M-64.2 73.9 L-59.25 150.0 M-41.4 -3.55 L-59.7 4.0 M19.8 112.9 L-0.7 75.75" fill="none" stroke="#cccccc" stroke-linecap="round" stroke-linejoin="miter-clip" stroke-miterlimit="3.0" stroke-width="0.1"/>
      <path d="M39.9 60.25 L38.8 60.3 M125.15 32.7 L125.15 33.95 M19.8 112.9 L0.75 112.9 0.75 137.65 10.1 137.65 21.25 116.0 44.65 91.25 M-10.1 -118.05 L-0.7 -81.95 M-39.85 60.25 L-38.75 60.3 M-117.0 4.15 L-113.05 4.15 -113.05 -18.55 -128.45 -18.55 M-24.15 47.95 L-0.7 29.4 M-125.1 32.7 L-125.1 33.95" fill="none" stroke="#cccccc" stroke-linecap="round" stroke-linejoin="miter-clip" stroke-miterlimit="3.0" stroke-width="0.1"/>
    </g>
  </defs>
</svg>
