<?xml version="1.0" encoding="UTF-8" standalone="no"?>
<svg xmlns:xlink="http://www.w3.org/1999/xlink" height="67.0px" width="53.0px" xmlns="http://www.w3.org/2000/svg">
  <g transform="matrix(1.0, 0.0, 0.0, 1.0, 27.0, 34.0)">
    <use data-characterId="806" height="67.0" transform="matrix(1.0, 0.0, 0.0, 1.0, -27.0, -34.0)" width="53.0" xlink:href="#shape0"/>
  </g>
  <defs>
    <g id="shape0" transform="matrix(1.0, 0.0, 0.0, 1.0, 27.0, 34.0)">
      <path d="M-26.5 -18.5 L-26.5 21.5 Q-25.85 29.4 -15.5 32.5 L14.5 32.5 Q24.85 29.4 25.5 21.5 L25.5 -18.5 Q19.75 -33.8 -0.5 -33.5 -20.75 -33.8 -26.5 -18.5 Z" fill="none" stroke="#3399ff" stroke-linecap="round" stroke-linejoin="round" stroke-width="1.0"/>
    </g>
  </defs>
</svg>
