<?xml version="1.0" encoding="UTF-8" standalone="no"?>
<svg xmlns:xlink="http://www.w3.org/1999/xlink" height="34.0px" width="132.1px" xmlns="http://www.w3.org/2000/svg">
  <g transform="matrix(1.0, 0.0, 0.0, 1.0, 0.5, 2.3)">
    <use data-characterId="1653" height="16.0" transform="matrix(1.0, 0.0, 0.0, 1.0, -0.5, -0.5)" width="118.1" xlink:href="#shape0"/>
    <use data-characterId="1654" height="34.0" id="ActionLabel" transform="matrix(1.0, 0.0, 0.0, 1.0, 0.0, -2.3)" width="131.6" xlink:href="#text0"/>
  </g>
  <defs>
    <g id="shape0" transform="matrix(1.0, 0.0, 0.0, 1.0, 0.5, 0.5)">
      <path d="M117.1 12.8 Q117.1 13.7 116.05 14.35 115.05 15.0 113.65 15.0 L3.45 15.0 Q2.0 15.0 1.0 14.35 0.0 13.7 0.0 12.8 L0.0 2.2 Q0.0 1.3 1.0 0.65 2.0 0.0 3.45 0.0 L113.65 0.0 Q115.05 0.0 116.05 0.65 117.1 1.3 117.1 2.2 L117.1 12.8" fill="#006699" fill-rule="evenodd" stroke="none"/>
      <path d="M117.1 12.8 L117.1 2.2 Q117.1 1.3 116.05 0.65 115.05 0.0 113.65 0.0 L3.45 0.0 Q2.0 0.0 1.0 0.65 0.0 1.3 0.0 2.2 L0.0 12.8 Q0.0 13.7 1.0 14.35 2.0 15.0 3.45 15.0 L113.65 15.0 Q115.05 15.0 116.05 14.35 117.1 13.7 117.1 12.8 Z" fill="none" stroke="#333333" stroke-linecap="butt" stroke-linejoin="miter-clip" stroke-miterlimit="3.0" stroke-opacity="0.49803922" stroke-width="1.0"/>
    </g>
    <g id="text0" transform="matrix(1.0, 0.0, 0.0, 1.0, 4.0, 2.0)">
      <g transform="matrix(1.0, 0.0, 0.0, 1.0, -4.0, -2.0)">
        <use fill="#ffffff" height="34.0" transform="matrix(0.0117, 0.0, 0.0, 0.0117, 45.4, 11.25)" width="131.6" xlink:href="#font_Trebuchet_MS_a0"/>
        <use fill="#ffffff" height="34.0" transform="matrix(0.0117, 0.0, 0.0, 0.0117, 51.8, 11.25)" width="131.6" xlink:href="#font_Trebuchet_MS_c0"/>
        <use fill="#ffffff" height="34.0" transform="matrix(0.0117, 0.0, 0.0, 0.0117, 57.95, 11.25)" width="131.6" xlink:href="#font_Trebuchet_MS_t0"/>
        <use fill="#ffffff" height="34.0" transform="matrix(0.0117, 0.0, 0.0, 0.0117, 62.7, 11.25)" width="131.6" xlink:href="#font_Trebuchet_MS_i0"/>
        <use fill="#ffffff" height="34.0" transform="matrix(0.0117, 0.0, 0.0, 0.0117, 66.3, 11.25)" width="131.6" xlink:href="#font_Trebuchet_MS_o0"/>
        <use fill="#ffffff" height="34.0" transform="matrix(0.0117, 0.0, 0.0, 0.0117, 73.1, 11.25)" width="131.6" xlink:href="#font_Trebuchet_MS_n0"/>
        <use fill="#ffffff" height="34.0" transform="matrix(0.0117, 0.0, 0.0, 0.0117, 80.2, 11.25)" width="131.6" xlink:href="#font_Trebuchet_MS_g0"/>
      </g>
    </g>
    <g id="font_Trebuchet_MS_a0">
      <path d="M353.5 -252.0 L353.5 -202.0 Q353.5 -89.5 241.0 -89.5 157.5 -89.5 157.5 -161.5 157.5 -258.5 305.5 -258.5 321.5 -258.5 353.5 -252.0 M365.5 -53.5 Q373.0 -30.0 394.5 -10.0 416.0 10.0 443.0 10.0 467.5 10.0 486.5 4.0 505.5 -2.5 521.0 -29.5 478.0 -57.0 478.0 -164.0 L478.0 -278.5 Q478.0 -434.0 421.0 -489.5 364.0 -545.5 241.5 -545.5 152.5 -545.5 88.0 -514.5 L115.0 -417.5 Q162.5 -441.0 233.0 -441.0 352.5 -441.0 352.5 -346.5 322.5 -354.0 300.5 -354.0 172.0 -354.0 102.5 -301.5 32.5 -249.0 32.5 -156.0 32.5 -76.5 82.0 -33.0 131.5 10.0 218.0 10.0 264.0 10.0 306.5 -7.5 348.5 -25.5 365.5 -53.5" fill-rule="evenodd" stroke="none"/>
    </g>
    <g id="font_Trebuchet_MS_c0">
      <path d="M487.5 -493.0 Q418.5 -545.5 325.0 -545.5 189.5 -545.5 111.0 -467.5 32.5 -389.5 32.5 -263.0 32.5 -134.5 104.5 -62.0 176.0 10.0 300.0 10.0 355.5 10.0 396.5 1.0 437.0 -8.0 491.5 -42.0 L445.5 -140.5 Q392.5 -94.5 323.0 -94.5 162.5 -94.5 162.5 -263.0 162.5 -346.5 204.0 -393.5 245.0 -441.0 316.0 -441.0 390.0 -441.0 434.0 -399.5 L487.5 -493.0" fill-rule="evenodd" stroke="none"/>
    </g>
    <g id="font_Trebuchet_MS_t0">
      <path d="M86.5 -435.0 L86.5 -164.0 Q86.5 -80.5 129.5 -35.0 172.5 10.0 252.5 10.0 333.0 10.0 376.5 -5.0 L376.5 -120.0 Q337.5 -95.5 292.5 -95.5 247.5 -95.5 229.5 -119.0 211.5 -143.0 211.5 -200.5 L211.5 -435.0 358.5 -435.0 358.5 -535.5 211.5 -535.5 211.5 -690.5 86.5 -644.5 86.5 -535.5 24.5 -535.5 24.5 -435.0 86.5 -435.0" fill-rule="evenodd" stroke="none"/>
    </g>
    <g id="font_Trebuchet_MS_i0">
      <path d="M101.0 0.0 L227.5 0.0 227.5 -535.5 32.5 -535.5 32.5 -433.0 101.0 -433.0 101.0 0.0 M165.5 -743.0 Q135.5 -743.0 114.5 -721.5 93.0 -700.5 93.0 -670.5 93.0 -640.5 114.5 -619.0 135.5 -598.0 165.5 -598.0 195.5 -598.0 217.0 -619.0 238.0 -640.5 238.0 -670.5 238.0 -700.5 217.0 -721.5 195.5 -743.0 165.5 -743.0" fill-rule="evenodd" stroke="none"/>
    </g>
    <g id="font_Trebuchet_MS_o0">
      <path d="M162.5 -269.0 Q162.5 -351.5 197.0 -397.5 231.5 -443.5 290.0 -443.5 417.0 -443.5 417.0 -269.0 417.0 -184.0 383.0 -138.0 348.5 -92.0 290.0 -92.0 162.5 -92.0 162.5 -269.0 M32.5 -269.0 Q32.5 -142.5 100.5 -66.0 168.0 10.0 290.0 10.0 409.5 10.0 478.5 -65.5 547.0 -141.0 547.0 -269.0 547.0 -397.5 479.5 -471.5 412.0 -545.5 290.0 -545.5 174.0 -545.5 103.5 -468.5 32.5 -391.5 32.5 -269.0" fill-rule="evenodd" stroke="none"/>
    </g>
    <g id="font_Trebuchet_MS_n0">
      <path d="M412.0 0.0 L537.0 0.0 537.0 -328.5 Q537.0 -431.0 482.0 -488.0 426.5 -545.5 331.0 -545.5 231.5 -545.5 180.5 -485.5 L157.5 -535.5 67.5 -535.5 67.5 0.0 192.5 0.0 192.5 -387.0 Q210.0 -410.0 241.5 -425.5 272.5 -441.0 300.0 -441.0 359.5 -441.0 386.0 -409.5 412.0 -378.0 412.0 -309.5 L412.0 0.0" fill-rule="evenodd" stroke="none"/>
    </g>
    <g id="font_Trebuchet_MS_g0">
      <path d="M152.5 -347.5 Q152.5 -390.0 179.5 -417.0 206.5 -444.0 249.5 -444.0 290.5 -444.0 316.5 -416.0 342.0 -388.0 342.0 -347.5 342.0 -298.5 318.0 -270.5 294.0 -242.5 249.5 -242.5 205.0 -242.5 179.0 -271.0 152.5 -300.0 152.5 -347.5 M27.5 137.5 Q127.0 210.0 250.0 210.0 353.0 210.0 426.0 164.0 499.0 117.5 499.0 36.5 499.0 -110.0 316.5 -110.0 290.5 -110.0 254.0 -102.5 217.5 -95.0 202.0 -95.0 167.5 -95.0 167.5 -115.0 167.5 -126.5 191.0 -137.0 214.0 -148.0 217.5 -148.0 L238.0 -145.0 Q260.5 -142.5 274.0 -142.5 359.0 -142.5 415.0 -197.0 470.5 -252.0 470.5 -343.5 470.5 -407.5 439.5 -454.5 L499.0 -498.0 412.5 -576.5 363.5 -519.5 Q315.0 -546.5 243.0 -546.5 151.0 -546.5 88.0 -490.0 25.0 -434.0 25.0 -348.0 25.0 -239.0 116.5 -179.5 88.0 -167.5 66.5 -142.0 45.0 -116.5 45.0 -90.0 45.0 2.5 174.0 2.5 195.0 2.5 236.5 -2.5 278.0 -7.5 299.0 -7.5 376.5 -7.5 376.5 40.0 376.5 68.0 341.5 84.0 306.5 100.0 252.5 100.0 172.0 100.0 106.5 40.0 L27.5 137.5" fill-rule="evenodd" stroke="none"/>
    </g>
  </defs>
</svg>
