<?xml version="1.0" encoding="UTF-8" standalone="no"?>
<svg xmlns:xlink="http://www.w3.org/1999/xlink" height="897.4px" width="1903.15px" xmlns="http://www.w3.org/2000/svg">
  <g transform="matrix(1.0, 0.0, 0.0, 1.0, 254.4, 496.0)">
    <use data-characterId="1299" height="300.05" transform="matrix(1.0, 0.0, 0.0, 1.0, -254.4, -326.9)" width="300.0" xlink:href="#shape0"/>
  </g>
  <defs>
    <g id="shape0" transform="matrix(1.0, 0.0, 0.0, 1.0, 150.0, 150.05)">
      <path d="M144.85 -144.9 Q149.95 -139.8 150.0 -132.55 L150.0 132.5 Q149.95 139.75 144.85 144.85 139.75 149.95 132.5 150.0 L-132.55 150.0 Q-139.8 149.95 -144.9 144.85 -150.05 139.75 -150.0 132.5 L-150.0 -132.55 Q-150.05 -139.8 -144.9 -144.9 -139.8 -150.05 -132.55 -150.05 L132.5 -150.05 Q139.75 -150.05 144.85 -144.9" fill="#000000" fill-opacity="0.6" fill-rule="evenodd" stroke="none"/>
    </g>
  </defs>
</svg>
