<?xml version="1.0" encoding="UTF-8" standalone="no"?>
<svg xmlns:xlink="http://www.w3.org/1999/xlink" height="13.5px" width="8.0px" xmlns="http://www.w3.org/2000/svg">
  <g transform="matrix(1.0, 0.0, 0.0, 1.0, 4.0, 9.5)">
    <use data-characterId="108" height="13.5" transform="matrix(1.0, 0.0, 0.0, 1.0, -4.0, -9.5)" width="8.0" xlink:href="#shape0"/>
  </g>
  <defs>
    <g id="shape0" transform="matrix(1.0, 0.0, 0.0, 1.0, 4.0, 9.5)">
      <path d="M2.5 -2.5 Q3.5 -1.45 3.5 0.05 3.5 1.45 2.5 2.5 1.45 3.5 0.0 3.5 -1.45 3.5 -2.45 2.5 -3.5 1.45 -3.5 0.05 -3.5 -1.45 -2.45 -2.5 -1.45 -3.5 0.0 -3.5 1.45 -3.5 2.5 -2.5" fill="#cccccc" fill-rule="evenodd" stroke="none"/>
      <path d="M2.5 -2.5 Q3.5 -1.45 3.5 0.05 3.5 1.45 2.5 2.5 1.45 3.5 0.0 3.5 -1.45 3.5 -2.45 2.5 -3.5 1.45 -3.5 0.05 -3.5 -1.45 -2.45 -2.5 -1.45 -3.5 0.0 -3.5 1.45 -3.5 2.5 -2.5 Z" fill="none" stroke="#000000" stroke-linecap="round" stroke-linejoin="round" stroke-width="1.0"/>
      <path d="M0.0 -8.5 L0.0 -0.9 -0.05 -0.9 -0.05 1.35" fill="none" stroke="#888888" stroke-linecap="round" stroke-linejoin="round" stroke-width="2.0"/>
    </g>
  </defs>
</svg>
