<?xml version="1.0" encoding="UTF-8" standalone="no"?>
<svg xmlns:xlink="http://www.w3.org/1999/xlink" height="48.5px" width="39.0px" xmlns="http://www.w3.org/2000/svg">
  <g transform="matrix(1.0, 0.0, 0.0, 1.0, 19.5, 22.55)">
    <use data-characterId="754" height="45.0" transform="matrix(1.0, 0.0, 0.0, 1.0, -19.5, -22.55)" width="39.0" xlink:href="#shape0"/>
    <use data-characterId="746" data-characterName="sc313_fla.regcapshipengine_156" height="5.55" id="Eng2" transform="matrix(0.7692, 0.0, 0.0, 0.7519, 2.0577, 21.7241)" width="7.0" xlink:href="#sprite0"/>
    <use data-characterId="746" data-characterName="sc313_fla.regcapshipengine_156" height="5.55" id="Eng1" transform="matrix(0.7692, 0.0, 0.0, 0.7519, -7.3923, 21.7741)" width="7.0" xlink:href="#sprite0"/>
  </g>
  <defs>
    <g id="shape0" transform="matrix(1.0, 0.0, 0.0, 1.0, 19.5, 22.55)">
      <path d="M19.0 -10.45 L19.0 17.0 16.7 17.0 16.7 -10.4 16.75 -10.4 19.0 -10.45 M14.4 17.0 L12.1 17.0 12.1 -10.3 14.4 -10.35 14.4 17.0 M-12.1 17.1 L-14.4 17.1 -14.4 -10.3 -12.1 -10.3 -12.1 17.1 M-16.7 17.1 L-19.0 17.1 -19.0 -10.3 -18.95 -10.4 -16.8 -10.35 -16.7 -10.35 -16.7 17.1 M6.4 -3.4 L6.4 13.15 -0.05 16.3 -0.05 16.25 -6.4 13.15 -6.4 -3.35 0.05 -6.95 6.4 -3.4 M0.15 0.8 Q1.05 0.8 1.7 0.2 2.35 -0.5 2.35 -1.4 2.35 -2.35 1.7 -3.0 L1.2 -3.35 -0.1 -3.65 Q-1.05 -3.7 -1.65 -3.05 -2.35 -2.4 -2.35 -1.45 -2.35 -0.5 -1.65 0.15 L-1.2 0.5 0.05 0.8 0.15 0.8 M1.15 12.85 L1.7 12.45 Q2.35 11.8 2.35 10.85 2.35 9.9 1.7 9.25 1.0 8.6 0.05 8.65 L-1.15 8.95 -1.65 9.3 Q-2.35 9.95 -2.35 10.9 -2.35 11.85 -1.65 12.5 -1.0 13.15 -0.05 13.15 L1.15 12.85" fill="#555555" fill-rule="evenodd" stroke="none"/>
      <path d="M16.7 17.0 L14.4 17.0 14.4 -10.35 16.7 -10.4 16.7 17.0 M12.1 17.0 L9.8 17.0 9.8 -10.3 12.1 -10.3 12.1 17.0 M-9.8 17.1 L-9.85 17.1 -12.1 17.1 -12.1 -10.3 -9.85 -10.25 -9.8 -10.25 -9.8 17.1 M-14.4 17.1 L-16.7 17.1 -16.7 -10.35 -14.45 -10.3 -14.4 -10.3 -14.4 17.1" fill="#777777" fill-rule="evenodd" stroke="none"/>
      <path d="M9.8 17.0 L8.55 19.15 7.65 19.15 2.0 19.15 -2.0 19.15 -7.65 19.2 -8.45 19.2 -9.8 17.1 -9.8 -10.25 -9.85 -10.25 -9.85 -10.3 -5.55 -18.25 0.05 -22.5 0.05 -22.55 5.5 -18.25 9.8 -10.45 9.8 -10.3 9.8 17.0 M4.3 -16.9 L0.05 -20.9 -0.05 -20.85 -4.2 -16.9 -4.3 -16.8 -6.1 -9.65 -0.05 -8.6 -0.05 -8.65 6.1 -9.7 4.3 -16.9 M6.4 -3.4 L0.05 -6.95 -6.4 -3.35 -6.4 13.15 -0.05 16.25 -0.05 16.3 6.4 13.15 6.4 -3.4" fill="#333333" fill-rule="evenodd" stroke="none"/>
      <path d="M7.65 19.15 L9.05 22.45 0.4 22.45 2.0 19.15 7.65 19.15 M-2.0 19.15 L-0.4 22.45 -9.0 22.45 -7.65 19.2 -2.0 19.15" fill="#444444" fill-rule="evenodd" stroke="none"/>
      <path d="M0.05 -20.9 L4.3 -16.9 0.05 -14.85 -0.05 -14.85 -0.05 -14.8 -4.2 -16.9 -0.05 -20.85 0.05 -20.9 M1.2 -3.35 L1.6 -3.05 Q2.25 -2.4 2.3 -1.45 2.25 -0.5 1.6 0.15 1.0 0.75 0.15 0.8 L0.05 0.8 -1.2 0.5 -1.6 0.2 Q-2.25 -0.5 -2.25 -1.4 -2.25 -2.35 -1.6 -3.0 -1.0 -3.6 -0.1 -3.65 L1.2 -3.35 M0.05 8.65 Q0.95 8.65 1.6 9.3 2.3 9.95 2.3 10.9 L2.25 11.35 1.6 12.5 1.55 12.55 1.15 12.85 -0.05 13.15 Q-0.9 13.1 -1.5 12.55 L-1.6 12.45 -2.2 11.35 -2.25 10.85 Q-2.3 9.9 -1.6 9.25 L-1.15 8.95 0.05 8.65 M-0.05 -20.85 L-0.05 -14.85 -0.05 -20.85" fill="#330000" fill-rule="evenodd" stroke="none"/>
      <path d="M9.8 -10.45 L10.4 -13.15 13.8 -13.15 14.4 -10.45 15.0 -13.15 18.4 -13.15 19.0 -10.45 16.75 -10.4 16.75 -10.45 16.7 -10.45 16.7 -10.4 14.4 -10.35 12.1 -10.3 9.8 -10.3 9.8 -10.45 M-18.95 -10.4 L-18.45 -13.0 -15.05 -13.0 -14.45 -10.3 -16.7 -10.35 -16.7 -10.4 -16.8 -10.4 -16.8 -10.35 -18.95 -10.4 M-14.45 -10.35 L-13.85 -13.0 -10.45 -13.0 -9.85 -10.3 -9.85 -10.25 -12.1 -10.3 -14.4 -10.3 -14.45 -10.35" fill="#3300ff" fill-rule="evenodd" stroke="none"/>
      <path d="M4.3 -16.9 L6.1 -9.7 -0.05 -8.65 -0.05 -8.6 -6.1 -9.65 -4.3 -16.8 -4.2 -16.9 -0.05 -14.8 0.05 -14.75 0.05 -14.85 4.3 -16.9 M-0.05 -8.65 L-0.05 -14.8 -0.05 -8.65" fill="#660033" fill-rule="evenodd" stroke="none"/>
      <path d="M9.8 -10.45 L10.4 -13.15 13.8 -13.15 14.4 -10.45 15.0 -13.15 18.4 -13.15 19.0 -10.45 16.75 -10.4 16.7 -10.4 16.7 17.0 M-9.8 17.1 L-9.85 17.1 M-19.0 -10.3 L-19.0 -10.4 -18.95 -10.4 -18.45 -13.0 -15.05 -13.0 -14.45 -10.3 -14.45 -10.35 -13.85 -13.0 -10.45 -13.0 -9.85 -10.3 M9.8 -10.3 L12.1 -10.3 14.4 -10.35 16.7 -10.4 16.7 -10.45 16.75 -10.45 16.75 -10.4 M0.05 -20.9 L4.3 -16.9 6.1 -9.7 -0.05 -8.65 -0.05 -8.6 -6.1 -9.65 -4.3 -16.8 -4.2 -16.9 -0.05 -20.85 -0.05 -14.85 -0.05 -14.8 -4.2 -16.9 M4.3 -16.9 L0.05 -14.85 0.05 -14.75 -0.05 -14.8 -0.05 -8.65 M6.4 -3.4 L6.4 13.15 -0.05 16.3 -0.05 16.25 -6.4 13.15 -6.4 -3.35 0.05 -6.95 6.4 -3.4 M0.15 0.8 Q1.05 0.8 1.7 0.2 2.35 -0.5 2.35 -1.4 2.35 -2.35 1.7 -3.0 L1.2 -3.35 1.6 -3.05 Q2.25 -2.4 2.3 -1.45 2.25 -0.5 1.6 0.15 1.0 0.75 0.15 0.8 L0.05 0.8 -1.2 0.5 -1.65 0.15 Q-2.35 -0.5 -2.35 -1.45 -2.35 -2.4 -1.65 -3.05 -1.05 -3.7 -0.1 -3.65 L1.2 -3.35 M12.1 -10.3 L12.1 17.0 M0.05 8.65 Q0.95 8.65 1.6 9.3 2.3 9.95 2.3 10.9 L2.25 11.35 1.6 12.5 1.55 12.55 1.15 12.85 1.7 12.45 Q2.35 11.8 2.35 10.85 2.35 9.9 1.7 9.25 1.0 8.6 0.05 8.65 L-1.15 8.95 -1.6 9.25 Q-2.3 9.9 -2.25 10.85 L-2.2 11.35 -1.6 12.45 -1.5 12.55 Q-0.9 13.1 -0.05 13.15 L1.15 12.85 M2.0 19.15 L7.65 19.15 M9.8 17.0 L9.8 -10.3 M14.4 -10.35 L14.4 17.0 M-14.45 -10.3 L-14.4 -10.3 -14.4 17.1 M-12.1 -10.3 L-14.4 -10.3 M-16.8 -10.35 L-16.7 -10.35 -16.7 -10.4 -16.7 -10.35 -14.45 -10.3 M-18.95 -10.4 L-19.0 -10.3 M-16.8 -10.35 L-18.95 -10.4 M-0.1 -3.65 Q-1.0 -3.6 -1.6 -3.0 -2.25 -2.35 -2.25 -1.4 -2.25 -0.5 -1.6 0.2 L-1.2 0.5 M-9.85 -10.25 L-9.8 -10.25 -9.8 17.1 M-9.85 -10.25 L-12.1 -10.3 -12.1 17.1 M-1.15 8.95 L-1.65 9.3 Q-2.35 9.95 -2.35 10.9 -2.35 11.85 -1.65 12.5 -1.0 13.15 -0.05 13.15 M-7.65 19.2 L-2.0 19.15 M-16.7 -10.35 L-16.7 17.1 M-0.05 -14.8 L0.05 -14.85" fill="none" stroke="#000000" stroke-linecap="round" stroke-linejoin="round" stroke-width="1.0"/>
    </g>
    <g id="sprite0" transform="matrix(1.0, 0.0, 0.0, 1.0, 3.5, 0.5)">
      <use data-characterId="739" height="1.0" transform="matrix(1.0, 0.0, 0.0, 1.0, -3.5, -0.5)" width="7.0" xlink:href="#shape1"/>
    </g>
    <g id="shape1" transform="matrix(1.0, 0.0, 0.0, 1.0, 3.5, 0.5)">
      <path d="M-3.0 0.0 L3.0 0.0" fill="none" stroke="#666666" stroke-linecap="round" stroke-linejoin="round" stroke-width="1.0"/>
    </g>
  </defs>
</svg>
