Specials: 
--- RECORDSEPARATOR ---
Shows what key to activate it                                        
--- RECORDSEPARATOR ---
            and status (Left of name)
--- RECORDSEPARATOR ---
         