<?xml version="1.0" encoding="UTF-8" standalone="no"?>
<svg xmlns:xlink="http://www.w3.org/1999/xlink" height="35.6px" width="40.1px" xmlns="http://www.w3.org/2000/svg">
  <g transform="matrix(1.0, 0.0, 0.0, 1.0, 20.05, 18.35)">
    <use data-characterId="311" height="35.6" transform="matrix(1.0, 0.0, 0.0, 1.0, -20.05, -18.35)" width="40.1" xlink:href="#shape0"/>
  </g>
  <defs>
    <g id="shape0" transform="matrix(1.0, 0.0, 0.0, 1.0, 20.05, 18.35)">
      <path d="M4.5 -17.1 Q2.0 -18.55 -5.75 -17.25 -10.25 -11.25 -15.5 -10.0 -19.95 -5.0 -19.5 0.0 L-19.5 11.25 Q-14.45 15.2 -7.0 16.75 L7.0 16.75 Q14.45 15.2 19.5 11.25 L19.5 0.0 Q19.95 -5.0 15.5 -10.0 10.25 -11.25 4.5 -17.1 Z" fill="none" stroke="#3399ff" stroke-linecap="butt" stroke-linejoin="miter-clip" stroke-miterlimit="3.0" stroke-width="1.0"/>
    </g>
  </defs>
</svg>
