<?xml version="1.0" encoding="UTF-8" standalone="no"?>
<svg xmlns:xlink="http://www.w3.org/1999/xlink" height="89.6px" width="61.1px" xmlns="http://www.w3.org/2000/svg">
  <g transform="matrix(1.0, 0.0, 0.0, 1.0, 28.1, 47.4)">
    <use data-characterId="121" height="67.25" transform="matrix(1.0, 0.0, 0.0, 1.0, -17.8, -25.05)" width="35.5" xlink:href="#shape0"/>
    <use data-characterId="201" height="40.4" id="itemname" transform="matrix(1.0, 0.0, 0.0, 1.0005, -28.1, -47.401)" width="61.1" xlink:href="#text0"/>
  </g>
  <defs>
    <g id="shape0" transform="matrix(1.0, 0.0, 0.0, 1.0, 17.8, 25.05)">
      <path d="M7.75 -14.55 L5.55 -10.35 5.55 22.95 11.45 32.2 17.2 36.2 17.2 41.7 8.45 41.7 -8.55 41.7 -17.3 41.7 -17.3 36.2 -11.55 32.2 -5.65 22.95 -5.65 -10.35 -7.8 -14.55 -7.8 -24.55 -3.9 -24.55 3.8 -24.55 7.75 -24.55 7.75 -14.55 3.8 -14.55 2.75 -10.35 5.55 -10.35 M-3.9 -24.55 L-3.9 -14.55 3.8 -14.55 3.8 -24.55 M5.55 22.95 L2.75 22.95 5.7 32.2 11.45 32.2 M5.7 32.2 L8.55 36.2 17.2 36.2 M8.55 36.2 L8.45 41.7 M2.75 -10.35 L2.75 22.95 -2.85 22.95 -5.8 32.2 5.7 32.2 M-5.65 -10.35 L-2.85 -10.35 -3.9 -14.55 -7.8 -14.55 M-2.85 22.95 L-5.65 22.95 M-8.55 41.7 L-8.65 36.2 -17.3 36.2 M-11.55 32.2 L-5.8 32.2 -8.65 36.2 8.55 36.2 M-2.85 22.95 L-2.85 -10.35 2.75 -10.35" fill="none" stroke="#ffcc00" stroke-linecap="round" stroke-linejoin="round" stroke-width="1.0"/>
    </g>
    <g id="text0" transform="matrix(1.0, 0.0, 0.0, 1.0, 2.0, 2.0)">
      <g transform="matrix(1.0, 0.0, 0.0, 1.0, -2.0, -2.0)">
        <use fill="#ffffff" height="40.4" transform="matrix(0.0098, 0.0, 0.0, 0.0098, 30.55, 11.0)" width="61.1" xlink:href="#font_Trebuchet_MS_i0"/>
        <use fill="#ffffff" height="40.4" transform="matrix(0.0098, 0.0, 0.0, 0.0098, 30.55, 11.0)" width="61.1" xlink:href="#font_Trebuchet_MS_t0"/>
        <use fill="#ffffff" height="40.4" transform="matrix(0.0098, 0.0, 0.0, 0.0098, 30.55, 11.0)" width="61.1" xlink:href="#font_Trebuchet_MS_e0"/>
        <use fill="#ffffff" height="40.4" transform="matrix(0.0098, 0.0, 0.0, 0.0098, 30.55, 11.0)" width="61.1" xlink:href="#font_Trebuchet_MS_m0"/>
        <use fill="#ffffff" height="40.4" transform="matrix(0.0098, 0.0, 0.0, 0.0098, 30.55, 11.0)" width="61.1" xlink:href="#font_Trebuchet_MS_n0"/>
        <use fill="#ffffff" height="40.4" transform="matrix(0.0098, 0.0, 0.0, 0.0098, 30.55, 11.0)" width="61.1" xlink:href="#font_Trebuchet_MS_f0"/>
      </g>
      <g transform="matrix(1.0, 0.0, 0.0, 1.0, -2.0, -2.0)">
        <use fill="#ffffff" height="40.4" transform="matrix(0.0098, 0.0, 0.0, 0.0098, 30.55, 22.0)" width="61.1" xlink:href="#font_Trebuchet_MS_m0"/>
        <use fill="#ffffff" height="40.4" transform="matrix(0.0098, 0.0, 0.0, 0.0098, 30.55, 22.0)" width="61.1" xlink:href="#font_Trebuchet_MS_e0"/>
      </g>
    </g>
    <g id="font_Trebuchet_MS_i0">
      <path d="M113.5 0.0 L208.5 0.0 208.5 -535.5 40.0 -535.5 40.0 -455.5 113.5 -455.5 113.5 0.0 M165.5 -738.0 L165.5 -738.0 Q141.0 -738.0 124.0 -721.0 107.0 -704.0 107.0 -679.5 107.0 -655.0 124.5 -637.5 141.5 -620.5 165.5 -620.5 190.0 -620.5 207.5 -637.5 224.5 -655.0 224.5 -679.5 224.5 -703.5 207.5 -720.5 190.0 -738.0 165.5 -738.0" fill-rule="evenodd" stroke="none"/>
    </g>
    <g id="font_Trebuchet_MS_t0">
      <path d="M101.5 -460.5 L101.5 -156.5 Q101.5 -84.5 145.5 -37.0 189.0 10.0 252.5 10.0 323.0 10.0 382.0 -5.0 L368.0 -88.5 Q329.0 -70.0 292.5 -70.0 242.0 -70.0 219.5 -98.5 196.5 -127.0 196.5 -194.5 L196.5 -460.5 343.5 -460.5 343.5 -535.5 196.5 -535.5 196.5 -684.0 101.5 -647.5 101.5 -535.5 39.5 -535.5 39.5 -460.5 101.5 -460.5" fill-rule="evenodd" stroke="none"/>
    </g>
    <g id="font_Trebuchet_MS_e0">
      <path d="M288.0 -465.5 L288.0 -465.5 Q356.0 -465.5 395.5 -423.5 431.5 -385.0 431.5 -327.5 L135.0 -327.5 Q140.5 -385.5 181.5 -424.5 224.5 -465.5 288.0 -465.5 M518.5 -258.5 L518.5 -258.5 Q526.0 -285.0 526.0 -316.5 526.0 -419.0 463.0 -481.0 398.0 -545.5 283.5 -545.5 185.0 -545.5 113.0 -474.0 32.5 -394.0 32.5 -261.5 32.5 -134.0 111.0 -58.5 181.5 10.0 282.5 10.0 352.5 10.0 409.5 -11.0 455.0 -27.0 477.0 -49.0 L437.0 -117.5 Q382.5 -70.0 301.0 -70.0 229.5 -70.0 184.0 -114.0 132.5 -164.5 132.5 -258.5 L518.5 -258.5" fill-rule="evenodd" stroke="none"/>
    </g>
    <g id="font_Trebuchet_MS_m0">
      <path d="M687.5 0.0 L782.5 0.0 782.5 -358.0 Q782.5 -447.0 737.0 -496.0 691.5 -545.5 608.5 -545.5 562.5 -545.5 519.0 -525.0 475.5 -504.5 459.5 -474.0 413.5 -545.5 298.5 -545.5 216.0 -545.5 161.0 -473.5 L129.5 -535.5 67.5 -535.5 67.5 0.0 162.5 0.0 162.5 -395.0 Q176.0 -421.5 208.5 -443.5 240.5 -465.5 269.0 -465.5 318.0 -465.5 348.0 -442.5 377.5 -420.0 377.5 -380.5 L377.5 0.0 472.5 0.0 472.5 -396.0 Q483.5 -423.0 513.5 -444.0 543.5 -465.5 578.0 -465.5 687.5 -465.5 687.5 -339.0 L687.5 0.0" fill-rule="evenodd" stroke="none"/>
    </g>
    <g id="font_Trebuchet_MS_n0">
      <path d="M397.0 0.0 L492.0 0.0 492.0 -331.5 Q492.0 -545.5 316.0 -545.5 209.5 -545.5 162.5 -466.5 L132.5 -535.5 67.5 -535.5 67.5 0.0 162.5 0.0 162.5 -398.0 Q181.5 -426.5 217.0 -446.0 252.5 -465.5 285.0 -465.5 345.5 -465.5 371.5 -431.0 397.0 -397.0 397.0 -311.5 L397.0 0.0" fill-rule="evenodd" stroke="none"/>
    </g>
    <g id="font_Trebuchet_MS_f0">
      <path d="M357.0 -670.0 L383.5 -740.0 Q336.0 -755.0 294.5 -755.0 211.5 -755.0 161.0 -696.5 110.5 -638.0 110.5 -535.5 L32.5 -535.5 32.5 -455.5 110.5 -455.5 110.5 0.0 205.5 0.0 205.5 -455.5 314.5 -455.5 314.5 -535.5 205.5 -535.5 Q203.0 -550.0 203.0 -563.5 203.0 -614.0 231.5 -647.0 259.5 -680.0 303.0 -680.0 328.0 -680.0 357.0 -670.0" fill-rule="evenodd" stroke="none"/>
    </g>
  </defs>
</svg>
