<?xml version="1.0" encoding="UTF-8" standalone="no"?>
<svg xmlns:xlink="http://www.w3.org/1999/xlink" height="80.95px" width="71.0px" xmlns="http://www.w3.org/2000/svg">
  <g transform="matrix(1.0, 0.0, 0.0, 1.0, 35.5, 40.45)">
    <use data-characterId="817" height="80.95" transform="matrix(1.0, 0.0, 0.0, 1.0, -35.5, -40.45)" width="71.0" xlink:href="#shape0"/>
  </g>
  <defs>
    <g id="shape0" transform="matrix(1.0, 0.0, 0.0, 1.0, 35.5, 40.45)">
      <path d="M-35.0 -21.8 L-35.0 26.65 Q-34.15 36.25 -20.2 40.0 L20.2 40.0 Q34.1 36.25 35.0 26.65 L35.0 -21.8 Q27.2 -40.35 0.0 -39.95 -27.25 -40.35 -35.0 -21.8 Z" fill="none" stroke="#00ffff" stroke-linecap="round" stroke-linejoin="round" stroke-width="1.0"/>
    </g>
  </defs>
</svg>
