<?xml version="1.0" encoding="UTF-8" standalone="no"?>
<svg xmlns:xlink="http://www.w3.org/1999/xlink" height="41.0px" width="41.0px" xmlns="http://www.w3.org/2000/svg">
  <g transform="matrix(1.0, 0.0, 0.0, 1.0, 20.5, 20.5)">
    <use data-characterId="797" height="41.0" transform="matrix(1.0, 0.0, 0.0, 1.0, -20.5, -20.5)" width="41.0" xlink:href="#shape0"/>
  </g>
  <defs>
    <g id="shape0" transform="matrix(1.0, 0.0, 0.0, 1.0, 20.5, 20.5)">
      <path d="M-10.0 20.0 L-20.0 11.35 -20.0 -2.55 -7.0 -20.0 6.6 -20.0 M-9.5 20.0 L9.95 20.0 19.95 11.35 20.0 -2.55 7.0 -20.0" fill="none" stroke="#00ffff" stroke-linecap="round" stroke-linejoin="round" stroke-width="1.0"/>
    </g>
  </defs>
</svg>
