<?xml version="1.0" encoding="UTF-8" standalone="no"?>
<svg xmlns:xlink="http://www.w3.org/1999/xlink" height="28.8px" width="25.1px" xmlns="http://www.w3.org/2000/svg">
  <g transform="matrix(1.0, 0.0, 0.0, 1.0, 12.55, 12.5)">
    <use data-characterId="891" height="25.05" transform="matrix(1.0, 0.0, 0.0, 1.0, -12.55, -12.5)" width="25.1" xlink:href="#shape0"/>
    <use data-characterId="613" data-characterName="sc313_fla.regshipengine_130" height="5.45" id="Eng2" transform="matrix(0.9615, 0.0, 0.0, 0.8929, 0.7961, 11.4536)" width="5.05" xlink:href="#sprite0"/>
    <use data-characterId="613" data-characterName="sc313_fla.regshipengine_130" height="5.45" id="Eng1" transform="matrix(0.9615, 0.0, 0.0, 0.8929, -5.5539, 11.4036)" width="5.05" xlink:href="#sprite0"/>
  </g>
  <defs>
    <g id="shape0" transform="matrix(1.0, 0.0, 0.0, 1.0, 12.55, 12.5)">
      <path d="M4.85 11.2 L4.85 11.45 4.65 11.45 1.6 11.45 -1.6 11.45 -4.7 11.45 -4.9 11.45 -4.9 11.2 -1.35 11.2 -0.75 10.55 -0.75 9.3 0.7 9.3 0.7 10.55 1.35 11.2 4.85 11.2" fill="#cccccc" fill-rule="evenodd" stroke="none"/>
      <path d="M0.3 -7.5 Q1.1 -7.25 1.35 -3.75 1.1 -4.35 0.3 -4.4 L0.0 -4.4 -0.3 -4.4 Q-1.15 -4.35 -1.35 -3.75 -1.1 -7.25 -0.3 -7.5 L0.0 -7.5 0.3 -7.5" fill="#000000" fill-rule="evenodd" stroke="none"/>
      <path d="M-3.0 -5.35 L-3.45 -2.85 -3.45 -3.15 -3.0 -5.35" fill="#ffff00" fill-rule="evenodd" stroke="none"/>
      <path d="M4.65 11.45 L4.15 12.5 2.05 12.5 1.6 11.45 4.65 11.45 M-1.6 11.45 L-2.1 12.5 -4.25 12.5 -4.7 11.45 -1.6 11.45" fill="#666666" fill-rule="evenodd" stroke="none"/>
      <path d="M9.6 -1.7 L8.85 -1.7 8.6 -1.7 8.75 -3.55 9.75 -3.55 10.0 -1.7 9.6 -1.7 M-9.1 -1.65 L-9.45 -1.65 -9.4 -1.8 -9.25 -3.4 -8.15 -3.4 -8.0 -1.65 -8.35 -1.65 -9.1 -1.65" fill="#cc6600" fill-rule="evenodd" stroke="none"/>
      <path d="M8.85 -1.6 L8.85 -1.7 9.6 -1.7 9.6 -1.6 9.6 3.0 8.85 3.0 8.85 -1.6 M6.1 10.1 L5.5 10.55 5.5 4.95 7.0 3.7 7.0 8.35 7.0 9.3 6.1 10.1 M-8.75 3.0 L-9.1 3.0 -9.1 -1.5 -9.1 -1.65 -8.35 -1.65 -8.35 -1.5 -8.35 2.45 -8.35 3.0 -8.75 3.0 M-7.05 3.7 L-5.55 4.95 -5.55 10.55 -7.05 9.3 -7.05 8.35 -7.05 3.7" fill="#999999" fill-rule="evenodd" stroke="none"/>
      <path d="M4.2 3.05 L4.2 -0.05 6.25 -0.05 6.3 0.0 12.5 7.35 12.5 8.35 7.0 8.35 7.0 3.7 7.0 3.05 4.2 3.05" fill="url(#gradient0)" fill-rule="evenodd" stroke="none"/>
      <path d="M12.5 8.35 L12.5 10.55 5.55 10.55 6.1 10.1 7.0 9.3 7.0 8.35 12.5 8.35" fill="url(#gradient1)" fill-rule="evenodd" stroke="none"/>
      <path d="M-12.5 8.35 L-12.5 7.35 -9.15 3.35 -8.75 3.35 -8.75 3.0 -8.35 3.0 -8.35 2.45 -6.3 0.0 -6.25 -0.05 -4.25 -0.05 -4.25 3.05 -7.05 3.05 -7.05 3.7 -7.05 8.35 -12.5 8.35" fill="url(#gradient2)" fill-rule="evenodd" stroke="none"/>
      <path d="M-5.55 10.55 L-12.5 10.55 -12.5 8.35 -7.05 8.35 -7.05 9.3 -5.55 10.55" fill="url(#gradient3)" fill-rule="evenodd" stroke="none"/>
      <path d="M1.95 -9.75 L2.15 -8.5 4.15 -2.3 4.15 -2.25 4.2 -2.25 4.2 -0.05 4.2 3.05 4.2 3.95 3.4 4.3 3.05 1.7 1.7 -9.75 1.95 -9.75 M2.95 -5.35 L3.45 -2.85 3.45 -3.15 2.95 -5.35" fill="url(#gradient4)" fill-rule="evenodd" stroke="none"/>
      <path d="M0.3 -7.5 L0.0 -7.5 -0.3 -7.5 Q-1.1 -7.25 -1.35 -3.75 -1.15 -4.35 -0.3 -4.4 L0.0 -4.4 0.3 -4.4 Q1.1 -4.35 1.35 -3.75 1.1 -7.25 0.3 -7.5 M1.7 -9.75 L3.05 1.7 3.35 4.3 0.7 4.3 0.7 9.3 -0.75 9.3 -0.75 4.3 -3.45 4.3 -1.75 -9.75 -1.9 -9.75 -1.35 -11.95 -0.05 -12.5 1.35 -11.95 1.7 -9.85 1.7 -9.75" fill="url(#gradient5)" fill-rule="evenodd" stroke="none"/>
      <path d="M3.4 4.3 L4.2 3.95 4.2 3.05 7.0 3.05 7.0 3.7 5.5 4.95 5.5 10.55 4.85 11.2 1.35 11.2 0.7 10.55 0.7 9.3 0.7 4.3 3.35 4.3 3.4 4.3" fill="url(#gradient6)" fill-rule="evenodd" stroke="none"/>
      <path d="M-4.25 -0.05 L-4.25 -2.25 -4.2 -2.25 -4.2 -2.3 -2.25 -8.35 -2.2 -8.5 -1.9 -9.75 -1.75 -9.75 -3.45 4.3 -3.5 4.3 -4.25 3.7 -4.25 3.05 -4.25 -0.05 M-3.0 -5.35 L-3.45 -3.15 -3.45 -2.85 -3.0 -5.35" fill="url(#gradient7)" fill-rule="evenodd" stroke="none"/>
      <path d="M-4.9 11.2 L-5.55 10.55 -5.55 4.95 -7.05 3.7 -7.05 3.05 -4.25 3.05 -4.25 3.7 -3.5 4.3 -3.45 4.3 -0.75 4.3 -0.75 9.3 -0.75 10.55 -1.35 11.2 -4.9 11.2" fill="url(#gradient8)" fill-rule="evenodd" stroke="none"/>
      <path d="M2.15 -8.5 L2.25 -8.35 5.3 -5.3 4.15 -2.3 2.15 -8.5 M-4.2 -2.3 L-5.35 -5.3 -2.25 -8.35 -4.2 -2.3" fill="#bfbfbf" fill-rule="evenodd" stroke="none"/>
      <path d="M2.15 -8.5 L1.95 -9.75 2.0 -9.75 5.5 -6.25 5.3 -5.3 2.25 -8.35 2.15 -8.5 M-5.35 -5.3 L-5.5 -6.25 -2.05 -9.75 -1.9 -9.75 -2.2 -8.5 -2.25 -8.35 -5.35 -5.3" fill="#660000" fill-rule="evenodd" stroke="none"/>
      <path d="M1.7 -9.75 L3.05 1.7 3.35 4.3 3.4 4.3 M4.2 3.05 L4.2 -0.05 M1.7 -9.85 L1.7 -9.75 M6.1 10.1 L5.5 10.55 4.85 11.2 4.85 11.45 4.65 11.45 M1.6 11.45 L-1.6 11.45 M-4.7 11.45 L-4.9 11.45 -4.9 11.2 -5.55 10.55 -7.05 9.3 -7.05 8.35 -12.5 8.35 M-1.75 -9.75 L-3.45 4.3 -0.75 4.3 -0.75 9.3 0.7 9.3 0.7 4.3 3.35 4.3 M7.0 3.7 L5.5 4.95 5.5 10.55 M7.0 3.7 L7.0 3.05 4.2 3.05 M0.7 9.3 L0.7 10.55 1.35 11.2 4.85 11.2 M6.1 10.1 L7.0 9.3 7.0 8.35 7.0 3.7 M12.5 8.35 L7.0 8.35 M-4.25 3.05 L-4.25 3.7 -3.5 4.3 -3.45 4.3 M-4.25 3.05 L-7.05 3.05 -7.05 3.7 -5.55 4.95 -5.55 10.55 M-4.9 11.2 L-1.35 11.2 -0.75 10.55 -0.75 9.3 M-7.05 3.7 L-7.05 8.35 M-4.25 -0.05 L-4.25 3.05" fill="none" stroke="#000000" stroke-linecap="round" stroke-linejoin="round" stroke-width="0.1"/>
      <path d="M4.65 11.45 L4.15 12.5 2.05 12.5 1.6 11.45 4.65 11.45 M-1.6 11.45 L-2.1 12.5 -4.25 12.5 -4.7 11.45 -1.6 11.45" fill="none" stroke="#666666" stroke-linecap="round" stroke-linejoin="round" stroke-width="0.1"/>
      <path d="M9.6 -1.7 L8.85 -1.7 8.6 -1.7 8.75 -3.55 9.75 -3.55 10.0 -1.7 9.6 -1.7 M-9.1 -1.5 L-9.1 -1.65 -9.45 -1.65 -9.4 -1.8 -9.25 -3.4 -8.15 -3.4 -8.0 -1.65 -8.35 -1.65 -8.35 -1.5 M-8.35 -1.65 L-9.1 -1.65" fill="none" stroke="#cc6600" stroke-linecap="round" stroke-linejoin="round" stroke-width="0.5"/>
      <path d="M8.85 -1.6 L8.85 3.0 M9.6 3.0 L9.6 -1.6 M-9.1 3.0 L-9.1 -1.5 M-8.35 -1.5 L-8.35 2.45 -8.35 3.0" fill="none" stroke="#999999" stroke-linecap="round" stroke-linejoin="round" stroke-width="0.5"/>
      <path d="M8.85 -1.7 L8.85 -1.6 M9.6 -1.6 L9.6 -1.7" fill="none" stroke="#666666" stroke-linecap="round" stroke-linejoin="round" stroke-width="0.5"/>
      <path d="M3.4 4.3 L4.2 3.95 4.2 3.05 M4.15 -2.3 L2.15 -8.5 M-4.25 -2.25 L-4.2 -2.25 M-1.9 -9.75 L-1.75 -9.75 M3.4 4.3 L3.35 4.3 M-2.2 -8.5 L-2.25 -8.35 -4.2 -2.3" fill="none" stroke="#000000" stroke-linecap="round" stroke-linejoin="round" stroke-width="0.05"/>
    </g>
    <linearGradient gradientTransform="matrix(0.0051, 0.0, 0.0, 0.0051, 8.35, 4.15)" gradientUnits="userSpaceOnUse" id="gradient0" spreadMethod="pad" x1="-819.2" x2="819.2">
      <stop offset="0.0" stop-color="#c8c8c8"/>
      <stop offset="1.0" stop-color="#515151"/>
    </linearGradient>
    <linearGradient gradientTransform="matrix(0.0042, 0.0, 0.0, 0.0013, 9.0, 9.45)" gradientUnits="userSpaceOnUse" id="gradient1" spreadMethod="pad" x1="-819.2" x2="819.2">
      <stop offset="0.0" stop-color="#fd0202"/>
      <stop offset="0.9568627450980393" stop-color="#6f0000"/>
    </linearGradient>
    <linearGradient gradientTransform="matrix(0.005, 0.0, 0.0, 0.0051, -8.4, 4.15)" gradientUnits="userSpaceOnUse" id="gradient2" spreadMethod="pad" x1="-819.2" x2="819.2">
      <stop offset="0.0196078431372549" stop-color="#515151"/>
      <stop offset="1.0" stop-color="#c8c8c8"/>
    </linearGradient>
    <linearGradient gradientTransform="matrix(0.0042, 0.0, 0.0, 0.0013, -9.05, 9.45)" gradientUnits="userSpaceOnUse" id="gradient3" spreadMethod="pad" x1="-819.2" x2="819.2">
      <stop offset="0.0" stop-color="#fd0202"/>
      <stop offset="0.9568627450980393" stop-color="#6f0000"/>
    </linearGradient>
    <radialGradient cx="0" cy="0" gradientTransform="matrix(0.0087, 0.0, 0.0, 0.0087, 2.95, -2.75)" gradientUnits="userSpaceOnUse" id="gradient4" r="819.2" spreadMethod="pad">
      <stop offset="0.0" stop-color="#d0d0d0"/>
      <stop offset="1.0" stop-color="#747794"/>
    </radialGradient>
    <radialGradient cx="0" cy="0" gradientTransform="matrix(0.0134, 0.0, 0.0, 0.0134, -0.05, -1.6)" gradientUnits="userSpaceOnUse" id="gradient5" r="819.2" spreadMethod="pad">
      <stop offset="0.0" stop-color="#d0d0d0"/>
      <stop offset="1.0" stop-color="#747794"/>
    </radialGradient>
    <radialGradient cx="0" cy="0" gradientTransform="matrix(0.0063, 0.0, 0.0, 0.0063, 3.85, 7.15)" gradientUnits="userSpaceOnUse" id="gradient6" r="819.2" spreadMethod="pad">
      <stop offset="0.0" stop-color="#d0d0d0"/>
      <stop offset="1.0" stop-color="#747794"/>
    </radialGradient>
    <radialGradient cx="0" cy="0" gradientTransform="matrix(0.0087, 0.0, 0.0, 0.0087, -3.0, -2.7)" gradientUnits="userSpaceOnUse" id="gradient7" r="819.2" spreadMethod="pad">
      <stop offset="0.0" stop-color="#d0d0d0"/>
      <stop offset="1.0" stop-color="#747794"/>
    </radialGradient>
    <radialGradient cx="0" cy="0" gradientTransform="matrix(0.0063, 0.0, 0.0, 0.0063, -3.9, 7.15)" gradientUnits="userSpaceOnUse" id="gradient8" r="819.2" spreadMethod="pad">
      <stop offset="0.0" stop-color="#d0d0d0"/>
      <stop offset="1.0" stop-color="#747794"/>
    </radialGradient>
    <g id="sprite0" transform="matrix(1.0, 0.0, 0.0, 1.0, 2.5, 0.5)">
      <use data-characterId="606" height="1.0" transform="matrix(1.0, 0.0, 0.0, 1.0, -2.45, -0.5)" width="5.0" xlink:href="#shape1"/>
    </g>
    <g id="shape1" transform="matrix(1.0, 0.0, 0.0, 1.0, 2.45, 0.5)">
      <path d="M-1.95 0.0 L2.05 0.0" fill="none" stroke="#666666" stroke-linecap="round" stroke-linejoin="round" stroke-width="1.0"/>
    </g>
  </defs>
</svg>
