<?xml version="1.0" encoding="UTF-8" standalone="no"?>
<svg xmlns:xlink="http://www.w3.org/1999/xlink" height="48.4px" width="29.3px" xmlns="http://www.w3.org/2000/svg">
  <g transform="matrix(1.0, 0.0, 0.0, 1.0, 14.6, 22.5)">
    <use data-characterId="212" height="45.0" transform="matrix(1.0, 0.0, 0.0, 1.0, -14.6, -22.5)" width="29.3" xlink:href="#shape0"/>
    <use data-characterId="192" data-characterName="sc346_fla.regcapshipengine_180" height="6.25" id="Eng2" transform="matrix(0.7487, 0.0, 0.0, 0.7508, 1.281, 21.199)" width="9.0" xlink:href="#sprite0"/>
    <use data-characterId="192" data-characterName="sc346_fla.regcapshipengine_180" height="6.25" id="Eng1" transform="matrix(0.7487, 0.0, 0.0, 0.7508, -7.969, 21.099)" width="9.0" xlink:href="#sprite0"/>
  </g>
  <defs>
    <g id="shape0" transform="matrix(1.0, 0.0, 0.0, 1.0, 14.6, 22.5)">
      <path d="M10.95 -10.65 L10.9 -10.65 10.6 -11.7 14.05 -11.7 13.75 -10.65 13.65 -10.65 10.95 -10.65 M-13.7 -10.65 L-13.95 -11.7 -10.55 -11.7 -10.85 -10.65 -10.9 -10.65 -13.7 -10.65 M-1.55 -3.1 L-1.5 -3.15 -1.15 -3.4 -1.55 -3.1 M-1.55 9.05 L-1.5 9.0 -1.15 8.75 -1.55 9.05" fill="#990000" fill-rule="evenodd" stroke="none"/>
      <path d="M10.95 -6.75 L10.95 -10.65 13.65 -10.65 13.65 -0.5 10.95 -6.75 M-13.75 -0.15 L-13.7 -10.65 -10.9 -10.65 -10.9 -6.75 -13.75 -0.15 M0.0 -6.85 L0.05 -6.8 0.1 -6.85 Q2.4 -5.1 4.65 -3.3 L4.65 13.15 0.1 16.3 -4.55 13.15 -4.55 -3.35 0.0 -6.85" fill="#666666" fill-rule="evenodd" stroke="none"/>
      <path d="M0.0 -20.8 L0.1 -20.8 4.2 -16.8 4.25 -16.7 6.0 -9.6 0.1 -8.55 0.1 -8.6 0.05 -8.6 -5.85 -9.65 -4.1 -16.75 -4.05 -16.85 0.0 -20.8 0.05 -14.8 0.0 -20.8 M0.1 -14.75 L0.05 -14.8 0.05 -14.7 0.1 -14.65 0.1 -14.75 4.2 -16.8 0.1 -14.75 M0.05 -8.6 L0.05 -14.7 0.05 -8.6 M0.05 -14.8 L-4.05 -16.85 0.05 -14.8" fill="#000099" fill-rule="evenodd" stroke="none"/>
      <path d="M-9.3 -10.2 L-9.3 -10.25 -6.25 -16.75 -5.3 -18.2 0.05 -22.5 0.1 -22.45 5.4 -18.15 6.35 -16.7 9.45 -10.2 9.45 13.8 8.35 19.2 7.5 19.2 2.0 19.2 -1.9 19.2 -7.4 19.15 -8.25 19.15 -9.3 13.75 -9.3 -10.2 M0.1 -20.8 L0.05 -20.85 0.0 -20.8 -4.05 -16.85 -4.1 -16.85 -4.1 -16.75 -5.85 -9.65 0.05 -8.6 0.05 -8.55 0.05 -8.5 0.1 -8.55 6.0 -9.6 4.25 -16.7 4.2 -16.8 0.1 -20.8 M0.05 -6.9 L0.0 -6.85 -4.55 -3.35 -4.55 13.15 0.1 16.3 4.65 13.15 4.65 -3.3 Q2.4 -5.1 0.1 -6.85 L0.1 -6.95 0.05 -6.9" fill="#444444" fill-rule="evenodd" stroke="none"/>
      <path d="M9.45 -10.2 L10.95 -6.75 13.65 -0.5 13.8 -0.15 13.8 3.9 9.45 13.8 9.45 -10.2 M-9.3 13.75 L-9.4 13.8 -13.75 3.9 -13.75 -0.15 -10.9 -6.75 -9.4 -10.2 -9.3 -10.2 -9.3 13.75" fill="#555555" fill-rule="evenodd" stroke="none"/>
      <path d="M7.5 19.2 L8.85 22.5 0.45 22.5 2.0 19.2 7.5 19.2 M-1.9 19.2 L-0.35 22.45 -8.7 22.45 -7.4 19.15 -1.9 19.2" fill="#333333" fill-rule="evenodd" stroke="none"/>
      <path d="M10.95 -10.65 L10.9 -10.65 10.6 -11.7 14.05 -11.7 13.75 -10.65 13.65 -10.65 10.95 -10.65 M-13.7 -10.65 L-13.95 -11.7 -10.55 -11.7 -10.85 -10.65 -10.9 -10.65 -13.7 -10.65" fill="none" stroke="#990000" stroke-linecap="butt" stroke-linejoin="miter-clip" stroke-miterlimit="3.0" stroke-width="1.0"/>
      <path d="M-9.3 -10.2 L-9.3 13.75 M0.1 -20.8 L0.05 -20.85 0.0 -20.8 0.05 -14.8 0.1 -14.75 4.2 -16.8 4.25 -16.7 6.0 -9.6 0.1 -8.55 0.05 -8.5 0.05 -8.55 0.05 -8.6 -5.85 -9.65 -4.1 -16.75 -4.1 -16.85 -4.05 -16.85 0.0 -20.8 M0.1 -20.8 L4.2 -16.8 M0.05 -14.8 L0.05 -14.7 0.1 -14.75 0.1 -14.65 0.05 -14.7 0.05 -8.6 0.1 -8.6 0.1 -8.55 0.05 -8.55 M0.05 -6.8 L0.05 -6.9 0.0 -6.85 -4.55 -3.35 -4.55 13.15 0.1 16.3 4.65 13.15 4.65 -3.3 Q2.4 -5.1 0.1 -6.85 L0.05 -6.8 M0.1 -6.85 L0.05 -6.9 0.1 -6.95 0.1 -6.85 M10.95 -6.75 L13.65 -0.5 M-4.05 -16.85 L0.05 -14.8 M-10.9 -6.75 L-13.75 -0.15 M-1.9 19.2 L-7.4 19.15 M7.5 19.2 L2.0 19.2 M9.45 -10.2 L9.45 13.8" fill="none" stroke="#000000" stroke-linecap="butt" stroke-linejoin="miter-clip" stroke-miterlimit="3.0" stroke-width="1.0"/>
      <path d="M1.2 0.45 L1.7 0.05 Q2.35 -0.65 2.35 -1.55 2.35 -2.5 1.7 -3.15 1.0 -3.8 0.1 -3.8 L-1.05 -3.5 0.05 -3.75 Q0.95 -3.75 1.6 -3.1 2.25 -2.45 2.25 -1.5 L2.2 -1.0 1.6 0.1 1.2 0.45 0.9 0.55 0.1 0.7 Q-0.85 0.7 -1.5 0.05 L-2.1 -1.0 -2.15 -1.55 Q-2.15 -2.45 -1.55 -3.1 -2.25 -2.45 -2.2 -1.5 -2.25 -0.6 -1.55 0.1 -1.2 0.45 -0.75 0.6 L0.05 0.75 1.2 0.45 M-1.55 -3.1 L-1.5 -3.15 -1.15 -3.4 -1.05 -3.5 M-1.55 -3.1 L-1.15 -3.4 M-1.15 8.75 L-1.05 8.65 Q-0.55 8.35 0.1 8.35 1.0 8.35 1.7 9.0 2.3 9.65 2.35 10.55 L2.35 10.6 Q2.35 11.55 1.7 12.2 L1.2 12.6 0.9 12.7 0.1 12.85 Q-0.85 12.85 -1.5 12.2 L-2.1 11.15 -2.15 10.6 -2.15 10.55 Q-2.15 9.7 -1.55 9.05 -2.2 9.65 -2.2 10.55 L-2.2 10.65 Q-2.25 11.55 -1.55 12.25 -1.2 12.6 -0.75 12.75 L0.05 12.9 1.2 12.6 1.6 12.25 2.2 11.15 2.25 10.65 2.25 10.55 Q2.25 9.65 1.6 9.05 0.95 8.4 0.05 8.4 L-1.05 8.65 M-1.55 9.05 L-1.5 9.0 -1.15 8.75 -1.55 9.05 Z" fill="none" stroke="#999999" stroke-linecap="butt" stroke-linejoin="miter-clip" stroke-miterlimit="3.0" stroke-width="1.0"/>
    </g>
    <g id="sprite0" transform="matrix(1.0, 0.0, 0.0, 1.0, 4.5, 1.2)">
      <use data-characterId="185" height="1.0" transform="matrix(1.0, 0.0, 0.0, 1.0, -3.5, -0.5)" width="7.0" xlink:href="#shape1"/>
    </g>
    <g id="shape1" transform="matrix(1.0, 0.0, 0.0, 1.0, 3.5, 0.5)">
      <path d="M-3.0 0.0 L3.0 0.0" fill="none" stroke="#666666" stroke-linecap="butt" stroke-linejoin="miter-clip" stroke-miterlimit="3.0" stroke-width="1.0"/>
    </g>
  </defs>
</svg>
