<?xml version="1.0" encoding="UTF-8" standalone="no"?>
<svg xmlns:xlink="http://www.w3.org/1999/xlink" height="8.7px" width="38.7px" xmlns="http://www.w3.org/2000/svg">
  <g transform="matrix(1.0, 0.0, 0.0, 1.0, 19.25, -0.35)">
    <use data-characterId="801" height="4.45" transform="matrix(1.0, 0.0, 0.0, 1.0, -19.2, 4.6)" width="38.65" xlink:href="#shape0"/>
    <use data-characterId="803" height="4.45" id="structperc" transform="matrix(1.0, 0.0, 0.0, 1.0, -19.2, 4.6)" width="38.65" xlink:href="#sprite0"/>
    <use data-characterId="805" height="4.25" id="shieldperc" transform="matrix(1.0, 0.0, 0.0, 1.0, -19.25, 0.35)" width="38.7" xlink:href="#sprite1"/>
  </g>
  <defs>
    <g id="shape0" transform="matrix(1.0, 0.0, 0.0, 1.0, 19.2, -4.6)">
      <path d="M18.95 5.15 L18.95 8.55 -18.65 8.55 -18.7 5.1 18.95 5.15" fill="#002200" fill-rule="evenodd" stroke="none"/>
      <path d="M18.95 5.15 L-18.7 5.1 -18.65 8.55 18.95 8.55 18.95 5.15 Z" fill="none" stroke="#003300" stroke-linecap="round" stroke-linejoin="round" stroke-width="1.0"/>
    </g>
    <g id="sprite0" transform="matrix(1.0, 0.0, 0.0, 1.0, 0.2, 0.5)">
      <use data-characterId="802" height="4.45" transform="matrix(1.0, 0.0, 0.0, 1.0, -0.2, -0.5)" width="38.65" xlink:href="#shape1"/>
    </g>
    <g id="shape1" transform="matrix(1.0, 0.0, 0.0, 1.0, 0.2, 0.5)">
      <path d="M3.05 0.05 L37.95 0.05 37.95 3.45 0.35 3.45 0.35 2.6 0.35 0.05 3.05 0.05" fill="#006600" fill-rule="evenodd" stroke="none"/>
      <path d="M0.35 2.6 L0.35 3.45 37.95 3.45 37.95 0.05 3.05 0.05 0.3 0.0 0.35 2.6 Z" fill="none" stroke="#003300" stroke-linecap="round" stroke-linejoin="round" stroke-width="1.0"/>
    </g>
    <g id="sprite1" transform="matrix(1.0, 0.0, 0.0, 1.0, 0.75, 0.6)">
      <use data-characterId="804" height="4.25" transform="matrix(1.0, 0.0, 0.0, 1.0, -0.75, -0.6)" width="38.7" xlink:href="#shape2"/>
    </g>
    <g id="shape2" transform="matrix(1.0, 0.0, 0.0, 1.0, 0.75, 0.6)">
      <path d="M37.45 3.15 L-0.25 3.15 -0.25 -0.1 37.45 -0.1 37.45 3.15" fill="#0066cc" fill-rule="evenodd" stroke="none"/>
      <path d="M37.45 3.15 L-0.25 3.15 -0.25 -0.1 37.45 -0.1 37.45 3.15 Z" fill="none" stroke="#336699" stroke-linecap="round" stroke-linejoin="round" stroke-width="1.0"/>
    </g>
  </defs>
</svg>
