<?xml version="1.0" encoding="UTF-8" standalone="no"?>
<svg xmlns:xlink="http://www.w3.org/1999/xlink" height="21.05px" width="17.0px" xmlns="http://www.w3.org/2000/svg">
  <g transform="matrix(1.0, 0.0, 0.0, 1.0, 8.5, 10.45)">
    <use data-characterId="255" height="21.05" transform="matrix(1.0, 0.0, 0.0, 1.0, -8.5, -10.45)" width="17.0" xlink:href="#shape0"/>
  </g>
  <defs>
    <g id="shape0" transform="matrix(1.0, 0.0, 0.0, 1.0, 8.5, 10.45)">
      <path d="M-0.55 -8.85 L-0.55 -8.4 -2.0 -3.45 -4.05 -3.45 -2.0 -3.45 -0.55 -8.4 -0.55 -8.85 M-3.95 9.7 L-8.0 9.7 -4.05 6.2 -4.2 6.2 -4.2 -3.1 -4.05 -3.45 -2.8 -6.6 Q-1.8 -8.85 -0.8 -9.55 L-0.55 -9.75 -0.4 -9.8 Q0.4 -10.2 1.2 -9.55 2.1 -8.8 3.05 -6.6 L4.05 -3.5 4.2 -3.1 4.2 6.2 4.05 6.2 8.0 9.7 3.95 9.7 1.75 7.35 3.95 9.7 -0.4 9.7 -0.4 6.2 2.0 6.2 1.75 7.35 2.0 6.2 -0.4 6.2 -0.4 9.7 -3.95 9.7 -1.7 7.35 -3.95 9.7 M0.6 -6.6 L0.65 -8.05 0.6 -6.6 M2.0 -3.5 L-2.0 -3.45 2.0 -3.5 0.65 -8.05 0.5 -8.5 0.55 -8.85 0.5 -8.5 0.65 -8.05 2.0 -3.5 4.05 -3.5 2.0 -3.5 M-2.0 6.2 L-4.05 6.2 -3.5 5.7 -4.05 6.2 -2.0 6.2 -0.4 6.2 -2.0 6.2 -4.4 9.35 -2.0 6.2 M3.5 5.7 L4.05 6.2 2.0 6.2 4.05 6.2 3.5 5.7" fill="#000000" fill-rule="evenodd" stroke="none"/>
      <path d="M-4.05 -3.45 L-2.0 -3.45 -0.55 -8.4 -0.55 -8.85 M-3.95 9.7 L-8.0 9.7 -4.05 6.2 -4.2 6.2 -4.2 -3.1 -4.05 -3.45 -2.8 -6.6 Q-1.8 -8.85 -0.8 -9.55 L-0.55 -9.75 -0.4 -9.8 Q0.4 -10.2 1.2 -9.55 2.1 -8.8 3.05 -6.6 L4.05 -3.5 4.2 -3.1 4.2 6.2 4.05 6.2 8.0 9.7 3.95 9.7 -0.4 9.7 -3.95 9.7 M0.55 -8.85 L0.5 -8.5 0.65 -8.05 2.0 -3.5 4.05 -3.5 M-2.0 -3.45 L2.0 -3.5 M1.75 7.35 L2.0 6.2 -0.4 6.2 -0.4 9.7 M2.0 6.2 L4.05 6.2 3.5 5.7 M-0.4 6.2 L-2.0 6.2 -4.4 9.35 M-3.5 5.7 L-4.05 6.2 -2.0 6.2" fill="none" stroke="#000000" stroke-linecap="round" stroke-linejoin="round" stroke-width="1.0"/>
      <path d="M3.95 9.7 L4.4 10.1 M-3.95 9.7 L-4.4 10.1" fill="none" stroke="#ffffff" stroke-linecap="round" stroke-linejoin="round" stroke-width="1.0"/>
      <path d="M0.65 -8.05 L0.6 -6.6" fill="none" stroke="#0033cc" stroke-linecap="round" stroke-linejoin="round" stroke-width="1.0"/>
      <path d="M3.95 9.7 L1.75 7.35 M-3.95 9.7 L-1.7 7.35" fill="none" stroke="#0000ff" stroke-linecap="round" stroke-linejoin="round" stroke-width="1.0"/>
    </g>
  </defs>
</svg>
