<?xml version="1.0" encoding="UTF-8" standalone="no"?>
<svg xmlns:xlink="http://www.w3.org/1999/xlink" height="260.5px" width="239.3px" xmlns="http://www.w3.org/2000/svg">
  <g transform="matrix(1.0, 0.0, 0.0, 1.0, 50.75, 87.5)">
    <use data-characterId="1767" height="193.45" transform="matrix(1.0, 0.0, 0.0, 1.0, -50.75, -53.95)" width="239.3" xlink:href="#shape0"/>
    <use data-characterId="1768" height="10.9" transform="matrix(1.0, 0.0, 0.0, 1.0, 26.95, -46.85)" width="89.55" xlink:href="#text0"/>
    <use data-characterId="1769" height="133.75" id="information" transform="matrix(1.0, 0.0, 0.0, 1.0, -38.0, -25.75)" width="216.95" xlink:href="#text1"/>
    <use data-characterId="1759" height="28.0" id="butt" transform="matrix(1.0, 0.0, 0.0, 1.0, 48.4, 145.0)" width="136.0" xlink:href="#sprite0"/>
    <use data-characterId="1770" height="39.1" id="bottominfo" transform="matrix(1.0, 0.0, 0.0, 1.0029, -47.0, 108.7943)" width="230.95" xlink:href="#text3"/>
    <use data-characterId="1759" height="28.0" id="butt3" transform="matrix(1.0, 0.0, 0.0, 1.0, -45.3, -87.5)" width="136.0" xlink:href="#sprite0"/>
  </g>
  <defs>
    <g id="shape0" transform="matrix(1.0, 0.0, 0.0, 1.0, 50.75, 53.95)">
      <path d="M-34.9 -30.7 Q-42.15 -28.55 -43.0 -22.0 L-43.0 123.45 Q-42.1 129.9 -35.15 131.9 L173.45 131.9 Q179.55 130.0 180.85 124.6 L180.85 -22.0 Q179.95 -28.95 171.95 -30.7 L-34.9 -30.7 M-40.7 -52.95 L178.15 -52.95 Q186.6 -50.9 187.55 -42.75 L187.55 129.9 187.55 130.0 187.05 131.45 186.55 132.9 179.7 138.5 -41.45 138.5 -48.85 132.1 -49.4 130.5 -49.75 128.7 -49.75 128.55 -49.75 -42.75 Q-48.85 -50.45 -41.3 -52.7 L-40.7 -52.95 M-49.75 128.55 L-49.4 130.5 -49.75 128.55 M187.05 131.45 L187.55 129.9 187.05 131.45" fill="#666666" fill-rule="evenodd" stroke="none"/>
      <path d="M-34.9 -30.7 L171.95 -30.7 Q179.95 -28.95 180.85 -22.0 L180.85 124.6 Q179.55 130.0 173.45 131.9 L-35.15 131.9 Q-42.1 129.9 -43.0 123.45 L-43.0 -22.0 Q-42.15 -28.55 -34.9 -30.7 M-40.7 -52.95 L178.15 -52.95 Q186.6 -50.9 187.55 -42.75 L187.55 129.9 187.05 131.45 186.55 132.9 179.7 138.5 -41.45 138.5 -48.85 132.1 -49.4 130.5 -49.75 128.55 -49.75 -42.75 Q-48.85 -50.45 -41.3 -52.7" fill="none" stroke="#cccccc" stroke-linecap="round" stroke-linejoin="round" stroke-width="2.0"/>
    </g>
    <g id="text0" transform="matrix(1.0, 0.0, 0.0, 1.0, -49.55, -1.0)">
      <g transform="matrix(1.0, 0.0, 0.0, 1.0, 0.0, 0.0)">
        <use fill="#00ff00" height="10.9" transform="matrix(0.0117, 0.0, 0.0, 0.0117, 48.0, 11.0)" width="89.55" xlink:href="#font_Arial_I0"/>
        <use fill="#00ff00" height="10.9" transform="matrix(0.0117, 0.0, 0.0, 0.0117, 51.35, 11.0)" width="89.55" xlink:href="#font_Arial_N0"/>
        <use fill="#00ff00" height="10.9" transform="matrix(0.0117, 0.0, 0.0, 0.0117, 60.0, 11.0)" width="89.55" xlink:href="#font_Arial_F0"/>
        <use fill="#00ff00" height="10.9" transform="matrix(0.0117, 0.0, 0.0, 0.0117, 67.35, 11.0)" width="89.55" xlink:href="#font_Arial_O0"/>
        <use fill="#00ff00" height="10.9" transform="matrix(0.0117, 0.0, 0.0, 0.0117, 76.7, 11.0)" width="89.55" xlink:href="#font_Arial_R0"/>
        <use fill="#00ff00" height="10.9" transform="matrix(0.0117, 0.0, 0.0, 0.0117, 85.35, 11.0)" width="89.55" xlink:href="#font_Arial_M0"/>
        <use fill="#00ff00" height="10.9" transform="matrix(0.0117, 0.0, 0.0, 0.0117, 95.35, 11.0)" width="89.55" xlink:href="#font_Arial_A0"/>
        <use fill="#00ff00" height="10.9" transform="matrix(0.0117, 0.0, 0.0, 0.0117, 102.45, 11.0)" width="89.55" xlink:href="#font_Arial_T0"/>
        <use fill="#00ff00" height="10.9" transform="matrix(0.0117, 0.0, 0.0, 0.0117, 109.8, 11.0)" width="89.55" xlink:href="#font_Arial_I0"/>
        <use fill="#00ff00" height="10.9" transform="matrix(0.0117, 0.0, 0.0, 0.0117, 113.15, 11.0)" width="89.55" xlink:href="#font_Arial_O0"/>
        <use fill="#00ff00" height="10.9" transform="matrix(0.0117, 0.0, 0.0, 0.0117, 122.5, 11.0)" width="89.55" xlink:href="#font_Arial_N0"/>
      </g>
    </g>
    <g id="font_Arial_I0">
      <path d="M95.5 0.0 L192.5 0.0 192.5 -733.0 95.5 -733.0 95.5 0.0" fill-rule="evenodd" stroke="none"/>
    </g>
    <g id="font_Arial_N0">
      <path d="M78.0 0.0 L171.0 0.0 171.0 -576.0 556.0 0.0 655.5 0.0 655.5 -733.0 562.5 -733.0 562.5 -157.5 Q370.0 -445.0 177.5 -733.0 L78.0 -733.0 78.0 0.0" fill-rule="evenodd" stroke="none"/>
    </g>
    <g id="font_Arial_F0">
      <path d="M84.0 0.0 L181.0 0.0 181.0 -333.0 525.0 -333.0 525.0 -419.5 181.0 -419.5 181.0 -646.5 578.5 -646.5 578.5 -733.0 84.0 -733.0 84.0 0.0" fill-rule="evenodd" stroke="none"/>
    </g>
    <g id="font_Arial_O0">
      <path d="M149.5 -355.5 Q149.5 -521.0 224.0 -591.5 298.0 -662.5 401.0 -662.5 473.5 -662.5 532.0 -625.5 590.0 -589.0 620.5 -522.0 650.5 -455.5 650.5 -366.0 650.5 -224.5 580.0 -147.5 509.0 -70.5 399.5 -70.5 292.0 -70.5 221.0 -146.5 149.5 -223.0 149.5 -355.5 M49.5 -357.0 Q49.5 -260.5 91.5 -174.0 133.5 -87.5 215.0 -37.5 296.5 12.5 400.0 12.5 495.5 12.5 578.0 -32.5 660.5 -78.0 705.5 -166.0 750.5 -254.0 750.5 -365.5 750.5 -475.5 708.0 -562.0 665.0 -649.0 583.5 -697.5 502.0 -746.0 400.5 -746.0 245.5 -746.0 147.5 -642.5 49.5 -539.5 49.5 -357.0" fill-rule="evenodd" stroke="none"/>
    </g>
    <g id="font_Arial_R0">
      <path d="M177.5 -409.5 L177.5 -652.0 409.5 -652.0 Q491.0 -652.0 529.0 -618.5 566.5 -585.0 566.5 -533.0 566.5 -497.5 547.0 -467.0 527.5 -437.0 490.0 -423.0 452.5 -409.5 386.0 -409.5 L177.5 -409.5 M80.5 0.0 L177.5 0.0 177.5 -325.5 290.0 -325.5 Q327.5 -325.5 344.0 -322.0 366.5 -316.5 388.5 -302.5 410.0 -288.5 437.5 -253.5 465.0 -218.5 507.5 -152.5 L604.5 0.0 726.5 0.0 599.0 -199.5 Q561.0 -258.0 518.5 -297.0 498.5 -315.0 460.0 -333.5 565.5 -348.0 616.0 -401.5 666.5 -455.0 666.5 -533.0 666.5 -593.5 636.0 -643.5 605.5 -693.5 554.5 -713.0 503.5 -733.0 405.5 -733.0 L80.5 -733.0 80.5 0.0" fill-rule="evenodd" stroke="none"/>
    </g>
    <g id="font_Arial_M0">
      <path d="M76.0 0.0 L169.5 0.0 169.5 -624.0 381.5 0.0 469.0 0.0 682.0 -613.5 682.0 0.0 775.5 0.0 775.5 -733.0 645.0 -733.0 Q557.5 -478.0 469.5 -223.0 443.0 -145.5 430.5 -105.5 419.5 -141.5 395.5 -214.0 309.0 -473.5 222.0 -733.0 L76.0 -733.0 76.0 0.0" fill-rule="evenodd" stroke="none"/>
    </g>
    <g id="font_Arial_A0">
      <path d="M210.0 -301.0 Q250.5 -408.5 290.5 -516.0 316.0 -585.5 330.0 -656.0 347.0 -596.5 382.0 -504.0 420.5 -402.5 458.5 -301.0 L210.0 -301.0 M-1.5 0.0 L101.5 0.0 Q142.0 -111.0 182.0 -222.0 L488.5 -222.0 Q531.5 -111.0 574.0 0.0 L684.5 0.0 384.5 -733.0 280.0 -733.0 Q139.5 -366.5 -1.5 0.0" fill-rule="evenodd" stroke="none"/>
    </g>
    <g id="font_Arial_T0">
      <path d="M265.5 0.0 L362.5 0.0 362.5 -646.5 605.0 -646.5 605.0 -733.0 24.0 -733.0 24.0 -646.5 265.5 -646.5 265.5 0.0" fill-rule="evenodd" stroke="none"/>
    </g>
    <g id="sprite0" transform="matrix(1.0, 0.0, 0.0, 1.0, 67.5, 14.0)">
      <use data-characterId="1757" height="28.0" transform="matrix(1.0, 0.0, 0.0, 1.0, -67.5, -14.0)" width="135.0" xlink:href="#shape1"/>
      <use data-characterId="1758" height="17.35" id="textinfo" transform="matrix(1.0, 0.0, 0.0, 1.0, -66.5, -8.0)" width="135.0" xlink:href="#text2"/>
    </g>
    <g id="shape1" transform="matrix(1.0, 0.0, 0.0, 1.0, 67.5, 14.0)">
      <path d="M-67.0 -13.5 L67.0 -13.5 67.0 13.5 -67.0 13.5 -67.0 -13.5" fill="#666666" fill-rule="evenodd" stroke="none"/>
      <path d="M-67.0 -13.5 L67.0 -13.5 67.0 13.5 -67.0 13.5 -67.0 -13.5 Z" fill="none" stroke="#ffffff" stroke-linecap="round" stroke-linejoin="round" stroke-width="1.0"/>
    </g>
    <g id="text2" transform="matrix(1.0, 0.0, 0.0, 1.0, 2.0, 2.0)">
      <g transform="matrix(1.0, 0.0, 0.0, 1.0, -2.0, -2.0)">
        <use fill="#00ff00" height="17.35" transform="matrix(0.0117, 0.0, 0.0, 0.0117, 52.15, 12.85)" width="135.0" xlink:href="#font__sans_E0"/>
      </g>
    </g>
    <g id="font__sans_E0">
      <path d="M81.0 0.0 L628.0 0.0 628.0 -86.5 178.0 -86.5 178.0 -336.0 583.5 -336.0 583.5 -422.0 178.0 -422.0 178.0 -646.5 611.0 -646.5 611.0 -733.0 81.0 -733.0 81.0 0.0" fill-rule="evenodd" stroke="none"/>
    </g>
  </defs>
</svg>
