<?xml version="1.0" encoding="UTF-8" standalone="no"?>
<svg xmlns:xlink="http://www.w3.org/1999/xlink" height="14.25px" width="14.25px" xmlns="http://www.w3.org/2000/svg">
  <g transform="matrix(1.0, 0.0, 0.0, 1.0, 7.1, 7.15)">
    <use data-characterId="193" height="14.25" transform="matrix(1.0, 0.0, 0.0, 1.0, -7.1, -7.15)" width="14.25" xlink:href="#shape0"/>
  </g>
  <defs>
    <g id="shape0" transform="matrix(1.0, 0.0, 0.0, 1.0, 7.1, 7.15)">
      <path d="M0.0 5.6 L0.0 -5.65 3.0 -1.15 0.0 -5.65 0.0 5.6 M-6.6 -6.65 L6.65 -6.65 6.65 6.6 -6.6 6.6 -6.6 -6.65 M-3.0 -1.15 L0.0 -5.65 -3.0 -1.15" fill="#333333" fill-rule="evenodd" stroke="none"/>
      <path d="M3.0 -1.15 L0.0 -5.65 0.0 5.6 M0.0 -5.65 L-3.0 -1.15" fill="none" stroke="#999999" stroke-linecap="round" stroke-linejoin="round" stroke-width="1.0"/>
      <path d="M-6.6 -6.65 L6.65 -6.65 6.65 6.6 -6.6 6.6 -6.6 -6.65 Z" fill="none" stroke="#ece9d8" stroke-linecap="round" stroke-linejoin="round" stroke-width="1.0"/>
    </g>
  </defs>
</svg>
