<?xml version="1.0" encoding="UTF-8" standalone="no"?>
<svg xmlns:xlink="http://www.w3.org/1999/xlink" height="48.8px" width="30.95px" xmlns="http://www.w3.org/2000/svg">
  <g transform="matrix(1.0, 0.0, 0.0, 1.0, 15.5, 22.5)">
    <use data-characterId="216" height="45.0" transform="matrix(1.0, 0.0, 0.0, 1.0, -15.5, -22.5)" width="30.95" xlink:href="#shape0"/>
    <use data-characterId="192" data-characterName="sc346_fla.regcapshipengine_180" height="6.25" id="Eng1" transform="matrix(0.625, 0.0, 0.0, 0.75, -5.2125, 21.55)" width="9.0" xlink:href="#sprite0"/>
    <use data-characterId="192" data-characterName="sc346_fla.regcapshipengine_180" height="6.25" id="Eng2" transform="matrix(0.625, 0.0, 0.0, 0.75, -0.6125, 21.6)" width="9.0" xlink:href="#sprite0"/>
  </g>
  <defs>
    <g id="shape0" transform="matrix(1.0, 0.0, 0.0, 1.0, 15.5, 22.5)">
      <path d="M3.45 -16.15 L3.45 -13.75 0.0 -16.75 -3.45 -13.8 -3.45 -16.2 -3.2 -18.0 -0.85 -21.75 0.85 -21.7 3.2 -17.95 3.45 -16.15" fill="#330000" fill-rule="evenodd" stroke="none"/>
      <path d="M-5.05 -6.65 L-5.05 0.75 -5.05 7.8 -5.35 7.85 -9.35 8.3 -13.35 7.85 Q-14.7 7.5 -15.0 7.2 L-15.0 0.75 -15.0 -6.3 -13.3 -6.6 -9.15 -6.8 -8.9 -6.8 -5.05 -6.65 M5.05 7.55 L5.05 0.5 5.05 -6.85 5.15 -6.85 8.9 -7.05 9.15 -7.05 13.05 -6.8 14.85 -6.45 14.9 -6.4 15.0 -6.4 14.95 0.5 14.95 6.95 13.3 7.65 9.3 8.1 5.3 7.65 5.05 7.55 M0.0 -13.7 L-2.35 -11.85 -2.35 10.05 0.0 10.05 2.35 10.05 2.35 -11.8 0.0 -13.65 0.0 -13.7 0.0 -15.6 0.0 -13.7 M-3.45 -12.9 L0.0 -15.6 3.45 -12.85 3.45 -12.8 3.25 -12.6 3.45 -12.6 3.45 11.1 3.35 11.1 0.0 11.1 -3.4 11.1 -3.45 11.1 -3.45 -12.6 -3.2 -12.6 -3.45 -12.85 -3.45 -12.9 M-2.35 -11.85 L-3.2 -12.6 -2.35 -11.85 M2.35 -11.8 L3.25 -12.6 2.35 -11.8 M0.0 10.05 L0.0 11.1 0.0 10.05 M3.35 11.1 L2.35 10.05 3.35 11.1 M14.95 0.5 L5.05 0.5 14.95 0.5 M-3.4 11.1 L-2.35 10.05 -3.4 11.1 M-5.05 0.75 L-15.0 0.75 -5.05 0.75" fill="#666666" fill-rule="evenodd" stroke="none"/>
      <path d="M14.75 -12.75 L14.7 -12.85 12.95 -13.2 9.05 -13.4 8.8 -13.4 5.05 -13.2 5.05 -14.95 4.95 -15.7 5.0 -15.8 Q6.5 -17.45 8.9 -17.5 L9.15 -17.5 Q11.35 -17.45 13.05 -15.8 14.7 -14.25 14.85 -12.75 L14.75 -12.75 M-5.05 -15.0 L-5.05 -13.0 -8.85 -13.2 -9.1 -13.2 -13.0 -13.0 -14.75 -12.6 -14.8 -12.55 -14.85 -12.6 -14.8 -13.2 Q-14.5 -14.5 -13.05 -15.85 -11.35 -17.45 -9.15 -17.5 L-8.9 -17.5 Q-6.55 -17.5 -5.05 -15.85 L-4.95 -15.75 -5.05 -15.0 M-5.05 15.1 L-5.05 16.55 -5.05 16.6 -5.05 17.35 -5.2 17.45 Q-6.85 19.1 -9.15 19.1 -11.55 19.15 -13.2 17.45 -14.75 15.9 -14.85 14.4 -14.6 14.75 -13.25 15.15 L-9.25 15.55 -5.25 15.1 -5.15 15.1 -5.05 15.1 M5.05 17.4 L5.05 16.65 5.05 16.6 5.05 14.9 5.2 14.9 9.2 15.35 13.2 14.9 Q14.5 14.55 14.85 14.2 L14.85 14.25 Q14.8 15.85 13.2 17.55 11.5 19.2 9.15 19.2 6.8 19.15 5.15 17.5 L5.05 17.4" fill="#333333" fill-rule="evenodd" stroke="none"/>
      <path d="M5.05 -14.95 L5.05 -13.2 8.8 -13.4 9.05 -13.4 12.95 -13.2 14.7 -12.85 14.75 -12.75 14.85 -12.75 14.85 -12.6 14.95 -12.6 15.0 -12.55 15.0 -6.4 14.9 -6.4 14.85 -6.45 13.05 -6.8 9.15 -7.05 8.9 -7.05 5.15 -6.85 5.05 -6.85 5.05 0.5 5.05 7.55 5.05 14.9 5.05 7.55 5.3 7.65 9.3 8.1 13.3 7.65 14.95 6.95 15.0 14.25 14.85 14.25 14.85 14.2 Q14.5 14.55 13.2 14.9 L9.2 15.35 5.2 14.9 5.05 14.9 5.05 16.6 5.0 16.6 5.05 16.65 5.05 17.4 4.2 19.65 3.55 19.65 1.0 19.65 3.55 19.65 4.2 22.5 0.35 22.5 1.0 19.65 -1.0 19.6 -3.55 19.6 -1.0 19.6 -0.4 22.45 -4.2 22.45 -3.55 19.6 -4.2 19.6 -5.05 17.35 -5.05 16.6 -5.0 16.55 -5.05 16.55 -5.05 15.1 -5.05 7.8 -5.05 15.1 -5.15 15.1 -5.25 15.1 -9.25 15.55 -13.25 15.15 Q-14.6 14.75 -14.85 14.4 L-14.95 14.2 -15.0 14.2 -15.0 7.2 Q-14.7 7.5 -13.35 7.85 L-9.35 8.3 -5.35 7.85 -5.05 7.8 -5.05 0.75 -5.05 -6.65 -5.05 -12.95 -5.05 -6.65 -8.9 -6.8 -9.15 -6.8 -13.3 -6.6 -15.0 -6.3 -15.0 -12.6 -14.85 -12.6 -14.8 -12.55 -14.75 -12.6 -13.0 -13.0 -9.1 -13.2 -8.85 -13.2 -5.05 -13.0 -5.05 -12.95 -4.95 -12.95 -5.05 -13.0 -5.05 -15.0 -4.05 -18.75 -1.75 -22.5 0.0 -22.5 0.0 -22.45 1.7 -22.45 4.05 -18.7 5.05 -14.95 M5.05 -13.2 L5.05 -6.85 5.05 -13.2 M3.45 -16.15 L3.2 -17.95 0.85 -21.7 -0.85 -21.75 -3.2 -18.0 -3.45 -16.2 -3.45 -13.8 0.0 -16.75 3.45 -13.75 3.45 -16.15 M0.0 -13.7 L0.0 -13.65 2.35 -11.8 2.35 10.05 0.0 10.05 -2.35 10.05 -2.35 -11.85 0.0 -13.7 M0.0 -15.6 L-3.45 -12.9 -3.45 -12.85 -3.45 -12.6 -3.45 11.1 -3.4 11.1 0.0 11.1 3.35 11.1 3.45 11.1 3.45 -12.6 3.45 -12.8 3.45 -12.85 0.0 -15.6 M1.2 -7.9 Q1.7 -8.55 1.7 -9.45 1.7 -10.45 1.2 -11.1 0.7 -11.8 0.0 -11.8 -0.75 -11.8 -1.2 -11.1 -1.7 -10.45 -1.75 -9.45 -1.7 -8.55 -1.2 -7.9 -0.75 -7.2 0.0 -7.2 0.7 -7.2 1.2 -7.9 M4.05 14.0 L3.8 13.6 Q3.3 12.9 2.6 12.9 1.85 12.9 1.35 13.6 1.1 13.95 1.0 14.4 0.85 14.7 0.85 15.15 L0.85 15.2 1.0 15.95 1.35 16.7 1.9 17.2 2.6 17.4 3.3 17.2 3.8 16.7 4.05 16.3 4.35 15.2 4.35 15.15 4.05 14.0 M-0.75 14.15 L-1.0 13.75 Q-1.5 13.05 -2.2 13.05 -2.95 13.05 -3.45 13.75 L-3.85 14.55 -3.95 15.3 -3.95 15.35 -3.85 16.1 -3.45 16.85 -2.95 17.35 -2.2 17.55 Q-1.85 17.55 -1.5 17.35 L-1.0 16.85 -0.75 16.45 Q-0.55 15.95 -0.5 15.35 L-0.5 15.3 Q-0.55 14.65 -0.75 14.15" fill="#555555" fill-rule="evenodd" stroke="none"/>
      <path d="M1.2 -7.9 Q0.7 -7.2 0.0 -7.2 -0.75 -7.2 -1.2 -7.9 -1.7 -8.55 -1.75 -9.45 -1.7 -10.45 -1.2 -11.1 -0.75 -11.8 0.0 -11.8 0.7 -11.8 1.2 -11.1 1.7 -10.45 1.7 -9.45 1.7 -8.55 1.2 -7.9 M4.05 14.0 L4.35 15.15 4.35 15.2 4.05 16.3 3.8 16.7 3.3 17.2 2.6 17.4 1.9 17.2 1.35 16.7 1.0 15.95 0.85 15.2 0.85 15.15 Q0.85 14.7 1.0 14.4 1.1 13.95 1.35 13.6 1.85 12.9 2.6 12.9 3.3 12.9 3.8 13.6 L4.05 14.0 M-0.75 14.15 Q-0.55 14.65 -0.5 15.3 L-0.5 15.35 Q-0.55 15.95 -0.75 16.45 L-1.0 16.85 -1.5 17.35 Q-1.85 17.55 -2.2 17.55 L-2.95 17.35 -3.45 16.85 -3.85 16.1 -3.95 15.35 -3.95 15.3 -3.85 14.55 -3.45 13.75 Q-2.95 13.05 -2.2 13.05 -1.5 13.05 -1.0 13.75 L-0.75 14.15" fill="#440000" fill-rule="evenodd" stroke="none"/>
      <path d="M5.05 -14.95 L5.05 -13.2 8.8 -13.4 9.05 -13.4 12.95 -13.2 14.7 -12.85 14.75 -12.75 M-5.05 -15.0 L-5.05 -13.0 -8.85 -13.2 -9.1 -13.2 -13.0 -13.0 -14.75 -12.6 -14.8 -12.55 M-5.05 -12.95 L-5.05 -6.65 -5.05 0.75 -5.05 7.8 -5.05 15.1 -5.05 16.55 -5.0 16.55 -5.05 16.6 -5.05 17.35 M-3.55 19.6 L-1.0 19.6 M1.0 19.65 L3.55 19.65 M5.05 17.4 L5.05 16.65 5.0 16.6 5.05 16.6 5.05 14.9 5.05 7.55 5.05 0.5 5.05 -6.85 5.05 -13.2 M0.0 -13.7 L-2.35 -11.85 -2.35 10.05 0.0 10.05 2.35 10.05 2.35 -11.8 0.0 -13.65 0.0 -13.7 0.0 -15.6 -3.45 -12.9 M-3.2 -12.6 L-2.35 -11.85 M3.45 -12.6 L3.45 11.1 3.35 11.1 0.0 11.1 -3.4 11.1 -3.45 11.1 -3.45 -12.6 M0.0 -15.6 L3.45 -12.85 M1.2 -7.9 Q0.7 -7.2 0.0 -7.2 -0.75 -7.2 -1.2 -7.9 -1.7 -8.55 -1.75 -9.45 -1.7 -10.45 -1.2 -11.1 -0.75 -11.8 0.0 -11.8 0.7 -11.8 1.2 -11.1 1.7 -10.45 1.7 -9.45 1.7 -8.55 1.2 -7.9 M5.15 -6.85 L8.9 -7.05 9.15 -7.05 13.05 -6.8 14.85 -6.45 14.9 -6.4 M3.25 -12.6 L2.35 -11.8 M5.05 7.55 L5.3 7.65 9.3 8.1 13.3 7.65 14.95 6.95 M2.35 10.05 L3.35 11.1 M0.0 11.1 L0.0 10.05 M14.85 14.2 Q14.5 14.55 13.2 14.9 L9.2 15.35 5.2 14.9 5.05 14.9 M4.05 14.0 L4.35 15.15 4.35 15.2 4.05 16.3 3.8 16.7 3.3 17.2 2.6 17.4 1.9 17.2 1.35 16.7 1.0 15.95 0.85 15.2 0.85 15.15 Q0.85 14.7 1.0 14.4 1.1 13.95 1.35 13.6 1.85 12.9 2.6 12.9 3.3 12.9 3.8 13.6 L4.05 14.0 M5.05 16.6 L5.05 16.65 M5.05 0.5 L14.95 0.5 M-15.0 -6.3 L-13.3 -6.6 -9.15 -6.8 -8.9 -6.8 -5.05 -6.65 M-5.05 -12.95 L-5.05 -13.0 M-15.0 7.2 Q-14.7 7.5 -13.35 7.85 L-9.35 8.3 -5.35 7.85 -5.05 7.8 M-2.35 10.05 L-3.4 11.1 M-5.15 15.1 L-5.25 15.1 -9.25 15.55 -13.25 15.15 Q-14.6 14.75 -14.85 14.4 M-0.75 14.15 Q-0.55 14.65 -0.5 15.3 L-0.5 15.35 Q-0.55 15.95 -0.75 16.45 L-1.0 16.85 -1.5 17.35 Q-1.85 17.55 -2.2 17.55 L-2.95 17.35 -3.45 16.85 -3.85 16.1 -3.95 15.35 -3.95 15.3 -3.85 14.55 -3.45 13.75 Q-2.95 13.05 -2.2 13.05 -1.5 13.05 -1.0 13.75 L-0.75 14.15 M-5.05 16.6 L-5.05 16.55 M-15.0 0.75 L-5.05 0.75" fill="none" stroke="#000000" stroke-linecap="butt" stroke-linejoin="miter-clip" stroke-miterlimit="3.0" stroke-width="1.0"/>
    </g>
    <g id="sprite0" transform="matrix(1.0, 0.0, 0.0, 1.0, 4.5, 1.2)">
      <use data-characterId="185" height="1.0" transform="matrix(1.0, 0.0, 0.0, 1.0, -3.5, -0.5)" width="7.0" xlink:href="#shape1"/>
    </g>
    <g id="shape1" transform="matrix(1.0, 0.0, 0.0, 1.0, 3.5, 0.5)">
      <path d="M-3.0 0.0 L3.0 0.0" fill="none" stroke="#666666" stroke-linecap="butt" stroke-linejoin="miter-clip" stroke-miterlimit="3.0" stroke-width="1.0"/>
    </g>
  </defs>
</svg>
