<?xml version="1.0" encoding="UTF-8" standalone="no"?>
<svg xmlns:xlink="http://www.w3.org/1999/xlink" height="46.0px" width="46.0px" xmlns="http://www.w3.org/2000/svg">
  <g transform="matrix(1.0, 0.0, 0.0, 1.0, 22.5, 22.5)">
    <use data-characterId="252" height="46.0" transform="matrix(1.0, 0.0, 0.0, 1.0, -22.5, -22.45)" width="46.0" xlink:href="#shape0"/>
  </g>
  <defs>
    <g id="shape0" transform="matrix(1.0, 0.0, 0.0, 1.0, 22.5, 22.45)">
      <path d="M-10.75 23.05 L-21.95 13.3 -22.0 -2.35 -7.35 -21.95 7.95 -21.95 M-10.15 23.05 L11.75 23.05 22.95 13.3 23.0 -2.35 8.35 -21.95" fill="none" stroke="#3366ff" stroke-linecap="butt" stroke-linejoin="miter-clip" stroke-miterlimit="3.0" stroke-width="1.0"/>
    </g>
  </defs>
</svg>
