<?xml version="1.0" encoding="UTF-8" standalone="no"?>
<svg xmlns:xlink="http://www.w3.org/1999/xlink" height="14.85px" width="9.0px" xmlns="http://www.w3.org/2000/svg">
  <g transform="matrix(1.0, 0.0, 0.0, 1.0, 4.5, 7.45)">
    <use data-characterId="217" height="14.85" transform="matrix(1.0, 0.0, 0.0, 1.0, -4.5, -7.45)" width="9.0" xlink:href="#shape0"/>
    <use data-characterId="218" height="3.75" transform="matrix(1.0, 0.0, 0.0, 1.0, -1.5, -1.1)" width="3.0" xlink:href="#shape1"/>
  </g>
  <defs>
    <g id="shape0" transform="matrix(1.0, 0.0, 0.0, 1.0, 4.5, 7.45)">
      <path d="M3.5 -2.7 L2.1 -1.95 2.1 4.5 2.0 4.5 4.0 6.9 -4.0 6.9 -2.05 4.5 -2.1 4.5 -2.1 -1.95 -3.5 -2.7 3.5 -2.7 M-1.75 4.15 L-2.05 4.5 2.0 4.5 1.75 4.15 2.0 4.5 -2.05 4.5 -1.75 4.15" fill="#cccccc" fill-rule="evenodd" stroke="none"/>
      <path d="M-3.5 -2.7 Q0.15 -11.2 3.5 -2.7 L-3.5 -2.7" fill="#0000ff" fill-rule="evenodd" stroke="none"/>
      <path d="M3.5 -2.7 L2.1 -1.95 2.1 4.5 2.0 4.5 4.0 6.9 -4.0 6.9 -2.05 4.5 -2.1 4.5 -2.1 -1.95 -3.5 -2.7 Q0.15 -11.2 3.5 -2.7 L-3.5 -2.7 M1.75 4.15 L2.0 4.5 -2.05 4.5 -1.75 4.15" fill="none" stroke="#999999" stroke-linecap="round" stroke-linejoin="round" stroke-width="1.0"/>
    </g>
    <g id="shape1" transform="matrix(1.0, 0.0, 0.0, 1.0, 1.5, 1.1)">
      <path d="M1.0 -0.6 L1.0 2.15 -1.0 2.15 -1.0 -0.6 1.0 -0.6" fill="#009966" fill-rule="evenodd" stroke="none"/>
      <path d="M1.0 -0.6 L1.0 2.15 -1.0 2.15 -1.0 -0.6 1.0 -0.6 Z" fill="none" stroke="#00ff00" stroke-linecap="round" stroke-linejoin="round" stroke-width="1.0"/>
    </g>
  </defs>
</svg>
