<?xml version="1.0" encoding="UTF-8" standalone="no"?>
<svg xmlns:xlink="http://www.w3.org/1999/xlink" height="168.0px" width="168.0px" xmlns="http://www.w3.org/2000/svg">
  <g transform="matrix(1.0, 0.0, 0.0, 1.0, 84.0, 80.0)">
    <use data-characterId="443" height="143.0" transform="matrix(1.0, 0.0, 0.0, 1.0, -74.0, -76.0)" width="149.0" xlink:href="#shape0"/>
    <use data-characterId="424" data-characterName="sc313_fla.squadbasetype2shield_262" height="168.0" id="shieldimage" transform="matrix(1.0, 0.0, 0.0, 1.0, -84.0, -80.0)" width="168.0" xlink:href="#sprite0"/>
    <use data-characterId="444" height="15.15" id="baseiddisp" transform="matrix(1.0, 0.0, 0.0, 1.0, -62.9, 66.45)" width="126.85" xlink:href="#text0"/>
  </g>
  <defs>
    <g id="shape0" transform="matrix(1.0, 0.0, 0.0, 1.0, 74.0, 76.0)">
      <path d="M-11.25 -54.15 Q-10.3 -52.5 -8.9 -51.1 -4.8 -47.0 1.0 -47.0 6.8 -47.0 10.9 -51.1 L11.9 -52.15 15.55 -44.45 Q9.75 -43.35 5.4 -38.95 3.95 -37.5 2.85 -35.9 L2.25 -35.95 0.4 -36.0 0.0 -36.0 -2.3 -35.95 Q-3.5 -37.7 -5.05 -39.3 -10.5 -44.7 -17.95 -45.1 L-11.25 -54.15 M39.0 -29.7 L49.05 -29.7 Q46.0 -26.0 46.0 -21.0 46.0 -15.2 50.1 -11.1 53.8 -7.4 58.9 -7.05 L49.65 0.3 47.2 -2.65 Q43.3 -6.55 38.35 -7.8 37.45 -10.8 36.15 -13.55 39.5 -18.45 39.55 -24.8 39.5 -27.35 39.0 -29.7 M40.9 30.0 L47.2 38.4 Q44.35 37.0 41.0 37.0 35.2 37.0 31.1 41.1 27.0 45.2 27.0 51.0 27.0 53.7 27.9 56.05 L16.1 51.55 Q20.4 46.2 20.45 39.05 L20.45 38.85 20.45 38.55 Q23.4 36.75 26.15 34.35 L28.35 32.35 29.4 31.2 30.0 31.3 33.05 31.5 34.0 31.5 Q37.7 31.3 40.9 30.0 M-15.2 51.55 L-26.75 58.9 Q-25.0 55.8 -25.0 52.0 -25.0 46.2 -29.1 42.1 -33.2 38.0 -39.0 38.0 -44.25 38.0 -48.05 41.35 L-42.6 29.25 Q-39.55 30.9 -36.05 31.4 L-33.0 31.6 -32.05 31.6 -29.3 31.3 -28.3 32.35 -26.0 34.5 -25.95 34.5 Q-23.15 36.95 -20.0 38.8 L-19.55 39.05 -19.55 39.35 Q-19.5 46.35 -15.2 51.55 M-50.25 1.35 L-60.95 -8.1 -59.0 -8.0 Q-53.2 -8.0 -49.1 -12.1 -45.0 -16.2 -45.0 -22.0 -45.0 -26.5 -47.45 -30.0 L-38.65 -30.0 Q-39.2 -27.7 -39.2 -25.15 -39.2 -18.9 -35.9 -14.0 L-37.85 -9.35 -38.4 -7.7 Q-43.3 -6.4 -47.15 -2.55 -49.0 -0.75 -50.25 1.35" fill="#999999" fill-rule="evenodd" stroke="none"/>
      <path d="M11.9 -52.15 L10.9 -51.1 Q6.8 -47.0 1.0 -47.0 -4.8 -47.0 -8.9 -51.1 -10.3 -52.5 -11.25 -54.15 -13.0 -57.2 -13.0 -61.0 -13.0 -64.9 -11.15 -68.0 L-8.9 -70.9 Q-4.8 -75.0 1.0 -75.0 6.8 -75.0 10.9 -70.9 12.25 -69.55 13.2 -68.0 15.0 -64.9 15.0 -61.0 15.0 -55.95 11.9 -52.15 M-26.75 58.9 Q-27.7 60.5 -29.1 61.9 -33.2 66.0 -39.0 66.0 -44.8 66.0 -48.9 61.9 -53.0 57.8 -53.0 52.0 -53.0 46.2 -48.9 42.1 L-48.05 41.35 Q-44.25 38.0 -39.0 38.0 -33.2 38.0 -29.1 42.1 -25.0 46.2 -25.0 52.0 -25.0 55.8 -26.75 58.9" fill="#dd0000" fill-rule="evenodd" stroke="none"/>
      <path d="M2.85 -35.9 Q3.95 -37.5 5.4 -38.95 9.75 -43.35 15.55 -44.45 L19.55 -44.8 Q27.85 -44.8 33.7 -38.95 37.7 -34.9 39.0 -29.7 39.5 -27.35 39.55 -24.8 39.5 -18.45 36.15 -13.55 L34.8 -16.0 34.6 -16.35 Q32.05 -20.6 28.35 -24.3 L26.25 -26.25 26.25 -26.3 Q23.0 -29.1 19.45 -31.1 L19.35 -31.15 Q11.85 -35.35 2.85 -35.9 M49.65 0.3 Q53.0 5.2 53.05 11.5 53.0 19.8 47.2 25.65 44.3 28.5 40.9 30.0 37.7 31.3 34.0 31.5 L33.05 31.5 30.0 31.3 29.65 31.0 Q32.45 27.9 34.5 24.55 L34.7 24.4 34.7 24.25 34.8 24.0 Q40.0 15.1 40.0 4.0 40.0 -2.25 38.35 -7.8 43.3 -6.55 47.2 -2.65 L49.65 0.3 M16.1 51.55 L14.6 53.2 Q9.1 58.7 1.4 59.05 L0.45 59.05 -2.6 58.85 Q-9.0 57.95 -13.7 53.2 L-15.2 51.55 Q-19.5 46.35 -19.55 39.35 L-19.1 39.3 -13.15 41.95 Q-7.55 43.8 -1.2 44.0 L-0.95 44.0 -0.7 44.0 -0.45 44.0 -0.15 44.0 0.0 44.0 0.35 44.0 0.45 44.0 0.5 44.05 0.6 44.0 Q11.3 43.85 20.0 38.85 L20.3 38.85 20.45 39.05 Q20.4 46.2 16.1 51.55" fill="#0066cc" fill-rule="evenodd" stroke="none"/>
      <path d="M0.0 -36.0 L0.4 -36.0 2.25 -35.95 Q17.35 -35.2 28.25 -24.35 39.95 -12.65 40.0 3.85 L40.0 4.0 Q40.0 20.55 28.25 32.25 L27.55 32.95 Q18.35 41.75 6.3 43.55 L1.25 44.0 0.6 44.0 0.45 44.0 0.35 44.0 0.0 44.0 -0.15 44.0 -0.45 44.0 -0.7 44.0 -0.95 44.0 -1.2 44.0 Q-7.55 43.8 -13.15 41.95 L-19.1 39.3 -19.55 39.05 Q-24.25 36.35 -28.35 32.25 L-28.65 31.9 -18.05 23.2 -18.55 22.55 -17.95 23.15 Q-10.9 29.8 -1.25 30.25 L0.05 30.3 0.55 30.3 1.4 30.25 Q11.4 29.8 18.6 22.55 L18.85 22.35 Q26.3 14.7 26.35 4.0 L26.35 3.55 Q26.15 -7.05 18.6 -14.55 L18.05 -15.1 Q10.5 -22.25 0.05 -22.25 L0.0 -36.0 M-17.95 23.15 L-18.05 23.2 -17.95 23.15 M18.05 -15.1 L28.25 -24.35 18.05 -15.1 M26.35 3.55 L40.0 3.85 26.35 3.55 M1.25 44.0 L0.55 30.3 1.25 44.0 M27.55 32.95 L18.85 22.35 27.55 32.95 M-28.0 -24.7 L-27.95 -24.65 -28.35 -24.35 -28.0 -24.7" fill="#0066ff" fill-rule="evenodd" stroke="none"/>
      <path d="M11.4 -1.8 Q9.05 -1.8 7.4 -0.15 5.7 1.55 5.7 4.0 5.7 6.35 7.4 8.05 9.05 9.75 11.4 9.8 13.8 9.75 15.5 8.05 17.15 6.35 17.15 4.0 17.15 1.55 15.5 -0.15 13.8 -1.8 11.4 -1.8 M0.05 -22.25 Q10.5 -22.25 18.05 -15.1 L18.6 -14.55 Q26.15 -7.05 26.35 3.55 L26.35 4.0 Q26.3 14.7 18.85 22.35 L18.6 22.55 Q11.4 29.8 1.4 30.25 L0.55 30.3 0.05 30.3 -1.25 30.25 Q-10.9 29.8 -17.95 23.15 L-18.55 22.55 Q-26.25 14.85 -26.25 4.0 L-26.25 3.4 Q-26.05 -7.1 -18.55 -14.55 L-17.4 -15.65 Q-10.05 -22.3 0.05 -22.25 M-7.25 -0.15 Q-9.0 -1.8 -11.4 -1.75 -13.8 -1.8 -15.45 -0.15 -17.15 1.55 -17.15 4.0 -17.15 6.35 -15.45 8.05 -13.8 9.75 -11.4 9.8 -9.0 9.75 -7.25 8.05 -5.6 6.35 -5.6 4.0 -5.6 1.55 -7.25 -0.15" fill="#0099ff" fill-rule="evenodd" stroke="none"/>
      <path d="M-2.3 -35.95 L0.0 -36.0 0.05 -22.25 Q-10.05 -22.3 -17.4 -15.65 L-18.55 -14.55 Q-26.05 -7.1 -26.25 3.4 L-26.25 4.0 Q-26.25 14.85 -18.55 22.55 L-18.05 23.2 -28.65 31.9 -30.85 29.55 -34.8 24.0 -34.9 23.85 -34.95 23.7 -37.6 18.05 -39.95 5.9 -40.0 4.0 -40.0 3.35 Q-39.95 -2.5 -38.4 -7.7 L-37.85 -9.35 -35.9 -14.0 -35.3 -15.1 Q-32.6 -20.05 -28.35 -24.35 L-27.95 -24.65 -28.0 -24.7 Q-23.7 -28.9 -18.75 -31.5 L-2.3 -35.95 M-17.4 -15.65 L-27.95 -24.65 -17.4 -15.65 M-26.25 3.4 L-40.0 3.35 -26.25 3.4" fill="#0044bb" fill-rule="evenodd" stroke="none"/>
      <path d="M49.05 -29.7 L50.1 -30.9 Q54.2 -35.0 60.0 -35.0 65.8 -35.0 69.9 -30.9 74.0 -26.8 74.0 -21.0 74.0 -15.2 69.9 -11.1 65.8 -7.0 60.0 -7.0 L58.9 -7.05 Q53.8 -7.4 50.1 -11.1 46.0 -15.2 46.0 -21.0 46.0 -26.0 49.05 -29.7 M47.2 38.4 Q49.2 39.4 50.9 41.1 55.0 45.2 55.0 51.0 55.0 56.8 50.9 60.9 46.8 65.0 41.0 65.0 35.2 65.0 31.1 60.9 28.9 58.7 27.9 56.05 27.0 53.7 27.0 51.0 27.0 45.2 31.1 41.1 35.2 37.0 41.0 37.0 44.35 37.0 47.2 38.4 M11.4 -1.8 Q13.8 -1.8 15.5 -0.15 17.15 1.55 17.15 4.0 17.15 6.35 15.5 8.05 13.8 9.75 11.4 9.8 9.05 9.75 7.4 8.05 5.7 6.35 5.7 4.0 5.7 1.55 7.4 -0.15 9.05 -1.8 11.4 -1.8 M-7.25 -0.15 Q-5.6 1.55 -5.6 4.0 -5.6 6.35 -7.25 8.05 -9.0 9.75 -11.4 9.8 -13.8 9.75 -15.45 8.05 -17.15 6.35 -17.15 4.0 -17.15 1.55 -15.45 -0.15 -13.8 -1.8 -11.4 -1.75 -9.0 -1.8 -7.25 -0.15" fill="#ff0000" fill-rule="evenodd" stroke="none"/>
      <path d="M-60.95 -8.1 Q-65.5 -8.7 -68.9 -12.1 -73.0 -16.2 -73.0 -22.0 -73.0 -27.8 -68.9 -31.9 -64.8 -36.0 -59.0 -36.0 -53.2 -36.0 -49.1 -31.9 L-47.45 -30.0 Q-45.0 -26.5 -45.0 -22.0 -45.0 -16.2 -49.1 -12.1 -53.2 -8.0 -59.0 -8.0 L-60.95 -8.1" fill="#bb0000" fill-rule="evenodd" stroke="none"/>
      <path d="M-17.95 -45.1 Q-10.5 -44.7 -5.05 -39.3 -3.5 -37.7 -2.3 -35.95 L-18.75 -31.5 Q-23.7 -28.9 -28.0 -24.7 L-28.35 -24.35 Q-32.6 -20.05 -35.3 -15.1 L-35.9 -14.0 Q-39.2 -18.9 -39.2 -25.15 -39.2 -27.7 -38.65 -30.0 -37.45 -35.25 -33.35 -39.3 -27.55 -45.15 -19.2 -45.15 L-17.95 -45.1 M-42.6 29.25 Q-45.05 27.85 -47.15 25.75 -53.0 19.9 -53.0 11.6 -53.0 5.9 -50.25 1.35 -49.0 -0.75 -47.15 -2.55 -43.3 -6.4 -38.4 -7.7 -39.95 -2.5 -40.0 3.35 L-40.0 4.0 -39.95 5.9 -37.6 18.05 -34.95 23.7 -34.9 23.85 -34.8 24.0 -30.85 29.55 -29.3 31.3 -32.05 31.6 -33.0 31.6 -36.05 31.4 Q-39.55 30.9 -42.6 29.25" fill="#003399" fill-rule="evenodd" stroke="none"/>
      <path d="M11.4 -1.8 Q13.8 -1.8 15.5 -0.15 17.15 1.55 17.15 4.0 17.15 6.35 15.5 8.05 13.8 9.75 11.4 9.8 9.05 9.75 7.4 8.05 5.7 6.35 5.7 4.0 5.7 1.55 7.4 -0.15 9.05 -1.8 11.4 -1.8 M-7.25 -0.15 Q-5.6 1.55 -5.6 4.0 -5.6 6.35 -7.25 8.05 -9.0 9.75 -11.4 9.8 -13.8 9.75 -15.45 8.05 -17.15 6.35 -17.15 4.0 -17.15 1.55 -15.45 -0.15 -13.8 -1.8 -11.4 -1.75 -9.0 -1.8 -7.25 -0.15" fill="none" stroke="#00ff00" stroke-linecap="round" stroke-linejoin="round" stroke-width="2.0"/>
      <path d="M-11.25 -54.15 Q-10.3 -52.5 -8.9 -51.1 -4.8 -47.0 1.0 -47.0 6.8 -47.0 10.9 -51.1 L11.9 -52.15 Q15.0 -55.95 15.0 -61.0 15.0 -64.9 13.2 -68.0 M-11.15 -68.0 Q-13.0 -64.9 -13.0 -61.0 -13.0 -57.2 -11.25 -54.15 M49.05 -29.7 L50.1 -30.9 Q54.2 -35.0 60.0 -35.0 65.8 -35.0 69.9 -30.9 74.0 -26.8 74.0 -21.0 74.0 -15.2 69.9 -11.1 65.8 -7.0 60.0 -7.0 L58.9 -7.05 Q53.8 -7.4 50.1 -11.1 46.0 -15.2 46.0 -21.0 46.0 -26.0 49.05 -29.7 M47.2 38.4 Q49.2 39.4 50.9 41.1 55.0 45.2 55.0 51.0 55.0 56.8 50.9 60.9 46.8 65.0 41.0 65.0 35.2 65.0 31.1 60.9 28.9 58.7 27.9 56.05 27.0 53.7 27.0 51.0 27.0 45.2 31.1 41.1 35.2 37.0 41.0 37.0 44.35 37.0 47.2 38.4 M-26.75 58.9 Q-27.7 60.5 -29.1 61.9 -33.2 66.0 -39.0 66.0 -44.8 66.0 -48.9 61.9 -53.0 57.8 -53.0 52.0 -53.0 46.2 -48.9 42.1 L-48.05 41.35 Q-44.25 38.0 -39.0 38.0 -33.2 38.0 -29.1 42.1 -25.0 46.2 -25.0 52.0 -25.0 55.8 -26.75 58.9 M-60.95 -8.1 Q-65.5 -8.7 -68.9 -12.1 -73.0 -16.2 -73.0 -22.0 -73.0 -27.8 -68.9 -31.9 -64.8 -36.0 -59.0 -36.0 -53.2 -36.0 -49.1 -31.9 L-47.45 -30.0 Q-45.0 -26.5 -45.0 -22.0 -45.0 -16.2 -49.1 -12.1 -53.2 -8.0 -59.0 -8.0 L-60.95 -8.1" fill="none" stroke="#006600" stroke-linecap="round" stroke-linejoin="round" stroke-width="2.0"/>
      <path d="M13.2 -68.0 Q12.25 -69.55 10.9 -70.9 6.8 -75.0 1.0 -75.0 -4.8 -75.0 -8.9 -70.9 L-11.15 -68.0" fill="none" stroke="#006600" stroke-linecap="round" stroke-linejoin="round" stroke-width="2.0"/>
      <path d="M-17.95 -45.1 Q-10.5 -44.7 -5.05 -39.3 -3.5 -37.7 -2.3 -35.95 L0.0 -36.0 0.4 -36.0 2.25 -35.95 2.85 -35.9 Q3.95 -37.5 5.4 -38.95 9.75 -43.35 15.55 -44.45 L19.55 -44.8 Q27.85 -44.8 33.7 -38.95 37.7 -34.9 39.0 -29.7 39.5 -27.35 39.55 -24.8 39.5 -18.45 36.15 -13.55 37.45 -10.8 38.35 -7.8 43.3 -6.55 47.2 -2.65 L49.65 0.3 Q53.0 5.2 53.05 11.5 53.0 19.8 47.2 25.65 44.3 28.5 40.9 30.0 37.7 31.3 34.0 31.5 L33.05 31.5 30.0 31.3 29.4 31.2 29.65 31.0 Q32.45 27.9 34.5 24.55 L34.7 24.25 34.8 24.0 Q40.0 15.1 40.0 4.0 40.0 -2.25 38.35 -7.8 M16.1 51.55 L14.6 53.2 Q9.1 58.7 1.4 59.05 L0.45 59.05 -2.6 58.85 Q-9.0 57.95 -13.7 53.2 L-15.2 51.55 Q-19.5 46.35 -19.55 39.35 L-19.55 39.05 -20.0 38.8 Q-23.15 36.95 -25.95 34.5 L-26.0 34.5 -28.3 32.35 -29.3 31.3 -32.05 31.6 -33.0 31.6 -36.05 31.4 Q-39.55 30.9 -42.6 29.25 -45.05 27.85 -47.15 25.75 -53.0 19.9 -53.0 11.6 -53.0 5.9 -50.25 1.35 -49.0 -0.75 -47.15 -2.55 -43.3 -6.4 -38.4 -7.7 -39.95 -2.5 -40.0 3.35 L-26.25 3.4 -26.25 4.0 Q-26.25 14.85 -18.55 22.55 L-17.95 23.15 Q-10.9 29.8 -1.25 30.25 L0.05 30.3 0.55 30.3 1.4 30.25 Q11.4 29.8 18.6 22.55 L18.85 22.35 Q26.3 14.7 26.35 4.0 L26.35 3.55 Q26.15 -7.05 18.6 -14.55 L18.05 -15.1 Q10.5 -22.25 0.05 -22.25 -10.05 -22.3 -17.4 -15.65 L-18.55 -14.55 Q-26.05 -7.1 -26.25 3.4 M-38.65 -30.0 Q-37.45 -35.25 -33.35 -39.3 -27.55 -45.15 -19.2 -45.15 L-17.95 -45.1 M26.25 -26.3 L26.25 -26.25 26.25 -26.3 Q23.0 -29.1 19.45 -31.1 L19.35 -31.15 Q11.85 -35.35 2.85 -35.9 M-18.05 23.2 L-17.95 23.15 M36.15 -13.55 L34.8 -16.0 34.6 -16.35 Q32.05 -20.6 28.35 -24.3 L26.25 -26.25 M0.05 -22.25 L0.0 -36.0 M28.25 -24.35 L18.05 -15.1 M2.25 -35.95 Q17.35 -35.2 28.25 -24.35 39.95 -12.65 40.0 3.85 L40.0 4.0 Q40.0 20.55 28.25 32.25 L27.55 32.95 Q18.35 41.75 6.3 43.55 L1.25 44.0 0.6 44.0 Q11.3 43.85 20.0 38.85 L20.2 38.7 20.45 38.55 Q23.4 36.75 26.15 34.35 L28.35 32.35 29.4 31.2 M34.7 24.25 L34.7 24.4 34.5 24.55 M40.0 3.85 L26.35 3.55 M0.6 44.0 L0.5 44.05 0.45 44.0 0.35 44.0 0.0 44.0 -0.15 44.0 -0.45 44.0 -0.7 44.0 -0.95 44.0 -1.2 44.0 Q-7.55 43.8 -13.15 41.95 L-19.1 39.3 -19.55 39.05 Q-24.25 36.35 -28.35 32.25 L-28.65 31.9 -30.85 29.55 -34.8 24.0 -34.9 23.85 -34.95 23.7 -37.6 18.05 -39.95 5.9 -40.0 4.0 -40.0 3.35 M0.45 44.0 L0.6 44.0 M0.55 30.3 L1.25 44.0 M20.45 38.55 L20.45 38.85 20.45 39.05 Q20.4 46.2 16.1 51.55 M18.85 22.35 L27.55 32.95 M-2.3 -35.95 L-18.75 -31.5 Q-23.7 -28.9 -28.0 -24.7 L-27.95 -24.65 -17.4 -15.65 M-35.9 -14.0 Q-39.2 -18.9 -39.2 -25.15 -39.2 -27.7 -38.65 -30.0 M-28.35 -24.35 Q-32.6 -20.05 -35.3 -15.1 L-35.9 -14.0 -37.85 -9.35 -38.4 -7.7 M-28.35 -24.35 L-28.0 -24.7 M-30.85 29.55 L-29.3 31.3 M-18.05 23.2 L-28.65 31.9" fill="none" stroke="#000099" stroke-linecap="round" stroke-linejoin="round" stroke-width="1.0"/>
      <path d="M-11.25 -54.15 L-17.95 -45.1 M15.55 -44.45 L11.9 -52.15 M39.0 -29.7 L49.05 -29.7 M58.9 -7.05 L49.65 0.3 M40.9 30.0 L47.2 38.4 M27.9 56.05 L16.1 51.55 M-15.2 51.55 L-26.75 58.9 M-48.05 41.35 L-42.6 29.25 M-50.25 1.35 L-60.95 -8.1 M-47.45 -30.0 L-38.65 -30.0" fill="none" stroke="#000099" stroke-linecap="round" stroke-linejoin="round" stroke-width="2.0"/>
    </g>
  </defs>
</svg>
