<?xml version="1.0" encoding="UTF-8" standalone="no"?>
<svg xmlns:xlink="http://www.w3.org/1999/xlink" height="180.25px" width="379.75px" xmlns="http://www.w3.org/2000/svg">
  <g transform="matrix(1.0, 0.0, 0.0, 1.0, -6.5, -8.65)">
    <use data-characterId="1486" height="89.55" transform="matrix(1.0, 0.0, 0.0, 1.0, 10.75, 8.65)" width="367.0" xlink:href="#shape0"/>
    <use data-characterId="1487" height="12.35" transform="matrix(1.0, 0.0, 0.0, 1.0, 144.6, 14.95)" width="112.5" xlink:href="#text0"/>
    <use data-characterId="1490" data-characterName="sc313_fla.deathscreen_86" height="21.35" id="deathbutton" transform="matrix(1.0, 0.0, 0.0, 1.0, 133.55, 69.35)" width="135.6" xlink:href="#sprite0"/>
    <use data-characterId="1491" height="20.25" id="capitalinfo" transform="matrix(1.0, 0.0, 0.0, 1.0, 10.85, 43.8)" width="366.9" xlink:href="#text2"/>
    <use data-characterId="1492" height="13.65" transform="matrix(1.0, 0.0, 0.0, 1.0, 60.85, 30.65)" width="290.9" xlink:href="#text3"/>
  </g>
  <defs>
    <g id="shape0" transform="matrix(1.0, 0.0, 0.0, 1.0, -10.75, -8.65)">
      <path d="M374.55 10.7 Q376.75 11.75 376.75 13.25 L376.75 93.65 Q376.75 95.1 374.55 96.15 372.35 97.2 369.25 97.2 L19.3 97.2 Q16.15 97.2 13.95 96.15 11.75 95.1 11.75 93.65 L11.75 13.25 Q11.75 11.75 13.95 10.7 16.15 9.65 19.3 9.65 L369.25 9.65 Q372.35 9.65 374.55 10.7" fill="#111111" fill-rule="evenodd" stroke="none"/>
      <path d="M374.55 10.7 Q372.35 9.65 369.25 9.65 L19.3 9.65 Q16.15 9.65 13.95 10.7 11.75 11.75 11.75 13.25 L11.75 93.65 Q11.75 95.1 13.95 96.15 16.15 97.2 19.3 97.2 L369.25 97.2 Q372.35 97.2 374.55 96.15 376.75 95.1 376.75 93.65 L376.75 13.25 Q376.75 11.75 374.55 10.7 Z" fill="none" stroke="#666666" stroke-linecap="round" stroke-linejoin="round" stroke-width="2.0"/>
    </g>
    <g id="text0" transform="matrix(1.0, 0.0, 0.0, 1.0, -124.8, -1.95)">
      <g transform="matrix(1.0, 0.0, 0.0, 1.0, 0.0, 0.0)">
        <use fill="#33cc00" height="12.35" transform="matrix(0.0137, 0.0, 0.0, 0.0137, 125.0, 13.0)" width="112.5" xlink:href="#font_Trebuchet_MS_Y0"/>
      </g>
      <g transform="matrix(1.0, 0.0, 0.0, 1.0, 0.0, 0.0)">
        <use fill="#33cc66" height="12.35" transform="matrix(0.0137, 0.0, 0.0, 0.0137, 133.6, 13.0)" width="112.5" xlink:href="#font_Trebuchet_MS_O0"/>
        <use fill="#33cc66" height="12.35" transform="matrix(0.0137, 0.0, 0.0, 0.0137, 143.45, 13.0)" width="112.5" xlink:href="#font_Trebuchet_MS_U0"/>
        <use fill="#33cc66" height="12.35" transform="matrix(0.0137, 0.0, 0.0, 0.0137, 157.15, 13.0)" width="112.5" xlink:href="#font_Trebuchet_MS_H0"/>
        <use fill="#33cc66" height="12.35" transform="matrix(0.0137, 0.0, 0.0, 0.0137, 166.7, 13.0)" width="112.5" xlink:href="#font_Trebuchet_MS_A0"/>
        <use fill="#33cc66" height="12.35" transform="matrix(0.0137, 0.0, 0.0, 0.0137, 175.55, 13.0)" width="112.5" xlink:href="#font_Trebuchet_MS_V0"/>
        <use fill="#33cc66" height="12.35" transform="matrix(0.0137, 0.0, 0.0, 0.0137, 184.25, 13.0)" width="112.5" xlink:href="#font_Trebuchet_MS_E0"/>
        <use fill="#33cc66" height="12.35" transform="matrix(0.0137, 0.0, 0.0, 0.0137, 196.4, 13.0)" width="112.5" xlink:href="#font_Trebuchet_MS_D0"/>
        <use fill="#33cc66" height="12.35" transform="matrix(0.0137, 0.0, 0.0, 0.0137, 205.4, 13.0)" width="112.5" xlink:href="#font_Trebuchet_MS_I0"/>
        <use fill="#33cc66" height="12.35" transform="matrix(0.0137, 0.0, 0.0, 0.0137, 209.3, 13.0)" width="112.5" xlink:href="#font_Trebuchet_MS_E0"/>
        <use fill="#33cc66" height="12.35" transform="matrix(0.0137, 0.0, 0.0, 0.0137, 217.25, 13.0)" width="112.5" xlink:href="#font_Trebuchet_MS_D0"/>
        <use fill="#33cc66" height="12.35" transform="matrix(0.0137, 0.0, 0.0, 0.0137, 226.25, 13.0)" width="112.5" xlink:href="#font_Trebuchet_MS__1"/>
      </g>
    </g>
    <g id="font_Trebuchet_MS_Y0">
      <path d="M379.5 -300.5 L625.5 -732.5 488.0 -732.5 314.0 -420.0 140.5 -732.5 2.5 -732.5 249.5 -300.5 249.5 0.0 379.5 0.0 379.5 -300.5" fill-rule="evenodd" stroke="none"/>
    </g>
    <g id="font_Trebuchet_MS_O0">
      <path d="M175.0 -372.5 L175.0 -372.5 Q175.0 -490.5 221.5 -560.0 268.0 -630.0 355.0 -630.0 545.0 -630.0 545.0 -372.5 545.0 -241.0 494.0 -172.0 442.5 -103.0 345.0 -103.0 262.0 -103.0 218.5 -173.5 175.0 -244.0 175.0 -372.5 M40.0 -372.5 L40.0 -372.5 Q40.0 -193.5 119.0 -90.5 197.5 12.5 345.0 12.5 505.5 12.5 593.0 -91.5 680.0 -195.5 680.0 -372.5 680.0 -549.5 596.5 -647.5 513.0 -745.5 355.0 -745.5 211.5 -745.5 126.0 -637.0 40.0 -529.0 40.0 -372.5" fill-rule="evenodd" stroke="none"/>
    </g>
    <g id="font_Trebuchet_MS_U0">
      <path d="M75.0 -732.5 L75.0 -229.0 Q75.0 -112.5 144.5 -50.0 213.5 12.5 341.0 12.5 467.5 12.5 543.5 -51.5 619.0 -115.5 619.0 -228.5 L619.0 -732.5 489.0 -732.5 489.0 -238.5 Q489.0 -175.5 450.0 -139.0 410.5 -103.0 340.0 -103.0 277.0 -103.0 241.0 -140.0 205.0 -177.0 205.0 -236.0 L205.0 -732.5 75.0 -732.5" fill-rule="evenodd" stroke="none"/>
    </g>
    <g id="font_Trebuchet_MS_H0">
      <path d="M496.5 0.0 L625.0 0.0 625.0 -732.5 496.5 -732.5 496.5 -445.5 205.0 -445.5 205.0 -732.5 75.0 -732.5 75.0 0.0 205.0 0.0 205.0 -330.0 496.5 -330.0 496.5 0.0" fill-rule="evenodd" stroke="none"/>
    </g>
    <g id="font_Trebuchet_MS_A0">
      <path d="M323.0 -518.5 L411.0 -248.0 235.0 -248.0 323.0 -518.5 M502.5 0.0 L646.0 0.0 351.5 -742.5 294.5 -742.5 2.5 0.0 147.0 0.0 198.0 -148.5 449.0 -148.5 502.5 0.0" fill-rule="evenodd" stroke="none"/>
    </g>
    <g id="font_Trebuchet_MS_V0">
      <path d="M348.0 10.0 L634.0 -732.5 494.0 -732.5 315.0 -237.5 145.5 -732.5 2.5 -732.5 276.5 10.0 348.0 10.0" fill-rule="evenodd" stroke="none"/>
    </g>
    <g id="font_Trebuchet_MS_E0">
      <path d="M205.0 -617.0 L542.5 -617.0 542.5 -732.5 75.0 -732.5 75.0 0.0 537.0 0.0 537.0 -115.5 205.0 -115.5 205.0 -335.0 447.0 -335.0 447.0 -445.5 205.0 -445.5 205.0 -617.0" fill-rule="evenodd" stroke="none"/>
    </g>
    <g id="font_Trebuchet_MS_D0">
      <path d="M205.0 -618.5 L205.0 -618.5 Q243.5 -622.0 264.5 -622.0 483.0 -622.0 483.0 -387.0 483.0 -258.5 427.5 -187.0 371.5 -115.5 273.0 -115.5 236.5 -115.5 205.0 -118.5 L205.0 -618.5 M237.5 0.0 L237.5 0.0 Q618.0 0.0 618.0 -395.0 618.0 -550.0 524.5 -643.5 430.5 -737.5 270.5 -737.5 230.5 -737.5 75.0 -732.0 L75.0 0.0 237.5 0.0" fill-rule="evenodd" stroke="none"/>
    </g>
    <g id="font_Trebuchet_MS_I0">
      <path d="M77.5 0.0 L207.5 0.0 207.5 -732.5 77.5 -732.5 77.5 0.0" fill-rule="evenodd" stroke="none"/>
    </g>
    <g id="font_Trebuchet_MS__1">
      <path d="M191.0 -154.0 L191.0 -154.0 Q157.0 -154.0 133.0 -130.0 109.0 -106.0 109.0 -72.0 109.0 -38.0 133.0 -14.0 157.0 10.0 191.0 10.0 225.0 10.0 249.0 -14.0 272.5 -38.0 272.5 -72.0 272.5 -106.0 249.0 -130.0 225.0 -154.0 191.0 -154.0 M213.0 -191.0 L213.0 -191.0 Q252.0 -441.0 252.0 -541.0 L252.0 -745.5 122.0 -745.5 122.0 -540.5 Q122.0 -441.0 161.0 -191.0 L213.0 -191.0" fill-rule="evenodd" stroke="none"/>
    </g>
    <g id="sprite0" transform="matrix(1.0, 0.0, 0.0, 1.0, -28.3, 0.65)">
      <use data-characterId="1488" height="21.35" transform="matrix(1.0, 0.0, 0.0, 1.0, 28.3, -0.65)" width="135.6" xlink:href="#shape1"/>
      <use data-characterId="1489" height="10.9" transform="matrix(1.0, 0.0, 0.0, 1.0, 42.7, 4.3)" width="114.5" xlink:href="#text1"/>
    </g>
    <g id="shape1" transform="matrix(1.0, 0.0, 0.0, 1.0, -28.3, 0.65)">
      <path d="M34.95 -0.15 L157.15 -0.15 161.45 0.45 Q163.3 1.05 163.4 1.9 L163.4 18.15 Q163.3 19.0 161.45 19.6 L157.15 20.2 34.95 20.2 30.5 19.6 Q28.7 19.0 28.8 18.15 L28.8 1.9 Q28.7 1.05 30.5 0.45 L34.95 -0.15" fill="#6633cc" fill-rule="evenodd" stroke="none"/>
      <path d="M34.95 -0.15 L30.5 0.45 Q28.7 1.05 28.8 1.9 L28.8 18.15 Q28.7 19.0 30.5 19.6 L34.95 20.2 157.15 20.2 161.45 19.6 Q163.3 19.0 163.4 18.15 L163.4 1.9 Q163.3 1.05 161.45 0.45 L157.15 -0.15 34.95 -0.15 Z" fill="none" stroke="#666666" stroke-linecap="round" stroke-linejoin="round" stroke-width="1.0"/>
    </g>
    <g id="text1" transform="matrix(1.0, 0.0, 0.0, 1.0, -30.6, -2.05)">
      <g transform="matrix(1.0, 0.0, 0.0, 1.0, 0.0, 0.0)">
        <use fill="#ffffff" height="10.9" transform="matrix(0.0117, 0.0, 0.0, 0.0117, 29.6, 12.0)" width="114.5" xlink:href="#font_Trebuchet_MS_P0"/>
        <use fill="#ffffff" height="10.9" transform="matrix(0.0117, 0.0, 0.0, 0.0117, 36.65, 12.0)" width="114.5" xlink:href="#font_Trebuchet_MS_R0"/>
        <use fill="#ffffff" height="10.9" transform="matrix(0.0117, 0.0, 0.0, 0.0117, 44.0, 12.0)" width="114.5" xlink:href="#font_Trebuchet_MS_E0"/>
        <use fill="#ffffff" height="10.9" transform="matrix(0.0117, 0.0, 0.0, 0.0117, 50.85, 12.0)" width="114.5" xlink:href="#font_Trebuchet_MS_S0"/>
        <use fill="#ffffff" height="10.9" transform="matrix(0.0117, 0.0, 0.0, 0.0117, 57.0, 12.0)" width="114.5" xlink:href="#font_Trebuchet_MS_S0"/>
        <use fill="#ffffff" height="10.9" transform="matrix(0.0117, 0.0, 0.0, 0.0117, 66.75, 12.0)" width="114.5" xlink:href="#font_Trebuchet_MS_T0"/>
        <use fill="#ffffff" height="10.9" transform="matrix(0.0117, 0.0, 0.0, 0.0117, 74.1, 12.0)" width="114.5" xlink:href="#font_Trebuchet_MS_O0"/>
        <use fill="#ffffff" height="10.9" transform="matrix(0.0117, 0.0, 0.0, 0.0117, 86.15, 12.0)" width="114.5" xlink:href="#font_Trebuchet_MS_R0"/>
        <use fill="#ffffff" height="10.9" transform="matrix(0.0117, 0.0, 0.0, 0.0117, 93.5, 12.0)" width="114.5" xlink:href="#font_Trebuchet_MS_E0"/>
        <use fill="#ffffff" height="10.9" transform="matrix(0.0117, 0.0, 0.0, 0.0117, 100.35, 12.0)" width="114.5" xlink:href="#font_Trebuchet_MS_S0"/>
        <use fill="#ffffff" height="10.9" transform="matrix(0.0117, 0.0, 0.0, 0.0117, 106.5, 12.0)" width="114.5" xlink:href="#font_Trebuchet_MS_P0"/>
        <use fill="#ffffff" height="10.9" transform="matrix(0.0117, 0.0, 0.0, 0.0117, 113.55, 12.0)" width="114.5" xlink:href="#font_Trebuchet_MS_A0"/>
        <use fill="#ffffff" height="10.9" transform="matrix(0.0117, 0.0, 0.0, 0.0117, 121.15, 12.0)" width="114.5" xlink:href="#font_Trebuchet_MS_W0"/>
        <use fill="#ffffff" height="10.9" transform="matrix(0.0117, 0.0, 0.0, 0.0117, 131.75, 12.0)" width="114.5" xlink:href="#font_Trebuchet_MS_N0"/>
      </g>
    </g>
    <g id="font_Trebuchet_MS_P0">
      <path d="M205.0 -619.5 L205.0 -619.5 Q224.0 -622.0 244.5 -622.0 428.0 -622.0 428.0 -508.0 428.0 -441.0 387.0 -411.0 346.0 -381.5 257.0 -381.5 238.0 -381.5 205.0 -385.0 L205.0 -619.5 M205.0 -269.5 L205.0 -269.5 Q242.0 -266.0 264.0 -266.0 561.0 -266.0 561.0 -518.0 561.0 -631.0 481.0 -684.0 400.5 -737.5 227.0 -737.5 205.0 -737.5 75.0 -732.0 L75.0 0.0 205.0 0.0 205.0 -269.5" fill-rule="evenodd" stroke="none"/>
    </g>
    <g id="font_Trebuchet_MS_R0">
      <path d="M210.0 -619.5 L210.0 -619.5 Q233.0 -622.5 254.0 -622.5 341.0 -622.5 381.5 -601.0 422.0 -579.5 422.0 -525.5 422.0 -459.0 384.5 -436.0 346.5 -413.0 265.0 -413.0 246.0 -413.0 210.0 -416.0 L210.0 -619.5 M488.0 0.0 L638.0 0.0 421.5 -330.0 Q480.0 -352.0 518.5 -405.5 557.0 -459.0 557.0 -524.0 557.0 -740.0 278.0 -740.0 233.0 -740.0 159.5 -736.0 86.0 -732.5 75.0 -732.5 L75.0 0.0 210.0 0.0 210.0 -306.0 Q263.0 -303.0 292.5 -302.5 L488.0 0.0" fill-rule="evenodd" stroke="none"/>
    </g>
    <g id="font_Trebuchet_MS_S0">
      <path d="M40.0 -40.5 L40.0 -40.5 Q122.5 12.5 225.0 12.5 343.0 12.5 413.5 -45.0 483.5 -102.5 483.5 -191.5 483.5 -241.0 466.5 -281.0 449.5 -321.5 417.0 -351.5 384.5 -382.0 311.0 -418.0 171.5 -486.0 171.5 -549.0 171.5 -587.0 196.5 -610.5 221.0 -634.5 266.0 -634.5 342.0 -634.5 410.5 -585.5 L450.0 -697.5 Q390.5 -745.0 263.5 -745.0 166.0 -745.0 104.0 -689.0 41.5 -633.0 41.5 -548.0 41.5 -502.5 57.5 -465.0 73.0 -427.5 102.5 -400.0 131.5 -373.0 216.0 -330.5 300.0 -288.5 327.0 -254.5 354.0 -220.5 354.0 -183.0 354.0 -103.0 239.5 -103.0 165.0 -103.0 88.0 -157.0 L40.0 -40.5" fill-rule="evenodd" stroke="none"/>
    </g>
    <g id="font_Trebuchet_MS_T0">
      <path d="M373.0 -617.0 L616.5 -617.0 616.5 -732.5 10.0 -732.5 10.0 -617.0 243.0 -617.0 243.0 0.0 373.0 0.0 373.0 -617.0" fill-rule="evenodd" stroke="none"/>
    </g>
    <g id="font_Trebuchet_MS_W0">
      <path d="M665.5 10.0 L902.5 -732.5 767.0 -732.5 630.0 -290.5 481.0 -732.5 424.0 -732.5 275.5 -290.5 138.0 -732.5 2.5 -732.5 243.0 10.0 296.5 10.0 452.0 -452.0 612.0 10.0 665.5 10.0" fill-rule="evenodd" stroke="none"/>
    </g>
    <g id="font_Trebuchet_MS_N0">
      <path d="M555.5 10.0 L608.5 10.0 608.5 -732.5 483.5 -732.5 483.5 -290.5 137.5 -732.5 75.0 -732.5 75.0 0.5 200.0 0.5 200.0 -453.5 555.5 10.0" fill-rule="evenodd" stroke="none"/>
    </g>
    <g id="text2" transform="matrix(1.0, 0.0, 0.0, 1.0, 2.0, 2.0)">
      <g transform="matrix(1.0, 0.0, 0.0, 1.0, -2.0, -2.0)">
        <use fill="#ff9900" height="20.25" transform="matrix(0.0117, 0.0, 0.0, 0.0117, 179.55, 14.0)" width="366.9" xlink:href="#font_Trebuchet_MS_C0"/>
        <use fill="#ff9900" height="20.25" transform="matrix(0.0117, 0.0, 0.0, 0.0117, 179.55, 14.0)" width="366.9" xlink:href="#font_Trebuchet_MS_l0"/>
        <use fill="#ff9900" height="20.25" transform="matrix(0.0117, 0.0, 0.0, 0.0117, 179.55, 14.0)" width="366.9" xlink:href="#font_Trebuchet_MS_i0"/>
        <use fill="#ff9900" height="20.25" transform="matrix(0.0117, 0.0, 0.0, 0.0117, 179.55, 14.0)" width="366.9" xlink:href="#font_Trebuchet_MS_c0"/>
        <use fill="#ff9900" height="20.25" transform="matrix(0.0117, 0.0, 0.0, 0.0117, 179.55, 14.0)" width="366.9" xlink:href="#font_Trebuchet_MS_k0"/>
      </g>
      <g transform="matrix(1.0, 0.0, 0.0, 1.0, -2.0, -2.0)">
        <use fill="#ff9900" height="20.25" transform="matrix(0.0117, 0.0, 0.0, 0.0117, 179.55, 14.0)" width="366.9" xlink:href="#font_Trebuchet_MS_O1"/>
      </g>
      <g transform="matrix(1.0, 0.0, 0.0, 1.0, -2.0, -2.0)">
        <use fill="#ff9900" height="20.25" transform="matrix(0.0117, 0.0, 0.0, 0.0117, 187.35, 14.0)" width="366.9" xlink:href="#font_Trebuchet_MS_t0"/>
        <use fill="#ff9900" height="20.25" transform="matrix(0.0117, 0.0, 0.0, 0.0117, 187.35, 14.0)" width="366.9" xlink:href="#font_Trebuchet_MS_o0"/>
      </g>
      <g transform="matrix(1.0, 0.0, 0.0, 1.0, -2.0, -2.0)">
        <use fill="#ff9900" height="20.25" transform="matrix(0.0117, 0.0, 0.0, 0.0117, 187.35, 14.0)" width="366.9" xlink:href="#font_Trebuchet_MS_r0"/>
        <use fill="#ff9900" height="20.25" transform="matrix(0.0117, 0.0, 0.0, 0.0117, 187.35, 14.0)" width="366.9" xlink:href="#font_Trebuchet_MS_e0"/>
        <use fill="#ff9900" height="20.25" transform="matrix(0.0117, 0.0, 0.0, 0.0117, 187.35, 14.0)" width="366.9" xlink:href="#font_Trebuchet_MS_t0"/>
        <use fill="#ff9900" height="20.25" transform="matrix(0.0117, 0.0, 0.0, 0.0117, 187.35, 14.0)" width="366.9" xlink:href="#font_Trebuchet_MS_u0"/>
        <use fill="#ff9900" height="20.25" transform="matrix(0.0117, 0.0, 0.0, 0.0117, 187.35, 14.0)" width="366.9" xlink:href="#font_Trebuchet_MS_r0"/>
        <use fill="#ff9900" height="20.25" transform="matrix(0.0117, 0.0, 0.0, 0.0117, 187.35, 14.0)" width="366.9" xlink:href="#font_Trebuchet_MS_n0"/>
      </g>
      <g transform="matrix(1.0, 0.0, 0.0, 1.0, -2.0, -2.0)">
        <use fill="#ff9900" height="20.25" transform="matrix(0.0117, 0.0, 0.0, 0.0117, 187.35, 14.0)" width="366.9" xlink:href="#font_Trebuchet_MS_t0"/>
        <use fill="#ff9900" height="20.25" transform="matrix(0.0117, 0.0, 0.0, 0.0117, 187.35, 14.0)" width="366.9" xlink:href="#font_Trebuchet_MS_o0"/>
      </g>
      <g transform="matrix(1.0, 0.0, 0.0, 1.0, -2.0, -2.0)">
        <use fill="#ff9900" height="20.25" transform="matrix(0.0117, 0.0, 0.0, 0.0117, 187.35, 14.0)" width="366.9" xlink:href="#font_Trebuchet_MS_t0"/>
        <use fill="#ff9900" height="20.25" transform="matrix(0.0117, 0.0, 0.0, 0.0117, 187.35, 14.0)" width="366.9" xlink:href="#font_Trebuchet_MS_h0"/>
        <use fill="#ff9900" height="20.25" transform="matrix(0.0117, 0.0, 0.0, 0.0117, 187.35, 14.0)" width="366.9" xlink:href="#font_Trebuchet_MS_e0"/>
      </g>
      <g transform="matrix(1.0, 0.0, 0.0, 1.0, -2.0, -2.0)">
        <use fill="#ff9900" height="20.25" transform="matrix(0.0117, 0.0, 0.0, 0.0117, 187.35, 14.0)" width="366.9" xlink:href="#font_Trebuchet_MS_l0"/>
        <use fill="#ff9900" height="20.25" transform="matrix(0.0117, 0.0, 0.0, 0.0117, 187.35, 14.0)" width="366.9" xlink:href="#font_Trebuchet_MS_a0"/>
        <use fill="#ff9900" height="20.25" transform="matrix(0.0117, 0.0, 0.0, 0.0117, 187.35, 14.0)" width="366.9" xlink:href="#font_Trebuchet_MS_s0"/>
        <use fill="#ff9900" height="20.25" transform="matrix(0.0117, 0.0, 0.0, 0.0117, 187.35, 14.0)" width="366.9" xlink:href="#font_Trebuchet_MS_t0"/>
      </g>
      <g transform="matrix(1.0, 0.0, 0.0, 1.0, -2.0, -2.0)">
        <use fill="#ff9900" height="20.25" transform="matrix(0.0117, 0.0, 0.0, 0.0117, 187.35, 14.0)" width="366.9" xlink:href="#font_Trebuchet_MS_e0"/>
        <use fill="#ff9900" height="20.25" transform="matrix(0.0117, 0.0, 0.0, 0.0117, 187.35, 14.0)" width="366.9" xlink:href="#font_Trebuchet_MS_x0"/>
        <use fill="#ff9900" height="20.25" transform="matrix(0.0117, 0.0, 0.0, 0.0117, 187.35, 14.0)" width="366.9" xlink:href="#font_Trebuchet_MS_i0"/>
        <use fill="#ff9900" height="20.25" transform="matrix(0.0117, 0.0, 0.0, 0.0117, 187.35, 14.0)" width="366.9" xlink:href="#font_Trebuchet_MS_t0"/>
        <use fill="#ff9900" height="20.25" transform="matrix(0.0117, 0.0, 0.0, 0.0117, 187.35, 14.0)" width="366.9" xlink:href="#font_Trebuchet_MS_e0"/>
        <use fill="#ff9900" height="20.25" transform="matrix(0.0117, 0.0, 0.0, 0.0117, 187.35, 14.0)" width="366.9" xlink:href="#font_Trebuchet_MS_d0"/>
      </g>
      <g transform="matrix(1.0, 0.0, 0.0, 1.0, -2.0, -2.0)">
        <use fill="#ff9900" height="20.25" transform="matrix(0.0117, 0.0, 0.0, 0.0117, 187.35, 14.0)" width="366.9" xlink:href="#font_Trebuchet_MS_a0"/>
      </g>
      <g transform="matrix(1.0, 0.0, 0.0, 1.0, -2.0, -2.0)">
        <use fill="#ff9900" height="20.25" transform="matrix(0.0117, 0.0, 0.0, 0.0117, 187.35, 14.0)" width="366.9" xlink:href="#font_Trebuchet_MS_s0"/>
        <use fill="#ff9900" height="20.25" transform="matrix(0.0117, 0.0, 0.0, 0.0117, 187.35, 14.0)" width="366.9" xlink:href="#font_Trebuchet_MS_t0"/>
        <use fill="#ff9900" height="20.25" transform="matrix(0.0117, 0.0, 0.0, 0.0117, 187.35, 14.0)" width="366.9" xlink:href="#font_Trebuchet_MS_a0"/>
        <use fill="#ff9900" height="20.25" transform="matrix(0.0117, 0.0, 0.0, 0.0117, 187.35, 14.0)" width="366.9" xlink:href="#font_Trebuchet_MS_r0"/>
        <use fill="#ff9900" height="20.25" transform="matrix(0.0117, 0.0, 0.0, 0.0117, 187.35, 14.0)" width="366.9" xlink:href="#font_Trebuchet_MS_b0"/>
        <use fill="#ff9900" height="20.25" transform="matrix(0.0117, 0.0, 0.0, 0.0117, 187.35, 14.0)" width="366.9" xlink:href="#font_Trebuchet_MS_a0"/>
        <use fill="#ff9900" height="20.25" transform="matrix(0.0117, 0.0, 0.0, 0.0117, 187.35, 14.0)" width="366.9" xlink:href="#font_Trebuchet_MS_s0"/>
        <use fill="#ff9900" height="20.25" transform="matrix(0.0117, 0.0, 0.0, 0.0117, 187.35, 14.0)" width="366.9" xlink:href="#font_Trebuchet_MS_e0"/>
      </g>
    </g>
    <g id="font_Trebuchet_MS_C0">
      <path d="M582.5 -591.5 L619.0 -716.0 Q550.5 -745.0 462.0 -745.0 281.0 -745.0 169.0 -608.0 56.5 -471.0 56.5 -269.0 56.5 -144.0 129.5 -65.5 202.5 12.5 321.5 12.5 455.0 12.5 526.0 -49.5 L528.5 -164.0 Q463.0 -101.5 348.0 -101.5 274.0 -101.5 232.5 -152.0 191.0 -202.5 191.0 -287.0 191.0 -417.5 267.5 -524.5 343.5 -632.0 456.0 -632.0 525.5 -632.0 582.5 -591.5" fill-rule="evenodd" stroke="none"/>
    </g>
    <g id="font_Trebuchet_MS_l0">
      <path d="M238.5 -42.0 L238.5 -42.0 Q211.5 -42.0 193.5 -58.5 175.5 -75.5 175.5 -104.5 175.5 -150.0 197.5 -256.5 L300.5 -755.0 176.5 -755.0 76.0 -276.5 Q52.0 -162.0 52.0 -101.0 52.0 -54.0 78.0 -24.5 104.0 5.0 149.0 5.0 209.0 5.0 238.5 -42.0" fill-rule="evenodd" stroke="none"/>
    </g>
    <g id="font_Trebuchet_MS_i0">
      <path d="M198.5 0.0 L298.5 -535.5 105.0 -535.5 84.0 -435.0 152.5 -435.0 71.5 0.0 198.5 0.0 M161.5 -707.5 L161.5 -707.5 Q161.5 -674.0 185.5 -651.5 209.5 -629.5 243.0 -629.5 276.5 -629.5 300.5 -652.0 324.5 -674.5 324.5 -707.5 324.5 -741.0 300.5 -763.0 276.5 -785.5 243.0 -785.5 209.0 -785.5 185.5 -763.0 161.5 -741.0 161.5 -707.5" fill-rule="evenodd" stroke="none"/>
    </g>
    <g id="font_Trebuchet_MS_c0">
      <path d="M463.5 -403.0 L489.0 -512.5 Q430.5 -545.5 350.5 -545.5 210.5 -545.5 124.0 -448.0 37.5 -350.5 37.5 -201.0 37.5 -102.5 97.0 -46.0 156.0 10.0 257.5 10.0 338.5 10.0 415.0 -22.0 L430.0 -152.5 Q339.5 -95.5 272.5 -95.5 226.0 -95.5 196.5 -131.0 167.0 -166.5 167.0 -216.5 167.0 -313.0 219.5 -377.0 271.5 -441.5 357.5 -441.5 411.0 -441.5 463.5 -403.0" fill-rule="evenodd" stroke="none"/>
    </g>
    <g id="font_Trebuchet_MS_k0">
      <path d="M381.5 0.0 L529.5 0.0 308.5 -289.5 Q507.5 -465.0 529.5 -492.0 L442.0 -567.5 Q410.5 -523.5 314.0 -439.5 L219.5 -357.5 284.0 -755.0 161.0 -755.0 30.0 0.0 155.5 0.0 191.0 -203.0 212.0 -220.5 381.5 0.0" fill-rule="evenodd" stroke="none"/>
    </g>
    <g id="font_Trebuchet_MS_O1">
      <path d="M184.5 -286.0 L184.5 -286.0 Q184.5 -412.0 253.0 -522.0 321.0 -632.0 425.0 -632.0 573.0 -632.0 573.0 -464.0 573.0 -315.5 504.0 -208.5 435.0 -101.5 316.0 -101.5 251.5 -101.5 218.0 -151.5 184.5 -201.5 184.5 -286.0 M49.5 -272.5 L49.5 -272.5 Q49.5 -144.0 117.0 -65.5 184.0 12.5 300.0 12.5 489.5 12.5 598.5 -122.5 707.5 -257.5 707.5 -474.0 707.5 -606.0 636.5 -675.5 565.5 -745.5 434.0 -745.5 263.0 -745.5 156.5 -606.5 49.5 -468.0 49.5 -272.5" fill-rule="evenodd" stroke="none"/>
    </g>
    <g id="font_Trebuchet_MS_t0">
      <path d="M420.5 -435.0 L442.0 -535.5 295.5 -535.5 333.0 -697.0 190.0 -645.0 169.0 -535.5 107.0 -535.5 85.5 -435.0 147.5 -435.0 87.0 -166.5 Q82.5 -147.0 82.5 -127.0 82.5 -66.0 119.5 -28.0 156.5 10.0 217.5 10.0 310.5 10.0 364.5 -8.5 L364.5 -121.0 Q302.0 -95.0 274.5 -95.0 212.5 -95.0 212.5 -150.0 212.5 -169.0 219.0 -197.5 L273.0 -435.0 420.5 -435.0" fill-rule="evenodd" stroke="none"/>
    </g>
    <g id="font_Trebuchet_MS_o0">
      <path d="M166.0 -206.5 L166.0 -206.5 Q166.0 -301.0 212.5 -372.0 258.5 -443.5 335.0 -443.5 433.5 -443.5 433.5 -335.5 433.5 -236.5 388.0 -164.0 342.5 -92.0 264.5 -92.0 166.0 -92.0 166.0 -206.5 M36.0 -200.5 L36.0 -200.5 Q36.0 -98.5 92.5 -44.0 149.0 10.0 250.5 10.0 389.0 10.0 476.5 -90.5 564.0 -191.0 564.0 -339.0 564.0 -438.0 508.0 -491.5 452.0 -545.5 348.5 -545.5 213.0 -545.5 124.5 -445.5 36.0 -345.5 36.0 -200.5" fill-rule="evenodd" stroke="none"/>
    </g>
    <g id="font_Trebuchet_MS_r0">
      <path d="M434.5 -408.5 L472.0 -536.0 Q419.0 -545.5 398.5 -545.5 318.0 -545.5 251.5 -489.0 L260.0 -535.5 134.5 -535.5 34.5 0.0 160.0 0.0 216.5 -302.5 Q227.0 -357.0 267.5 -399.0 307.5 -441.5 356.0 -441.5 390.0 -441.5 434.5 -408.5" fill-rule="evenodd" stroke="none"/>
    </g>
    <g id="font_Trebuchet_MS_e0">
      <path d="M195.5 -327.0 L195.5 -327.0 Q217.5 -376.0 256.5 -408.5 295.5 -441.5 333.0 -441.5 428.0 -441.5 428.0 -398.0 428.0 -359.0 381.0 -338.0 334.0 -317.5 266.0 -317.5 228.0 -317.5 195.5 -327.0 M171.5 -232.5 L171.5 -232.5 Q225.0 -214.0 281.0 -214.0 395.5 -214.0 474.0 -265.5 552.0 -317.0 552.0 -407.5 552.0 -474.0 499.5 -509.5 447.0 -545.5 362.5 -545.5 219.0 -545.5 130.5 -453.5 41.5 -362.0 41.5 -224.0 41.5 -115.0 103.0 -52.5 164.5 10.0 263.5 10.0 355.0 10.0 418.5 -18.5 L433.0 -150.0 Q409.5 -128.5 368.5 -111.0 327.5 -94.0 296.0 -94.0 237.0 -94.0 204.0 -124.0 170.5 -154.0 170.5 -210.0 170.5 -219.5 171.5 -232.5" fill-rule="evenodd" stroke="none"/>
    </g>
    <g id="font_Trebuchet_MS_u0">
      <path d="M464.0 0.5 L564.0 -535.5 438.5 -535.5 383.5 -226.0 Q373.5 -171.5 333.5 -132.5 293.0 -94.0 233.5 -94.0 160.5 -94.0 160.5 -159.0 160.5 -174.0 164.5 -195.5 L228.0 -535.5 101.0 -535.5 36.5 -190.5 Q31.0 -161.0 31.0 -139.0 31.0 -69.0 70.5 -29.5 109.5 10.0 178.5 10.0 279.5 10.0 346.5 -38.5 L339.0 0.5 464.0 0.5" fill-rule="evenodd" stroke="none"/>
    </g>
    <g id="font_Trebuchet_MS_n0">
      <path d="M473.5 0.0 L534.0 -326.0 Q541.0 -363.5 541.0 -391.0 541.0 -545.5 376.0 -545.5 276.5 -545.5 210.5 -488.0 L199.0 -548.0 76.5 -525.5 Q91.0 -475.0 91.0 -430.5 91.0 -412.0 89.0 -401.5 L13.5 0.0 139.0 0.0 210.5 -385.0 Q264.0 -441.5 331.0 -441.5 409.5 -441.5 409.5 -375.0 409.5 -349.5 402.5 -312.0 L344.0 0.0 473.5 0.0" fill-rule="evenodd" stroke="none"/>
    </g>
    <g id="font_Trebuchet_MS_h0">
      <path d="M540.0 -327.5 L540.0 -327.5 Q545.5 -357.0 545.5 -382.5 545.5 -459.5 502.0 -502.5 458.0 -545.5 381.0 -545.5 307.0 -545.5 240.5 -503.0 L281.5 -755.0 157.0 -755.0 21.0 0.0 148.5 0.0 219.5 -383.0 Q273.5 -440.0 341.0 -440.0 416.0 -440.0 416.0 -365.0 416.0 -348.5 413.0 -332.5 L350.0 0.0 478.5 0.0 540.0 -327.5" fill-rule="evenodd" stroke="none"/>
    </g>
    <g id="font_Trebuchet_MS_a0">
      <path d="M349.5 -443.5 L349.5 -443.5 Q381.0 -443.5 416.5 -433.5 385.0 -225.0 345.0 -158.5 304.5 -92.0 250.5 -92.0 165.5 -92.0 165.5 -178.5 165.5 -283.0 215.5 -363.0 265.5 -443.5 349.5 -443.5 M494.0 -192.0 L556.0 -520.5 Q496.0 -545.5 360.5 -545.5 220.0 -545.5 128.0 -436.5 35.5 -328.0 35.5 -175.5 35.5 -88.0 83.5 -39.0 131.0 10.0 218.0 10.0 313.5 10.0 377.5 -53.5 394.5 0.0 429.5 0.0 L507.5 0.0 Q490.5 -41.0 490.5 -151.0 490.5 -173.5 494.0 -192.0" fill-rule="evenodd" stroke="none"/>
    </g>
    <g id="font_Trebuchet_MS_s0">
      <path d="M395.5 -389.0 L453.5 -503.5 Q354.5 -545.5 292.5 -545.5 202.0 -545.5 140.0 -499.0 77.5 -453.0 77.5 -375.0 77.5 -339.5 96.5 -310.0 115.0 -281.0 151.0 -260.5 187.0 -240.5 234.0 -216.0 281.0 -191.5 281.0 -164.5 281.0 -132.0 256.5 -113.0 231.5 -94.0 193.5 -94.0 133.5 -94.0 71.0 -153.0 L5.0 -39.5 Q89.0 10.0 177.0 10.0 280.0 10.0 346.5 -41.0 412.5 -92.0 412.5 -180.5 412.5 -216.5 394.0 -244.0 375.5 -272.0 346.5 -288.0 317.5 -304.5 263.5 -332.0 209.0 -359.5 209.0 -389.0 209.0 -413.0 232.0 -427.0 254.5 -441.5 285.5 -441.5 335.5 -441.5 395.5 -389.0" fill-rule="evenodd" stroke="none"/>
    </g>
    <g id="font_Trebuchet_MS_x0">
      <path d="M377.5 -269.0 L604.0 -535.5 446.5 -535.5 317.5 -373.0 233.0 -535.5 87.0 -535.5 229.0 -279.5 -4.0 0.0 150.0 0.0 292.5 -166.5 380.5 0.0 533.0 0.0 377.5 -269.0" fill-rule="evenodd" stroke="none"/>
    </g>
    <g id="font_Trebuchet_MS_d0">
      <path d="M353.5 -440.0 L353.5 -440.0 Q407.0 -440.0 431.0 -395.0 L407.0 -267.0 Q374.5 -93.0 265.5 -93.0 164.5 -93.0 164.5 -215.0 164.5 -313.0 216.0 -376.5 267.0 -440.0 353.5 -440.0 M484.5 0.0 L621.0 -755.0 500.0 -755.0 454.0 -512.0 Q439.0 -524.5 405.5 -535.0 372.0 -545.5 345.0 -545.5 203.0 -545.5 117.5 -447.0 32.0 -349.0 32.0 -195.5 32.0 -100.5 85.0 -45.0 138.0 10.0 232.0 10.0 328.0 10.0 369.5 -50.0 L360.0 0.0 484.5 0.0" fill-rule="evenodd" stroke="none"/>
    </g>
    <g id="font_Trebuchet_MS_b0">
      <path d="M316.0 -440.0 L316.0 -440.0 Q445.0 -440.0 445.0 -305.0 445.0 -216.0 396.0 -156.5 343.5 -93.5 256.0 -93.5 199.5 -93.5 180.5 -132.5 L229.0 -397.0 Q265.5 -440.0 316.0 -440.0 M259.0 10.0 L259.0 10.0 Q392.0 10.0 485.0 -84.5 578.0 -179.0 578.0 -312.5 578.0 -415.0 523.0 -478.5 465.0 -545.5 364.5 -545.5 297.5 -545.5 251.0 -515.5 L293.0 -755.0 171.0 -755.0 76.0 -220.0 Q58.5 -122.5 10.5 0.0 L102.0 0.0 142.0 -40.5 Q179.5 10.0 259.0 10.0" fill-rule="evenodd" stroke="none"/>
    </g>
    <g id="text3" transform="matrix(1.0, 0.0, 0.0, 1.0, 118.55, -1.6)">
      <g transform="matrix(1.0, 0.0, 0.0, 1.0, -121.1, 0.0)">
        <use fill="#ff9900" height="13.65" transform="matrix(0.0117, 0.0, 0.0, 0.0117, 1.0, 12.0)" width="290.9" xlink:href="#font_Trebuchet_MS_Y1"/>
        <use fill="#ff9900" height="13.65" transform="matrix(0.0117, 0.0, 0.0, 0.0117, 9.2, 12.0)" width="290.9" xlink:href="#font_Trebuchet_MS_o0"/>
        <use fill="#ff9900" height="13.65" transform="matrix(0.0117, 0.0, 0.0, 0.0117, 16.05, 12.0)" width="290.9" xlink:href="#font_Trebuchet_MS_u0"/>
        <use fill="#ff9900" height="13.65" transform="matrix(0.0117, 0.0, 0.0, 0.0117, 26.35, 12.0)" width="290.9" xlink:href="#font_Trebuchet_MS_w0"/>
        <use fill="#ff9900" height="13.65" transform="matrix(0.0117, 0.0, 0.0, 0.0117, 35.65, 12.0)" width="290.9" xlink:href="#font_Trebuchet_MS_i0"/>
        <use fill="#ff9900" height="13.65" transform="matrix(0.0117, 0.0, 0.0, 0.0117, 39.55, 12.0)" width="290.9" xlink:href="#font_Trebuchet_MS_l0"/>
        <use fill="#ff9900" height="13.65" transform="matrix(0.0117, 0.0, 0.0, 0.0117, 43.4, 12.0)" width="290.9" xlink:href="#font_Trebuchet_MS_l0"/>
        <use fill="#ff9900" height="13.65" transform="matrix(0.0117, 0.0, 0.0, 0.0117, 50.85, 12.0)" width="290.9" xlink:href="#font_Trebuchet_MS_r0"/>
        <use fill="#ff9900" height="13.65" transform="matrix(0.0117, 0.0, 0.0, 0.0117, 56.2, 12.0)" width="290.9" xlink:href="#font_Trebuchet_MS_e0"/>
        <use fill="#ff9900" height="13.65" transform="matrix(0.0117, 0.0, 0.0, 0.0117, 62.8, 12.0)" width="290.9" xlink:href="#font_Trebuchet_MS_s0"/>
        <use fill="#ff9900" height="13.65" transform="matrix(0.0117, 0.0, 0.0, 0.0117, 68.3, 12.0)" width="290.9" xlink:href="#font_Trebuchet_MS_p0"/>
        <use fill="#ff9900" height="13.65" transform="matrix(0.0117, 0.0, 0.0, 0.0117, 75.5, 12.0)" width="290.9" xlink:href="#font_Trebuchet_MS_a0"/>
        <use fill="#ff9900" height="13.65" transform="matrix(0.0117, 0.0, 0.0, 0.0117, 82.6, 12.0)" width="290.9" xlink:href="#font_Trebuchet_MS_w0"/>
        <use fill="#ff9900" height="13.65" transform="matrix(0.0117, 0.0, 0.0, 0.0117, 91.9, 12.0)" width="290.9" xlink:href="#font_Trebuchet_MS_n0"/>
        <use fill="#ff9900" height="13.65" transform="matrix(0.0117, 0.0, 0.0, 0.0117, 102.25, 12.0)" width="290.9" xlink:href="#font_Trebuchet_MS_a0"/>
        <use fill="#ff9900" height="13.65" transform="matrix(0.0117, 0.0, 0.0, 0.0117, 109.35, 12.0)" width="290.9" xlink:href="#font_Trebuchet_MS_t0"/>
        <use fill="#ff9900" height="13.65" transform="matrix(0.0117, 0.0, 0.0, 0.0117, 118.2, 12.0)" width="290.9" xlink:href="#font_Trebuchet_MS_t0"/>
        <use fill="#ff9900" height="13.65" transform="matrix(0.0117, 0.0, 0.0, 0.0117, 123.45, 12.0)" width="290.9" xlink:href="#font_Trebuchet_MS_h0"/>
        <use fill="#ff9900" height="13.65" transform="matrix(0.0117, 0.0, 0.0, 0.0117, 130.2, 12.0)" width="290.9" xlink:href="#font_Trebuchet_MS_e0"/>
        <use fill="#ff9900" height="13.65" transform="matrix(0.0117, 0.0, 0.0, 0.0117, 140.4, 12.0)" width="290.9" xlink:href="#font_Trebuchet_MS_l0"/>
        <use fill="#ff9900" height="13.65" transform="matrix(0.0117, 0.0, 0.0, 0.0117, 144.25, 12.0)" width="290.9" xlink:href="#font_Trebuchet_MS_a0"/>
        <use fill="#ff9900" height="13.65" transform="matrix(0.0117, 0.0, 0.0, 0.0117, 151.35, 12.0)" width="290.9" xlink:href="#font_Trebuchet_MS_s0"/>
        <use fill="#ff9900" height="13.65" transform="matrix(0.0117, 0.0, 0.0, 0.0117, 156.85, 12.0)" width="290.9" xlink:href="#font_Trebuchet_MS_t0"/>
        <use fill="#ff9900" height="13.65" transform="matrix(0.0117, 0.0, 0.0, 0.0117, 165.7, 12.0)" width="290.9" xlink:href="#font_Trebuchet_MS_e0"/>
        <use fill="#ff9900" height="13.65" transform="matrix(0.0117, 0.0, 0.0, 0.0117, 172.3, 12.0)" width="290.9" xlink:href="#font_Trebuchet_MS_x0"/>
        <use fill="#ff9900" height="13.65" transform="matrix(0.0117, 0.0, 0.0, 0.0117, 179.2, 12.0)" width="290.9" xlink:href="#font_Trebuchet_MS_i0"/>
        <use fill="#ff9900" height="13.65" transform="matrix(0.0117, 0.0, 0.0, 0.0117, 183.1, 12.0)" width="290.9" xlink:href="#font_Trebuchet_MS_t0"/>
        <use fill="#ff9900" height="13.65" transform="matrix(0.0117, 0.0, 0.0, 0.0117, 188.35, 12.0)" width="290.9" xlink:href="#font_Trebuchet_MS_e0"/>
        <use fill="#ff9900" height="13.65" transform="matrix(0.0117, 0.0, 0.0, 0.0117, 194.95, 12.0)" width="290.9" xlink:href="#font_Trebuchet_MS_d0"/>
        <use fill="#ff9900" height="13.65" transform="matrix(0.0117, 0.0, 0.0, 0.0117, 205.65, 12.0)" width="290.9" xlink:href="#font_Trebuchet_MS_b0"/>
        <use fill="#ff9900" height="13.65" transform="matrix(0.0117, 0.0, 0.0, 0.0117, 212.75, 12.0)" width="290.9" xlink:href="#font_Trebuchet_MS_a0"/>
        <use fill="#ff9900" height="13.65" transform="matrix(0.0117, 0.0, 0.0, 0.0117, 219.85, 12.0)" width="290.9" xlink:href="#font_Trebuchet_MS_s0"/>
        <use fill="#ff9900" height="13.65" transform="matrix(0.0117, 0.0, 0.0, 0.0117, 225.35, 12.0)" width="290.9" xlink:href="#font_Trebuchet_MS_e0"/>
        <use fill="#ff9900" height="13.65" transform="matrix(0.0117, 0.0, 0.0, 0.0117, 235.55, 12.0)" width="290.9" xlink:href="#font_Trebuchet_MS_o0"/>
        <use fill="#ff9900" height="13.65" transform="matrix(0.0117, 0.0, 0.0, 0.0117, 242.4, 12.0)" width="290.9" xlink:href="#font_Trebuchet_MS_r0"/>
        <use fill="#ff9900" height="13.65" transform="matrix(0.0117, 0.0, 0.0, 0.0117, 251.35, 12.0)" width="290.9" xlink:href="#font_Trebuchet_MS_p0"/>
        <use fill="#ff9900" height="13.65" transform="matrix(0.0117, 0.0, 0.0, 0.0117, 258.55, 12.0)" width="290.9" xlink:href="#font_Trebuchet_MS_l0"/>
        <use fill="#ff9900" height="13.65" transform="matrix(0.0117, 0.0, 0.0, 0.0117, 262.4, 12.0)" width="290.9" xlink:href="#font_Trebuchet_MS_a0"/>
        <use fill="#ff9900" height="13.65" transform="matrix(0.0117, 0.0, 0.0, 0.0117, 269.5, 12.0)" width="290.9" xlink:href="#font_Trebuchet_MS_n0"/>
        <use fill="#ff9900" height="13.65" transform="matrix(0.0117, 0.0, 0.0, 0.0117, 276.25, 12.0)" width="290.9" xlink:href="#font_Trebuchet_MS_e0"/>
        <use fill="#ff9900" height="13.65" transform="matrix(0.0117, 0.0, 0.0, 0.0117, 282.85, 12.0)" width="290.9" xlink:href="#font_Trebuchet_MS_t0"/>
      </g>
    </g>
    <g id="font_Trebuchet_MS_Y1">
      <path d="M424.0 -324.0 L745.0 -732.5 596.5 -732.5 377.0 -446.0 259.0 -732.5 123.5 -732.5 296.0 -328.0 235.5 0.0 364.5 0.0 424.0 -324.0" fill-rule="evenodd" stroke="none"/>
    </g>
    <g id="font_Trebuchet_MS_w0">
      <path d="M532.0 10.0 L826.0 -535.5 693.5 -535.5 539.0 -237.0 450.5 -535.5 405.5 -535.5 222.0 -240.5 168.5 -535.5 41.5 -535.5 147.0 10.0 193.0 10.0 393.5 -299.5 487.0 10.0 532.0 10.0" fill-rule="evenodd" stroke="none"/>
    </g>
    <g id="font_Trebuchet_MS_p0">
      <path d="M172.0 -121.0 L222.0 -385.5 Q238.5 -405.0 272.0 -421.0 305.0 -437.5 329.5 -437.5 384.5 -437.5 416.0 -406.5 447.5 -376.0 447.5 -325.0 447.5 -215.0 395.5 -155.0 343.0 -95.5 244.5 -95.5 196.5 -95.5 172.0 -121.0 M152.5 -14.5 L152.5 -14.5 Q200.5 10.0 258.0 10.0 402.5 10.0 490.5 -87.5 578.5 -185.0 578.5 -337.5 578.5 -545.5 364.0 -545.5 295.5 -545.5 226.0 -494.0 221.5 -526.0 214.5 -545.0 L92.5 -523.0 Q101.5 -478.5 101.5 -434.5 101.5 -402.0 95.5 -370.0 L-12.5 210.0 112.5 210.0 152.5 -14.5" fill-rule="evenodd" stroke="none"/>
    </g>
  </defs>
</svg>
