<?xml version="1.0" encoding="UTF-8" standalone="no"?>
<svg xmlns:xlink="http://www.w3.org/1999/xlink" height="91.1px" width="163.1px" xmlns="http://www.w3.org/2000/svg">
  <g transform="matrix(1.0, 0.0, 0.0, 1.0, 0.05, 0.05)">
    <use data-characterId="1508" height="91.1" transform="matrix(1.0, 0.0, 0.0, 1.0, -0.05, -0.05)" width="163.1" xlink:href="#shape0"/>
  </g>
  <defs>
    <g id="shape0" transform="matrix(1.0, 0.0, 0.0, 1.0, 0.05, 0.05)">
      <path d="M163.0 0.0 L163.0 91.0 0.0 91.0 0.0 0.0 163.0 0.0" fill="#000033" fill-rule="evenodd" stroke="none"/>
      <path d="M163.0 0.0 L163.0 91.0 0.0 91.0 0.0 0.0 163.0 0.0 Z" fill="none" stroke="#999999" stroke-linecap="round" stroke-linejoin="round" stroke-width="0.1"/>
    </g>
  </defs>
</svg>
