<?xml version="1.0" encoding="UTF-8" standalone="no"?>
<svg xmlns:xlink="http://www.w3.org/1999/xlink" height="77.0px" width="102.0px" xmlns="http://www.w3.org/2000/svg">
  <g transform="matrix(1.0, 0.0, 0.0, 1.0, 51.0, 38.5)">
    <use data-characterId="415" height="77.0" transform="matrix(1.0, 0.0, 0.0, 1.0, -51.0, -38.5)" width="102.0" xlink:href="#shape0"/>
    <use data-characterId="416" height="39.25" id="question" transform="matrix(1.0, 0.0, 0.0, 1.0, -48.0, -35.3)" width="98.0" xlink:href="#text0"/>
    <use data-characterId="417" height="27.0" transform="matrix(1.0, 0.0, 0.0, 1.0, -42.05, 5.45)" width="38.7" xlink:href="#button0"/>
    <use data-characterId="418" height="27.0" transform="matrix(1.0, 0.0, 0.0, 1.0, 6.0, 6.45)" width="37.0" xlink:href="#button1"/>
  </g>
  <defs>
    <g id="shape0" transform="matrix(1.0, 0.0, 0.0, 1.0, 51.0, 38.5)">
      <path d="M-50.0 -37.5 L50.0 -37.5 50.0 37.5 -50.0 37.5 -50.0 -37.5" fill="#ff0066" fill-rule="evenodd" stroke="none"/>
      <path d="M-50.0 -37.5 L50.0 -37.5 50.0 37.5 -50.0 37.5 -50.0 -37.5 Z" fill="none" stroke="#000000" stroke-linecap="round" stroke-linejoin="round" stroke-width="2.0"/>
    </g>
    <g id="text0" transform="matrix(1.0, 0.0, 0.0, 1.0, 2.0, 2.0)">
      <g transform="matrix(1.0, 0.0, 0.0, 1.0, -2.0, -2.0)">
        <use fill="#ffffff" height="39.25" transform="matrix(0.0098, 0.0, 0.0, 0.0098, 17.9, 9.95)" width="98.0" xlink:href="#font_Arial_q0"/>
        <use fill="#ffffff" height="39.25" transform="matrix(0.0098, 0.0, 0.0, 0.0098, 23.45, 9.95)" width="98.0" xlink:href="#font_Arial_u0"/>
        <use fill="#ffffff" height="39.25" transform="matrix(0.0098, 0.0, 0.0, 0.0098, 29.0, 9.95)" width="98.0" xlink:href="#font_Arial_e0"/>
        <use fill="#ffffff" height="39.25" transform="matrix(0.0098, 0.0, 0.0, 0.0098, 34.55, 9.95)" width="98.0" xlink:href="#font_Arial_s0"/>
        <use fill="#ffffff" height="39.25" transform="matrix(0.0098, 0.0, 0.0, 0.0098, 39.55, 9.95)" width="98.0" xlink:href="#font_Arial_t0"/>
        <use fill="#ffffff" height="39.25" transform="matrix(0.0098, 0.0, 0.0, 0.0098, 42.35, 9.95)" width="98.0" xlink:href="#font_Arial_i0"/>
        <use fill="#ffffff" height="39.25" transform="matrix(0.0098, 0.0, 0.0, 0.0098, 44.55, 9.95)" width="98.0" xlink:href="#font_Arial_o0"/>
        <use fill="#ffffff" height="39.25" transform="matrix(0.0098, 0.0, 0.0, 0.0098, 50.1, 9.95)" width="98.0" xlink:href="#font_Arial_n0"/>
      </g>
      <g transform="matrix(1.0, 0.0, 0.0, 1.0, -2.0, -2.0)">
        <use fill="#ffffff" height="39.25" transform="matrix(0.0098, 0.0, 0.0, 0.0098, 58.45, 9.95)" width="98.0" xlink:href="#font_Arial_g0"/>
        <use fill="#ffffff" height="39.25" transform="matrix(0.0098, 0.0, 0.0, 0.0098, 64.0, 9.95)" width="98.0" xlink:href="#font_Arial_o0"/>
        <use fill="#ffffff" height="39.25" transform="matrix(0.0098, 0.0, 0.0, 0.0098, 69.55, 9.95)" width="98.0" xlink:href="#font_Arial_e0"/>
        <use fill="#ffffff" height="39.25" transform="matrix(0.0098, 0.0, 0.0, 0.0098, 75.1, 9.95)" width="98.0" xlink:href="#font_Arial_s0"/>
      </g>
      <g transform="matrix(1.0, 0.0, 0.0, 1.0, -2.0, -2.0)">
        <use fill="#ffffff" height="39.25" transform="matrix(0.0098, 0.0, 0.0, 0.0098, 39.0, 22.05)" width="98.0" xlink:href="#font_Arial_h0"/>
        <use fill="#ffffff" height="39.25" transform="matrix(0.0098, 0.0, 0.0, 0.0098, 44.55, 22.05)" width="98.0" xlink:href="#font_Arial_e0"/>
        <use fill="#ffffff" height="39.25" transform="matrix(0.0098, 0.0, 0.0, 0.0098, 50.1, 22.05)" width="98.0" xlink:href="#font_Arial_r0"/>
        <use fill="#ffffff" height="39.25" transform="matrix(0.0098, 0.0, 0.0, 0.0098, 53.45, 22.05)" width="98.0" xlink:href="#font_Arial_e0"/>
      </g>
    </g>
    <g id="font_Arial_q0">
      <path d="M128.5 -267.0 Q128.5 -372.5 169.5 -422.0 210.0 -472.0 268.5 -472.0 327.5 -472.0 371.5 -418.5 415.0 -365.0 415.0 -259.0 415.0 -159.5 373.5 -110.5 332.0 -62.0 274.5 -62.0 214.5 -62.0 171.5 -113.0 128.5 -164.5 128.5 -267.0 M406.0 203.5 L496.0 203.5 496.0 -531.0 415.0 -531.0 415.0 -460.0 Q358.5 -543.0 260.0 -543.0 197.0 -543.0 144.5 -510.0 91.5 -477.5 64.0 -414.0 36.0 -350.5 36.0 -270.5 36.0 -139.0 104.5 -63.5 172.5 12.0 267.0 12.0 309.5 12.0 347.5 -7.5 385.0 -27.0 406.0 -56.5 L406.0 203.5" fill-rule="evenodd" stroke="none"/>
    </g>
    <g id="font_Arial_u0">
      <path d="M415.5 0.0 L496.0 0.0 496.0 -531.0 406.0 -531.0 406.0 -246.5 Q406.0 -178.5 391.5 -142.5 376.5 -107.0 341.0 -86.0 305.5 -65.5 265.0 -65.5 224.5 -65.5 197.0 -85.5 169.5 -106.0 161.0 -141.5 155.5 -166.0 155.5 -236.5 L155.5 -531.0 65.5 -531.0 65.5 -202.0 Q65.5 -144.5 71.0 -118.0 79.0 -78.5 99.0 -51.0 118.5 -24.0 159.5 -6.0 200.0 12.0 247.0 12.0 353.5 12.0 415.5 -78.0 L415.5 0.0" fill-rule="evenodd" stroke="none"/>
    </g>
    <g id="font_Arial_e0">
      <path d="M135.5 -316.5 Q140.0 -386.0 182.5 -427.5 224.5 -469.0 286.5 -469.0 355.0 -469.0 398.0 -417.0 426.0 -383.5 432.0 -316.5 L135.5 -316.5 M431.0 -171.0 Q410.5 -114.0 375.5 -88.0 340.5 -62.0 291.0 -62.0 224.5 -62.0 180.0 -108.5 135.5 -155.0 130.5 -242.5 L526.5 -242.5 527.0 -266.5 Q527.0 -398.0 459.5 -470.5 392.0 -543.0 285.5 -543.0 175.5 -543.0 106.5 -469.0 37.5 -395.0 37.5 -261.0 37.5 -131.5 106.0 -59.5 174.0 12.0 290.5 12.0 383.0 12.0 442.5 -33.0 502.0 -78.0 524.0 -159.5 L431.0 -171.0" fill-rule="evenodd" stroke="none"/>
    </g>
    <g id="font_Arial_s0">
      <path d="M31.5 -158.5 Q46.5 -74.0 101.0 -31.0 155.0 12.0 258.5 12.0 321.0 12.0 370.5 -9.5 420.0 -31.5 446.5 -71.0 472.5 -111.0 472.5 -156.0 472.5 -202.0 451.0 -233.0 429.5 -264.0 392.0 -280.0 354.0 -296.5 258.5 -322.0 192.5 -340.0 179.0 -345.0 155.5 -354.5 144.5 -369.0 133.5 -383.0 133.5 -400.5 133.5 -428.0 160.0 -448.5 186.5 -469.0 248.5 -469.0 301.0 -469.0 330.0 -446.0 358.5 -423.0 364.5 -382.0 L452.5 -394.0 Q444.0 -445.5 421.5 -476.0 399.0 -507.0 352.0 -525.0 304.5 -543.0 242.0 -543.0 200.5 -543.0 164.5 -532.0 128.0 -521.5 107.0 -506.0 79.0 -486.0 63.0 -455.5 46.5 -425.5 46.5 -390.0 46.5 -351.0 66.5 -318.5 86.0 -286.5 124.5 -268.0 162.5 -250.0 261.5 -225.0 335.0 -206.5 353.5 -194.5 380.0 -177.0 380.0 -146.5 380.0 -112.5 350.0 -87.0 320.0 -62.0 258.0 -62.0 196.5 -62.0 162.5 -90.5 128.0 -119.0 120.5 -172.5 L31.5 -158.5" fill-rule="evenodd" stroke="none"/>
    </g>
    <g id="font_Arial_t0">
      <path d="M264.0 -80.5 Q239.5 -77.0 224.5 -77.0 204.5 -77.0 194.0 -83.5 183.0 -90.0 178.5 -101.0 173.5 -112.0 173.5 -150.5 L173.5 -461.0 264.0 -461.0 264.0 -531.0 173.5 -531.0 173.5 -716.5 84.0 -662.5 84.0 -531.0 18.0 -531.0 18.0 -461.0 84.0 -461.0 84.0 -155.5 Q84.0 -74.5 95.0 -49.0 106.0 -24.0 133.0 -8.5 160.0 7.0 209.0 7.0 239.0 7.0 277.0 -1.0 L264.0 -80.5" fill-rule="evenodd" stroke="none"/>
    </g>
    <g id="font_Arial_i0">
      <path d="M68.0 0.0 L158.0 0.0 158.0 -531.0 68.0 -531.0 68.0 0.0 M68.0 -629.5 L158.0 -629.5 158.0 -733.0 68.0 -733.0 68.0 -629.5" fill-rule="evenodd" stroke="none"/>
    </g>
    <g id="font_Arial_o0">
      <path d="M126.5 -265.5 Q126.5 -367.5 171.0 -418.0 215.5 -468.5 283.0 -468.5 349.5 -468.5 394.5 -417.5 439.0 -367.0 439.0 -268.5 439.0 -164.0 394.5 -113.0 350.0 -62.0 283.0 -62.0 215.5 -62.0 171.0 -112.5 126.5 -163.5 126.5 -265.5 M34.0 -265.5 Q34.0 -131.0 103.0 -59.5 171.5 12.0 283.0 12.0 352.5 12.0 411.5 -20.5 470.0 -53.0 501.0 -111.5 531.5 -170.5 531.5 -273.0 531.5 -399.5 462.0 -471.0 392.5 -543.0 283.0 -543.0 184.5 -543.0 116.0 -484.0 34.0 -413.0 34.0 -265.5" fill-rule="evenodd" stroke="none"/>
    </g>
    <g id="font_Arial_n0">
      <path d="M67.5 0.0 L157.5 0.0 157.5 -290.0 Q157.5 -392.0 199.5 -428.5 241.0 -465.0 298.5 -465.0 334.5 -465.0 361.5 -448.5 388.0 -432.5 398.5 -405.0 409.0 -378.0 409.0 -323.0 L409.0 0.0 499.0 0.0 499.0 -326.5 Q499.0 -389.0 494.0 -414.0 486.0 -452.5 466.0 -480.5 446.0 -508.5 406.0 -525.5 365.5 -543.0 317.5 -543.0 207.0 -543.0 148.5 -455.5 L148.5 -531.0 67.5 -531.0 67.5 0.0" fill-rule="evenodd" stroke="none"/>
    </g>
    <g id="font_Arial_g0">
      <path d="M125.5 -275.0 Q125.5 -371.0 167.5 -419.5 209.5 -468.5 269.5 -468.5 330.5 -468.5 374.0 -419.0 417.0 -369.5 417.0 -272.0 417.0 -170.0 375.0 -122.0 333.0 -74.5 271.0 -74.5 208.5 -74.5 167.0 -122.5 125.5 -170.5 125.5 -275.0 M51.0 44.0 Q49.0 130.0 107.5 173.0 166.0 215.5 261.0 215.5 341.0 215.5 396.0 185.5 450.5 155.5 476.0 104.0 501.0 52.0 501.0 -72.0 L501.0 -531.0 418.0 -531.0 418.0 -467.0 Q357.0 -543.0 263.0 -543.0 192.5 -543.0 140.5 -508.0 88.0 -473.0 60.5 -408.5 33.0 -344.5 33.0 -268.5 33.0 -158.0 93.0 -79.0 153.0 0.0 262.5 0.0 350.5 0.0 409.5 -69.5 410.0 18.5 403.0 46.0 391.0 91.0 357.0 116.0 323.0 141.0 260.5 141.0 202.5 141.0 169.0 116.0 144.0 97.5 138.5 57.0 L51.0 44.0" fill-rule="evenodd" stroke="none"/>
    </g>
    <g id="font_Arial_h0">
      <path d="M67.5 0.0 L157.5 0.0 157.5 -290.5 Q157.5 -353.0 172.5 -388.5 187.5 -424.0 223.0 -444.5 258.0 -465.5 298.0 -465.5 351.5 -465.5 381.0 -434.5 410.0 -404.0 410.0 -336.5 L410.0 0.0 500.0 0.0 500.0 -336.5 Q500.0 -414.5 481.5 -455.5 462.5 -496.5 419.0 -519.5 375.5 -543.0 316.5 -543.0 220.5 -543.0 157.5 -470.0 L157.5 -733.0 67.5 -733.0 67.5 0.0" fill-rule="evenodd" stroke="none"/>
    </g>
    <g id="font_Arial_r0">
      <path d="M66.5 0.0 L156.5 0.0 156.5 -278.0 Q156.5 -335.0 171.5 -383.0 181.5 -414.5 205.0 -432.0 228.5 -450.0 258.0 -450.0 291.0 -450.0 324.0 -430.5 L355.0 -514.0 Q308.0 -543.0 262.5 -543.0 231.0 -543.0 205.0 -525.0 178.5 -507.0 147.5 -450.5 L147.5 -531.0 66.5 -531.0 66.5 0.0" fill-rule="evenodd" stroke="none"/>
    </g>
    <g id="button0" transform="matrix(1.0, 0.0, 0.0, 1.0, 18.5, 13.5)">
      <use data-characterId="94" height="27.0" transform="matrix(1.0, 0.0, 0.0, 1.0, -18.5, -13.5)" width="37.0" xlink:href="#shape1"/>
      <use data-characterId="98" height="10.9" transform="matrix(1.0, 0.0, 0.0, 1.0, -11.25, -5.25)" width="31.45" xlink:href="#text1"/>
    </g>
    <g id="shape1" transform="matrix(1.0, 0.0, 0.0, 1.0, 18.5, 13.5)">
      <path d="M17.5 -12.5 L17.5 12.5 -17.5 12.5 -17.5 -12.5 17.5 -12.5" fill="#ffffff" fill-rule="evenodd" stroke="none"/>
      <path d="M17.5 -12.5 L17.5 12.5 -17.5 12.5 -17.5 -12.5 17.5 -12.5 Z" fill="none" stroke="#000000" stroke-linecap="round" stroke-linejoin="round" stroke-width="2.0"/>
    </g>
    <g id="text1" transform="matrix(1.0, 0.0, 0.0, 1.0, -20.75, -1.0)">
      <g transform="matrix(1.0, 0.0, 0.0, 1.0, 19.45, 0.0)">
        <use fill="#000033" height="10.9" transform="matrix(0.0117, 0.0, 0.0, 0.0117, 1.0, 11.0)" width="31.45" xlink:href="#font_Arial_Y0"/>
        <use fill="#000033" height="10.9" transform="matrix(0.0117, 0.0, 0.0, 0.0117, 9.0, 11.0)" width="31.45" xlink:href="#font_Arial_E0"/>
        <use fill="#000033" height="10.9" transform="matrix(0.0117, 0.0, 0.0, 0.0117, 17.0, 11.0)" width="31.45" xlink:href="#font_Arial_S0"/>
      </g>
    </g>
    <g id="font_Arial_Y0">
      <path d="M285.5 0.0 L382.5 0.0 382.5 -310.5 Q529.0 -521.5 675.0 -733.0 L562.0 -733.0 420.0 -517.5 Q373.0 -445.5 340.0 -388.0 305.5 -450.0 265.5 -512.0 193.5 -622.5 121.0 -733.0 L3.0 -733.0 285.5 -310.5 285.5 0.0" fill-rule="evenodd" stroke="none"/>
    </g>
    <g id="font_Arial_E0">
      <path d="M81.0 0.0 L628.0 0.0 628.0 -86.5 178.0 -86.5 178.0 -336.0 583.5 -336.0 583.5 -422.0 178.0 -422.0 178.0 -646.5 611.0 -646.5 611.0 -733.0 81.0 -733.0 81.0 0.0" fill-rule="evenodd" stroke="none"/>
    </g>
    <g id="font_Arial_S0">
      <path d="M46.0 -235.5 Q48.0 -162.0 86.5 -103.5 124.5 -45.5 192.0 -16.5 259.0 12.5 358.5 12.5 437.0 12.5 500.0 -16.0 562.5 -45.0 596.0 -96.5 629.5 -148.5 629.5 -207.0 629.5 -266.0 599.0 -311.0 568.5 -356.5 504.5 -386.0 460.5 -406.0 342.5 -432.5 224.0 -459.5 196.0 -485.0 167.5 -510.5 167.5 -550.0 167.5 -595.5 208.0 -627.5 248.0 -660.0 336.0 -660.0 420.5 -660.0 464.0 -624.5 507.0 -589.0 514.5 -519.5 L607.5 -526.5 Q605.0 -591.0 571.5 -642.0 538.0 -693.0 476.0 -719.0 413.5 -745.5 332.0 -745.5 258.0 -745.5 197.5 -720.5 137.0 -695.5 105.5 -647.0 74.0 -599.0 74.0 -543.5 74.0 -493.0 100.0 -452.0 125.5 -411.5 178.0 -384.0 218.5 -362.5 319.5 -338.0 420.5 -314.0 450.0 -302.5 496.0 -285.0 516.0 -259.0 536.0 -233.5 536.0 -199.0 536.0 -165.0 515.5 -136.0 494.5 -107.5 452.0 -91.0 409.5 -74.5 354.0 -74.5 291.5 -74.5 241.5 -96.0 191.5 -118.0 168.0 -153.0 144.0 -188.5 137.5 -243.5 L46.0 -235.5" fill-rule="evenodd" stroke="none"/>
    </g>
    <g id="button1" transform="matrix(1.0, 0.0, 0.0, 1.0, 18.5, 13.5)">
      <use data-characterId="94" height="27.0" transform="matrix(1.0, 0.0, 0.0, 1.0, -18.5, -13.5)" width="37.0" xlink:href="#shape1"/>
      <use data-characterId="96" height="10.9" transform="matrix(1.0, 0.0, 0.0, 1.0, -7.4, -5.25)" width="24.5" xlink:href="#text2"/>
    </g>
    <g id="text2" transform="matrix(1.0, 0.0, 0.0, 1.0, -24.6, -1.0)">
      <g transform="matrix(1.0, 0.0, 0.0, 1.0, 19.45, 0.0)">
        <use fill="#000033" height="10.9" transform="matrix(0.0117, 0.0, 0.0, 0.0117, 4.0, 11.0)" width="24.5" xlink:href="#font_Arial_N0"/>
        <use fill="#000033" height="10.9" transform="matrix(0.0117, 0.0, 0.0, 0.0117, 12.6, 11.0)" width="24.5" xlink:href="#font_Arial_O0"/>
      </g>
    </g>
    <g id="font_Arial_N0">
      <path d="M78.0 0.0 L171.0 0.0 171.0 -576.0 556.0 0.0 655.5 0.0 655.5 -733.0 562.5 -733.0 562.5 -157.5 Q370.0 -445.0 177.5 -733.0 L78.0 -733.0 78.0 0.0" fill-rule="evenodd" stroke="none"/>
    </g>
    <g id="font_Arial_O0">
      <path d="M149.5 -355.5 Q149.5 -521.0 224.0 -591.5 298.0 -662.5 401.0 -662.5 473.5 -662.5 532.0 -625.5 590.0 -589.0 620.5 -522.0 650.5 -455.5 650.5 -366.0 650.5 -224.5 580.0 -147.5 509.0 -70.5 399.5 -70.5 292.0 -70.5 221.0 -146.5 149.5 -223.0 149.5 -355.5 M49.5 -357.0 Q49.5 -260.5 91.5 -174.0 133.5 -87.5 215.0 -37.5 296.5 12.5 400.0 12.5 495.5 12.5 578.0 -32.5 660.5 -78.0 705.5 -166.0 750.5 -254.0 750.5 -365.5 750.5 -475.5 708.0 -562.0 665.0 -649.0 583.5 -697.5 502.0 -746.0 400.5 -746.0 245.5 -746.0 147.5 -642.5 49.5 -539.5 49.5 -357.0" fill-rule="evenodd" stroke="none"/>
    </g>
  </defs>
</svg>
