<?xml version="1.0" encoding="UTF-8" standalone="no"?>
<svg xmlns:xlink="http://www.w3.org/1999/xlink" height="112.0px" width="112.0px" xmlns="http://www.w3.org/2000/svg">
  <g transform="matrix(1.0, 0.0, 0.0, 1.0, 56.0, 56.0)">
    <use data-characterId="322" height="112.15" transform="matrix(1.0, 0.0, 0.0, 1.0, -56.0, -55.95)" width="112.0" xlink:href="#shape0"/>
  </g>
  <defs>
    <g id="shape0" transform="matrix(1.0, 0.0, 0.0, 1.0, 56.0, 55.95)">
      <path d="M55.0 -44.95 L55.0 44.2 Q53.05 53.8 42.0 55.2 L-41.0 55.2 Q-55.0 54.65 -55.0 41.15 L-55.0 -42.95 Q-52.6 -55.9 -40.05 -54.9 L42.05 -54.9 Q54.1 -53.65 55.0 -44.95 Z" fill="none" stroke="#006699" stroke-linecap="round" stroke-linejoin="round" stroke-width="2.0"/>
    </g>
  </defs>
</svg>
