<?xml version="1.0" encoding="UTF-8" standalone="no"?>
<svg xmlns:xlink="http://www.w3.org/1999/xlink" height="10.0px" width="6.0px" xmlns="http://www.w3.org/2000/svg">
  <g transform="matrix(1.0, 0.0, 0.0, 1.0, 3.0, 7.0)">
    <use data-characterId="106" height="10.0" transform="matrix(1.0, 0.0, 0.0, 1.0, -3.0, -7.0)" width="6.0" xlink:href="#shape0"/>
  </g>
  <defs>
    <g id="shape0" transform="matrix(1.0, 0.0, 0.0, 1.0, 3.0, 7.0)">
      <path d="M1.8 -1.75 Q2.5 -1.05 2.5 0.05 2.5 1.05 1.8 1.8 1.05 2.5 0.0 2.5 -1.05 2.5 -1.75 1.8 -2.5 1.05 -2.5 0.05 -2.5 -1.05 -1.75 -1.75 -1.05 -2.5 0.0 -2.5 1.05 -2.5 1.8 -1.75" fill="#cccccc" fill-rule="evenodd" stroke="none"/>
      <path d="M1.8 -1.75 Q2.5 -1.05 2.5 0.05 2.5 1.05 1.8 1.8 1.05 2.5 0.0 2.5 -1.05 2.5 -1.75 1.8 -2.5 1.05 -2.5 0.05 -2.5 -1.05 -1.75 -1.75 -1.05 -2.5 0.0 -2.5 1.05 -2.5 1.8 -1.75 Z" fill="none" stroke="#000000" stroke-linecap="round" stroke-linejoin="round" stroke-width="1.0"/>
      <path d="M0.1 -6.0 L0.0 1.0" fill="none" stroke="#888888" stroke-linecap="round" stroke-linejoin="round" stroke-width="2.0"/>
    </g>
  </defs>
</svg>
