<?xml version="1.0" encoding="UTF-8" standalone="no"?>
<svg xmlns:xlink="http://www.w3.org/1999/xlink" height="301.45px" width="243.9px" xmlns="http://www.w3.org/2000/svg">
  <g transform="matrix(1.0, 0.0, 0.0, 1.0, 121.5, 150.55)">
    <use data-characterId="355" height="301.45" transform="matrix(1.0, 0.0, 0.0, 1.0, -121.5, -150.55)" width="243.9" xlink:href="#shape0"/>
  </g>
  <defs>
    <g id="shape0" transform="matrix(1.0, 0.0, 0.0, 1.0, 121.5, 150.55)">
      <path d="M0.45 -144.65 L7.45 -144.65 M28.4 -107.6 L28.45 -91.6 0.45 -111.6 M-120.0 -83.95 L-120.55 -83.95 M-6.55 -145.0 L0.45 -145.0 M-27.45 -107.95 L-27.55 -91.95 0.45 -111.95" fill="none" stroke="#cccccc" stroke-linecap="butt" stroke-linejoin="miter-clip" stroke-miterlimit="3.0" stroke-width="1.0"/>
      <path d="M33.4 -124.7 L14.45 -149.65 0.45 -149.65 0.45 -150.0 -13.55 -150.0 -32.45 -125.05 M-39.8 -86.4 L-39.25 -86.35 M0.45 -145.0 L0.45 -144.65 M7.45 -144.65 L26.4 -119.7 28.4 -107.6 M71.65 -89.3 L73.7 -89.3 105.25 -87.85 Q117.0 -86.65 119.5 -85.45 L120.15 -84.95 M-27.55 74.05 L-27.55 47.55 M14.45 -63.05 Q14.3 -56.95 10.35 -52.5 6.25 -47.95 0.45 -47.95 -5.35 -47.95 -9.45 -52.5 -13.4 -56.95 -13.55 -63.05 M-13.5 -63.5 Q-13.35 -69.65 -9.4 -74.05 -5.3 -78.65 0.5 -78.6 6.3 -78.65 10.4 -74.05 14.35 -69.65 14.5 -63.5 M121.15 -42.4 L120.5 -42.9 Q118.0 -44.1 106.25 -45.3 L74.7 -46.75 72.65 -46.75 42.15 -45.35 M42.45 51.1 L43.25 51.25 Q56.55 54.2 75.7 54.25 94.75 54.3 108.1 51.35 118.8 48.9 121.2 46.65 M11.6 90.95 Q15.7 86.35 21.5 86.4 27.3 86.35 31.4 90.95 32.6 92.25 33.45 93.8 35.35 97.1 35.5 101.3 L35.5 101.5 Q35.35 105.65 33.45 109.0 L31.4 111.85 Q29.5 113.9 27.25 115.05 24.6 116.4 21.5 116.4 18.4 116.4 15.75 115.05 13.5 113.9 11.6 111.85 9.45 109.45 8.45 106.6 7.6 104.2 7.5 101.5 L7.5 101.3 Q7.6 98.55 8.45 96.15 9.45 93.3 11.6 90.95 M42.3 117.0 Q55.6 128.0 74.75 128.2 93.8 128.4 107.15 117.2 120.45 105.95 120.9 95.4 M41.75 99.5 L42.55 99.65 Q55.85 102.6 75.0 102.65 94.05 102.7 107.4 99.75 118.1 97.3 120.5 95.05 M121.9 -83.6 L121.9 95.4 M-39.7 -105.1 L-40.25 -105.6 Q-52.45 -116.65 -71.5 -116.8 L-73.5 -116.8 Q-91.35 -116.4 -105.05 -105.8 -116.85 -96.7 -119.35 -87.95 -119.9 -85.95 -120.0 -83.95 M-27.45 -107.95 L-25.45 -120.05 -6.55 -145.0 M-120.55 -41.0 L-119.9 -41.5 Q-117.4 -42.7 -105.6 -43.9 L-74.05 -45.35 -72.05 -45.35 -41.55 -43.95 M-41.85 52.5 L-42.6 52.65 Q-55.95 55.6 -75.05 55.65 -94.15 55.7 -107.45 52.75 -118.2 50.3 -120.55 48.05 M-27.4 91.95 Q-23.3 87.35 -17.5 87.4 -11.7 87.35 -7.6 91.95 -6.4 93.25 -5.55 94.8 -3.65 98.1 -3.5 102.3 L-3.5 102.5 Q-3.65 106.65 -5.55 110.0 -6.4 111.5 -7.6 112.85 -9.5 114.9 -11.75 116.05 -14.4 117.4 -17.5 117.4 -20.6 117.4 -23.25 116.05 -25.5 114.9 -27.4 112.85 -29.55 110.45 -30.55 107.6 -31.4 105.2 -31.5 102.5 L-31.5 102.3 Q-31.4 99.55 -30.55 97.15 -29.55 94.3 -27.4 91.95 M-121.0 -83.95 L-121.0 95.05" fill="none" stroke="#cccccc" stroke-linecap="butt" stroke-linejoin="miter-clip" stroke-miterlimit="3.0" stroke-width="1.0"/>
      <path d="M-32.45 -125.05 L-40.55 -99.95 M-27.55 47.55 L-27.55 -83.95 M120.9 -83.6 L120.9 -83.95 M0.45 131.4 L8.7 131.4 M34.9 131.4 L34.45 131.4 M-119.55 -83.55 L-118.9 -84.05 Q-116.4 -85.25 -104.6 -86.45 L-73.05 -87.9 -71.05 -87.9 -40.55 -86.5 M-120.55 95.05 Q-120.45 95.75 -119.85 96.45 -117.5 98.7 -106.75 101.15 -93.45 104.1 -74.35 104.05 -55.25 104.0 -41.9 101.05 L-41.15 100.9" fill="none" stroke="#cccccc" stroke-linecap="butt" stroke-linejoin="miter-clip" stroke-miterlimit="3.0" stroke-width="1.0"/>
      <path d="M-40.55 -99.95 L-40.55 -86.5 -40.55 5.05 -40.55 110.65 -40.05 110.65 -40.55 111.05 -40.55 115.95 -40.6 116.0 -33.55 131.05 -28.3 131.05 -7.75 131.05 -2.55 150.05 -33.55 150.05 -28.3 131.05 M-27.55 -83.95 L-27.55 -85.65 -27.55 -85.95 0.45 -104.2 0.45 -103.85 28.45 -85.6 28.45 -85.3 28.45 -83.95 41.45 -83.95 41.45 -87.95 41.45 -99.6 40.65 -104.75 41.15 -105.25 Q53.35 -116.3 72.4 -116.45 L74.45 -116.45 Q92.25 -116.05 106.0 -105.45 120.25 -94.4 120.9 -83.95 M28.45 -85.3 L26.7 -83.95 28.45 -83.95 28.45 47.55 28.45 74.4 27.85 74.4 0.45 74.4 0.45 74.05 -26.95 74.05 -18.55 67.05 0.45 67.05 0.45 67.4 19.45 67.4 19.45 -78.6 0.45 -91.0 0.45 -91.35 0.45 -103.85 M0.45 -91.35 L-18.55 -78.95 -18.55 67.05 M26.7 -83.95 L19.45 -78.6 M8.7 131.4 L29.25 131.4 34.45 131.4 41.5 116.35 41.45 116.3 41.45 111.4 41.0 111.0 41.45 111.0 41.45 3.65 41.45 -83.95 M0.45 74.05 L0.45 67.4 M27.85 74.4 L19.45 67.4 M41.45 111.4 L41.45 111.0 M29.25 131.4 L34.45 150.4 3.45 150.4 8.7 131.4 M-18.55 -78.95 L-25.3 -83.95 -27.55 -83.95 M-25.3 -83.95 L-27.55 -85.65 M-40.55 111.05 L-40.55 110.65 M-119.85 96.45 Q-118.7 106.35 -106.2 116.85 -92.9 128.05 -73.8 127.85 -54.7 127.65 -41.35 116.65 L-40.6 116.0" fill="none" stroke="#cccccc" stroke-linecap="round" stroke-linejoin="miter-clip" stroke-miterlimit="3.0" stroke-width="1.0"/>
      <path d="M-40.55 -86.5 L-39.8 -86.4 M41.45 -87.95 L41.15 -87.9 M41.45 -87.95 L71.65 -89.3 M41.45 -99.6 L33.4 -124.7 M-26.95 74.05 L-27.55 74.05 M120.9 -83.95 L121.45 -83.95 M41.45 3.65 L41.15 3.65 M41.5 116.35 L42.3 117.0 M41.45 3.65 L121.15 3.65 M-40.55 -99.95 L-39.7 -105.1 M-7.75 131.05 L0.45 131.05 M-119.85 96.45 L-120.0 95.05 M-33.55 131.05 L-34.0 131.05 M-40.55 5.05 L-120.55 5.05" fill="none" stroke="#cccccc" stroke-linecap="round" stroke-linejoin="miter-clip" stroke-miterlimit="3.0" stroke-width="1.0"/>
    </g>
  </defs>
</svg>
