<?xml version="1.0" encoding="UTF-8" standalone="no"?>
<svg xmlns:xlink="http://www.w3.org/1999/xlink" height="93.45px" width="235.65px" xmlns="http://www.w3.org/2000/svg">
  <g transform="matrix(1.0, 0.0, 0.0, 1.0, 117.1, 41.4)">
    <use data-characterId="741" height="90.35" transform="matrix(1.0, 0.0, 0.0, 1.0, -117.1, -41.4)" width="233.15" xlink:href="#morphshape0"/>
  </g>
  <defs>
    <g id="morphshape0" transform="matrix(1.0, 0.0, 0.0, 1.0, 117.1, 41.4)">
      <path d="M-70.1 -14.7 L-70.1 -14.6 -70.05 10.85 -39.3 22.45 17.8 22.35 52.0 22.2 55.65 20.85 62.85 18.15 70.05 15.3 69.95 -10.1 Q69.8 -16.55 66.25 -22.45 L64.2 -25.1 Q61.0 -28.6 56.3 -30.3 48.75 -33.2 40.85 -35.9 30.45 -39.4 16.15 -39.7 L-18.55 -39.75 Q-39.0 -39.7 -52.5 -36.25 L-57.6 -34.6 Q-62.65 -32.55 -66.3 -27.3 -70.1 -21.8 -70.25 -14.8" fill="#ffffff" fill-rule="evenodd" stroke="none"/>
      <path d="M-70.4 22.5 L-70.4 22.6 Q-70.15 29.0 -66.45 34.0 -62.85 38.8 -57.9 40.4 L-45.85 43.6 Q-31.75 47.05 -13.25 46.85 L36.8 46.7 45.8 46.6 52.45 46.2 56.25 45.5 Q61.7 43.95 65.45 39.8 67.3 36.2 68.9 32.35 L69.3 29.8 62.35 27.7 55.35 25.7 43.55 22.4 0.85 22.4 -70.25 22.5" fill="#ff0000" fill-rule="evenodd" stroke="none"/>
      <path d="M-70.3 -14.65 Q-70.1 -21.85 -66.3 -27.6 -62.55 -33.05 -57.45 -35.25 L-55.15 -36.15 Q-43.0 -39.6 -23.95 -39.65 L8.0 -39.6 Q21.25 -39.3 30.6 -35.8 41.6 -31.75 51.85 -27.15 L56.4 -25.25 Q62.75 -22.7 66.25 -16.9 69.8 -10.8 69.95 -4.15 L70.05 22.1 69.75 25.45 66.85 33.8 66.2 34.85 Q63.35 39.1 58.95 41.55 L56.9 42.45 55.75 42.95 Q47.85 46.0 36.75 46.55 L30.1 46.65 -6.9 46.7 Q-20.95 46.9 -30.6 43.45 -41.6 39.85 -51.85 34.9 L-58.0 32.3 Q-62.85 30.05 -66.35 24.6 -70.0 18.85 -70.2 11.7 L-70.25 -14.8 Q-70.1 -21.8 -66.3 -27.3 -62.65 -32.55 -57.6 -34.6 L-52.5 -36.25 Q-39.0 -39.7 -18.55 -39.75 L16.15 -39.7 Q30.45 -39.4 40.85 -35.9 48.75 -33.2 56.3 -30.3 61.0 -28.6 64.2 -25.1 L66.25 -22.45 Q69.8 -16.55 69.95 -10.1 L70.05 15.3 62.85 18.15 55.65 20.85 52.0 22.2 17.8 22.35 -39.3 22.45 -70.05 10.85 -70.1 -14.6 -70.1 -14.7 M-70.25 22.5 L0.85 22.4 43.55 22.4 55.35 25.7 62.35 27.7 69.3 29.8 68.9 32.35 Q67.3 36.2 65.45 39.8 61.7 43.95 56.25 45.5 L52.45 46.2 45.8 46.6 36.8 46.7 -13.25 46.85 Q-31.75 47.05 -45.85 43.6 L-57.9 40.4 Q-62.85 38.8 -66.45 34.0 -70.15 29.0 -70.4 22.6 L-70.4 22.5 M49.95 34.4 Q58.95 33.4 66.75 30.2 58.85 33.5 49.95 34.4 M57.3 34.3 Q64.7 33.6 69.1 30.3 64.75 33.7 57.3 34.3 M64.25 36.55 Q68.2 34.8 69.1 30.45 68.25 34.9 64.25 36.55 Z" fill="none" stroke="#ff0000" stroke-linecap="round" stroke-linejoin="round" stroke-width="3.0"/>
    </g>
  </defs>
</svg>
