<?xml version="1.0" encoding="UTF-8" standalone="no"?>
<svg xmlns:xlink="http://www.w3.org/1999/xlink" height="93.45px" width="235.65px" xmlns="http://www.w3.org/2000/svg">
  <g transform="matrix(1.0, 0.0, 0.0, 1.0, 117.1, 41.4)">
    <use data-characterId="743" height="90.35" transform="matrix(1.0, 0.0, 0.0, 1.0, -117.1, -41.4)" width="233.15" xlink:href="#morphshape0"/>
  </g>
  <defs>
    <g id="morphshape0" transform="matrix(1.0, 0.0, 0.0, 1.0, 117.1, 41.4)">
      <path d="M-70.5 -14.6 L-70.5 -14.5 -70.45 10.95 -39.7 22.55 17.35 22.5 51.5 22.35 55.15 21.0 62.3 18.3 69.5 15.45 69.45 -9.9 Q69.35 -16.3 65.85 -22.15 L63.8 -24.75 Q60.65 -28.25 55.95 -30.0 48.4 -32.95 40.55 -35.65 30.2 -39.2 15.95 -39.5 L-18.75 -39.55 Q-39.15 -39.5 -52.65 -36.0 L-57.75 -34.3 Q-62.75 -32.25 -66.4 -27.0 -70.2 -21.5 -70.35 -14.5" fill="#ffffff" fill-rule="evenodd" stroke="none"/>
      <path d="M-70.1 22.5 L-70.1 22.6 Q-69.9 29.0 -66.25 33.95 -62.65 38.75 -57.7 40.35 L-45.7 43.6 Q-31.65 47.1 -13.2 46.9 L36.85 46.8 45.8 46.65 52.45 46.25 56.25 45.55 Q61.7 44.05 65.4 39.95 67.2 36.4 68.75 32.55 L69.1 30.0 62.2 27.9 55.2 25.85 43.45 22.5 0.8 22.45 -70.25 22.5" fill="#ff0000" fill-rule="evenodd" stroke="none"/>
      <path d="M-70.3 -14.65 Q-70.15 -21.85 -66.35 -27.55 -62.65 -32.95 -57.6 -35.2 L-55.3 -36.1 Q-43.2 -39.6 -24.15 -39.65 L7.8 -39.6 Q21.0 -39.3 30.3 -35.75 41.25 -31.65 51.5 -27.0 L56.05 -25.1 Q62.35 -22.5 65.85 -16.7 69.35 -10.6 69.45 -3.95 L69.5 22.25 69.25 25.6 66.35 33.95 65.7 34.95 Q62.9 39.2 58.5 41.65 L56.45 42.55 55.35 43.1 Q47.5 46.2 36.4 46.8 L29.75 46.95 -7.25 47.0 Q-21.25 47.2 -30.85 43.7 -41.85 40.05 -52.1 35.05 L-58.25 32.4 Q-63.05 30.15 -66.5 24.75 -70.15 19.05 -70.3 11.95 L-70.35 -14.5 Q-70.2 -21.5 -66.4 -27.0 -62.75 -32.25 -57.75 -34.3 L-52.65 -36.0 Q-39.15 -39.5 -18.75 -39.55 L15.95 -39.5 Q30.2 -39.2 40.55 -35.65 48.4 -32.95 55.95 -30.0 60.65 -28.25 63.8 -24.75 L65.85 -22.15 Q69.35 -16.3 69.45 -9.9 L69.5 15.45 62.3 18.3 55.15 21.0 51.5 22.35 17.35 22.5 -39.7 22.55 -70.45 10.95 -70.5 -14.5 -70.5 -14.6 M-70.25 22.5 L0.8 22.45 43.45 22.5 55.2 25.85 62.2 27.9 69.1 30.0 68.75 32.55 Q67.2 36.4 65.4 39.95 61.7 44.05 56.25 45.55 L52.45 46.25 45.8 46.65 36.85 46.8 -13.2 46.9 Q-31.65 47.1 -45.7 43.6 L-57.7 40.35 Q-62.65 38.75 -66.25 33.95 -69.9 29.0 -70.1 22.6 L-70.1 22.5 M49.9 34.35 Q58.9 33.35 66.7 30.2 58.8 33.5 49.9 34.35 M57.3 34.35 Q64.75 33.65 69.1 30.3 64.8 33.75 57.3 34.35 M64.2 36.6 Q68.15 34.85 69.1 30.45 68.25 34.95 64.2 36.6 Z" fill="none" stroke="#ff0000" stroke-linecap="round" stroke-linejoin="round" stroke-width="3.0"/>
    </g>
  </defs>
</svg>
