<?xml version="1.0" encoding="UTF-8" standalone="no"?>
<svg xmlns:xlink="http://www.w3.org/1999/xlink" height="37.8px" width="114.6px" xmlns="http://www.w3.org/2000/svg">
  <g transform="matrix(1.0, 0.0, 0.0, 1.0, 13.5, 24.3)">
    <path d="M0.0 -12.5 Q5.2 -12.55 8.85 -8.85 12.5 -5.2 12.5 0.0 12.5 5.15 8.85 8.85 5.2 12.5 0.0 12.5 -5.2 12.5 -8.85 8.85 -12.5 5.15 -12.5 0.0 -12.5 -5.2 -8.85 -8.85 -5.2 -12.55 0.0 -12.5" fill="#0099ff" fill-rule="evenodd" stroke="none"/>
    <path d="M0.0 -12.5 Q-5.2 -12.55 -8.85 -8.85 -12.5 -5.2 -12.5 0.0 -12.5 5.15 -8.85 8.85 -5.2 12.5 0.0 12.5 5.2 12.5 8.85 8.85 12.5 5.15 12.5 0.0 12.5 -5.2 8.85 -8.85 5.2 -12.55 0.0 -12.5 Z" fill="none" stroke="#000000" stroke-linecap="round" stroke-linejoin="round" stroke-width="2.0"/>
    <path d="M4.0 -10.5 Q1.8 -12.7 1.8 -15.8 1.8 -18.9 4.0 -21.1 6.2 -23.3 9.3 -23.3 L82.6 -23.3 Q85.7 -23.3 87.9 -21.1 90.1 -18.9 90.1 -15.8 90.1 -12.7 87.9 -10.5 85.7 -8.3 82.6 -8.3 L9.3 -8.3 Q6.2 -8.3 4.0 -10.5" fill="#ffffff" fill-rule="evenodd" stroke="none"/>
    <path d="M4.0 -10.5 Q6.2 -8.3 9.3 -8.3 L82.6 -8.3 Q85.7 -8.3 87.9 -10.5 90.1 -12.7 90.1 -15.8 90.1 -18.9 87.9 -21.1 85.7 -23.3 82.6 -23.3 L9.3 -23.3 Q6.2 -23.3 4.0 -21.1 1.8 -18.9 1.8 -15.8 1.8 -12.7 4.0 -10.5 Z" fill="none" stroke="#000000" stroke-linecap="round" stroke-linejoin="round" stroke-width="2.0"/>
    <path d="M55.4 -8.3 L55.4 -23.3 92.6 -23.3 Q95.7 -23.3 97.9 -21.1 100.1 -18.9 100.1 -15.8 100.1 -12.7 97.9 -10.5 95.7 -8.3 92.6 -8.3 L55.4 -8.3" fill="#ffffff" fill-rule="evenodd" stroke="none"/>
    <path d="M55.4 -23.3 L92.6 -23.3 Q95.7 -23.3 97.9 -21.1 100.1 -18.9 100.1 -15.8 100.1 -12.7 97.9 -10.5 95.7 -8.3 92.6 -8.3 L55.4 -8.3" fill="none" stroke="#000000" stroke-linecap="round" stroke-linejoin="round" stroke-width="2.0"/>
  </g>
</svg>
