<?xml version="1.0" encoding="UTF-8" standalone="no"?>
<svg xmlns:xlink="http://www.w3.org/1999/xlink" height="122.0px" width="452.0px" xmlns="http://www.w3.org/2000/svg">
  <g transform="matrix(1.0, 0.0, 0.0, 1.0, 226.0, 61.0)">
    <path d="M221.9 -57.1 Q224.95 -54.2 225.0 -50.0 L225.0 49.95 Q224.95 54.1 221.9 57.0 218.9 59.95 214.6 60.0 L-214.65 60.0 Q-218.95 59.95 -222.0 57.0 -225.05 54.1 -225.0 49.95 L-225.0 -50.0 Q-225.05 -54.2 -222.0 -57.1 -218.95 -60.05 -214.65 -60.0 L214.6 -60.0 Q218.9 -60.05 221.9 -57.1" fill="#ffffff" fill-rule="evenodd" stroke="none"/>
    <path d="M221.9 -57.1 Q218.9 -60.05 214.6 -60.0 L-214.65 -60.0 Q-218.95 -60.05 -222.0 -57.1 -225.05 -54.2 -225.0 -50.0 L-225.0 49.95 Q-225.05 54.1 -222.0 57.0 -218.95 59.95 -214.65 60.0 L214.6 60.0 Q218.9 59.95 221.9 57.0 224.95 54.1 225.0 49.95 L225.0 -50.0 Q224.95 -54.2 221.9 -57.1 Z" fill="none" stroke="#000000" stroke-linecap="round" stroke-linejoin="round" stroke-width="2.0"/>
  </g>
</svg>
