<?xml version="1.0" encoding="UTF-8" standalone="no"?>
<svg xmlns:xlink="http://www.w3.org/1999/xlink" height="67.25px" width="35.5px" xmlns="http://www.w3.org/2000/svg">
  <g transform="matrix(1.0, 0.0, 0.0, 1.0, 17.8, 25.05)">
    <path d="M7.75 -14.55 L5.55 -10.35 Q13.35 6.3 5.55 22.95 L11.45 32.2 17.2 36.2 17.2 41.7 8.45 41.7 -8.55 41.7 -17.3 41.7 -17.3 36.2 -11.55 32.2 -5.65 22.95 -5.5 22.95 Q-13.25 6.25 -5.55 -10.35 L-5.65 -10.35 -7.8 -14.55 Q-10.8 -19.55 -7.8 -24.55 L-3.9 -24.55 3.8 -24.55 7.55 -24.55 Q10.5 -19.5 7.55 -14.55 L7.75 -14.55 M3.8 -24.55 L3.8 -14.55 7.55 -14.55 M5.55 -10.35 L2.75 -10.35 Q5.6 5.35 2.75 22.95 L5.55 22.95 M-2.5 -10.8 L-2.55 -10.35 2.75 -10.35 3.8 -14.55 -3.9 -14.55 -2.85 -10.35 -2.55 -10.35 Q-5.3 5.15 -2.5 22.5 M11.45 32.2 L5.7 32.2 8.55 36.2 17.2 36.2 M8.45 41.7 L8.55 36.2 -8.65 36.2 -8.55 41.7 M2.75 22.95 L5.7 32.2 -5.8 32.2 -8.65 36.2 -17.3 36.2 M-7.8 -14.55 L-3.9 -14.55 -3.9 -24.55 M-2.85 -10.35 L-5.55 -10.35 M-5.5 22.95 L-2.85 22.95 2.75 22.95 M-5.8 32.2 L-11.55 32.2 M-5.8 32.2 L-2.85 22.95" fill="none" stroke="#00cc00" stroke-linecap="round" stroke-linejoin="round" stroke-width="1.0"/>
  </g>
</svg>
