<?xml version="1.0" encoding="UTF-8" standalone="no"?>
<svg xmlns:xlink="http://www.w3.org/1999/xlink" height="370.3px" width="743.85px" xmlns="http://www.w3.org/2000/svg">
  <g transform="matrix(1.0, 0.0, 0.0, 1.0, 429.0, -176.95)">
    <path d="M305.85 177.95 Q313.85 177.95 313.85 185.95 L313.85 199.95 Q313.85 207.95 305.85 207.95 L-35.1 207.95 Q-43.1 207.95 -43.1 199.95 L-43.1 185.95 Q-43.1 177.95 -35.1 177.95 L305.85 177.95 M100.5 546.75 L-428.5 546.75 -428.5 432.75 100.5 432.75 100.5 546.75" fill="#000000" fill-rule="evenodd" stroke="none"/>
    <path d="M100.5 546.75 L-428.5 546.75 -428.5 432.75 100.5 432.75 100.5 546.75" fill="none" stroke="#cccccc" stroke-linecap="round" stroke-linejoin="round" stroke-width="1.0"/>
    <path d="M305.85 177.95 L-35.1 177.95 Q-43.1 177.95 -43.1 185.95 L-43.1 199.95 Q-43.1 207.95 -35.1 207.95 L305.85 207.95 Q313.85 207.95 313.85 199.95 L313.85 185.95 Q313.85 177.95 305.85 177.95 Z" fill="none" stroke="#ffffff" stroke-linecap="round" stroke-linejoin="round" stroke-width="2.0"/>
  </g>
</svg>
