<?xml version="1.0" encoding="UTF-8" standalone="no"?>
<svg xmlns:xlink="http://www.w3.org/1999/xlink" height="27.0px" width="170.8px" xmlns="http://www.w3.org/2000/svg">
  <g transform="matrix(1.0, 0.0, 0.0, 1.0, 0.4, 0.5)">
    <path d="M169.9 12.7 Q169.9 18.9 164.55 23.3 L161.4 26.0 8.6 26.0 5.45 23.6 Q0.1 19.2 0.1 13.0 0.1 6.8 5.45 2.4 6.95 1.15 8.6 0.0 L159.0 0.0 Q163.05 0.85 164.55 2.1 169.9 6.5 169.9 12.7" fill="url(#gradient0)" fill-rule="evenodd" stroke="none"/>
    <path d="M169.9 12.7 Q169.9 6.5 164.55 2.1 163.05 0.85 159.0 0.0 L8.6 0.0 Q6.95 1.15 5.45 2.4 0.1 6.8 0.1 13.0 0.1 19.2 5.45 23.6 L8.6 26.0 161.4 26.0 164.55 23.3 Q169.9 18.9 169.9 12.7 Z" fill="none" stroke="#009900" stroke-linecap="round" stroke-linejoin="round" stroke-width="1.0"/>
  </g>
  <defs>
    <linearGradient gradientTransform="matrix(0.1036, 0.0, 0.0, 0.0159, 85.0, 13.0)" gradientUnits="userSpaceOnUse" id="gradient0" spreadMethod="pad" x1="-819.2" x2="819.2">
      <stop offset="0.0" stop-color="#737302"/>
      <stop offset="1.0" stop-color="#c0db04"/>
    </linearGradient>
  </defs>
</svg>
