<?xml version="1.0" encoding="UTF-8" standalone="no"?>
<svg xmlns:xlink="http://www.w3.org/1999/xlink" height="13.0px" width="80.0px" xmlns="http://www.w3.org/2000/svg">
  <g transform="matrix(1.0, 0.0, 0.0, 1.0, -1.0, -1.0)">
    <path d="M80.0 13.0 L80.0 2.0 M74.0 13.0 L74.0 2.0 M71.0 13.0 L71.0 2.0 M77.0 13.0 L77.0 2.0 M68.0 13.0 L68.0 2.0 M65.0 13.0 L65.0 2.0 M62.0 13.0 L62.0 2.0" fill="none" stroke="#006600" stroke-linecap="round" stroke-linejoin="round" stroke-width="2.0"/>
    <path d="M47.0 13.0 L47.0 2.0" fill="none" stroke="#ddff00" stroke-linecap="round" stroke-linejoin="round" stroke-width="2.0"/>
    <path d="M53.0 13.0 L53.0 2.0" fill="none" stroke="#aaff00" stroke-linecap="round" stroke-linejoin="round" stroke-width="2.0"/>
    <path d="M50.0 13.0 L50.0 2.0" fill="none" stroke="#ccff00" stroke-linecap="round" stroke-linejoin="round" stroke-width="2.0"/>
    <path d="M41.0 13.0 L41.0 2.0 M44.0 13.0 L44.0 2.0" fill="none" stroke="#ffff00" stroke-linecap="round" stroke-linejoin="round" stroke-width="2.0"/>
    <path d="M59.0 13.0 L59.0 2.0" fill="none" stroke="#66ff00" stroke-linecap="round" stroke-linejoin="round" stroke-width="2.0"/>
    <path d="M56.0 13.0 L56.0 2.0" fill="none" stroke="#88ff00" stroke-linecap="round" stroke-linejoin="round" stroke-width="2.0"/>
    <path d="M29.0 13.0 L29.0 2.0" fill="none" stroke="#ffbb00" stroke-linecap="round" stroke-linejoin="round" stroke-width="2.0"/>
    <path d="M32.0 13.0 L32.0 2.0" fill="none" stroke="#ffcc00" stroke-linecap="round" stroke-linejoin="round" stroke-width="2.0"/>
    <path d="M35.0 13.0 L35.0 2.0" fill="none" stroke="#ffdd00" stroke-linecap="round" stroke-linejoin="round" stroke-width="2.0"/>
    <path d="M38.0 13.0 L38.0 2.0" fill="none" stroke="#ffee00" stroke-linecap="round" stroke-linejoin="round" stroke-width="2.0"/>
    <path d="M26.0 13.0 L26.0 2.0" fill="none" stroke="#ffaa00" stroke-linecap="round" stroke-linejoin="round" stroke-width="2.0"/>
    <path d="M23.0 13.0 L23.0 2.0" fill="none" stroke="#ff9900" stroke-linecap="round" stroke-linejoin="round" stroke-width="2.0"/>
    <path d="M20.0 13.0 L20.0 2.0" fill="none" stroke="#ff8800" stroke-linecap="round" stroke-linejoin="round" stroke-width="2.0"/>
    <path d="M17.0 13.0 L17.0 2.0" fill="none" stroke="#ff0000" stroke-linecap="round" stroke-linejoin="round" stroke-width="2.0"/>
    <path d="M5.0 13.0 L5.0 2.0" fill="none" stroke="#bb0000" stroke-linecap="round" stroke-linejoin="round" stroke-width="2.0"/>
    <path d="M8.0 13.0 L8.0 2.0" fill="none" stroke="#cc0000" stroke-linecap="round" stroke-linejoin="round" stroke-width="2.0"/>
    <path d="M11.0 13.0 L11.0 2.0" fill="none" stroke="#dd0000" stroke-linecap="round" stroke-linejoin="round" stroke-width="2.0"/>
    <path d="M2.0 13.0 L2.0 2.0" fill="none" stroke="#aa0000" stroke-linecap="round" stroke-linejoin="round" stroke-width="2.0"/>
    <path d="M14.0 13.0 L14.0 2.0" fill="none" stroke="#ee0000" stroke-linecap="round" stroke-linejoin="round" stroke-width="2.0"/>
  </g>
</svg>
