<?xml version="1.0" encoding="UTF-8" standalone="no"?>
<svg xmlns:xlink="http://www.w3.org/1999/xlink" height="46.0px" width="46.0px" xmlns="http://www.w3.org/2000/svg">
  <g transform="matrix(1.0, 0.0, 0.0, 1.0, 23.0, 23.0)">
    <path d="M15.9 -15.9 Q22.5 -9.3 22.5 0.0 22.5 9.35 15.9 15.9 9.3 22.5 0.0 22.5 -9.3 22.5 -15.9 15.9 -22.5 9.35 -22.5 0.0 -22.5 -9.3 -15.9 -15.9 -9.3 -22.5 0.0 -22.5 9.3 -22.5 15.9 -15.9" fill="#222222" fill-rule="evenodd" stroke="none"/>
    <path d="M15.9 -15.9 Q22.5 -9.3 22.5 0.0 22.5 9.35 15.9 15.9 9.3 22.5 0.0 22.5 -9.3 22.5 -15.9 15.9 -22.5 9.35 -22.5 0.0 -22.5 -9.3 -15.9 -15.9 -9.3 -22.5 0.0 -22.5 9.3 -22.5 15.9 -15.9 Z" fill="none" stroke="#333333" stroke-linecap="round" stroke-linejoin="round" stroke-width="1.0"/>
  </g>
</svg>
