<?xml version="1.0" encoding="UTF-8" standalone="no"?>
<svg xmlns:xlink="http://www.w3.org/1999/xlink" height="61.15px" width="35.5px" xmlns="http://www.w3.org/2000/svg">
  <g transform="matrix(1.0, 0.0, 0.0, 1.0, 17.0, 21.8)">
    <path d="M9.9 -15.95 L4.8 -21.3 2.75 -21.3 5.3 -15.95 9.9 -15.95 9.9 -5.95 7.35 -1.75 7.35 13.8 4.05 13.8 -2.5 13.8 -2.5 -1.75 -5.8 -1.75 -8.35 -5.95 -8.35 -15.95 -3.25 -21.3 -1.2 -21.3 2.75 -21.3 M18.0 33.35 L18.0 38.85 9.25 38.85 -7.75 38.85 -16.5 38.85 -16.5 33.35 -7.85 33.35 -7.75 38.85 M-5.8 13.8 L-5.8 -1.75 M9.9 -5.95 L5.3 -5.95 4.05 -1.75 7.35 -1.75 M5.3 -15.95 L-3.75 -15.95 -3.75 -5.95 5.3 -5.95 5.3 -15.95 M9.25 38.85 L9.35 33.35 0.75 33.35 -7.85 33.35 M9.35 33.35 L18.0 33.35 M4.05 -1.75 L4.05 13.8 M-8.35 -15.95 L-3.75 -15.95 -1.2 -21.3 M-3.75 -5.95 L-2.5 -1.75 4.05 -1.75 M-5.8 13.8 L-2.5 13.8 M-8.35 -5.95 L-3.75 -5.95" fill="none" stroke="#33cc00" stroke-linecap="round" stroke-linejoin="round" stroke-width="1.0"/>
    <path d="M7.35 13.8 L18.0 33.35 M-16.5 33.35 L-5.8 13.8 M4.05 13.8 L9.35 33.35 M-2.5 13.8 L-7.85 33.35" fill="none" stroke="#33cc00" stroke-linecap="round" stroke-linejoin="round" stroke-width="1.0"/>
  </g>
</svg>
