<?xml version="1.0" encoding="UTF-8" standalone="no"?>
<svg xmlns:xlink="http://www.w3.org/1999/xlink" height="21.25px" width="137.75px" xmlns="http://www.w3.org/2000/svg">
  <g transform="matrix(1.0, 0.0, 0.0, 1.0, 68.2, 10.35)">
    <path d="M66.05 -9.85 Q69.05 -9.85 69.05 -6.85 L69.05 7.4 Q69.05 10.4 66.05 10.4 L-64.7 10.4 Q-67.7 10.4 -67.7 7.4 L-67.7 -6.85 Q-67.7 -9.85 -64.7 -9.85 L66.05 -9.85" fill="#333333" fill-rule="evenodd" stroke="none"/>
    <path d="M66.05 -9.85 L-64.7 -9.85 Q-67.7 -9.85 -67.7 -6.85 L-67.7 7.4 Q-67.7 10.4 -64.7 10.4 L66.05 10.4 Q69.05 10.4 69.05 7.4 L69.05 -6.85 Q69.05 -9.85 66.05 -9.85 Z" fill="none" stroke="#999999" stroke-linecap="round" stroke-linejoin="round" stroke-width="1.0"/>
  </g>
</svg>
