<?xml version="1.0" encoding="UTF-8" standalone="no"?>
<svg xmlns:xlink="http://www.w3.org/1999/xlink" height="124.15px" width="550.1px" xmlns="http://www.w3.org/2000/svg">
  <g transform="matrix(1.0, 0.0, 0.0, 1.0, 0.05, 0.05)">
    <path d="M550.0 124.05 L0.0 124.05 0.0 0.0 550.0 0.0 550.0 124.05" fill="#000033" fill-rule="evenodd" stroke="none"/>
    <path d="M550.0 124.05 L0.0 124.05 0.0 0.0 550.0 0.0 550.0 124.05 Z" fill="none" stroke="#999999" stroke-linecap="round" stroke-linejoin="round" stroke-width="0.1"/>
    <path d="M548.0 122.5 L2.95 122.5 2.95 2.5 548.0 2.5 548.0 122.5" fill="#000000" fill-rule="evenodd" stroke="none"/>
    <path d="M548.0 122.5 L2.95 122.5 2.95 2.5 548.0 2.5 548.0 122.5 Z" fill="none" stroke="#333333" stroke-linecap="round" stroke-linejoin="round" stroke-width="0.1"/>
  </g>
</svg>
