<?xml version="1.0" encoding="UTF-8" standalone="no"?>
<svg xmlns:xlink="http://www.w3.org/1999/xlink" height="80.9px" width="129.15px" xmlns="http://www.w3.org/2000/svg">
  <g transform="matrix(1.0, 0.0, 0.0, 1.0, 62.4, 42.4)">
    <path d="M50.0 37.5 L50.0 37.55 -50.0 37.55 -50.0 37.5 50.0 37.5" fill="#ff0066" fill-rule="evenodd" stroke="none"/>
    <path d="M-50.0 37.5 L-55.35 37.5 Q-57.6 37.1 -59.3 35.45 -61.3 33.45 -61.4 30.65 L-61.4 -34.5 Q-61.3 -37.3 -59.3 -39.3 -57.2 -41.35 -54.25 -41.4 L58.4 -41.4 Q61.35 -41.35 63.45 -39.3 65.45 -37.3 65.75 -34.5 L65.75 30.75 Q65.5 33.3 63.65 35.2 61.55 37.25 58.6 37.5 L50.0 37.5 -50.0 37.5" fill="#003366" fill-rule="evenodd" stroke="none"/>
    <path d="M-50.0 37.5 L-55.35 37.5 Q-57.6 37.1 -59.3 35.45 -61.3 33.45 -61.4 30.65 L-61.4 -34.5 Q-61.3 -37.3 -59.3 -39.3 -57.2 -41.35 -54.25 -41.4 L58.4 -41.4 Q61.35 -41.35 63.45 -39.3 65.45 -37.3 65.75 -34.5 L65.75 30.75 Q65.5 33.3 63.65 35.2 61.55 37.25 58.6 37.5 L50.0 37.5 -50.0 37.5 Z" fill="none" stroke="#333333" stroke-linecap="round" stroke-linejoin="round" stroke-width="2.0"/>
  </g>
</svg>
