<?xml version="1.0" encoding="UTF-8" standalone="no"?>
<svg xmlns:xlink="http://www.w3.org/1999/xlink" height="126.25px" width="101.0px" xmlns="http://www.w3.org/2000/svg">
  <g transform="matrix(1.0, 0.0, 0.0, 1.0, 50.5, 58.9)">
    <path d="M-41.2 66.85 Q-44.7 66.6 -47.25 64.05 -49.9 61.4 -50.0 57.6 L-50.0 -49.65 Q-49.9 -53.45 -47.25 -56.15 -45.6 -57.75 -43.55 -58.4 L35.45 -58.4 Q45.6 -57.75 47.2 -56.15 49.9 -53.45 50.0 -49.65 L50.0 58.1 Q49.9 61.9 47.2 64.55 45.65 66.15 43.7 66.85 L-39.75 66.85 -41.2 66.85" fill="url(#gradient0)" fill-rule="evenodd" stroke="none"/>
    <path d="M-41.2 66.85 Q-44.7 66.6 -47.25 64.05 -49.9 61.4 -50.0 57.6 L-50.0 -49.65 Q-49.9 -53.45 -47.25 -56.15 -45.6 -57.75 -43.55 -58.4 L35.45 -58.4 Q45.6 -57.75 47.2 -56.15 49.9 -53.45 50.0 -49.65 L50.0 58.1 Q49.9 61.9 47.2 64.55 45.65 66.15 43.7 66.85 L-39.75 66.85 -40.5 66.85 -41.2 66.85 -39.75 66.85" fill="none" stroke="#000099" stroke-linecap="round" stroke-linejoin="round" stroke-width="1.0"/>
  </g>
  <defs>
    <radialGradient cx="0" cy="0" gradientTransform="matrix(0.0978, 0.0, 0.0, 0.0978, 0.0, 4.2)" gradientUnits="userSpaceOnUse" id="gradient0" r="819.2" spreadMethod="pad">
      <stop offset="0.0" stop-color="#606060"/>
      <stop offset="1.0" stop-color="#4d4d4d"/>
    </radialGradient>
  </defs>
</svg>
