<?xml version="1.0" encoding="UTF-8" standalone="no"?>
<svg xmlns:xlink="http://www.w3.org/1999/xlink" height="9.55px" width="4.65px" xmlns="http://www.w3.org/2000/svg">
  <g transform="matrix(1.0, 0.0, 0.0, 1.0, 5.0, 4.6)">
    <path d="M-1.5 -1.5 L-3.85 -1.45 Q-3.3 -4.2 -2.8 -4.55 -2.1 -5.1 -1.5 -1.5 M-3.9 2.95 L-3.85 3.2 -3.25 3.2 -2.8 3.2 -2.1 3.2 -1.5 3.2 -1.45 2.95 -1.45 3.2 -1.5 3.2 -0.35 4.95 -1.65 4.95 -2.8 4.95 -3.95 4.95 -5.0 4.95 -3.85 3.2 -3.9 3.2 -3.9 2.95 M-3.25 3.2 L-3.95 4.95 -3.25 3.2 M-2.8 3.2 L-2.8 4.95 -2.8 3.2 M-2.1 3.2 L-1.65 4.95 -2.1 3.2" fill="#cccccc" fill-rule="evenodd" stroke="none"/>
    <path d="M-3.85 -1.45 L-1.5 -1.5 -1.45 -1.3 -1.45 2.95 -1.5 3.2 -2.1 3.2 -2.8 3.2 -3.25 3.2 -3.85 3.2 -3.9 2.95 -3.9 -1.3 -3.85 -1.45" fill="#ff0000" fill-rule="evenodd" stroke="none"/>
    <path d="M-3.85 -1.45 L-1.5 -1.5 Q-2.1 -5.1 -2.8 -4.55 -3.3 -4.2 -3.85 -1.45 L-3.9 -1.3 -3.9 2.95 -3.85 3.2 -3.25 3.2 -2.8 3.2 -2.1 3.2 -1.5 3.2 -1.45 2.95 -1.45 -1.3 -1.5 -1.5 M-2.8 4.95 L-2.8 3.2 M-3.95 4.95 L-3.25 3.2 M-1.45 2.95 L-1.45 3.2 -1.5 3.2 -0.35 4.95 -1.65 4.95 -2.8 4.95 -3.95 4.95 -5.0 4.95 -3.85 3.2 -3.9 3.2 -3.9 2.95 M-1.65 4.95 L-2.1 3.2" fill="none" stroke="#999999" stroke-linecap="round" stroke-linejoin="round" stroke-width="0.05"/>
  </g>
</svg>
