<?xml version="1.0" encoding="UTF-8" standalone="no"?>
<svg xmlns:xlink="http://www.w3.org/1999/xlink" height="300.1px" width="300.2px" xmlns="http://www.w3.org/2000/svg">
  <g transform="matrix(1.0, 0.0, 0.0, 1.0, 150.0, 150.0)">
    <path d="M0.1 -150.0 Q-62.1 -150.0 -106.05 -106.05 -150.0 -62.1 -150.0 0.05 -150.0 62.2 -106.05 106.15 -62.1 150.1 0.1 150.1 62.3 150.1 106.25 106.15 150.2 62.2 150.2 0.05 150.2 -62.1 106.25 -106.05 62.3 -150.0 0.1 -150.0 Z" fill="none" stroke="#66ff99" stroke-linecap="round" stroke-linejoin="round" stroke-width="0.05"/>
  </g>
</svg>
