<?xml version="1.0" encoding="UTF-8" standalone="no"?>
<svg xmlns:xlink="http://www.w3.org/1999/xlink" height="101.05px" width="101.1px" xmlns="http://www.w3.org/2000/svg">
  <g transform="matrix(1.0, 0.0, 0.0, 1.0, 50.55, 50.5)">
    <path d="M46.0 -20.0 Q50.0 -10.85 50.0 0.0 50.0 15.45 41.9 27.5 L40.85 29.0 Q38.4 32.3 35.35 35.35 20.7 50.0 0.0 50.0 -20.7 50.0 -35.35 35.35 -50.0 20.7 -50.0 0.0 -50.0 -20.75 -35.35 -35.35 -20.7 -50.0 0.0 -50.0 20.7 -50.0 35.35 -35.35 40.4 -30.3 43.75 -24.5 L46.0 -20.0" fill="#0000ff" fill-rule="evenodd" stroke="none"/>
    <path d="M46.0 -20.0 Q50.0 -10.85 50.0 0.0 50.0 15.45 41.9 27.5 L40.85 29.0 Q38.4 32.3 35.35 35.35 20.7 50.0 0.0 50.0 -20.7 50.0 -35.35 35.35 -50.0 20.7 -50.0 0.0 -50.0 -20.75 -35.35 -35.35 -20.7 -50.0 0.0 -50.0 20.7 -50.0 35.35 -35.35 40.4 -30.3 43.75 -24.5 L46.0 -20.0 Z" fill="none" stroke="#0000ff" stroke-linecap="round" stroke-linejoin="round" stroke-width="1.0"/>
    <path d="M30.3 6.25 L31.5 4.5 31.0 1.0 27.0 -4.0 25.5 -9.5 25.5 -13.5 22.0 -18.5 Q17.25 -20.1 14.25 -23.7 14.0 -24.0 14.0 -24.5 13.65 -25.85 14.4 -26.2 L14.5 -26.5 29.0 -29.0 29.95 -29.55 30.5 -30.0 38.5 -30.0 Q50.05 -16.4 50.05 2.05 50.05 22.75 35.45 37.45 26.2 46.6 14.55 50.05 L9.5 47.0 4.5 40.5 4.5 34.5 6.55 31.9 Q15.45 39.6 20.65 27.1 L18.3 14.4 21.5 11.0 Q22.7 11.3 23.5 10.5 L24.0 10.0 27.75 10.0 27.85 9.9 30.3 6.25" fill="#00cc66" fill-rule="evenodd" stroke="none"/>
    <path d="M-24.5 -41.7 Q-13.55 -47.95 0.0 -47.95 10.8 -47.95 19.95 -44.0 1.95 -36.2 -18.0 -38.0 L-24.5 -41.7" fill="#fffbfb" fill-rule="evenodd" stroke="none"/>
    <path d="M-40.0 -18.5 L-39.0 -17.0 -37.0 -17.0 -23.5 -15.5 -20.0 -20.5 -9.25 -19.3 Q-2.55 -13.95 -4.5 -8.0 2.8 -7.1 0.5 1.5 -4.4 14.0 -15.15 13.35 L-20.0 14.0 -20.5 14.5 -21.0 15.0 -23.5 15.0 -27.0 19.0 -32.5 24.0 -35.5 25.5 -38.5 25.5 -42.5 22.5 -48.0 14.0 -48.75 13.85 Q-50.05 8.2 -50.05 2.05 -50.05 -10.05 -45.05 -20.05 L-40.0 -18.5" fill="#00ff66" fill-rule="evenodd" stroke="none"/>
    <path d="M30.3 6.25 L31.5 4.5 31.0 1.0 27.0 -4.0 25.5 -9.5 25.5 -13.5 22.0 -18.5 Q17.25 -20.1 14.25 -23.7 14.0 -24.0 14.0 -24.5 13.65 -25.85 14.4 -26.2 L14.5 -26.5 29.0 -29.0 29.95 -29.55 30.5 -30.0 38.5 -30.0 Q50.05 -16.4 50.05 2.05 50.05 22.75 35.45 37.45 26.2 46.6 14.55 50.05 L9.5 47.0 4.5 40.5 4.5 34.5 6.55 31.9 Q15.45 39.6 20.65 27.1 L18.3 14.4 21.5 11.0 Q22.7 11.3 23.5 10.5 L24.0 10.0 27.75 10.0 27.85 9.9 30.3 6.25 30.45 5.5 30.5 5.0" fill="none" stroke="#00cc66" stroke-linecap="round" stroke-linejoin="round" stroke-width="1.0"/>
    <path d="M-24.5 -41.7 Q-13.55 -47.95 0.0 -47.95 10.8 -47.95 19.95 -44.0 1.95 -36.2 -18.0 -38.0 L-24.5 -41.7" fill="none" stroke="#eeeeee" stroke-linecap="round" stroke-linejoin="round" stroke-width="1.0"/>
    <path d="M-40.0 -18.5 L-45.05 -20.05 Q-50.05 -10.05 -50.05 2.05 -50.05 8.2 -48.75 13.85 L-48.0 14.0 -42.5 22.5 -38.5 25.5 -35.5 25.5 -32.5 24.0 -27.0 19.0 -23.5 15.0 -21.0 15.0 -20.5 14.5 -20.0 14.0 -15.15 13.35 Q-4.4 14.0 0.5 1.5 2.8 -7.1 -4.5 -8.0 -2.55 -13.95 -9.25 -19.3 L-20.0 -20.5 -23.5 -15.5 -37.0 -17.0 -39.0 -17.0 -40.0 -18.5 M-15.15 13.35 L-16.0 14.0" fill="none" stroke="#00ff00" stroke-linecap="round" stroke-linejoin="round" stroke-width="1.0"/>
    <path d="M-24.5 -41.7 L-25.0 -42.0" fill="none" stroke="#ffffff" stroke-linecap="round" stroke-linejoin="round" stroke-width="1.0"/>
  </g>
</svg>
