<?xml version="1.0" encoding="UTF-8" standalone="no"?>
<svg xmlns:xlink="http://www.w3.org/1999/xlink" height="5.45px" width="5.0px" xmlns="http://www.w3.org/2000/svg">
  <g transform="matrix(1.0, 0.0, 0.0, 1.0, 2.5, 0.5)">
    <path d="M-2.0 0.05 L2.0 0.0" fill="none" stroke="#ffffff" stroke-linecap="round" stroke-linejoin="round" stroke-width="1.0"/>
    <path d="M-2.0 0.05 Q0.0 1.9 2.0 0.0 -0.05 8.95 -2.0 0.0 L-2.0 0.05" fill="#0099cc" fill-rule="evenodd" stroke="none"/>
    <path d="M-2.0 0.05 Q0.0 1.9 2.0 0.0 -0.05 8.95 -2.0 0.0 L-2.0 0.05 Z" fill="none" stroke="#0099cc" stroke-linecap="round" stroke-linejoin="round" stroke-width="1.0"/>
  </g>
</svg>
