<?xml version="1.0" encoding="UTF-8" standalone="no"?>
<svg xmlns:xlink="http://www.w3.org/1999/xlink" height="70.25px" width="80.0px" xmlns="http://www.w3.org/2000/svg">
  <g transform="matrix(1.0, 0.0, 0.0, 1.0, 39.95, 35.5)">
    <path d="M30.8 -3.35 L39.55 34.25 -39.45 34.25 -30.7 -3.35 Q-23.3 -35.35 0.05 -35.0 23.4 -35.35 30.8 -3.35 Z" fill="none" stroke="#3399ff" stroke-linecap="round" stroke-linejoin="round" stroke-width="1.0"/>
  </g>
</svg>
