<?xml version="1.0" encoding="UTF-8" standalone="no"?>
<svg xmlns:xlink="http://www.w3.org/1999/xlink" height="45.45px" width="50.95px" xmlns="http://www.w3.org/2000/svg">
  <g transform="matrix(1.0, 0.0, 0.0, 1.0, 25.5, 22.4)">
    <path d="M-23.5 -10.8 L-25.0 -5.7" fill="none" stroke="#000000" stroke-linecap="round" stroke-linejoin="round" stroke-width="0.1"/>
    <path d="M-25.0 -5.7 L-12.95 -21.9 -10.3 -21.9 5.45 -21.9 12.5 -21.9 24.95 -5.65 24.95 11.7 12.45 22.55 -11.85 22.55 M-25.0 -5.7 L-25.0 11.7 -12.5 22.55" fill="none" stroke="#3399ff" stroke-linecap="round" stroke-linejoin="round" stroke-width="1.0"/>
  </g>
</svg>
