<?xml version="1.0" encoding="UTF-8" standalone="no"?>
<svg xmlns:xlink="http://www.w3.org/1999/xlink" height="27.1px" width="27.1px" xmlns="http://www.w3.org/2000/svg">
  <g transform="matrix(1.0, 0.0, 0.0, 1.0, 13.55, 13.55)">
    <path d="M6.4 -2.45 L6.5 -2.5 7.35 1.35 10.55 2.7 11.3 2.95 12.5 3.45 13.05 6.6 13.5 9.35 7.35 7.8 5.35 13.5 4.15 8.15 2.05 10.35 1.8 10.15 0.1 10.15 -1.9 10.15 -0.1 6.9 -1.9 10.15 -2.05 10.3 -4.1 8.15 -5.3 13.5 -7.3 7.8 -13.5 9.35 -13.0 6.6 -12.45 3.45 -11.25 2.95 -10.5 2.7 -7.3 1.35 -6.45 -2.5 -6.4 -2.45 -5.35 0.35 -4.3 3.35 -3.55 5.45 -4.5 5.4 -3.55 5.45 -4.3 3.35 -3.7 -0.3 -1.65 -13.5 -0.9 -10.6 0.1 -7.35 0.9 -10.6 1.65 -13.5 3.75 -0.3 4.35 3.35 3.6 5.45 3.55 5.6 4.15 8.15 3.55 5.6 3.6 5.45 4.35 3.35 5.4 0.35 6.4 -2.45 5.95 4.25 6.4 -2.45 M7.2 5.25 L6.8 4.6 Q6.45 4.25 5.95 4.25 6.45 4.25 6.8 4.6 L7.2 5.25 8.2 5.2 8.1 4.55 7.35 1.35 8.1 4.55 8.2 5.2 7.2 5.25 7.2 5.5 Q7.2 6.05 6.8 6.4 L5.85 6.75 5.8 6.75 Q5.25 6.75 4.9 6.4 4.5 6.05 4.5 5.5 L4.5 5.4 Q4.55 4.9 4.9 4.6 5.3 4.25 5.85 4.25 L5.95 4.25 5.85 4.25 Q5.3 4.25 4.9 4.6 4.55 4.9 4.5 5.4 L4.5 5.5 Q4.5 6.05 4.9 6.4 5.25 6.75 5.8 6.75 L5.85 6.75 6.8 6.4 Q7.2 6.05 7.2 5.5 L7.2 5.25 M0.1 -7.35 L0.1 -1.5 0.1 -7.35 M1.65 -2.65 L1.4 -7.1 1.65 -2.65 M8.2 5.2 L8.25 5.25 7.35 7.8 8.25 5.25 8.2 5.2 M2.2 4.35 L0.1 -1.5 -2.15 4.35 -0.05 6.8 -0.1 6.9 0.0 6.9 0.1 6.8 2.2 4.35 M3.6 5.45 L4.5 5.4 3.6 5.45 M1.9 7.65 L2.8 6.3 1.9 7.65 M8.1 4.55 L13.05 6.6 8.1 4.55 M5.35 13.5 L5.8 6.75 5.35 13.5 M-5.95 4.25 L-6.4 -2.45 -5.95 4.25 -5.85 4.25 Q-5.25 4.25 -4.9 4.6 -4.55 4.9 -4.5 5.4 -4.55 4.9 -4.9 4.6 -5.25 4.25 -5.85 4.25 L-5.95 4.25 Q-6.45 4.25 -6.8 4.6 L-7.15 5.25 -7.2 5.5 Q-7.2 6.05 -6.8 6.4 L-5.85 6.75 -5.75 6.75 Q-5.25 6.75 -4.9 6.4 -4.5 6.05 -4.5 5.5 L-4.5 5.4 -4.5 5.5 Q-4.5 6.05 -4.9 6.4 -5.25 6.75 -5.75 6.75 L-5.3 13.5 -5.75 6.75 -5.85 6.75 -6.8 6.4 Q-7.2 6.05 -7.2 5.5 L-7.15 5.25 -6.8 4.6 Q-6.45 4.25 -5.95 4.25 M-1.65 -2.65 L-1.35 -7.05 -1.65 -2.65 M-8.0 4.55 L-8.15 5.2 -8.2 5.25 -7.3 7.8 -8.2 5.25 -8.15 5.2 -8.0 4.55 -13.0 6.6 -8.0 4.55 -7.3 1.35 -8.0 4.55 M-4.1 8.15 L-3.5 5.6 -3.55 5.45 -3.5 5.6 -4.1 8.15 M-8.15 5.2 L-7.15 5.25 -8.15 5.2 M-1.9 7.65 L-2.75 6.3 -1.9 7.65 M1.8 10.15 L0.0 6.9 1.8 10.15" fill="#666666" fill-rule="evenodd" stroke="none"/>
    <path d="M10.55 0.35 L10.2 0.35 10.2 -1.65 11.55 -1.65 11.55 0.35 11.3 0.35 10.55 0.35 M-11.25 0.35 L-11.55 0.35 -11.55 -1.65 -10.15 -1.65 -10.15 0.35 -10.5 0.35 -11.25 0.35" fill="#0066cc" fill-rule="evenodd" stroke="none"/>
    <path d="M-0.9 -10.6 L-0.05 -12.1 0.9 -10.6 0.1 -7.35 -0.9 -10.6" fill="#006699" fill-rule="evenodd" stroke="none"/>
    <path d="M2.2 4.35 L0.1 2.7 0.1 -1.5 0.1 2.7 2.2 4.35 0.1 6.8 -0.05 6.8 -2.15 4.35 0.1 -1.5 2.2 4.35 M0.1 6.8 L0.1 2.7 -2.15 4.35 0.1 2.7 0.1 6.8" fill="#000000" fill-rule="evenodd" stroke="none"/>
    <path d="M2.05 10.35 L1.95 10.45 0.9 12.4 0.1 12.4 -0.9 12.4 -1.9 10.45 -2.05 10.3 -1.9 10.15 0.1 10.15 1.8 10.15 2.05 10.35 M0.1 12.4 L0.1 10.15 0.1 12.4" fill="#999999" fill-rule="evenodd" stroke="none"/>
    <path d="M1.4 -7.1 L1.65 -2.65 M-1.35 -7.05 L-1.65 -2.65" fill="none" stroke="#003399" stroke-linecap="round" stroke-linejoin="round" stroke-width="1.0"/>
    <path d="M-0.9 -10.6 L-0.05 -12.1 0.9 -10.6 M13.05 6.6 L8.1 4.55 M-8.0 4.55 L-13.0 6.6" fill="none" stroke="#006699" stroke-linecap="round" stroke-linejoin="round" stroke-width="0.1"/>
    <path d="M5.95 4.25 Q6.45 4.25 6.8 4.6 L7.2 5.25 7.2 5.5 Q7.2 6.05 6.8 6.4 L5.85 6.75 5.8 6.75 Q5.25 6.75 4.9 6.4 4.5 6.05 4.5 5.5 L4.5 5.4 Q4.55 4.9 4.9 4.6 5.3 4.25 5.85 4.25 L5.95 4.25 M-5.95 4.25 L-5.85 4.25 Q-5.25 4.25 -4.9 4.6 -4.55 4.9 -4.5 5.4 L-4.5 5.5 Q-4.5 6.05 -4.9 6.4 -5.25 6.75 -5.75 6.75 L-5.85 6.75 -6.8 6.4 Q-7.2 6.05 -7.2 5.5 L-7.15 5.25 -6.8 4.6 Q-6.45 4.25 -5.95 4.25" fill="none" stroke="#cccccc" stroke-linecap="round" stroke-linejoin="round" stroke-width="0.1"/>
    <path d="M2.8 6.3 L1.9 7.65 M-2.75 6.3 L-1.9 7.65" fill="none" stroke="#006699" stroke-linecap="round" stroke-linejoin="round" stroke-width="1.0"/>
    <path d="M-0.1 6.9 L-1.9 10.15 M-0.05 6.8 L0.0 6.9 1.8 10.15 M-0.1 6.9 L-0.05 6.8" fill="none" stroke="#999999" stroke-linecap="round" stroke-linejoin="round" stroke-width="0.1"/>
    <path d="M6.5 -2.5 L6.45 -2.65 6.4 -2.45 5.95 4.25 M6.5 -2.5 L7.35 1.35 10.55 2.7 10.55 0.35 10.2 0.35 10.2 -1.65 11.55 -1.65 11.55 0.35 11.3 0.35 11.3 2.95 12.5 3.45 13.05 6.6 13.5 9.35 7.35 7.8 5.35 13.5 4.15 8.15 2.05 10.35 1.95 10.45 0.9 12.4 0.1 12.4 -0.9 12.4 -1.9 10.45 -2.05 10.3 -4.1 8.15 -5.3 13.5 -7.3 7.8 -13.5 9.35 -13.0 6.6 -12.45 3.45 -11.25 2.95 -11.25 0.35 -11.55 0.35 -11.55 -1.65 -10.15 -1.65 -10.15 0.35 -10.5 0.35 -10.5 2.7 -7.3 1.35 -6.45 -2.5 -6.4 -2.65 -6.4 -2.45 -5.35 0.35 -3.7 -0.3 -1.65 -13.5 -0.9 -10.6 0.1 -7.35 0.9 -10.6 1.65 -13.5 3.75 -0.3 5.4 0.35 6.4 -2.45 M7.2 5.25 L8.2 5.2 8.1 4.55 7.35 1.35 M0.1 -1.5 L0.1 -7.35 M10.55 2.7 L11.3 2.95 M11.3 0.35 L10.55 0.35 M7.35 7.8 L8.25 5.25 8.2 5.2 M4.15 8.15 L3.55 5.6 3.6 5.45 4.35 3.35 3.75 -0.3 M0.1 -1.5 L0.1 2.7 2.2 4.35 0.1 -1.5 -2.15 4.35 0.1 2.7 0.1 6.8 2.2 4.35 M4.5 5.4 L3.6 5.45 M1.8 10.15 L0.1 10.15 0.1 12.4 M4.35 3.35 L5.4 0.35 M5.8 6.75 L5.35 13.5 M-6.4 -2.45 L-5.95 4.25 M-4.5 5.4 L-3.55 5.45 -4.3 3.35 -5.35 0.35 M-5.75 6.75 L-5.3 13.5 M-3.55 5.45 L-3.5 5.6 -4.1 8.15 M-7.3 7.8 L-8.2 5.25 -8.15 5.2 -8.0 4.55 -7.3 1.35 M-7.15 5.25 L-8.15 5.2 M-1.9 10.15 L0.1 10.15 M-0.05 6.8 L-2.15 4.35 M-10.5 0.35 L-11.25 0.35 M-11.25 2.95 L-10.5 2.7 M-3.7 -0.3 L-4.3 3.35" fill="none" stroke="#333333" stroke-linecap="round" stroke-linejoin="round" stroke-width="0.1"/>
  </g>
</svg>
