<?xml version="1.0" encoding="UTF-8" standalone="no"?>
<svg xmlns:xlink="http://www.w3.org/1999/xlink" height="9.7px" width="7.0px" xmlns="http://www.w3.org/2000/svg">
  <g transform="matrix(1.0, 0.0, 0.0, 1.0, 3.5, 0.5)">
    <path d="M-3.0 0.0 L3.0 0.0 Q0.4 17.4 -3.0 0.0" fill="#ffffff" fill-rule="evenodd" stroke="none"/>
    <path d="M-3.0 0.0 L3.0 0.0" fill="none" stroke="#ffffff" stroke-linecap="round" stroke-linejoin="round" stroke-width="1.0"/>
    <path d="M-3.0 0.0 Q0.4 17.4 3.0 0.0" fill="none" stroke="#66ffff" stroke-linecap="round" stroke-linejoin="round" stroke-width="1.0"/>
  </g>
</svg>
