<?xml version="1.0" encoding="UTF-8" standalone="no"?>
<svg xmlns:xlink="http://www.w3.org/1999/xlink" height="301.0px" width="268.2px" xmlns="http://www.w3.org/2000/svg">
  <g transform="matrix(1.0, 0.0, 0.0, 1.0, 134.1, 150.5)">
    <path d="M57.0 -111.15 L61.3 -111.15 58.9 -135.1 46.45 -135.1 44.0 -111.15 48.35 -111.15 57.0 -111.15 57.2 -86.95 M79.0 -150.0 Q102.6 -116.6 120.8 -44.2 M75.0 150.0 L60.95 150.0 46.95 150.0 32.95 150.0 19.0 150.0 M-19.0 150.0 L-32.95 150.0 -46.95 150.0 -60.95 150.0 -74.95 150.0 M-120.8 -44.2 Q-102.6 -116.6 -79.0 -150.0 M-57.15 -86.95 L-56.95 -111.15 -61.3 -111.15 -58.85 -135.1 -46.4 -135.1 -43.95 -111.15 -48.3 -111.15 -48.5 -86.95 M48.55 -86.95 L48.35 -111.15 M0.0 -37.0 L0.0 23.4 8.5 19.6 M73.85 -23.85 Q79.7 -18.0 88.0 -18.0 96.3 -18.0 102.15 -23.85 108.0 -29.75 108.0 -38.0 108.0 -46.3 102.15 -52.15 96.3 -58.05 88.0 -58.0 79.7 -58.05 73.85 -52.15 68.0 -46.3 68.0 -38.0 68.0 -29.75 73.85 -23.85 M107.1 72.8 Q101.25 66.9 92.95 66.95 84.65 66.9 78.8 72.8 72.95 78.65 72.95 86.95 72.95 95.2 78.8 101.1 84.65 106.95 92.95 106.95 101.25 106.95 107.1 101.1 112.95 95.2 112.95 86.95 112.95 78.65 107.1 72.8 M8.5 78.15 L0.0 80.75 -8.5 78.15 M0.0 80.75 L0.0 23.4 -8.5 19.6 M-48.3 -111.15 L-56.95 -111.15 M-88.0 -58.0 Q-79.7 -58.05 -73.85 -52.15 -68.0 -46.3 -68.0 -38.0 -68.0 -29.75 -73.85 -23.85 -79.7 -18.0 -88.0 -18.0 -96.3 -18.0 -102.15 -23.85 -108.0 -29.75 -108.0 -38.0 -108.0 -46.3 -102.15 -52.15 -96.3 -58.05 -88.0 -58.0 M-72.95 86.95 Q-72.95 95.2 -78.8 101.1 -84.65 106.95 -92.95 106.95 -101.25 106.95 -107.1 101.1 -112.95 95.2 -112.95 86.95 -112.95 78.65 -107.1 72.8 -101.25 66.9 -92.95 66.95 -84.65 66.9 -78.8 72.8 -72.95 78.65 -72.95 86.95" fill="none" stroke="#cccccc" stroke-linecap="round" stroke-linejoin="round" stroke-width="1.0"/>
    <path d="M57.2 -86.95 L69.0 -86.95 79.0 -150.0 M120.8 -44.2 Q142.15 40.45 127.95 93.95 119.3 121.15 89.95 137.95 L66.8 135.55 75.0 150.0 M19.0 150.0 L25.95 131.25 0.0 128.5 -25.95 131.25 -19.0 150.0 M-74.95 150.0 L-66.75 135.55 -89.95 137.95 Q-119.3 121.15 -127.95 93.95 -142.15 40.45 -120.8 -44.2 M-79.0 -150.0 L-69.0 -86.95 -57.15 -86.95 -48.5 -86.95 -36.0 -86.95 -12.0 -104.0 13.0 -104.0 36.0 -86.95 48.55 -86.95 57.2 -86.95 M22.0 -62.0 L36.0 -47.0 36.0 -86.95 23.5 -83.0 22.0 -62.0 0.0 -37.0 36.0 -47.0 53.0 -35.0 69.0 -86.95 M44.5 -26.95 L44.5 33.5 44.5 103.0 53.0 111.2 53.0 -35.0 44.5 -26.95 0.0 -37.0 -36.0 -47.0 -53.0 -35.0 -44.5 -26.95 0.0 -37.0 -22.0 -62.0 22.0 -62.0 M8.5 19.6 L35.0 19.6 44.5 33.5 M13.0 -104.0 L23.5 -83.0 -23.5 -83.0 -22.0 -62.0 -36.0 -47.0 -36.0 -86.95 -23.5 -83.0 -12.0 -104.0 M-8.5 78.15 L-35.0 78.15 -44.5 103.0 0.0 92.0 44.5 103.0 35.0 78.15 8.5 78.15 8.5 19.6 M-8.5 78.15 L-8.5 19.6 -35.0 19.6 -35.0 78.15 M35.0 19.6 L35.0 78.15 M66.8 135.55 L59.9 123.35 52.35 122.65 60.95 150.0 M52.35 122.65 L44.85 121.95 46.95 150.0 M32.95 150.0 L37.35 121.25 29.9 120.55 25.95 131.25 M-44.5 103.0 L-53.0 111.2 0.0 107.0 53.0 111.2 89.95 137.95 M44.85 121.95 L37.35 121.25 M-89.95 137.95 L-53.0 111.2 -53.0 -35.0 -69.0 -86.95 M-35.0 19.6 L-44.5 33.5 -44.5 103.0 M-25.95 131.25 L-29.9 120.55 -37.35 121.25 -32.95 150.0 M-46.95 150.0 L-44.85 121.95 -52.35 122.65 -60.95 150.0 M-52.35 122.65 L-59.85 123.35 -66.75 135.55 M-37.35 121.25 L-44.85 121.95 M-44.5 33.5 L-44.5 -26.95" fill="none" stroke="#cccccc" stroke-linecap="round" stroke-linejoin="round" stroke-width="1.0"/>
  </g>
</svg>
