<?xml version="1.0" encoding="UTF-8" standalone="no"?>
<svg xmlns:xlink="http://www.w3.org/1999/xlink" height="301.45px" width="284.55px" xmlns="http://www.w3.org/2000/svg">
  <g transform="matrix(1.0, 0.0, 0.0, 1.0, 141.75, 150.45)">
    <path d="M141.9 -106.95 Q141.25 -117.4 127.0 -128.45 113.25 -139.05 95.45 -139.45 L93.4 -139.45 Q82.25 -139.35 73.5 -135.55 69.6 -133.85 66.2 -131.45 L62.15 -128.25 55.5 -121.5 55.45 -121.45 59.3 -109.4 Q74.4 -112.3 92.65 -112.3 L94.7 -112.3 126.25 -110.85 Q138.0 -109.65 140.5 -108.45 L141.15 -107.95 M0.5 -149.95 L0.45 -149.95 0.45 -149.85 0.5 -149.85 0.55 -149.85 0.55 -149.55 0.5 -149.55 M0.5 -149.5 Q43.75 -149.35 55.5 -121.5 M0.5 -149.65 L0.45 -149.65 0.45 -149.85 M24.6 -130.95 Q28.7 -135.55 34.5 -135.5 40.3 -135.55 44.4 -130.95 L46.45 -128.1 Q48.35 -124.8 48.5 -120.6 L48.5 -120.4 Q48.35 -116.25 46.45 -112.9 L44.4 -110.05 Q42.5 -108.0 40.25 -106.85 37.6 -105.5 34.5 -105.5 31.4 -105.5 28.75 -106.85 26.5 -108.0 24.6 -110.05 22.45 -112.45 21.45 -115.3 20.6 -117.7 20.5 -120.4 L20.5 -120.6 Q20.6 -123.35 21.45 -125.75 22.45 -128.6 24.6 -130.95 M0.5 -145.0 L0.45 -144.65 0.5 -144.65 0.5 -144.9 M-15.3 -77.4 L0.5 -78.45 15.6 -77.5 22.5 -77.5 9.5 -111.5 0.5 -111.5 M0.5 -103.8 L0.45 -103.85 0.5 -104.2 M0.5 -104.1 L0.55 -103.75 0.5 -103.7 M0.5 131.4 L10.45 131.4 29.25 131.4 29.3 131.6 32.65 131.55 53.3 131.45 55.45 131.4 57.7 126.65 62.5 116.35 62.45 116.3 62.45 3.65 62.45 -99.6 59.3 -109.4 M40.5 54.1 L40.5 67.45 40.55 67.5 48.85 74.4 49.45 74.4 49.35 -70.95 47.7 -70.95 40.45 -65.6 40.5 -5.9 40.5 54.0 M23.0 -89.85 L46.9 -74.25 49.35 -72.7 49.35 -72.6 49.35 -72.45 49.35 -72.3 49.35 -72.25 49.35 -70.95 M49.35 -72.45 L49.35 -72.25 47.7 -70.95 M49.35 -72.6 L46.9 -74.25 M0.5 -77.5 L15.6 -77.5 M22.5 -77.5 L22.5 -89.5 9.5 -111.5 M40.45 -65.6 Q39.8 -70.8 28.75 -74.5 L25.2 -75.55 23.0 -77.0 M-39.45 -5.9 Q-38.9 -11.15 -27.8 -14.9 -16.05 -18.85 0.5 -18.85 17.05 -18.85 28.75 -14.9 39.95 -11.15 40.5 -5.9 M63.15 -55.35 L93.65 -56.75 95.7 -56.75 127.25 -55.3 Q139.0 -54.1 141.5 -52.9 L141.9 -52.7 141.5 -107.5 M63.45 61.1 L64.25 61.25 Q77.55 64.2 96.7 64.25 115.75 64.3 129.1 61.35 139.2 59.05 141.9 56.9 L142.3 3.65 62.45 3.65 M0.5 67.05 L0.45 67.4 0.5 67.4 M0.5 67.5 L0.55 67.5 0.5 67.15 M0.45 67.4 L0.45 67.5 0.5 67.5 M0.45 67.5 L0.45 67.6 0.5 67.6 0.55 67.6 0.55 67.5 M-39.5 67.55 L-47.85 74.5 0.5 74.6 M0.5 74.5 L0.55 74.5 48.85 74.4 M40.5 67.5 L40.5 67.45 Q40.3 62.0 28.75 58.1 17.05 54.15 0.5 54.15 -16.05 54.15 -27.8 58.1 -39.3 62.0 -39.5 67.5 M0.55 74.5 L0.5 74.5 M28.6 91.05 Q32.7 86.45 38.5 86.5 44.3 86.45 48.4 91.05 49.6 92.35 50.45 93.9 52.35 97.2 52.5 101.4 L52.5 101.6 Q52.35 105.75 50.45 109.1 L48.4 111.95 Q46.5 114.0 44.25 115.15 41.6 116.5 38.5 116.5 35.4 116.5 32.75 115.15 30.5 114.0 28.6 111.95 26.45 109.55 25.45 106.7 24.6 104.3 24.5 101.6 L24.5 101.4 Q24.6 98.65 25.45 96.25 26.45 93.4 28.6 91.05 M141.5 110.5 L141.5 110.05 Q139.1 112.3 128.4 114.75 115.05 117.7 96.0 117.65 76.85 117.6 63.55 114.65 L62.75 114.5 M55.9 131.4 L55.45 131.4 M141.9 110.4 Q141.45 120.95 128.15 132.2 114.8 143.4 95.75 143.2 76.6 143.0 63.3 132.0 L57.7 126.65 M15.5 150.4 L15.4 150.0 -14.35 150.0 -14.45 150.5 M55.45 150.4 L55.35 150.05 58.35 150.05 58.35 150.0 27.55 150.0 32.65 131.55 M58.35 150.0 L53.3 131.45 M10.45 131.4 L15.4 150.0 M141.9 56.9 L141.5 110.05 M141.9 -52.7 L142.3 3.65 M-45.45 -128.0 Q-47.35 -124.7 -47.5 -120.5 L-47.5 -120.3 Q-47.35 -116.15 -45.45 -112.8 -44.6 -111.3 -43.35 -109.95 -41.5 -107.9 -39.25 -106.75 -36.6 -105.4 -33.5 -105.4 -30.4 -105.4 -27.75 -106.75 -25.5 -107.9 -23.6 -109.95 -21.45 -112.35 -20.45 -115.2 -19.6 -117.6 -19.5 -120.3 L-19.5 -120.5 Q-19.6 -123.25 -20.45 -125.65 -21.45 -128.5 -23.6 -130.85 -27.7 -135.45 -33.5 -135.4 -39.3 -135.45 -43.35 -130.85 L-45.45 -128.0 M-140.15 -107.85 L-139.5 -108.35 Q-137.0 -109.55 -125.2 -110.75 L-93.65 -112.2 -91.65 -112.2 Q-73.4 -112.2 -58.3 -109.3 L-54.4 -121.35 -54.45 -121.4 -61.15 -128.15 -65.2 -131.35 Q-68.6 -133.75 -72.5 -135.45 -81.25 -139.25 -92.4 -139.35 L-94.4 -139.35 Q-112.25 -138.95 -125.95 -128.35 -140.25 -117.3 -140.85 -106.85 M-62.15 -55.25 L-92.65 -56.65 -94.65 -56.65 -126.2 -55.2 Q-138.0 -54.0 -140.5 -52.8 L-140.85 -52.6 -141.25 3.75 -61.45 3.75 -61.45 -99.5 -58.3 -109.3 M-39.45 -65.5 L-39.45 -65.55 -46.65 -70.85 -48.3 -70.85 M-48.45 74.5 L-47.85 74.5 M-39.45 -65.55 Q-38.9 -70.75 -27.8 -74.5 L-23.85 -75.65 -22.0 -76.9 M-48.3 -72.15 L-46.65 -70.85 M-48.3 -72.15 L-48.35 -72.2 -48.3 -72.35 -48.3 -72.5 -48.3 -72.6 -45.85 -74.15 -22.0 -89.75 M-45.85 -74.15 L-48.3 -72.5 M-39.45 -5.5 L-39.45 -5.9 M-140.85 -52.6 L-140.5 -107.4 M-62.45 61.2 L-63.2 61.35 Q-76.55 64.3 -95.65 64.35 -114.75 64.4 -128.05 61.45 -138.2 59.15 -140.85 57.0 L-140.5 110.15 Q-138.1 112.4 -127.35 114.85 -114.05 117.8 -94.95 117.75 -75.85 117.7 -62.5 114.75 L-61.75 114.6 M-49.45 94.0 Q-51.35 97.3 -51.5 101.5 L-51.5 101.7 Q-51.35 105.85 -49.45 109.2 -48.6 110.7 -47.35 112.05 -45.5 114.1 -43.25 115.25 -40.6 116.6 -37.5 116.6 -34.4 116.6 -31.75 115.25 -29.5 114.1 -27.6 112.05 -25.45 109.65 -24.45 106.8 -23.6 104.4 -23.5 101.7 L-23.5 101.5 Q-23.6 98.75 -24.45 96.35 -25.45 93.5 -27.6 91.15 -31.7 86.55 -37.5 86.6 -43.3 86.55 -47.35 91.15 -48.6 92.45 -49.45 94.0 M-140.85 57.0 L-141.25 3.75 M-54.45 131.5 L-56.65 126.75 -62.25 132.1 Q-75.6 143.1 -94.7 143.3 -113.8 143.5 -127.1 132.3 -140.45 121.05 -140.9 110.5 M-140.5 110.15 L-140.5 110.6 M-28.25 131.7 L-28.2 131.5 M-56.65 126.75 L-61.5 116.45 -61.45 116.4 -61.45 3.75 M-54.9 131.5 L-54.5 131.5 M-52.25 131.55 L-57.3 150.0 -57.35 150.15 -54.35 150.15 -26.55 150.15 -26.55 150.0 -31.6 131.65 M-54.35 150.15 L-54.45 150.5 M-14.35 150.0 L-9.45 131.5" fill="none" stroke="#cccccc" stroke-linecap="round" stroke-linejoin="round" stroke-width="1.0"/>
    <path d="M0.5 -149.85 L0.5 -149.95 M0.5 -149.55 L0.5 -149.5 0.5 -149.4 Q-42.75 -149.25 -54.45 -121.4 M0.5 -149.55 L0.5 -149.65 0.5 -149.85 M0.5 -144.9 L0.5 -145.0 M0.5 -111.5 L0.5 -111.4 -8.5 -111.4 -21.5 -77.4 -15.3 -77.4 0.5 -77.4 0.5 -77.5 M0.5 -104.2 L0.5 -104.1 0.5 -103.8 0.5 -103.7 M40.5 54.0 L40.5 54.1 M0.5 67.4 L0.5 67.15 0.5 67.05 M0.5 67.4 L0.5 67.5 0.55 67.5 4.6 67.5 40.5 67.5 40.55 67.5 M0.5 67.6 L0.5 67.5 0.45 67.5 -2.6 67.5 -39.5 67.5 -39.5 67.55 M0.5 74.6 L0.5 74.5 M-28.2 131.5 L-9.45 131.5 0.5 131.5 0.5 131.4 M-8.5 -111.4 L-21.5 -89.4 -21.5 -77.4 M-48.3 -70.85 L-48.45 74.5 M-48.3 -72.35 L-48.3 -72.15 -48.3 -70.85 M-39.45 -5.9 L-39.45 -65.5 M-54.45 131.5 L-52.25 131.55 -31.6 131.65 -28.25 131.7 M-54.5 131.5 L-54.45 131.5 M-39.5 67.5 L-39.45 -5.5" fill="none" stroke="#cccccc" stroke-linecap="round" stroke-linejoin="round" stroke-width="1.0"/>
  </g>
</svg>
