<?xml version="1.0" encoding="UTF-8" standalone="no"?>
<svg xmlns:xlink="http://www.w3.org/1999/xlink" height="7.0px" width="5.0px" xmlns="http://www.w3.org/2000/svg">
  <g transform="matrix(1.0, 0.0, 0.0, 1.0, 0.0, 0.0)">
    <path d="M5.0 7.0 L0.0 7.0 0.0 6.0 5.0 6.0 5.0 7.0" fill="#5a6165" fill-rule="evenodd" stroke="none"/>
    <path d="M5.0 5.0 L0.0 5.0 0.0 4.0 5.0 4.0 5.0 5.0" fill="#5a6165" fill-rule="evenodd" stroke="none"/>
    <path d="M5.0 1.0 L0.0 1.0 0.0 0.0 5.0 0.0 5.0 1.0" fill="#5a6165" fill-rule="evenodd" stroke="none"/>
    <path d="M5.0 3.0 L0.0 3.0 0.0 2.0 5.0 2.0 5.0 3.0" fill="#5a6165" fill-rule="evenodd" stroke="none"/>
  </g>
</svg>
