<?xml version="1.0" encoding="UTF-8" standalone="no"?>
<svg xmlns:xlink="http://www.w3.org/1999/xlink" height="70.3px" width="47.45px" xmlns="http://www.w3.org/2000/svg">
  <g transform="matrix(1.0, 0.0, 0.0, 1.0, 23.75, 35.6)">
    <use data-characterId="813" height="70.3" transform="matrix(1.0, 0.0, 0.0, 1.0, -23.75, -35.6)" width="47.45" xlink:href="#shape0"/>
  </g>
  <defs>
    <g id="shape0" transform="matrix(1.0, 0.0, 0.0, 1.0, 23.75, 35.6)">
      <path d="M-23.25 -19.35 L-23.25 22.65 Q-22.65 30.95 -13.4 34.2 L13.4 34.2 Q22.6 30.95 23.2 22.65 L23.2 -19.35 Q18.05 -35.45 0.0 -35.1 -18.1 -35.45 -23.25 -19.35 Z" fill="none" stroke="#00ffff" stroke-linecap="round" stroke-linejoin="round" stroke-width="1.0"/>
    </g>
  </defs>
</svg>
