<?xml version="1.0" encoding="UTF-8" standalone="no"?>
<svg xmlns:xlink="http://www.w3.org/1999/xlink" height="84.05px" width="118.65px" xmlns="http://www.w3.org/2000/svg">
  <g transform="matrix(1.0, 0.0, 0.0, 1.0, 54.5, 44.55)">
    <use data-characterId="782" height="29.0" id="itemname" transform="matrix(1.0, 0.0, 0.0, 1.0, -54.5, -44.55)" width="118.65" xlink:href="#text0"/>
    <use data-characterId="783" height="67.35" transform="matrix(1.0, 0.0, 0.0, 1.0, -17.75, -27.85)" width="35.5" xlink:href="#shape0"/>
  </g>
  <defs>
    <g id="text0" transform="matrix(1.0, 0.0, 0.0, 1.0, 4.0, 2.0)">
      <g transform="matrix(1.0, 0.0, 0.0, 1.0, -4.0, -2.0)">
        <use fill="#ffffff" height="29.0" transform="matrix(0.0098, 0.0, 0.0, 0.0098, 36.8, 9.4)" width="118.65" xlink:href="#font_Trebuchet_MS_i0"/>
        <use fill="#ffffff" height="29.0" transform="matrix(0.0098, 0.0, 0.0, 0.0098, 39.65, 9.4)" width="118.65" xlink:href="#font_Trebuchet_MS_t0"/>
        <use fill="#ffffff" height="29.0" transform="matrix(0.0098, 0.0, 0.0, 0.0098, 43.6, 9.4)" width="118.65" xlink:href="#font_Trebuchet_MS_e0"/>
        <use fill="#ffffff" height="29.0" transform="matrix(0.0098, 0.0, 0.0, 0.0098, 49.05, 9.4)" width="118.65" xlink:href="#font_Trebuchet_MS_m0"/>
        <use fill="#ffffff" height="29.0" transform="matrix(0.0098, 0.0, 0.0, 0.0098, 57.35, 9.4)" width="118.65" xlink:href="#font_Trebuchet_MS_n0"/>
        <use fill="#ffffff" height="29.0" transform="matrix(0.0098, 0.0, 0.0, 0.0098, 62.8, 9.4)" width="118.65" xlink:href="#font_Trebuchet_MS_a0"/>
        <use fill="#ffffff" height="29.0" transform="matrix(0.0098, 0.0, 0.0, 0.0098, 68.05, 9.4)" width="118.65" xlink:href="#font_Trebuchet_MS_m0"/>
        <use fill="#ffffff" height="29.0" transform="matrix(0.0098, 0.0, 0.0, 0.0098, 76.35, 9.4)" width="118.65" xlink:href="#font_Trebuchet_MS_e0"/>
      </g>
    </g>
    <g id="font_Trebuchet_MS_i0">
      <path d="M113.5 0.0 L208.5 0.0 208.5 -535.5 40.0 -535.5 40.0 -455.5 113.5 -455.5 113.5 0.0 M165.5 -738.0 Q141.0 -738.0 124.0 -721.0 107.0 -704.0 107.0 -679.5 107.0 -655.0 124.5 -637.5 141.5 -620.5 165.5 -620.5 190.0 -620.5 207.5 -637.5 224.5 -655.0 224.5 -679.5 224.5 -703.5 207.5 -720.5 190.0 -738.0 165.5 -738.0" fill-rule="evenodd" stroke="none"/>
    </g>
    <g id="font_Trebuchet_MS_t0">
      <path d="M101.5 -460.5 L101.5 -156.5 Q101.5 -84.5 145.5 -37.0 189.0 10.0 252.5 10.0 323.0 10.0 382.0 -5.0 L368.0 -88.5 Q329.0 -70.0 292.5 -70.0 242.0 -70.0 219.5 -98.5 196.5 -127.0 196.5 -194.5 L196.5 -460.5 343.5 -460.5 343.5 -535.5 196.5 -535.5 196.5 -684.0 101.5 -647.5 101.5 -535.5 39.5 -535.5 39.5 -460.5 101.5 -460.5" fill-rule="evenodd" stroke="none"/>
    </g>
    <g id="font_Trebuchet_MS_e0">
      <path d="M288.0 -465.5 Q356.0 -465.5 395.5 -423.5 431.5 -385.0 431.5 -327.5 L135.0 -327.5 Q140.5 -385.5 181.5 -424.5 224.5 -465.5 288.0 -465.5 M518.5 -258.5 Q526.0 -285.0 526.0 -316.5 526.0 -419.0 463.0 -481.0 398.0 -545.5 283.5 -545.5 185.0 -545.5 113.0 -474.0 32.5 -394.0 32.5 -261.5 32.5 -134.0 111.0 -58.5 181.5 10.0 282.5 10.0 352.5 10.0 409.5 -11.0 455.0 -27.0 477.0 -49.0 L437.0 -117.5 Q382.5 -70.0 301.0 -70.0 229.5 -70.0 184.0 -114.0 132.5 -164.5 132.5 -258.5 L518.5 -258.5" fill-rule="evenodd" stroke="none"/>
    </g>
    <g id="font_Trebuchet_MS_m0">
      <path d="M687.5 0.0 L782.5 0.0 782.5 -358.0 Q782.5 -447.0 737.0 -496.0 691.5 -545.5 608.5 -545.5 562.5 -545.5 519.0 -525.0 475.5 -504.5 459.5 -474.0 413.5 -545.5 298.5 -545.5 216.0 -545.5 161.0 -473.5 L129.5 -535.5 67.5 -535.5 67.5 0.0 162.5 0.0 162.5 -395.0 Q176.0 -421.5 208.5 -443.5 240.5 -465.5 269.0 -465.5 318.0 -465.5 348.0 -442.5 377.5 -420.0 377.5 -380.5 L377.5 0.0 472.5 0.0 472.5 -396.0 Q483.5 -423.0 513.5 -444.0 543.5 -465.5 578.0 -465.5 687.5 -465.5 687.5 -339.0 L687.5 0.0" fill-rule="evenodd" stroke="none"/>
    </g>
    <g id="font_Trebuchet_MS_n0">
      <path d="M397.0 0.0 L492.0 0.0 492.0 -331.5 Q492.0 -545.5 316.0 -545.5 209.5 -545.5 162.5 -466.5 L132.5 -535.5 67.5 -535.5 67.5 0.0 162.5 0.0 162.5 -398.0 Q181.5 -426.5 217.0 -446.0 252.5 -465.5 285.0 -465.5 345.5 -465.5 371.5 -431.0 397.0 -397.0 397.0 -311.5 L397.0 0.0" fill-rule="evenodd" stroke="none"/>
    </g>
    <g id="font_Trebuchet_MS_a0">
      <path d="M361.0 -263.0 L361.0 -133.5 Q305.5 -65.0 233.5 -65.0 135.0 -65.0 135.0 -148.5 135.0 -199.0 180.5 -236.0 226.0 -273.0 298.0 -273.0 316.0 -273.0 361.0 -263.0 M370.0 -61.5 Q382.5 -23.5 411.5 -7.0 440.0 9.5 498.0 9.5 L498.0 -38.0 Q456.0 -61.5 456.0 -132.0 L456.0 -324.0 Q456.0 -439.5 403.5 -492.5 350.5 -545.5 234.0 -545.5 190.5 -545.5 143.0 -529.5 95.0 -514.0 68.0 -492.0 L108.0 -412.5 Q156.0 -460.5 245.0 -460.5 361.0 -460.5 361.0 -330.5 323.0 -343.5 293.0 -343.5 182.5 -343.5 111.5 -287.0 40.0 -231.0 40.0 -149.5 40.0 -81.5 86.5 -35.5 132.5 10.0 195.5 10.0 313.0 10.0 370.0 -61.5" fill-rule="evenodd" stroke="none"/>
    </g>
    <g id="shape0" transform="matrix(1.0, 0.0, 0.0, 1.0, 17.75, 27.85)">
      <path d="M3.45 -27.35 L7.8 -19.0" fill="none" stroke="#cc0000" stroke-linecap="butt" stroke-linejoin="miter-clip" stroke-miterlimit="3.0" stroke-width="1.0"/>
      <path d="M7.8 -19.0 L7.8 -9.0 5.6 -4.8 5.6 10.75 11.5 29.5 17.25 33.5 17.25 39.0 8.5 39.0 -8.5 39.0 -17.25 39.0 -17.25 33.5 -11.5 29.5 -5.6 10.75 -5.6 -4.8 -7.75 -9.0 -7.75 -19.0 -3.4 -27.35 -1.7 -27.35 1.7 -27.35 3.85 -19.0 3.85 -9.0 7.8 -9.0 M5.6 -4.8 L2.8 -4.8 2.8 10.75 5.6 10.75 M7.8 -19.0 L3.85 -19.0 -3.85 -19.0 -7.75 -19.0 M3.85 -9.0 L2.8 -4.8 -2.8 -4.8 -2.8 10.75 2.8 10.75 5.75 29.5 11.5 29.5 M-1.7 -27.35 L-3.85 -19.0 -3.85 -9.0 -7.75 -9.0 M5.75 29.5 L8.6 33.5 17.25 33.5 M8.6 33.5 L8.5 39.0 M-5.6 -4.8 L-2.8 -4.8 -3.85 -9.0 3.85 -9.0 M-11.5 29.5 L-5.75 29.5 -2.8 10.75 -5.6 10.75 M-8.5 39.0 L-8.6 33.5 -17.25 33.5 M-8.6 33.5 L-5.75 29.5 5.75 29.5 M8.6 33.5 L-8.6 33.5" fill="none" stroke="#cc0000" stroke-linecap="round" stroke-linejoin="miter-clip" stroke-miterlimit="3.0" stroke-width="1.0"/>
      <path d="M1.7 -27.35 L3.45 -27.35" fill="none" stroke="#cc0000" stroke-linecap="round" stroke-linejoin="miter-clip" stroke-miterlimit="3.0" stroke-width="1.0"/>
    </g>
  </defs>
</svg>
