<?xml version="1.0" encoding="UTF-8" standalone="no"?>
<svg xmlns:xlink="http://www.w3.org/1999/xlink" height="26.8px" width="208.6px" xmlns="http://www.w3.org/2000/svg">
  <g transform="matrix(1.0, 0.0, 0.0, 1.0, 95.0, 8.0)">
    <use data-characterId="1138" height="26.8" id="credits" transform="matrix(1.0, 0.0, 0.0, 1.0, -95.0, -8.0)" width="208.6" xlink:href="#text0"/>
  </g>
  <defs>
    <g id="text0" transform="matrix(1.0, 0.0, 0.0, 1.0, 4.0, 2.0)">
      <g transform="matrix(1.0, 0.0, 0.0, 1.0, -4.0, -2.0)">
        <use fill="#ffffff" height="26.8" transform="matrix(0.0098, 0.0, 0.0, 0.0098, 175.8, 9.05)" width="208.6" xlink:href="#font_Arial_c0"/>
        <use fill="#ffffff" height="26.8" transform="matrix(0.0098, 0.0, 0.0, 0.0098, 181.35, 9.05)" width="208.6" xlink:href="#font_Arial_r0"/>
        <use fill="#ffffff" height="26.8" transform="matrix(0.0098, 0.0, 0.0, 0.0098, 185.25, 9.05)" width="208.6" xlink:href="#font_Arial_e0"/>
        <use fill="#ffffff" height="26.8" transform="matrix(0.0098, 0.0, 0.0, 0.0098, 190.8, 9.05)" width="208.6" xlink:href="#font_Arial_d0"/>
        <use fill="#ffffff" height="26.8" transform="matrix(0.0098, 0.0, 0.0, 0.0098, 196.9, 9.05)" width="208.6" xlink:href="#font_Arial_i0"/>
        <use fill="#ffffff" height="26.8" transform="matrix(0.0098, 0.0, 0.0, 0.0098, 199.7, 9.05)" width="208.6" xlink:href="#font_Arial_t0"/>
        <use fill="#ffffff" height="26.8" transform="matrix(0.0098, 0.0, 0.0, 0.0098, 203.05, 9.05)" width="208.6" xlink:href="#font_Arial_s0"/>
      </g>
    </g>
    <g id="font_Arial_c0">
      <path d="M536.5 -374.0 Q511.5 -459.5 454.5 -501.0 397.0 -543.0 300.0 -543.0 181.5 -543.0 112.0 -469.5 42.5 -396.5 42.5 -265.0 42.5 -135.0 112.0 -61.5 181.0 12.0 297.5 12.0 400.0 12.0 461.0 -36.5 522.0 -85.0 543.5 -180.0 L405.5 -203.5 Q395.0 -148.0 369.5 -125.0 344.0 -102.5 304.0 -102.5 250.5 -102.5 219.0 -141.5 187.0 -180.5 187.0 -275.0 187.0 -360.0 218.5 -396.0 249.5 -432.5 302.0 -432.5 341.5 -432.5 366.5 -411.5 391.0 -390.5 398.0 -349.0 L536.5 -374.0" fill-rule="evenodd" stroke="none"/>
    </g>
    <g id="font_Arial_r0">
      <path d="M208.0 0.0 L208.0 -164.0 Q208.0 -299.5 220.0 -342.0 231.5 -384.5 252.0 -400.5 272.5 -417.0 302.0 -417.0 332.5 -417.0 368.0 -394.0 L411.5 -516.5 Q367.0 -543.0 319.0 -543.0 285.0 -543.0 258.5 -526.0 231.5 -509.0 198.0 -455.5 L198.0 -531.0 67.5 -531.0 67.5 0.0 208.0 0.0" fill-rule="evenodd" stroke="none"/>
    </g>
    <g id="font_Arial_e0">
      <path d="M389.0 -311.0 L179.0 -311.0 Q178.5 -368.5 208.5 -402.0 238.5 -435.5 284.5 -435.5 327.5 -435.5 357.5 -403.5 387.5 -372.0 389.0 -311.0 M381.0 -169.0 Q369.5 -129.0 347.0 -111.0 324.5 -93.0 291.5 -93.0 243.0 -93.0 210.5 -127.5 178.0 -162.5 176.5 -225.0 L528.5 -225.0 Q531.5 -386.5 463.0 -464.5 394.5 -543.0 276.0 -543.0 170.5 -543.0 101.5 -468.0 32.5 -393.5 32.5 -261.5 32.5 -151.0 85.0 -78.5 151.5 12.0 290.0 12.0 377.5 12.0 436.0 -28.0 494.0 -68.5 521.0 -145.5 L381.0 -169.0" fill-rule="evenodd" stroke="none"/>
    </g>
    <g id="font_Arial_d0">
      <path d="M185.5 -277.0 Q185.5 -356.0 219.5 -395.5 253.0 -435.5 303.0 -435.5 354.5 -435.5 387.5 -395.0 420.5 -355.0 420.5 -263.5 420.5 -181.5 386.5 -140.0 352.5 -99.0 304.0 -99.0 243.0 -99.0 209.0 -154.0 185.5 -192.0 185.5 -277.0 M560.5 0.0 L560.5 -733.0 420.0 -733.0 420.0 -469.0 Q355.0 -543.0 266.0 -543.0 169.0 -543.0 105.5 -472.5 42.0 -402.5 42.0 -267.5 42.0 -135.5 107.5 -61.5 172.5 12.0 264.0 12.0 309.0 12.0 353.5 -10.0 397.5 -32.5 430.0 -78.0 L430.0 0.0 560.5 0.0" fill-rule="evenodd" stroke="none"/>
    </g>
    <g id="font_Arial_i0">
      <path d="M73.5 0.0 L214.0 0.0 214.0 -531.0 73.5 -531.0 73.5 0.0 M73.5 -603.0 L214.0 -603.0 214.0 -733.0 73.5 -733.0 73.5 -603.0" fill-rule="evenodd" stroke="none"/>
    </g>
    <g id="font_Arial_t0">
      <path d="M317.0 -531.0 L221.0 -531.0 221.0 -718.5 80.0 -636.5 80.0 -531.0 15.5 -531.0 15.5 -419.0 80.0 -419.0 80.0 -187.5 Q80.0 -113.0 84.5 -88.5 90.0 -54.0 104.5 -33.5 118.5 -13.5 149.0 -0.5 179.5 12.0 217.5 12.0 279.5 12.0 328.5 -9.0 L316.5 -118.0 Q279.5 -104.5 260.0 -104.5 246.0 -104.5 236.5 -111.5 226.5 -118.5 224.0 -129.0 221.0 -140.0 221.0 -205.0 L221.0 -419.0 317.0 -419.0 317.0 -531.0" fill-rule="evenodd" stroke="none"/>
    </g>
    <g id="font_Arial_s0">
      <path d="M24.0 -151.5 Q43.5 -76.0 107.0 -32.0 170.0 12.0 278.5 12.0 398.0 12.0 459.0 -40.5 520.0 -93.0 520.0 -166.0 520.0 -233.0 476.0 -270.5 431.5 -307.5 319.5 -333.0 207.0 -358.5 188.0 -372.5 174.0 -383.0 174.0 -398.0 174.0 -415.5 190.0 -426.5 214.0 -442.0 269.5 -442.0 313.5 -442.0 337.5 -425.5 361.0 -409.0 369.5 -378.0 L502.0 -402.5 Q482.0 -472.0 429.0 -507.5 376.0 -543.0 267.0 -543.0 152.5 -543.0 98.0 -496.0 43.5 -449.0 43.5 -380.0 43.5 -303.5 106.5 -260.5 152.0 -229.5 322.0 -192.0 358.5 -183.5 369.0 -173.5 379.0 -163.0 379.0 -147.0 379.0 -123.5 360.5 -109.5 333.0 -89.5 278.5 -89.5 229.0 -89.5 201.5 -110.5 174.0 -132.0 165.0 -173.0 L24.0 -151.5" fill-rule="evenodd" stroke="none"/>
    </g>
  </defs>
</svg>
