<?xml version="1.0" encoding="UTF-8" standalone="no"?>
<svg xmlns:xlink="http://www.w3.org/1999/xlink" height="90.35px" width="233.15px" xmlns="http://www.w3.org/2000/svg">
  <g transform="matrix(1.0, 0.0, 0.0, 1.0, 117.1, 41.4)">
    <use data-characterId="227" height="90.35" transform="matrix(1.0, 0.0, 0.0, 1.0, -117.1, -41.4)" width="233.15" xlink:href="#morphshape0"/>
  </g>
  <defs>
    <g id="morphshape0" transform="matrix(1.0, 0.0, 0.0, 1.0, 117.1, 41.4)">
      <path d="M-55.35 -14.65 L-55.3 22.5 Q-0.3 22.45 54.7 22.15 L54.65 -14.65 Q54.55 -23.85 51.2 -31.95 47.85 -38.95 37.4 -39.5 L-34.9 -39.65 Q-48.35 -39.35 -51.65 -32.35 -55.2 -24.95 -55.3 -14.65" fill="#ffffff" fill-rule="evenodd" stroke="none"/>
      <path d="M-55.2 22.5 Q-55.0 32.55 -51.5 39.85 -48.2 46.85 -38.1 46.8 L36.2 46.65 Q48.0 46.45 51.9 38.2 54.65 31.45 54.85 22.5 L-55.15 22.5" fill="#ff0000" fill-rule="evenodd" stroke="none"/>
      <path d="M-55.2 -14.65 Q-55.1 -24.95 -51.55 -32.35 -48.25 -39.35 -34.8 -39.65 L37.5 -39.5 Q47.95 -38.95 51.3 -31.95 54.65 -23.85 54.75 -14.65 L54.8 22.15 Q54.6 31.45 51.85 38.2 L51.3 39.45 Q47.95 46.45 36.15 46.65 L-38.15 46.8 Q-48.25 46.85 -51.55 39.85 -55.05 32.55 -55.25 22.5 L-55.3 -14.65 Q-55.2 -24.95 -51.65 -32.35 -48.35 -39.35 -34.9 -39.65 L37.4 -39.5 Q47.85 -38.95 51.2 -31.95 54.55 -23.85 54.65 -14.65 L54.7 22.15 Q-0.3 22.45 -55.3 22.5 L-55.35 -14.65 M-55.15 22.5 L54.85 22.5 Q54.65 31.45 51.9 38.2 48.0 46.45 36.2 46.65 L-38.1 46.8 Q-48.2 46.85 -51.5 39.85 -55.0 32.55 -55.2 22.5" fill="none" stroke="#ff0000" stroke-linecap="round" stroke-linejoin="round" stroke-width="3.0"/>
    </g>
  </defs>
</svg>
