<?xml version="1.0" encoding="UTF-8" standalone="no"?>
<svg xmlns:xlink="http://www.w3.org/1999/xlink" height="21.0px" width="21.0px" xmlns="http://www.w3.org/2000/svg">
  <g transform="matrix(1.0, 0.0, 0.0, 1.0, 10.5, 10.5)">
    <use data-characterId="1773" height="21.0" transform="matrix(1.0, 0.0, 0.0, 1.0, -10.5, -10.5)" width="21.0" xlink:href="#shape0"/>
  </g>
  <defs>
    <g id="shape0" transform="matrix(1.0, 0.0, 0.0, 1.0, 10.5, 10.5)">
      <path d="M9.95 -0.5 L10.0 0.0 Q10.0 4.15 7.05 7.05 4.1 10.0 0.0 10.0 L-0.25 10.0 Q-4.25 9.9 -7.1 7.05 -10.0 4.15 -10.0 0.0 L-10.0 -0.5 -10.0 -0.8 Q-9.75 -4.45 -7.1 -7.1 -4.25 -9.95 -0.25 -10.0 L0.0 -10.0 Q4.1 -10.0 7.05 -7.1 9.7 -4.45 9.95 -0.8 L9.95 -0.5 M0.0 0.0 L10.0 0.0 0.0 0.0 0.0 10.0 0.0 0.0 0.0 -10.0 0.0 0.0 -10.0 0.0 0.0 0.0" fill="#cccccc" fill-opacity="0.09803922" fill-rule="evenodd" stroke="none"/>
      <path d="M9.95 -0.5 L10.0 0.0" fill="none" stroke="#ff0000" stroke-linecap="butt" stroke-linejoin="miter-clip" stroke-miterlimit="3.0" stroke-width="1.0"/>
      <path d="M10.0 0.0 Q10.0 4.15 7.05 7.05 4.1 10.0 0.0 10.0 L-0.25 10.0 Q-4.25 9.9 -7.1 7.05 -10.0 4.15 -10.0 0.0 L-10.0 -0.5 -10.0 -0.8 Q-9.75 -4.45 -7.1 -7.1 -4.25 -9.95 -0.25 -10.0 L0.0 -10.0 0.0 0.0 -10.0 0.0 M10.0 0.0 L0.0 0.0 0.0 10.0" fill="none" stroke="#ff0000" stroke-linecap="round" stroke-linejoin="miter-clip" stroke-miterlimit="3.0" stroke-width="1.0"/>
      <path d="M0.0 -10.0 Q4.1 -10.0 7.05 -7.1 9.7 -4.45 9.95 -0.8 L9.95 -0.5" fill="none" stroke="#ff0000" stroke-linecap="round" stroke-linejoin="miter-clip" stroke-miterlimit="3.0" stroke-width="1.0"/>
    </g>
  </defs>
</svg>
