<?xml version="1.0" encoding="UTF-8" standalone="no"?>
<svg xmlns:xlink="http://www.w3.org/1999/xlink" height="454.0px" width="924.6px" xmlns="http://www.w3.org/2000/svg">
  <g transform="matrix(1.0, 0.0, 0.0, 1.0, 101.0, 353.0)">
    <use data-characterId="1249" height="202.0" transform="matrix(1.0, 0.0, 0.0, 1.0, -101.0, -101.0)" width="202.0" xlink:href="#shape0"/>
    <use data-characterId="1250" height="19.6" transform="matrix(1.0, 0.0, 0.0, 1.0, 69.8, 70.05)" width="20.15" xlink:href="#shape1"/>
    <use data-characterId="738" height="550.0" transform="matrix(0.2858, 0.0, 0.0, 0.0038, -100.013, -76.1032)" width="700.0" xlink:href="#shape2"/>
    <use data-characterId="738" height="550.0" transform="matrix(0.2858, 0.0, 0.0, 0.0038, -100.013, -75.1032)" width="700.0" xlink:href="#shape2"/>
    <use data-characterId="1250" height="19.6" transform="matrix(1.0, 0.0, 0.0, 1.0, -90.2, 70.05)" width="20.15" xlink:href="#shape1"/>
    <use data-characterId="1292" height="47.3" transform="matrix(1.0, 0.0, 0.0, 1.0, -56.15, 41.05)" width="113.35" xlink:href="#text0"/>
    <use data-characterId="1293" height="47.3" transform="matrix(1.0, 0.0, 0.0, 1.0, -57.15, 40.05)" width="113.35" xlink:href="#text1"/>
    <use data-characterId="1298" height="120.0" id="thebutton" transform="matrix(1.0, 0.0, 0.0, 1.0, -58.95, -86.9)" width="120.0" xlink:href="#button0"/>
  </g>
  <defs>
    <g id="shape0" transform="matrix(1.0, 0.0, 0.0, 1.0, 101.0, 101.0)">
      <path d="M95.0 -95.0 Q99.95 -90.0 100.0 -82.9 L100.0 82.95 Q99.95 90.0 95.0 95.0 90.0 100.0 82.9 100.0 L-82.95 100.0 Q-90.05 100.0 -95.05 95.0 -100.05 90.0 -100.0 82.95 L-100.0 -82.9 Q-100.05 -90.0 -95.05 -95.0 -90.05 -100.0 -82.95 -100.0 L82.9 -100.0 Q90.0 -100.0 95.0 -95.0" fill="url(#gradient0)" fill-rule="evenodd" stroke="none"/>
      <path d="M95.0 -95.0 Q90.0 -100.0 82.9 -100.0 L-82.95 -100.0 Q-90.05 -100.0 -95.05 -95.0 -100.05 -90.0 -100.0 -82.9 L-100.0 82.95 Q-100.05 90.0 -95.05 95.0 -90.05 100.0 -82.95 100.0 L82.9 100.0 Q90.0 100.0 95.0 95.0 99.95 90.0 100.0 82.95 L100.0 -82.9 Q99.95 -90.0 95.0 -95.0 Z" fill="none" stroke="#000000" stroke-linecap="butt" stroke-linejoin="miter-clip" stroke-miterlimit="3.0" stroke-width="2.0"/>
    </g>
    <linearGradient gradientTransform="matrix(0.0, 0.1221, -0.1221, 0.0, 0.0, 0.0)" gradientUnits="userSpaceOnUse" id="gradient0" spreadMethod="pad" x1="-819.2" x2="819.2">
      <stop offset="0.0" stop-color="#cccccc"/>
      <stop offset="0.058823529411764705" stop-color="#ffffff"/>
      <stop offset="0.12549019607843137" stop-color="#cccccc"/>
      <stop offset="0.4117647058823529" stop-color="#666666"/>
      <stop offset="0.8470588235294118" stop-color="#333333"/>
      <stop offset="0.9254901960784314" stop-color="#666666"/>
      <stop offset="1.0" stop-color="#333333"/>
    </linearGradient>
    <g id="shape1" transform="matrix(1.0, 0.0, 0.0, 1.0, 10.05, 9.8)">
      <path d="M3.05 -7.55 Q5.3 -5.35 5.3 -2.15 5.3 1.0 3.05 3.25 0.8 5.5 -2.35 5.5 -5.5 5.5 -7.8 3.25 -10.05 1.0 -10.05 -2.15 -10.05 -5.35 -7.8 -7.55 -5.5 -9.8 -2.35 -9.8 0.8 -9.8 3.05 -7.55" fill="#7a7a7a" fill-rule="evenodd" stroke="none"/>
      <path d="M2.45 -5.5 Q5.6 -5.5 7.85 -3.25 10.1 -1.0 10.1 2.15 10.1 5.3 7.85 7.55 5.6 9.8 2.45 9.8 -0.7 9.8 -2.95 7.55 -5.2 5.3 -5.2 2.15 -5.2 -1.0 -2.95 -3.25 -0.7 -5.5 2.45 -5.5" fill="#cccccc" fill-rule="evenodd" stroke="none"/>
      <path d="M-5.45 -5.2 Q-3.25 -7.5 -0.05 -7.5 3.1 -7.5 5.35 -5.2 7.55 -2.95 7.55 0.2 7.55 3.35 5.35 5.6 3.1 7.85 -0.05 7.85 -3.25 7.85 -5.45 5.6 -7.7 3.35 -7.7 0.2 -7.7 -2.95 -5.45 -5.2" fill="#000000" fill-rule="evenodd" stroke="none"/>
      <path d="M0.0 -5.0 Q2.15 -5.0 3.65 -3.45 5.2 -1.95 5.2 0.2 5.2 2.35 3.65 3.85 2.15 5.35 0.0 5.35 -2.15 5.35 -3.65 3.85 -5.15 2.35 -5.15 0.2 -5.15 -1.95 -3.65 -3.45 -2.15 -5.0 0.0 -5.0" fill="#656565" fill-rule="evenodd" stroke="none"/>
      <path d="M2.7 -3.25 Q3.95 -2.0 3.95 -0.2 3.95 1.6 2.7 2.85 1.4 4.15 -0.4 4.15 -2.2 4.15 -3.45 2.85 -4.75 1.6 -4.75 -0.2 -4.75 -2.0 -3.45 -3.25 -2.2 -4.55 -0.4 -4.55 1.4 -4.55 2.7 -3.25" fill="#8e8e8e" fill-rule="evenodd" stroke="none"/>
      <path d="M-2.65 -1.0 Q-3.1 -1.0 -3.4 -1.3 L-3.7 -2.05 -3.4 -2.75 Q-3.0 -2.9 -2.65 -3.1 -2.25 -3.1 -1.95 -2.75 -1.65 -2.5 -1.65 -2.05 -1.65 -1.65 -1.95 -1.3 -2.25 -1.0 -2.65 -1.0" fill="#cccccc" fill-rule="evenodd" stroke="none"/>
      <path d="M1.8 1.2 Q1.55 1.2 1.4 1.05 L1.25 0.6 Q1.25 0.35 1.4 0.2 1.55 0.0 1.8 0.0 L2.2 0.2 2.4 0.6 2.2 1.05 1.8 1.2" fill="#cccccc" fill-rule="evenodd" stroke="none"/>
      <path d="M4.6 -2.7 L0.8 0.25 3.05 4.3 -0.45 0.95 -4.55 3.0 -1.0 -0.2 -2.55 -4.65 0.2 -0.9 4.6 -2.7" fill="#000000" fill-rule="evenodd" stroke="none"/>
    </g>
    <g id="shape2" transform="matrix(1.0, 0.0, 0.0, 1.0, 350.0, 275.0)">
      <path d="M350.0 -275.0 L350.0 275.0 -350.0 275.0 -350.0 -275.0 350.0 -275.0" fill="#656565" fill-rule="evenodd" stroke="none"/>
    </g>
    <g id="text0" transform="matrix(1.0, 0.0, 0.0, 1.0, 0.7, -0.7)">
      <g transform="matrix(1.0, 0.0, 0.0, 1.0, -2.0, -1.6)">
        <use fill="#999999" height="47.3" transform="matrix(0.0234, 0.0, 0.0, 0.0234, 0.0, 22.0)" width="113.35" xlink:href="#font_Arial_G0"/>
        <use fill="#999999" height="47.3" transform="matrix(0.0234, 0.0, 0.0, 0.0234, 18.65, 22.0)" width="113.35" xlink:href="#font_Arial_U0"/>
        <use fill="#999999" height="47.3" transform="matrix(0.0234, 0.0, 0.0, 0.0234, 36.0, 22.0)" width="113.35" xlink:href="#font_Arial_E0"/>
        <use fill="#999999" height="47.3" transform="matrix(0.0234, 0.0, 0.0, 0.0234, 52.0, 22.0)" width="113.35" xlink:href="#font_Arial_S0"/>
        <use fill="#999999" height="47.3" transform="matrix(0.0234, 0.0, 0.0, 0.0234, 68.0, 22.0)" width="113.35" xlink:href="#font_Arial_T0"/>
        <use fill="#999999" height="47.3" transform="matrix(0.0234, 0.0, 0.0, 0.0234, 82.65, 22.0)" width="113.35" xlink:href="#font_Arial_S0"/>
      </g>
    </g>
    <g id="font_Arial_G0">
      <path d="M422.0 -287.5 L637.5 -287.5 637.5 -151.0 Q606.5 -123.5 546.5 -99.0 486.5 -75.0 423.5 -75.0 351.0 -75.0 286.5 -107.0 222.0 -139.0 188.5 -205.0 154.5 -271.0 154.5 -369.0 154.5 -448.5 182.5 -516.5 199.0 -556.0 229.0 -589.0 258.5 -622.0 307.0 -642.0 355.5 -662.5 422.0 -662.5 477.5 -662.5 523.0 -643.0 568.5 -624.0 593.0 -592.0 617.5 -560.0 634.0 -504.0 L721.5 -528.0 Q702.5 -602.0 666.0 -648.0 629.5 -694.0 565.5 -719.5 501.0 -745.5 421.5 -745.5 312.0 -745.5 228.0 -700.5 144.0 -655.5 99.5 -562.5 54.5 -470.0 54.5 -363.0 54.5 -255.0 99.5 -167.5 144.5 -80.0 233.0 -33.5 321.0 12.5 429.0 12.5 509.0 12.5 585.0 -16.0 661.0 -45.0 732.5 -102.0 L732.5 -374.0 422.0 -373.5 422.0 -287.5" fill-rule="evenodd" stroke="none"/>
    </g>
    <g id="font_Arial_U0">
      <path d="M560.0 -733.0 L560.0 -310.0 Q560.0 -172.0 514.5 -123.5 469.0 -75.0 362.0 -75.0 299.5 -75.0 256.5 -99.5 213.0 -124.0 195.5 -169.0 177.5 -214.5 177.5 -310.0 L177.5 -733.0 80.5 -733.0 80.5 -309.5 Q80.5 -193.0 108.5 -125.5 136.5 -58.5 202.0 -23.0 267.5 12.5 370.5 12.5 476.5 12.5 542.0 -28.0 607.0 -69.0 632.0 -134.0 657.0 -199.0 657.0 -309.5 L657.0 -733.0 560.0 -733.0" fill-rule="evenodd" stroke="none"/>
    </g>
    <g id="font_Arial_E0">
      <path d="M81.0 0.0 L628.0 0.0 628.0 -86.5 178.0 -86.5 178.0 -336.0 583.5 -336.0 583.5 -422.0 178.0 -422.0 178.0 -646.5 611.0 -646.5 611.0 -733.0 81.0 -733.0 81.0 0.0" fill-rule="evenodd" stroke="none"/>
    </g>
    <g id="font_Arial_S0">
      <path d="M46.0 -235.5 Q48.0 -162.0 86.5 -103.5 124.5 -45.5 192.0 -16.5 259.0 12.5 358.5 12.5 437.0 12.5 500.0 -16.0 562.5 -45.0 596.0 -96.5 629.5 -148.5 629.5 -207.0 629.5 -266.0 599.0 -311.0 568.5 -356.5 504.5 -386.0 460.5 -406.0 342.5 -432.5 224.0 -459.5 196.0 -485.0 167.5 -510.5 167.5 -550.0 167.5 -595.5 208.0 -627.5 248.0 -660.0 336.0 -660.0 420.5 -660.0 464.0 -624.5 507.0 -589.0 514.5 -519.5 L607.5 -526.5 Q605.0 -591.0 571.5 -642.0 538.0 -693.0 476.0 -719.0 413.5 -745.5 332.0 -745.5 258.0 -745.5 197.5 -720.5 137.0 -695.5 105.5 -647.0 74.0 -599.0 74.0 -543.5 74.0 -493.0 100.0 -452.0 125.5 -411.5 178.0 -384.0 218.5 -362.5 319.5 -338.0 420.5 -314.0 450.0 -302.5 496.0 -285.0 516.0 -259.0 536.0 -233.5 536.0 -199.0 536.0 -165.0 515.5 -136.0 494.5 -107.5 452.0 -91.0 409.5 -74.5 354.0 -74.5 291.5 -74.5 241.5 -96.0 191.5 -118.0 168.0 -153.0 144.0 -188.5 137.5 -243.5 L46.0 -235.5" fill-rule="evenodd" stroke="none"/>
    </g>
    <g id="font_Arial_T0">
      <path d="M265.5 0.0 L362.5 0.0 362.5 -646.5 605.0 -646.5 605.0 -733.0 24.0 -733.0 24.0 -646.5 265.5 -646.5 265.5 0.0" fill-rule="evenodd" stroke="none"/>
    </g>
    <g id="text1" transform="matrix(1.0, 0.0, 0.0, 1.0, 0.7, -0.7)">
      <g transform="matrix(1.0, 0.0, 0.0, 1.0, -2.0, -1.6)">
        <use fill="#000000" height="47.3" transform="matrix(0.0234, 0.0, 0.0, 0.0234, 0.0, 22.0)" width="113.35" xlink:href="#font_Arial_G0"/>
        <use fill="#000000" height="47.3" transform="matrix(0.0234, 0.0, 0.0, 0.0234, 18.65, 22.0)" width="113.35" xlink:href="#font_Arial_U0"/>
        <use fill="#000000" height="47.3" transform="matrix(0.0234, 0.0, 0.0, 0.0234, 36.0, 22.0)" width="113.35" xlink:href="#font_Arial_E0"/>
        <use fill="#000000" height="47.3" transform="matrix(0.0234, 0.0, 0.0, 0.0234, 52.0, 22.0)" width="113.35" xlink:href="#font_Arial_S0"/>
        <use fill="#000000" height="47.3" transform="matrix(0.0234, 0.0, 0.0, 0.0234, 68.0, 22.0)" width="113.35" xlink:href="#font_Arial_T0"/>
        <use fill="#000000" height="47.3" transform="matrix(0.0234, 0.0, 0.0, 0.0234, 82.65, 22.0)" width="113.35" xlink:href="#font_Arial_S0"/>
      </g>
    </g>
    <g id="button0" transform="matrix(1.0, 0.0, 0.0, 1.0, 60.0, 60.0)">
      <use data-characterId="1294" height="115.6" transform="matrix(1.0, 0.0, 0.0, 1.0, -57.75, -57.7)" width="115.35" xlink:href="#shape3"/>
      <use data-characterId="1295" height="120.0" transform="matrix(1.0, 0.0, 0.0, 1.0, -60.0, -60.0)" width="120.0" xlink:href="#shape4"/>
    </g>
    <g id="shape3" transform="matrix(1.0, 0.0, 0.0, 1.0, 57.75, 57.7)">
      <path d="M-37.4 -43.9 L-38.15 -43.25 26.85 -51.05 Q24.25 -52.5 21.55 -53.55 L-14.35 -55.75 -14.55 -55.9 Q-11.45 -56.75 -8.15 -57.2 L-5.45 -57.5 Q22.15 -59.6 41.3 -40.15 29.2 -39.65 17.1 -39.95 L-38.7 -42.8 -37.4 -43.9 M44.55 -36.45 L43.85 -37.45 Q55.8 -23.9 57.5 -5.7 L56.95 -9.6 50.7 -7.5 35.1 -6.45 36.3 -8.0 Q38.05 -10.2 39.0 -12.85 L39.5 -13.0 Q48.1 -15.55 53.1 -22.6 L51.9 -25.25 46.35 -33.8 46.7 -33.9 44.55 -36.45 M30.1 -1.55 L29.55 -2.05 31.95 -2.5 30.1 -1.55 M55.75 15.1 Q49.85 37.05 29.45 49.55 14.7 58.55 -2.6 57.85 -11.2 57.45 -18.85 54.85 L-18.6 54.4 41.2 37.15 -33.95 46.7 -33.25 47.2 -33.35 47.25 -35.5 45.55 -12.75 39.2 Q2.0 43.25 14.85 35.45 18.2 33.4 19.95 30.05 L53.9 20.6 49.95 21.1 Q52.6 19.75 54.4 17.0 L55.4 15.3 55.75 15.1 M-55.0 -17.55 L-54.0 -20.55 -53.9 -20.6 -54.25 -19.75 -33.7 -23.4 -36.45 -19.9 -40.0 -19.25 Q-47.45 -18.0 -55.0 -17.55 M-57.65 -2.9 L-47.2 -4.75 -46.95 -1.3 -57.75 -0.6 -57.65 -2.9 M-47.4 32.9 L-49.35 30.15 -49.3 30.05 -49.0 30.5 -33.3 27.0 -32.05 28.5 -29.6 30.75 -47.4 32.9 M-56.45 12.95 L-56.3 12.85 -56.2 13.4 -41.7 10.75 -41.55 13.4 -55.9 14.45 -55.6 15.5 -55.8 15.45 -56.45 12.95" fill="#ce8f00" fill-rule="evenodd" stroke="none"/>
      <path d="M20.4 -32.4 L15.9 -34.75 12.3 -36.2 Q24.9 -41.1 33.7 -31.0 38.55 -25.45 37.7 -18.05 36.5 -7.9 27.2 -3.4 L24.05 -4.35 Q21.65 -5.05 19.25 -5.35 26.95 -12.8 25.85 -23.0 25.6 -25.35 24.35 -27.3 L20.4 -32.4 M21.35 -36.55 Q18.75 -36.55 19.4 -34.3 19.7 -33.05 20.8 -32.45 23.35 -31.2 25.5 -32.75 26.2 -36.6 21.35 -36.55 M44.55 -36.45 Q40.4 -38.0 36.9 -36.1 35.7 -35.5 36.55 -34.35 38.15 -32.15 41.05 -32.65 43.65 -33.05 46.35 -33.8 L51.9 -25.25 51.25 -24.05 Q46.95 -17.9 39.75 -15.4 42.05 -29.65 30.0 -37.5 L31.05 -37.7 Q37.3 -38.6 43.75 -37.6 L43.85 -37.45 44.55 -36.45 M11.85 -34.35 Q21.9 -31.5 24.3 -21.85 24.6 -20.55 24.3 -19.2 22.3 -11.25 16.4 -5.3 L12.2 -4.6 Q0.75 -1.35 -5.7 8.25 -8.2 11.85 -8.05 16.25 -7.85 22.65 -2.7 25.9 2.3 29.05 8.15 29.15 L17.9 29.3 Q9.75 39.65 -3.8 38.35 -13.55 37.75 -22.0 33.15 -29.8 29.0 -35.0 22.0 L-36.0 21.05 Q-39.85 18.55 -39.7 13.45 -39.6 8.85 -39.95 4.25 -41.05 -10.1 -32.4 -21.05 -29.5 -24.75 -25.4 -27.0 -11.1 -35.05 5.3 -35.3 8.65 -35.35 11.85 -34.35 M-21.9 -7.8 Q-19.5 -17.8 -9.25 -21.4 -0.45 -24.7 6.35 -30.7 4.75 -34.15 0.25 -33.35 -13.85 -31.15 -26.1 -23.75 -33.65 -19.2 -34.0 -10.85 -36.8 -10.35 -37.6 -6.35 -39.35 2.5 -24.95 6.25 -18.15 8.05 -12.5 4.4 -7.2 0.95 -7.2 -4.15 -7.2 -7.8 -13.7 -7.4 L-21.9 -7.8 M-36.15 -38.95 Q-35.4 -39.7 -34.3 -39.7 -33.25 -39.7 -32.45 -38.95 -31.7 -38.2 -31.7 -37.15 -31.7 -36.05 -32.45 -35.25 -33.25 -34.5 -34.3 -34.5 -35.4 -34.5 -36.15 -35.25 -36.9 -36.05 -36.9 -37.15 -36.9 -38.2 -36.15 -38.95 M-38.4 -16.7 Q-42.0 -9.35 -42.05 -1.0 L-42.0 3.8 Q-45.3 0.6 -45.2 -4.2 -45.05 -12.35 -38.4 -16.7 M-4.05 21.35 Q-7.1 15.1 -3.65 9.25 -1.15 4.8 3.0 1.85 15.15 -6.8 28.05 -0.35 24.55 1.6 22.35 4.9 16.8 5.0 14.05 9.8 11.65 14.1 14.35 18.2 19.45 26.05 28.45 22.35 L30.75 22.85 28.75 24.0 Q15.4 29.9 1.1 25.7 -2.5 24.7 -4.05 21.35 M30.7 7.95 Q35.65 9.55 33.95 14.9 31.6 18.95 27.05 20.65 21.5 22.8 17.4 18.8 14.1 15.65 15.85 11.45 16.3 10.25 17.3 9.6 23.4 5.4 30.7 7.95 M50.85 1.4 Q56.2 6.85 53.2 13.8 50.05 20.95 41.9 21.1 L31.55 20.65 Q36.6 17.7 36.55 12.1 36.55 10.35 35.6 8.95 32.15 3.85 25.35 4.7 L26.85 3.35 Q35.65 -4.65 46.65 -1.6 48.95 -0.5 50.85 1.4" fill="#ffb200" fill-rule="evenodd" stroke="none"/>
      <path d="M21.35 -36.55 Q26.2 -36.6 25.5 -32.75 23.35 -31.2 20.8 -32.45 19.7 -33.05 19.4 -34.3 18.75 -36.55 21.35 -36.55 M46.35 -33.8 Q43.65 -33.05 41.05 -32.65 38.15 -32.15 36.55 -34.35 35.7 -35.5 36.9 -36.1 40.4 -38.0 44.55 -36.45 L46.7 -33.9 46.35 -33.8 M-34.0 -10.85 Q-33.65 -19.2 -26.1 -23.75 -13.85 -31.15 0.25 -33.35 4.75 -34.15 6.35 -30.7 -0.45 -24.7 -9.25 -21.4 -19.5 -17.8 -21.9 -7.8 -27.6 -10.1 -33.7 -10.9 L-34.0 -10.85 M49.2 -2.85 L46.7 -3.85 44.25 -4.7 50.7 -7.5 56.95 -9.6 57.5 -5.7 49.2 -2.85 M57.4 5.95 L57.25 7.75 Q56.7 11.45 55.75 15.1 L55.4 15.3 Q56.9 12.05 56.6 8.6 L56.4 6.8 57.4 5.95 M-32.6 -4.1 Q-36.3 -6.8 -32.35 -8.3 L-27.05 -7.8 Q-22.9 -6.4 -23.9 -2.9 -28.55 -1.2 -32.6 -4.1" fill="#ffd066" fill-rule="evenodd" stroke="none"/>
      <path d="M57.5 -5.7 L57.5 -5.45 57.5 -5.05 57.55 -4.8 57.6 3.05 57.4 5.95 56.4 6.8 Q55.05 1.6 51.0 -1.55 L49.2 -2.85 57.5 -5.7" fill="#ffffff" fill-rule="evenodd" stroke="none"/>
    </g>
    <g id="shape4" transform="matrix(1.0, 0.0, 0.0, 1.0, 60.0, 60.0)">
      <path d="M21.55 -53.55 Q24.25 -52.5 26.85 -51.05 L-38.15 -43.25 Q-27.95 -52.35 -14.85 -55.8 L21.55 -53.55 M30.0 -37.5 Q42.05 -29.65 39.75 -15.4 46.95 -17.9 51.25 -24.05 L51.9 -25.25 53.1 -22.6 Q48.1 -15.55 39.5 -13.0 L39.0 -12.85 Q38.05 -10.2 36.3 -8.0 L35.1 -6.45 50.7 -7.5 44.25 -4.7 46.7 -3.85 49.2 -2.85 51.0 -1.55 Q55.05 1.6 56.4 6.8 L56.6 8.6 Q56.9 12.05 55.4 15.3 L54.4 17.0 Q52.6 19.75 49.95 21.1 L53.9 20.6 19.95 30.05 Q18.2 33.4 14.85 35.45 2.0 43.25 -12.75 39.2 L-35.5 45.55 -36.9 44.45 Q-22.05 57.0 -2.6 57.85 14.7 58.55 29.45 49.55 49.85 37.05 55.75 15.1 56.7 11.45 57.25 7.75 L57.4 5.95 57.6 3.05 57.55 -4.8 57.5 -5.45 57.5 -5.7 Q55.8 -23.9 43.85 -37.45 L43.75 -37.6 Q37.3 -38.6 31.05 -37.7 L30.0 -37.5 M11.85 -34.35 Q8.65 -35.35 5.3 -35.3 -11.1 -35.05 -25.4 -27.0 -29.5 -24.75 -32.4 -21.05 -41.05 -10.1 -39.95 4.25 -39.6 8.85 -39.7 13.45 -39.85 18.55 -36.0 21.05 L-35.0 22.0 Q-29.8 29.0 -22.0 33.15 -13.55 37.75 -3.8 38.35 9.75 39.65 17.9 29.3 L8.15 29.15 Q2.3 29.05 -2.7 25.9 -7.85 22.65 -8.05 16.25 -8.2 11.85 -5.7 8.25 0.75 -1.35 12.2 -4.6 L16.4 -5.3 Q22.3 -11.25 24.3 -19.2 24.6 -20.55 24.3 -21.85 21.9 -31.5 11.85 -34.35 M20.4 -32.4 L24.35 -27.3 Q25.6 -25.35 25.85 -23.0 26.95 -12.8 19.25 -5.35 21.65 -5.05 24.05 -4.35 L27.2 -3.4 Q36.5 -7.9 37.7 -18.05 38.55 -25.45 33.7 -31.0 24.9 -41.1 12.3 -36.2 L15.9 -34.75 20.4 -32.4 M30.1 -1.55 L31.95 -2.5 29.55 -2.05 30.1 -1.55 M42.4 -42.4 Q60.0 -24.75 60.0 0.0 60.0 24.8 42.4 42.4 24.75 60.0 0.0 60.0 -24.8 60.0 -42.4 42.4 -60.0 24.8 -60.0 0.0 -60.0 -24.75 -42.4 -42.4 -24.8 -60.0 0.0 -60.0 24.75 -60.0 42.4 -42.4 M-36.9 -37.15 Q-36.9 -36.05 -36.15 -35.25 -35.4 -34.5 -34.3 -34.5 -33.25 -34.5 -32.45 -35.25 -31.7 -36.05 -31.7 -37.15 -31.7 -38.2 -32.45 -38.95 -33.25 -39.7 -34.3 -39.7 -35.4 -39.7 -36.15 -38.95 -36.9 -38.2 -36.9 -37.15 M-55.6 -15.7 L-55.0 -17.55 Q-47.45 -18.0 -40.0 -19.25 L-36.45 -19.9 -33.7 -23.4 -54.25 -19.75 -50.6 -27.9 Q-53.85 -22.1 -55.6 -15.7 M-57.65 -2.9 L-57.75 -0.6 -46.95 -1.3 -47.2 -4.75 -57.65 -2.9 M17.1 -39.95 Q29.2 -39.65 41.3 -40.15 22.15 -59.6 -5.45 -57.5 L-8.15 -57.2 Q-25.7 -54.7 -38.7 -42.8 L17.1 -39.95 M-33.7 -10.9 Q-27.6 -10.1 -21.9 -7.8 L-13.7 -7.4 Q-7.2 -7.8 -7.2 -4.15 -7.2 0.95 -12.5 4.4 -18.15 8.05 -24.95 6.25 -39.35 2.5 -37.6 -6.35 -36.8 -10.35 -34.0 -10.85 L-33.7 -10.9 M-32.6 -4.1 Q-28.55 -1.2 -23.9 -2.9 -22.9 -6.4 -27.05 -7.8 L-32.35 -8.3 Q-36.3 -6.8 -32.6 -4.1 M-42.05 -1.0 Q-42.0 -9.35 -38.4 -16.7 -45.05 -12.35 -45.2 -4.2 -45.3 0.6 -42.0 3.8 L-42.05 -1.0 M-4.05 21.35 Q-2.5 24.7 1.1 25.7 15.4 29.9 28.75 24.0 L30.75 22.85 28.45 22.35 Q19.45 26.05 14.35 18.2 11.65 14.1 14.05 9.8 16.8 5.0 22.35 4.9 24.55 1.6 28.05 -0.35 15.15 -6.8 3.0 1.85 -1.15 4.8 -3.65 9.25 -7.1 15.1 -4.05 21.35 M-19.05 54.5 Q-27.0 51.75 -33.95 46.7 L41.2 37.15 -19.05 54.5 M-29.6 30.75 L-32.05 28.5 -33.3 27.0 -49.0 30.5 Q-53.75 22.95 -55.9 14.45 L-41.55 13.4 -41.7 10.75 -56.2 13.4 -57.4 6.95 Q-55.65 22.75 -45.75 35.25 L-47.45 32.9 -29.6 30.75 M53.2 13.8 Q56.2 6.85 50.85 1.4 48.95 -0.5 46.65 -1.6 35.65 -4.65 26.85 3.35 L25.35 4.7 Q32.15 3.85 35.6 8.95 36.55 10.35 36.55 12.1 36.6 17.7 31.55 20.65 L41.9 21.1 Q50.05 20.95 53.2 13.8 M30.7 7.95 Q23.4 5.4 17.3 9.6 16.3 10.25 15.85 11.45 14.1 15.65 17.4 18.8 21.5 22.8 27.05 20.65 31.6 18.95 33.95 14.9 35.65 9.55 30.7 7.95" fill="#000000" fill-rule="evenodd" stroke="none"/>
    </g>
  </defs>
</svg>
