<?xml version="1.0" encoding="UTF-8" standalone="no"?>
<svg xmlns:xlink="http://www.w3.org/1999/xlink" height="405.0px" width="492.9px" xmlns="http://www.w3.org/2000/svg">
  <g transform="matrix(1.0, 0.0, 0.0, 1.0, 299.5, 169.1)">
    <use data-characterId="114" height="71.35" transform="matrix(1.0, 0.0, 0.0, 1.0, -38.0, -37.45)" width="75.0" xlink:href="#shape0"/>
    <use data-characterId="124" height="32.9" transform="matrix(1.0, 0.0, 0.0, 1.0, -74.05, -10.45)" width="166.5" xlink:href="#text0"/>
    <use data-characterId="120" height="70.05" transform="matrix(1.0, 0.0, 0.0, 1.0, -128.8, 165.85)" width="71.2" xlink:href="#sprite0"/>
    <use data-characterId="122" height="70.1" transform="matrix(1.0, 0.0, 0.0, 1.0, 112.2, 80.75)" width="71.2" xlink:href="#sprite1"/>
    <use data-characterId="120" height="70.05" transform="matrix(1.0, 0.0, 0.0, 1.0, 122.2, -169.1)" width="71.2" xlink:href="#sprite0"/>
    <use data-characterId="122" height="70.1" transform="matrix(1.0, 0.0, 0.0, 1.0, -173.55, -156.0)" width="71.2" xlink:href="#sprite1"/>
    <use data-characterId="122" height="70.1" transform="matrix(1.0, 0.0, 0.0, 1.0, -299.5, 43.9)" width="71.2" xlink:href="#sprite1"/>
  </g>
  <defs>
    <g id="shape0" transform="matrix(1.0, 0.0, 0.0, 1.0, 38.0, 37.45)">
      <path d="M23.85 -9.95 L23.0 -11.1 Q14.05 -22.2 0.25 -22.5 L-0.5 -22.5 Q-15.5 -22.25 -24.8 -10.0 M-0.5 18.95 Q-15.5 18.65 -24.8 6.4 M23.85 6.4 L23.0 7.5 Q14.05 18.6 0.25 18.9 L-0.5 18.95" fill="none" stroke="#cccccc" stroke-linecap="round" stroke-linejoin="round" stroke-width="2.0"/>
      <path d="M0.25 -36.4 Q-5.2 -36.75 -11.2 -35.25 -27.1 -31.3 -37.0 -17.65 M0.25 -36.4 Q17.95 -36.0 30.35 -24.15 33.45 -21.2 36.0 -17.6 M-37.0 14.05 Q-27.1 27.7 -11.2 31.65 -5.9 32.95 -0.45 32.9 L1.05 32.85 Q17.95 32.4 30.35 20.6 33.45 17.6 36.0 14.05" fill="none" stroke="#999999" stroke-linecap="round" stroke-linejoin="round" stroke-width="2.0"/>
      <path d="M0.25 -22.5 L0.25 -36.4" fill="none" stroke="#cccccc" stroke-linecap="round" stroke-linejoin="round" stroke-width="2.0"/>
      <path d="M-0.45 32.9 L-0.5 18.95" fill="none" stroke="#cccccc" stroke-linecap="round" stroke-linejoin="round" stroke-width="1.0"/>
    </g>
    <g id="sprite0" transform="matrix(1.0, 0.0, 0.0, 1.0, 36.9, 35.75)">
      <use data-characterId="119" height="70.05" transform="matrix(1.0, 0.0, 0.0, 1.0, -36.9, -35.75)" width="71.2" xlink:href="#shape1"/>
    </g>
    <g id="shape1" transform="matrix(1.0, 0.0, 0.0, 1.0, 36.9, 35.75)">
      <path d="M4.6 -18.3 L8.35 -26.8 6.1 -35.25 11.05 -32.95 15.9 -30.65 20.75 -28.3 25.65 -26.0 16.0 -23.4 12.25 -14.9 14.0 -13.4 14.55 -12.85 Q20.35 -7.05 20.4 1.15 L20.4 1.3 Q20.4 6.9 17.75 11.4 L25.05 17.3 33.8 17.3 30.3 21.45 26.8 25.55 23.3 29.65 19.8 33.8 19.8 23.8 12.1 17.6 Q7.3 21.1 1.2 21.3 L0.4 21.3 Q-6.3 21.3 -11.35 17.45 L-13.7 15.45 Q-15.2 13.95 -16.3 12.3 L-24.75 15.6 -29.1 23.15 -30.95 18.0 -32.75 13.0 -34.55 7.9 -36.4 2.8 -27.75 7.75 -19.35 4.55 -19.6 1.3 -19.6 0.75 Q-19.4 -7.2 -13.7 -12.85 L-11.3 -14.9 Q-6.25 -18.7 0.4 -18.7 L1.2 -18.7 4.6 -18.3 Q8.75 -17.45 12.25 -14.9 8.75 -17.45 4.6 -18.3 M12.2 -25.1 L13.95 -24.35 16.0 -23.4 13.95 -24.35 12.2 -25.1 10.45 -25.9 8.35 -26.8 10.45 -25.9 11.05 -32.95 10.45 -25.9 12.2 -25.1 15.9 -30.65 12.2 -25.1 M6.4 -4.1 L14.0 -13.4 6.4 -4.1 M1.2 -6.4 L0.1 -6.45 Q-1.95 -6.5 -3.5 -5.45 L-11.3 -14.9 -3.5 -5.45 Q-1.95 -6.5 0.1 -6.45 L1.2 -6.4 1.2 -18.7 1.2 -6.4 Q3.3 -6.1 4.95 -4.45 L5.3 -4.1 Q6.95 -2.25 6.95 0.4 L6.9 1.0 Q6.7 3.45 4.95 5.25 L4.55 5.65 Q3.05 6.85 1.2 7.15 L1.2 21.3 1.2 7.15 Q3.05 6.85 4.55 5.65 L4.95 5.25 Q6.7 3.45 6.9 1.0 L6.95 0.4 Q6.95 -2.25 5.3 -4.1 L4.95 -4.45 Q3.3 -6.1 1.2 -6.4 M23.65 19.1 L30.3 21.45 23.65 19.1 22.45 20.6 21.25 22.05 19.8 23.8 21.25 22.05 22.45 20.6 23.65 19.1 25.05 17.3 23.65 19.1 M20.75 -28.3 L13.95 -24.35 20.75 -28.3 M8.0 1.0 L20.4 1.15 8.0 1.0 M14.1 15.9 L12.1 17.6 14.1 15.9 5.65 5.65 14.1 15.9 14.55 15.45 Q16.45 13.55 17.75 11.4 16.45 13.55 14.55 15.45 L14.1 15.9 M-11.35 17.45 L-2.55 6.75 -2.4 6.8 0.1 7.25 1.2 7.15 0.1 7.25 -2.4 6.8 -2.55 6.75 -11.35 17.45 M26.8 25.55 L22.45 20.6 26.8 25.55 M21.25 22.05 L23.3 29.65 21.25 22.05 M-16.3 12.3 Q-18.7 8.8 -19.35 4.55 -18.7 8.8 -16.3 12.3 M-6.75 0.9 Q-6.6 3.4 -4.75 5.25 -4.1 5.9 -3.3 6.35 L-2.55 6.75 -3.3 6.35 Q-4.1 5.9 -4.75 5.25 -6.6 3.4 -6.75 0.9 L-19.6 0.75 -6.75 0.9 -6.75 0.4 Q-6.8 -2.5 -4.75 -4.45 L-4.2 -4.95 -3.5 -5.45 -4.2 -4.95 -4.75 -4.45 Q-6.8 -2.5 -6.75 0.4 L-6.75 0.9 M-26.25 11.65 L-25.55 13.45 -24.75 15.6 -25.55 13.45 -30.95 18.0 -25.55 13.45 -26.25 11.65 -32.75 13.0 -26.25 11.65 -26.95 9.85 -26.25 11.65 M-27.75 7.75 L-26.95 9.85 -34.55 7.9 -26.95 9.85 -27.75 7.75" fill="#6600cc" fill-rule="evenodd" stroke="none"/>
      <path d="M4.6 -18.3 L8.35 -26.8 6.1 -35.25 11.05 -32.95 15.9 -30.65 20.75 -28.3 25.65 -26.0 16.0 -23.4 12.25 -14.9 M17.75 11.4 L25.05 17.3 33.8 17.3 30.3 21.45 26.8 25.55 23.3 29.65 19.8 33.8 19.8 23.8 12.1 17.6 M-16.3 12.3 L-24.75 15.6 -29.1 23.15 -30.95 18.0 -32.75 13.0 -34.55 7.9 -36.4 2.8 -27.75 7.75 -19.35 4.55 M8.35 -26.8 L10.45 -25.9 11.05 -32.95 M10.45 -25.9 L12.2 -25.1 15.9 -30.65 M16.0 -23.4 L13.95 -24.35 12.2 -25.1 M13.95 -24.35 L20.75 -28.3 M19.8 23.8 L21.25 22.05 22.45 20.6 23.65 19.1 25.05 17.3 M30.3 21.45 L23.65 19.1 M23.3 29.65 L21.25 22.05 M22.45 20.6 L26.8 25.55 M-34.55 7.9 L-26.95 9.85 -27.75 7.75 M-32.75 13.0 L-26.25 11.65 -26.95 9.85 M-24.75 15.6 L-25.55 13.45 -30.95 18.0 M-25.55 13.45 L-26.25 11.65" fill="none" stroke="#9900cc" stroke-linecap="round" stroke-linejoin="round" stroke-width="1.0"/>
      <path d="M12.25 -14.9 L14.0 -13.4 14.55 -12.85 Q20.35 -7.05 20.4 1.15 L20.4 1.3 Q20.4 6.9 17.75 11.4 16.45 13.55 14.55 15.45 L14.1 15.9 5.65 5.65 M12.1 17.6 Q7.3 21.1 1.2 21.3 L0.4 21.3 Q-6.3 21.3 -11.35 17.45 L-13.7 15.45 Q-15.2 13.95 -16.3 12.3 -18.7 8.8 -19.35 4.55 L-19.6 1.3 -19.6 0.75 Q-19.4 -7.2 -13.7 -12.85 L-11.3 -14.9 Q-6.25 -18.7 0.4 -18.7 L1.2 -18.7 4.6 -18.3 Q8.75 -17.45 12.25 -14.9 M1.2 -18.7 L1.2 -6.4 Q3.3 -6.1 4.95 -4.45 L5.3 -4.1 Q6.95 -2.25 6.95 0.4 L6.9 1.0 Q6.7 3.45 4.95 5.25 L4.55 5.65 Q3.05 6.85 1.2 7.15 L1.2 21.3 M-11.3 -14.9 L-3.5 -5.45 Q-1.95 -6.5 0.1 -6.45 L1.2 -6.4 M14.0 -13.4 L6.4 -4.1 M1.2 7.15 L0.1 7.25 -2.4 6.8 -2.55 6.75 -11.35 17.45 M12.1 17.6 L14.1 15.9 M20.4 1.15 L8.0 1.0 M-19.6 0.75 L-6.75 0.9 -6.75 0.4 Q-6.8 -2.5 -4.75 -4.45 L-4.2 -4.95 -3.5 -5.45 M-2.55 6.75 L-3.3 6.35 Q-4.1 5.9 -4.75 5.25 -6.6 3.4 -6.75 0.9" fill="none" stroke="#66ff00" stroke-linecap="round" stroke-linejoin="round" stroke-width="1.0"/>
    </g>
    <g id="sprite1" transform="matrix(1.0, 0.0, 0.0, 1.0, 36.9, 33.8)">
      <use data-characterId="121" height="70.1" transform="matrix(1.0, 0.0, 0.0, 1.0, -36.9, -33.8)" width="71.2" xlink:href="#shape2"/>
    </g>
    <g id="shape2" transform="matrix(1.0, 0.0, 0.0, 1.0, 36.9, 33.8)">
      <path d="M23.3 -29.15 L26.8 -25.05 22.45 -20.05 21.25 -21.55 23.3 -29.15 21.25 -21.55 22.45 -20.05 26.8 -25.05 30.3 -20.95 33.8 -16.8 25.05 -16.8 17.75 -10.9 Q20.4 -6.4 20.4 -0.8 L20.4 -0.6 Q20.35 7.55 14.55 13.35 L14.0 13.9 12.25 15.4 16.0 23.95 25.65 26.55 20.75 28.85 15.9 31.2 Q13.45 32.3 11.05 33.45 L6.1 35.8 8.35 27.35 4.6 18.8 1.2 19.2 0.4 19.2 Q-6.25 19.2 -11.3 15.45 L-13.7 13.35 Q-19.4 7.7 -19.6 -0.25 L-19.6 -0.8 -19.35 -4.0 -27.75 -7.25 -36.4 -2.25 -34.55 -7.35 -32.75 -12.45 -30.95 -17.5 -29.1 -22.65 -24.75 -15.05 -16.3 -11.8 Q-15.2 -13.45 -13.7 -14.9 L-11.35 -16.95 Q-6.3 -20.8 0.4 -20.8 L1.2 -20.8 Q7.3 -20.6 12.1 -17.05 L19.8 -23.3 19.8 -33.3 23.3 -29.15 M1.2 -6.6 L0.1 -6.7 -2.4 -6.3 -2.55 -6.2 -11.35 -16.95 -2.55 -6.2 -2.4 -6.3 0.1 -6.7 1.2 -6.6 1.2 -20.8 1.2 -6.6 Q3.05 -6.35 4.55 -5.1 L4.95 -4.75 Q6.7 -2.95 6.9 -0.5 L6.95 0.15 Q6.95 2.75 5.3 4.65 L4.95 4.95 Q3.3 6.6 1.2 6.9 L1.2 19.2 1.2 6.9 Q3.3 6.6 4.95 4.95 L5.3 4.65 Q6.95 2.75 6.95 0.15 L6.9 -0.5 Q6.7 -2.95 4.95 -4.75 L4.55 -5.1 Q3.05 -6.35 1.2 -6.6 M14.1 -15.35 L14.55 -14.9 Q16.45 -13.05 17.75 -10.9 16.45 -13.05 14.55 -14.9 L14.1 -15.35 5.65 -5.1 14.1 -15.35 12.1 -17.05 14.1 -15.35 M23.65 -18.55 L22.45 -20.05 23.65 -18.55 30.3 -20.95 23.65 -18.55 25.05 -16.8 23.65 -18.55 M8.0 -0.5 L20.4 -0.6 8.0 -0.5 M21.25 -21.55 L19.8 -23.3 21.25 -21.55 M6.4 4.65 L14.0 13.9 6.4 4.65 M12.25 15.4 Q8.75 17.95 4.6 18.8 8.75 17.95 12.25 15.4 M-11.3 15.45 L-3.5 6.0 Q-1.95 7.0 0.1 7.0 L1.2 6.9 0.1 7.0 Q-1.95 7.0 -3.5 6.0 L-11.3 15.45 M-26.95 -9.35 L-34.55 -7.35 -26.95 -9.35 -26.25 -11.15 -25.55 -12.95 -24.75 -15.05 -25.55 -12.95 -26.25 -11.15 -26.95 -9.35 -27.75 -7.25 -26.95 -9.35 M-30.95 -17.5 L-25.55 -12.95 -30.95 -17.5 M-26.25 -11.15 L-32.75 -12.45 -26.25 -11.15 M16.0 23.95 L13.95 24.85 20.75 28.85 13.95 24.85 12.2 25.65 15.9 31.2 12.2 25.65 13.95 24.85 16.0 23.95 M10.45 26.4 L11.05 33.45 10.45 26.4 Q9.4 26.85 8.35 27.35 9.4 26.85 10.45 26.4 L12.2 25.65 10.45 26.4 M-6.75 -0.35 L-6.75 0.15 Q-6.8 3.0 -4.75 4.95 L-4.2 5.5 -3.5 6.0 -4.2 5.5 -4.75 4.95 Q-6.8 3.0 -6.75 0.15 L-6.75 -0.35 -19.6 -0.25 -6.75 -0.35 Q-6.6 -2.9 -4.75 -4.75 -4.1 -5.4 -3.3 -5.85 L-2.55 -6.2 -3.3 -5.85 Q-4.1 -5.4 -4.75 -4.75 -6.6 -2.9 -6.75 -0.35 M-16.3 -11.8 Q-18.7 -8.3 -19.35 -4.0 -18.7 -8.3 -16.3 -11.8" fill="#6600cc" fill-rule="evenodd" stroke="none"/>
      <path d="M26.8 -25.05 L23.3 -29.15 21.25 -21.55 22.45 -20.05 26.8 -25.05 30.3 -20.95 33.8 -16.8 25.05 -16.8 17.75 -10.9 M12.25 15.4 L16.0 23.95 25.65 26.55 20.75 28.85 15.9 31.2 Q13.45 32.3 11.05 33.45 L6.1 35.8 8.35 27.35 4.6 18.8 M-19.35 -4.0 L-27.75 -7.25 -36.4 -2.25 -34.55 -7.35 -32.75 -12.45 -30.95 -17.5 -29.1 -22.65 -24.75 -15.05 -16.3 -11.8 M12.1 -17.05 L19.8 -23.3 19.8 -33.3 23.3 -29.15 M30.3 -20.95 L23.65 -18.55 25.05 -16.8 M22.45 -20.05 L23.65 -18.55 M19.8 -23.3 L21.25 -21.55 M20.75 28.85 L13.95 24.85 12.2 25.65 15.9 31.2 M8.35 27.35 Q9.4 26.85 10.45 26.4 L12.2 25.65 M11.05 33.45 L10.45 26.4 M13.95 24.85 L16.0 23.95 M-24.75 -15.05 L-25.55 -12.95 -26.25 -11.15 -26.95 -9.35 -27.75 -7.25 M-32.75 -12.45 L-26.25 -11.15 M-25.55 -12.95 L-30.95 -17.5 M-34.55 -7.35 L-26.95 -9.35" fill="none" stroke="#9900cc" stroke-linecap="round" stroke-linejoin="round" stroke-width="1.0"/>
      <path d="M17.75 -10.9 Q20.4 -6.4 20.4 -0.8 L20.4 -0.6 Q20.35 7.55 14.55 13.35 L14.0 13.9 12.25 15.4 Q8.75 17.95 4.6 18.8 L1.2 19.2 0.4 19.2 Q-6.25 19.2 -11.3 15.45 L-13.7 13.35 Q-19.4 7.7 -19.6 -0.25 L-19.6 -0.8 -19.35 -4.0 Q-18.7 -8.3 -16.3 -11.8 -15.2 -13.45 -13.7 -14.9 L-11.35 -16.95 Q-6.3 -20.8 0.4 -20.8 L1.2 -20.8 Q7.3 -20.6 12.1 -17.05 L14.1 -15.35 5.65 -5.1 M17.75 -10.9 Q16.45 -13.05 14.55 -14.9 L14.1 -15.35 M1.2 -20.8 L1.2 -6.6 Q3.05 -6.35 4.55 -5.1 L4.95 -4.75 Q6.7 -2.95 6.9 -0.5 L6.95 0.15 Q6.95 2.75 5.3 4.65 L4.95 4.95 Q3.3 6.6 1.2 6.9 L1.2 19.2 M-11.35 -16.95 L-2.55 -6.2 -2.4 -6.3 0.1 -6.7 1.2 -6.6 M20.4 -0.6 L8.0 -0.5 M1.2 6.9 L0.1 7.0 Q-1.95 7.0 -3.5 6.0 L-11.3 15.45 M14.0 13.9 L6.4 4.65 M-19.6 -0.25 L-6.75 -0.35 Q-6.6 -2.9 -4.75 -4.75 -4.1 -5.4 -3.3 -5.85 L-2.55 -6.2 M-3.5 6.0 L-4.2 5.5 -4.75 4.95 Q-6.8 3.0 -6.75 0.15 L-6.75 -0.35" fill="none" stroke="#ffcc00" stroke-linecap="round" stroke-linejoin="round" stroke-width="1.0"/>
    </g>
  </defs>
</svg>
