<?xml version="1.0" encoding="UTF-8" standalone="no"?>
<svg xmlns:xlink="http://www.w3.org/1999/xlink" height="911.1px" width="1699.35px" xmlns="http://www.w3.org/2000/svg">
  <g transform="matrix(1.0, 0.0, 0.0, 1.0, 254.4, 496.0)">
    <use data-characterId="1248" height="300.05" transform="matrix(1.0, 0.0, 0.0, 1.0, -254.4, -326.9)" width="300.0" xlink:href="#shape0"/>
    <use data-characterId="1248" height="300.05" transform="matrix(1.0, 0.0, 0.0, 1.0, 151.6, -326.9)" width="300.0" xlink:href="#shape0"/>
    <use data-characterId="1254" height="602.0" transform="matrix(1.2578, 0.0, 0.0, 0.9, -40.7018, -441.889)" width="452.0" xlink:href="#shape1"/>
    <use data-characterId="1250" height="19.6" transform="matrix(1.2578, 0.0, 0.0, 0.9, 485.3596, 71.9804)" width="20.15" xlink:href="#shape2"/>
    <use data-characterId="738" height="550.0" transform="matrix(0.8087, 0.0, 0.0, 0.0035, -39.4952, -402.5525)" width="700.0" xlink:href="#shape3"/>
    <use data-characterId="738" height="550.0" transform="matrix(0.8087, 0.0, 0.0, 0.0035, -39.4952, -401.6525)" width="700.0" xlink:href="#shape3"/>
    <use data-characterId="1250" height="19.6" transform="matrix(1.2578, 0.0, 0.0, 0.9, -27.8404, 71.9804)" width="20.15" xlink:href="#shape2"/>
    <use data-characterId="1250" height="19.6" transform="matrix(1.2578, 0.0, 0.0, 0.9, 421.9096, 71.9804)" width="20.15" xlink:href="#shape2"/>
    <use data-characterId="1250" height="19.6" transform="matrix(1.2578, 0.0, 0.0, 0.9, 41.1096, 71.9804)" width="20.15" xlink:href="#shape2"/>
    <use data-characterId="1248" height="300.05" transform="matrix(1.677, 0.0, 0.0, 1.4994, -8.0503, -395.9903)" width="300.0" xlink:href="#shape0"/>
    <use data-characterId="1262" height="47.35" transform="matrix(1.0002, 0.0, 0.0, 1.0016, 144.7998, -432.249)" width="204.2" xlink:href="#text0"/>
    <use data-characterId="1263" height="39.65" transform="matrix(1.0, 0.0, 0.0, 1.0, 4.65, -390.2)" width="135.2" xlink:href="#text1"/>
    <use data-characterId="1264" height="39.9" transform="matrix(1.0, 0.0, 0.0, 1.0, 188.45, -390.85)" width="151.3" xlink:href="#text2"/>
    <use data-characterId="1272" height="44.8" id="zone150" transform="matrix(1.0, 0.0, 0.0, 1.0, 4.65, -287.4)" width="477.9" xlink:href="#sprite0"/>
    <use data-characterId="1272" height="44.8" id="zone400" transform="matrix(1.0, 0.0, 0.0, 1.0, 8.0, -125.75)" width="477.9" xlink:href="#sprite0"/>
    <use data-characterId="1273" height="36.0" transform="matrix(1.0, 0.0, 0.0, 1.0, 5.4, -154.2)" width="167.85" xlink:href="#text6"/>
    <use data-characterId="1272" height="44.8" id="zone200" transform="matrix(1.0, 0.0, 0.0, 1.0, 4.65, -193.15)" width="477.9" xlink:href="#sprite0"/>
    <use data-characterId="1274" height="36.0" transform="matrix(1.0, 0.0, 0.0, 1.0, 1.3, -308.85)" width="157.9" xlink:href="#text7"/>
    <use data-characterId="1275" height="36.2" transform="matrix(1.0, 0.0, 0.0, 1.0, 0.75, -213.65)" width="144.45" xlink:href="#text8"/>
    <use data-characterId="1272" height="44.8" id="zone175" transform="matrix(1.0, 0.0, 0.0, 1.0, 5.25, -250.4)" width="477.9" xlink:href="#sprite0"/>
    <use data-characterId="1277" height="44.8" id="resfreshinginfo" transform="matrix(1.0, 0.0, 0.0, 1.0, 340.95, -389.4)" width="175.6" xlink:href="#text9"/>
    <use data-characterId="1280" height="35.9" id="newPlayerZoneInfo" transform="matrix(1.0, 0.0, 0.0, 1.0, 157.35, -313.1)" width="27.0" xlink:href="#button1"/>
    <use data-characterId="1280" height="35.9" id="StandardZoneInfo" transform="matrix(1.0, 0.0, 0.0, 1.0, 139.25, -215.85)" width="27.0" xlink:href="#button1"/>
    <use data-characterId="1280" height="35.9" id="DeathMatchZoneInfo" transform="matrix(1.0, 0.0, 0.0, 1.0, 169.45, -158.75)" width="27.0" xlink:href="#button1"/>
    <use data-characterId="1281" height="67.25" id="ZoneInformation" transform="matrix(1.0, 0.0, 0.0, 1.0, 62.5, -5.7)" width="412.75" xlink:href="#text11"/>
    <use data-characterId="1272" height="44.8" id="zone600" transform="matrix(1.0, 0.0, 0.0, 1.0, 8.25, -55.35)" width="477.9" xlink:href="#sprite0"/>
    <use data-characterId="1282" height="36.2" transform="matrix(1.0, 0.0, 0.0, 1.0, 5.15, -84.0)" width="143.35" xlink:href="#text12"/>
    <use data-characterId="1280" height="35.9" id="ConquestZoneInfo" transform="matrix(1.0, 0.0, 0.0, 1.0, 142.7, -86.0)" width="27.0" xlink:href="#button1"/>
    <use data-characterId="1272" height="44.8" id="zone100" transform="matrix(1.0, 0.0, 0.0, 1.0, 5.25, -345.9)" width="477.9" xlink:href="#sprite0"/>
    <use data-characterId="1283" height="36.0" transform="matrix(1.0, 0.0, 0.0, 1.0, 0.95, -365.1)" width="71.85" xlink:href="#text13"/>
    <use data-characterId="1280" height="35.9" id="TutorialPlayerZoneInfo" transform="matrix(1.0, 0.0, 0.0, 1.0, 72.1, -369.35)" width="27.0" xlink:href="#button1"/>
    <use data-characterId="1249" height="202.0" transform="matrix(1.0, 0.0, 0.0, 1.0, -251.0, -319.45)" width="202.0" xlink:href="#shape7"/>
    <use data-characterId="1250" height="19.6" transform="matrix(1.0, 0.0, 0.0, 1.0, -80.2, -148.4)" width="20.15" xlink:href="#shape2"/>
    <use data-characterId="738" height="550.0" transform="matrix(0.2858, 0.0, 0.0, 0.0038, -250.013, -294.5532)" width="700.0" xlink:href="#shape3"/>
    <use data-characterId="738" height="550.0" transform="matrix(0.2858, 0.0, 0.0, 0.0038, -250.013, -293.5532)" width="700.0" xlink:href="#shape3"/>
    <use data-characterId="1250" height="19.6" transform="matrix(1.0, 0.0, 0.0, 1.0, -240.2, -148.4)" width="20.15" xlink:href="#shape2"/>
    <use data-characterId="1251" height="47.35" transform="matrix(1.0, 0.0, 0.0, 1.0, -202.95, -177.45)" width="107.55" xlink:href="#text14"/>
    <use data-characterId="1252" height="47.35" transform="matrix(1.0, 0.0, 0.0, 1.0, -203.95, -178.45)" width="107.55" xlink:href="#text15"/>
    <use data-characterId="1253" height="120.0" transform="matrix(1.0, 0.0, 0.0, 1.0, -208.95, -305.35)" width="120.0" xlink:href="#shape8"/>
  </g>
  <defs>
    <g id="shape0" transform="matrix(1.0, 0.0, 0.0, 1.0, 150.0, 150.05)">
      <path d="M144.85 -144.9 Q149.95 -139.8 150.0 -132.55 L150.0 132.5 Q149.95 139.75 144.85 144.85 139.75 149.95 132.5 150.0 L-132.55 150.0 Q-139.8 149.95 -144.9 144.85 -150.05 139.75 -150.0 132.5 L-150.0 -132.55 Q-150.05 -139.8 -144.9 -144.9 -139.8 -150.05 -132.55 -150.05 L132.5 -150.05 Q139.75 -150.05 144.85 -144.9" fill="#000000" fill-rule="evenodd" stroke="none"/>
    </g>
    <g id="shape1" transform="matrix(1.0, 0.0, 0.0, 1.0, 226.0, 301.0)">
      <path d="M218.8 -293.95 Q225.0 -287.9 225.0 -279.3 L225.0 279.3 Q225.0 287.85 218.8 293.95 212.6 300.0 203.85 300.0 L-203.8 300.0 Q-212.6 300.0 -218.8 293.95 -225.0 287.85 -225.0 279.3 L-225.0 -279.3 Q-225.0 -287.9 -218.8 -293.95 -212.6 -300.05 -203.8 -300.0 L203.85 -300.0 Q212.6 -300.05 218.8 -293.95" fill="url(#gradient0)" fill-rule="evenodd" stroke="none"/>
      <path d="M218.8 -293.95 Q212.6 -300.05 203.85 -300.0 L-203.8 -300.0 Q-212.6 -300.05 -218.8 -293.95 -225.0 -287.9 -225.0 -279.3 L-225.0 279.3 Q-225.0 287.85 -218.8 293.95 -212.6 300.0 -203.8 300.0 L203.85 300.0 Q212.6 300.0 218.8 293.95 225.0 287.85 225.0 279.3 L225.0 -279.3 Q225.0 -287.9 218.8 -293.95 Z" fill="none" stroke="#000000" stroke-linecap="butt" stroke-linejoin="miter-clip" stroke-miterlimit="3.0" stroke-width="2.0"/>
    </g>
    <linearGradient gradientTransform="matrix(0.0, 0.3662, -0.2746, 0.0, 0.0, 0.0)" gradientUnits="userSpaceOnUse" id="gradient0" spreadMethod="pad" x1="-819.2" x2="819.2">
      <stop offset="0.0" stop-color="#cccccc"/>
      <stop offset="0.03529411764705882" stop-color="#ffffff"/>
      <stop offset="0.08235294117647059" stop-color="#cccccc"/>
      <stop offset="0.39215686274509803" stop-color="#666666"/>
      <stop offset="0.7647058823529411" stop-color="#333333"/>
      <stop offset="0.9254901960784314" stop-color="#666666"/>
      <stop offset="1.0" stop-color="#333333"/>
    </linearGradient>
    <g id="shape2" transform="matrix(1.0, 0.0, 0.0, 1.0, 10.05, 9.8)">
      <path d="M3.05 -7.55 Q5.3 -5.35 5.3 -2.15 5.3 1.0 3.05 3.25 0.8 5.5 -2.35 5.5 -5.5 5.5 -7.8 3.25 -10.05 1.0 -10.05 -2.15 -10.05 -5.35 -7.8 -7.55 -5.5 -9.8 -2.35 -9.8 0.8 -9.8 3.05 -7.55" fill="#7a7a7a" fill-rule="evenodd" stroke="none"/>
      <path d="M2.45 -5.5 Q5.6 -5.5 7.85 -3.25 10.1 -1.0 10.1 2.15 10.1 5.3 7.85 7.55 5.6 9.8 2.45 9.8 -0.7 9.8 -2.95 7.55 -5.2 5.3 -5.2 2.15 -5.2 -1.0 -2.95 -3.25 -0.7 -5.5 2.45 -5.5" fill="#cccccc" fill-rule="evenodd" stroke="none"/>
      <path d="M-5.45 -5.2 Q-3.25 -7.5 -0.05 -7.5 3.1 -7.5 5.35 -5.2 7.55 -2.95 7.55 0.2 7.55 3.35 5.35 5.6 3.1 7.85 -0.05 7.85 -3.25 7.85 -5.45 5.6 -7.7 3.35 -7.7 0.2 -7.7 -2.95 -5.45 -5.2" fill="#000000" fill-rule="evenodd" stroke="none"/>
      <path d="M0.0 -5.0 Q2.15 -5.0 3.65 -3.45 5.2 -1.95 5.2 0.2 5.2 2.35 3.65 3.85 2.15 5.35 0.0 5.35 -2.15 5.35 -3.65 3.85 -5.15 2.35 -5.15 0.2 -5.15 -1.95 -3.65 -3.45 -2.15 -5.0 0.0 -5.0" fill="#656565" fill-rule="evenodd" stroke="none"/>
      <path d="M2.7 -3.25 Q3.95 -2.0 3.95 -0.2 3.95 1.6 2.7 2.85 1.4 4.15 -0.4 4.15 -2.2 4.15 -3.45 2.85 -4.75 1.6 -4.75 -0.2 -4.75 -2.0 -3.45 -3.25 -2.2 -4.55 -0.4 -4.55 1.4 -4.55 2.7 -3.25" fill="#8e8e8e" fill-rule="evenodd" stroke="none"/>
      <path d="M-2.65 -1.0 Q-3.1 -1.0 -3.4 -1.3 L-3.7 -2.05 -3.4 -2.75 Q-3.0 -2.9 -2.65 -3.1 -2.25 -3.1 -1.95 -2.75 -1.65 -2.5 -1.65 -2.05 -1.65 -1.65 -1.95 -1.3 -2.25 -1.0 -2.65 -1.0" fill="#cccccc" fill-rule="evenodd" stroke="none"/>
      <path d="M1.8 1.2 Q1.55 1.2 1.4 1.05 L1.25 0.6 Q1.25 0.35 1.4 0.2 1.55 0.0 1.8 0.0 L2.2 0.2 2.4 0.6 2.2 1.05 1.8 1.2" fill="#cccccc" fill-rule="evenodd" stroke="none"/>
      <path d="M4.6 -2.7 L0.8 0.25 3.05 4.3 -0.45 0.95 -4.55 3.0 -1.0 -0.2 -2.55 -4.65 0.2 -0.9 4.6 -2.7" fill="#000000" fill-rule="evenodd" stroke="none"/>
    </g>
    <g id="shape3" transform="matrix(1.0, 0.0, 0.0, 1.0, 350.0, 275.0)">
      <path d="M350.0 -275.0 L350.0 275.0 -350.0 275.0 -350.0 -275.0 350.0 -275.0" fill="#656565" fill-rule="evenodd" stroke="none"/>
    </g>
    <g id="text0" transform="matrix(1.0, 0.0, 0.0, 1.0, 0.9, -0.65)">
      <g transform="matrix(1.0, 0.0, 0.0, 1.0, -2.0, -1.6)">
        <use fill="#003300" height="47.35" transform="matrix(0.0234, 0.0, 0.0, 0.0234, 0.0, 22.0)" width="204.2" xlink:href="#font_Arial_S0"/>
        <use fill="#003300" height="47.35" transform="matrix(0.0234, 0.0, 0.0, 0.0234, 16.0, 22.0)" width="204.2" xlink:href="#font_Arial_E0"/>
        <use fill="#003300" height="47.35" transform="matrix(0.0234, 0.0, 0.0, 0.0234, 32.0, 22.0)" width="204.2" xlink:href="#font_Arial_L0"/>
        <use fill="#003300" height="47.35" transform="matrix(0.0234, 0.0, 0.0, 0.0234, 45.35, 22.0)" width="204.2" xlink:href="#font_Arial_E0"/>
        <use fill="#003300" height="47.35" transform="matrix(0.0234, 0.0, 0.0, 0.0234, 61.35, 22.0)" width="204.2" xlink:href="#font_Arial_C0"/>
        <use fill="#003300" height="47.35" transform="matrix(0.0234, 0.0, 0.0, 0.0234, 78.7, 22.0)" width="204.2" xlink:href="#font_Arial_T0"/>
        <use fill="#003300" height="47.35" transform="matrix(0.0234, 0.0, 0.0, 0.0234, 100.0, 22.0)" width="204.2" xlink:href="#font_Arial_A0"/>
        <use fill="#003300" height="47.35" transform="matrix(0.0234, 0.0, 0.0, 0.0234, 122.65, 22.0)" width="204.2" xlink:href="#font_Arial_Z0"/>
        <use fill="#003300" height="47.35" transform="matrix(0.0234, 0.0, 0.0, 0.0234, 137.3, 22.0)" width="204.2" xlink:href="#font_Arial_O0"/>
        <use fill="#003300" height="47.35" transform="matrix(0.0234, 0.0, 0.0, 0.0234, 155.95, 22.0)" width="204.2" xlink:href="#font_Arial_N0"/>
        <use fill="#003300" height="47.35" transform="matrix(0.0234, 0.0, 0.0, 0.0234, 173.3, 22.0)" width="204.2" xlink:href="#font_Arial_E0"/>
      </g>
    </g>
    <g id="font_Arial_S0">
      <path d="M46.0 -235.5 Q48.0 -162.0 86.5 -103.5 124.5 -45.5 192.0 -16.5 259.0 12.5 358.5 12.5 437.0 12.5 500.0 -16.0 562.5 -45.0 596.0 -96.5 629.5 -148.5 629.5 -207.0 629.5 -266.0 599.0 -311.0 568.5 -356.5 504.5 -386.0 460.5 -406.0 342.5 -432.5 224.0 -459.5 196.0 -485.0 167.5 -510.5 167.5 -550.0 167.5 -595.5 208.0 -627.5 248.0 -660.0 336.0 -660.0 420.5 -660.0 464.0 -624.5 507.0 -589.0 514.5 -519.5 L607.5 -526.5 Q605.0 -591.0 571.5 -642.0 538.0 -693.0 476.0 -719.0 413.5 -745.5 332.0 -745.5 258.0 -745.5 197.5 -720.5 137.0 -695.5 105.5 -647.0 74.0 -599.0 74.0 -543.5 74.0 -493.0 100.0 -452.0 125.5 -411.5 178.0 -384.0 218.5 -362.5 319.5 -338.0 420.5 -314.0 450.0 -302.5 496.0 -285.0 516.0 -259.0 536.0 -233.5 536.0 -199.0 536.0 -165.0 515.5 -136.0 494.5 -107.5 452.0 -91.0 409.5 -74.5 354.0 -74.5 291.5 -74.5 241.5 -96.0 191.5 -118.0 168.0 -153.0 144.0 -188.5 137.5 -243.5 L46.0 -235.5" fill-rule="evenodd" stroke="none"/>
    </g>
    <g id="font_Arial_E0">
      <path d="M81.0 0.0 L628.0 0.0 628.0 -86.5 178.0 -86.5 178.0 -336.0 583.5 -336.0 583.5 -422.0 178.0 -422.0 178.0 -646.5 611.0 -646.5 611.0 -733.0 81.0 -733.0 81.0 0.0" fill-rule="evenodd" stroke="none"/>
    </g>
    <g id="font_Arial_L0">
      <path d="M75.0 0.0 L533.0 0.0 533.0 -86.5 172.0 -86.5 172.0 -733.0 75.0 -733.0 75.0 0.0" fill-rule="evenodd" stroke="none"/>
    </g>
    <g id="font_Arial_C0">
      <path d="M602.0 -257.0 Q582.0 -164.5 525.5 -117.5 469.0 -70.5 387.5 -70.5 320.5 -70.5 263.0 -105.0 205.5 -139.5 178.5 -209.0 151.0 -279.0 151.0 -372.5 151.0 -445.0 174.0 -513.0 197.0 -581.5 254.0 -622.0 310.5 -662.5 395.0 -662.5 468.5 -662.5 517.0 -626.0 565.5 -589.5 591.0 -509.5 L686.5 -532.0 Q657.0 -633.5 582.0 -689.5 507.0 -745.5 397.0 -745.5 300.0 -745.5 219.5 -701.0 138.5 -657.0 95.0 -571.5 51.0 -486.5 51.0 -372.0 51.0 -267.0 90.0 -175.5 128.5 -84.0 203.0 -35.5 277.0 12.5 395.5 12.5 510.0 12.5 589.5 -50.0 668.5 -113.0 699.0 -232.5 L602.0 -257.0" fill-rule="evenodd" stroke="none"/>
    </g>
    <g id="font_Arial_T0">
      <path d="M265.5 0.0 L362.5 0.0 362.5 -646.5 605.0 -646.5 605.0 -733.0 24.0 -733.0 24.0 -646.5 265.5 -646.5 265.5 0.0" fill-rule="evenodd" stroke="none"/>
    </g>
    <g id="font_Arial_A0">
      <path d="M210.0 -301.0 L290.5 -516.0 Q316.0 -585.5 330.0 -656.0 347.0 -596.5 382.0 -504.0 L458.5 -301.0 210.0 -301.0 M-1.5 0.0 L101.5 0.0 182.0 -222.0 488.5 -222.0 574.0 0.0 684.5 0.0 384.5 -733.0 280.0 -733.0 -1.5 0.0" fill-rule="evenodd" stroke="none"/>
    </g>
    <g id="font_Arial_Z0">
      <path d="M20.5 0.0 L600.0 0.0 600.0 -86.5 132.0 -86.5 176.5 -138.0 588.0 -646.5 588.0 -733.0 63.0 -733.0 63.0 -646.5 472.0 -646.5 Q436.0 -609.5 396.0 -559.5 L20.5 -90.0 20.5 0.0" fill-rule="evenodd" stroke="none"/>
    </g>
    <g id="font_Arial_O0">
      <path d="M149.5 -355.5 Q149.5 -521.0 224.0 -591.5 298.0 -662.5 401.0 -662.5 473.5 -662.5 532.0 -625.5 590.0 -589.0 620.5 -522.0 650.5 -455.5 650.5 -366.0 650.5 -224.5 580.0 -147.5 509.0 -70.5 399.5 -70.5 292.0 -70.5 221.0 -146.5 149.5 -223.0 149.5 -355.5 M49.5 -357.0 Q49.5 -260.5 91.5 -174.0 133.5 -87.5 215.0 -37.5 296.5 12.5 400.0 12.5 495.5 12.5 578.0 -32.5 660.5 -78.0 705.5 -166.0 750.5 -254.0 750.5 -365.5 750.5 -475.5 708.0 -562.0 665.0 -649.0 583.5 -697.5 502.0 -746.0 400.5 -746.0 245.5 -746.0 147.5 -642.5 49.5 -539.5 49.5 -357.0" fill-rule="evenodd" stroke="none"/>
    </g>
    <g id="font_Arial_N0">
      <path d="M78.0 0.0 L171.0 0.0 171.0 -576.0 556.0 0.0 655.5 0.0 655.5 -733.0 562.5 -733.0 562.5 -157.5 177.5 -733.0 78.0 -733.0 78.0 0.0" fill-rule="evenodd" stroke="none"/>
    </g>
    <g id="text1" transform="matrix(1.0, 0.0, 0.0, 1.0, 1.6, 0.2)">
      <g transform="matrix(1.0, 0.0, 0.0, 1.0, -2.0, -2.0)">
        <use fill="#ffff00" height="39.65" transform="matrix(0.0195, 0.0, 0.0, 0.0195, 0.0, 18.0)" width="135.2" xlink:href="#font_Arial_Z0"/>
        <use fill="#ffff00" height="39.65" transform="matrix(0.0195, 0.0, 0.0, 0.0195, 12.2, 18.0)" width="135.2" xlink:href="#font_Arial_o0"/>
        <use fill="#ffff00" height="39.65" transform="matrix(0.0195, 0.0, 0.0, 0.0195, 23.3, 18.0)" width="135.2" xlink:href="#font_Arial_n0"/>
        <use fill="#ffff00" height="39.65" transform="matrix(0.0195, 0.0, 0.0, 0.0195, 34.4, 18.0)" width="135.2" xlink:href="#font_Arial_e0"/>
        <use fill="#ffff00" height="39.65" transform="matrix(0.0195, 0.0, 0.0, 0.0195, 51.05, 18.0)" width="135.2" xlink:href="#font_Arial_N0"/>
        <use fill="#ffff00" height="39.65" transform="matrix(0.0195, 0.0, 0.0, 0.0195, 65.5, 18.0)" width="135.2" xlink:href="#font_Arial_u0"/>
        <use fill="#ffff00" height="39.65" transform="matrix(0.0195, 0.0, 0.0, 0.0195, 76.6, 18.0)" width="135.2" xlink:href="#font_Arial_m0"/>
        <use fill="#ffff00" height="39.65" transform="matrix(0.0195, 0.0, 0.0, 0.0195, 93.25, 18.0)" width="135.2" xlink:href="#font_Arial_b0"/>
        <use fill="#ffff00" height="39.65" transform="matrix(0.0195, 0.0, 0.0, 0.0195, 104.35, 18.0)" width="135.2" xlink:href="#font_Arial_e0"/>
        <use fill="#ffff00" height="39.65" transform="matrix(0.0195, 0.0, 0.0, 0.0195, 115.45, 18.0)" width="135.2" xlink:href="#font_Arial_r0"/>
      </g>
    </g>
    <g id="font_Arial_o0">
      <path d="M126.5 -265.5 Q126.5 -367.5 171.0 -418.0 215.5 -468.5 283.0 -468.5 349.5 -468.5 394.5 -417.5 439.0 -367.0 439.0 -268.5 439.0 -164.0 394.5 -113.0 350.0 -62.0 283.0 -62.0 215.5 -62.0 171.0 -112.5 126.5 -163.5 126.5 -265.5 M34.0 -265.5 Q34.0 -131.0 103.0 -59.5 171.5 12.0 283.0 12.0 352.5 12.0 411.5 -20.5 470.0 -53.0 501.0 -111.5 531.5 -170.5 531.5 -273.0 531.5 -399.5 462.0 -471.0 392.5 -543.0 283.0 -543.0 184.5 -543.0 116.0 -484.0 34.0 -413.0 34.0 -265.5" fill-rule="evenodd" stroke="none"/>
    </g>
    <g id="font_Arial_n0">
      <path d="M67.5 0.0 L157.5 0.0 157.5 -290.0 Q157.5 -392.0 199.5 -428.5 241.0 -465.0 298.5 -465.0 334.5 -465.0 361.5 -448.5 388.0 -432.5 398.5 -405.0 409.0 -378.0 409.0 -323.0 L409.0 0.0 499.0 0.0 499.0 -326.5 Q499.0 -389.0 494.0 -414.0 486.0 -452.5 466.0 -480.5 446.0 -508.5 406.0 -525.5 365.5 -543.0 317.5 -543.0 207.0 -543.0 148.5 -455.5 L148.5 -531.0 67.5 -531.0 67.5 0.0" fill-rule="evenodd" stroke="none"/>
    </g>
    <g id="font_Arial_e0">
      <path d="M135.5 -316.5 Q140.0 -386.0 182.5 -427.5 224.5 -469.0 286.5 -469.0 355.0 -469.0 398.0 -417.0 426.0 -383.5 432.0 -316.5 L135.5 -316.5 M431.0 -171.0 Q410.5 -114.0 375.5 -88.0 340.5 -62.0 291.0 -62.0 224.5 -62.0 180.0 -108.5 135.5 -155.0 130.5 -242.5 L526.5 -242.5 Q527.0 -258.5 527.0 -266.5 527.0 -398.0 459.5 -470.5 392.0 -543.0 285.5 -543.0 175.5 -543.0 106.5 -469.0 37.5 -395.0 37.5 -261.0 37.5 -131.5 106.0 -59.5 174.0 12.0 290.5 12.0 383.0 12.0 442.5 -33.0 502.0 -78.0 524.0 -159.5 L431.0 -171.0" fill-rule="evenodd" stroke="none"/>
    </g>
    <g id="font_Arial_u0">
      <path d="M415.5 0.0 L496.0 0.0 496.0 -531.0 406.0 -531.0 406.0 -246.5 Q406.0 -178.5 391.5 -142.5 376.5 -107.0 341.0 -86.0 305.5 -65.5 265.0 -65.5 224.5 -65.5 197.0 -85.5 169.5 -106.0 161.0 -141.5 155.5 -166.0 155.5 -236.5 L155.5 -531.0 65.5 -531.0 65.5 -202.0 Q65.5 -144.5 71.0 -118.0 79.0 -78.5 99.0 -51.0 118.5 -24.0 159.5 -6.0 200.0 12.0 247.0 12.0 353.5 12.0 415.5 -78.0 L415.5 0.0" fill-rule="evenodd" stroke="none"/>
    </g>
    <g id="font_Arial_m0">
      <path d="M67.5 0.0 L157.5 0.0 157.5 -275.5 Q157.5 -348.0 172.0 -386.5 186.5 -425.0 219.0 -445.0 251.0 -465.0 289.0 -465.0 339.0 -465.0 361.0 -435.0 383.0 -405.0 383.0 -345.0 L383.0 0.0 473.0 0.0 473.0 -308.5 Q473.0 -390.5 510.0 -427.5 547.0 -465.0 603.0 -465.0 634.0 -465.0 657.0 -450.5 680.0 -436.0 689.0 -412.0 697.5 -388.5 697.5 -334.5 L697.5 0.0 787.0 0.0 787.0 -364.5 Q787.0 -455.5 744.5 -499.0 702.0 -543.0 623.0 -543.0 522.0 -543.0 459.0 -450.0 443.5 -494.0 406.0 -518.5 368.0 -543.0 309.0 -543.0 256.0 -543.0 214.5 -519.0 173.0 -495.5 148.0 -456.5 L148.0 -531.0 67.5 -531.0 67.5 0.0" fill-rule="evenodd" stroke="none"/>
    </g>
    <g id="font_Arial_b0">
      <path d="M149.5 -269.5 Q149.5 -366.5 192.5 -417.5 235.5 -469.0 294.5 -469.0 353.0 -469.0 394.5 -419.5 435.5 -370.0 435.5 -266.0 435.5 -164.5 392.5 -113.0 349.5 -62.0 290.5 -62.0 218.0 -62.0 175.5 -131.5 149.5 -174.0 149.5 -269.5 M150.5 0.0 L150.5 -66.5 Q204.0 12.0 298.0 12.0 392.5 12.0 460.0 -62.5 527.5 -137.0 527.5 -273.5 527.5 -331.0 511.5 -381.5 495.5 -432.0 467.5 -467.5 439.0 -503.5 395.5 -523.0 351.5 -543.0 302.5 -543.0 214.0 -543.0 157.0 -471.5 L157.0 -733.0 67.0 -733.0 67.0 0.0 150.5 0.0" fill-rule="evenodd" stroke="none"/>
    </g>
    <g id="font_Arial_r0">
      <path d="M66.5 0.0 L156.5 0.0 156.5 -278.0 Q156.5 -335.0 171.5 -383.0 181.5 -414.5 205.0 -432.0 228.5 -450.0 258.0 -450.0 291.0 -450.0 324.0 -430.5 L355.0 -514.0 Q308.0 -543.0 262.5 -543.0 231.0 -543.0 205.0 -525.0 178.5 -507.0 147.5 -450.5 L147.5 -531.0 66.5 -531.0 66.5 0.0" fill-rule="evenodd" stroke="none"/>
    </g>
    <g id="text2" transform="matrix(1.0, 0.0, 0.0, 1.0, 1.0, 0.45)">
      <g transform="matrix(1.0, 0.0, 0.0, 1.0, -2.0, -2.0)">
        <use fill="#ffff00" height="39.9" transform="matrix(0.0195, 0.0, 0.0, 0.0195, 0.0, 18.0)" width="151.3" xlink:href="#font_Arial_C0"/>
        <use fill="#ffff00" height="39.9" transform="matrix(0.0195, 0.0, 0.0, 0.0195, 14.45, 18.0)" width="151.3" xlink:href="#font_Arial_u0"/>
        <use fill="#ffff00" height="39.9" transform="matrix(0.0195, 0.0, 0.0, 0.0195, 25.55, 18.0)" width="151.3" xlink:href="#font_Arial_r0"/>
        <use fill="#ffff00" height="39.9" transform="matrix(0.0195, 0.0, 0.0, 0.0195, 32.2, 18.0)" width="151.3" xlink:href="#font_Arial_r0"/>
        <use fill="#ffff00" height="39.9" transform="matrix(0.0195, 0.0, 0.0, 0.0195, 38.85, 18.0)" width="151.3" xlink:href="#font_Arial_e0"/>
        <use fill="#ffff00" height="39.9" transform="matrix(0.0195, 0.0, 0.0, 0.0195, 49.95, 18.0)" width="151.3" xlink:href="#font_Arial_n0"/>
        <use fill="#ffff00" height="39.9" transform="matrix(0.0195, 0.0, 0.0, 0.0195, 61.05, 18.0)" width="151.3" xlink:href="#font_Arial_t0"/>
        <use fill="#ffff00" height="39.9" transform="matrix(0.0195, 0.0, 0.0, 0.0195, 72.15, 18.0)" width="151.3" xlink:href="#font_Arial_P0"/>
        <use fill="#ffff00" height="39.9" transform="matrix(0.0195, 0.0, 0.0, 0.0195, 85.5, 18.0)" width="151.3" xlink:href="#font_Arial_l0"/>
        <use fill="#ffff00" height="39.9" transform="matrix(0.0195, 0.0, 0.0, 0.0195, 89.95, 18.0)" width="151.3" xlink:href="#font_Arial_a0"/>
        <use fill="#ffff00" height="39.9" transform="matrix(0.0195, 0.0, 0.0, 0.0195, 101.05, 18.0)" width="151.3" xlink:href="#font_Arial_y0"/>
        <use fill="#ffff00" height="39.9" transform="matrix(0.0195, 0.0, 0.0, 0.0195, 111.05, 18.0)" width="151.3" xlink:href="#font_Arial_e0"/>
        <use fill="#ffff00" height="39.9" transform="matrix(0.0195, 0.0, 0.0, 0.0195, 122.15, 18.0)" width="151.3" xlink:href="#font_Arial_r0"/>
        <use fill="#ffff00" height="39.9" transform="matrix(0.0195, 0.0, 0.0, 0.0195, 128.8, 18.0)" width="151.3" xlink:href="#font_Arial_s0"/>
      </g>
    </g>
    <g id="font_Arial_t0">
      <path d="M264.0 -80.5 Q239.5 -77.0 224.5 -77.0 204.5 -77.0 194.0 -83.5 183.0 -90.0 178.5 -101.0 173.5 -112.0 173.5 -150.5 L173.5 -461.0 264.0 -461.0 264.0 -531.0 173.5 -531.0 173.5 -716.5 84.0 -662.5 84.0 -531.0 18.0 -531.0 18.0 -461.0 84.0 -461.0 84.0 -155.5 Q84.0 -74.5 95.0 -49.0 106.0 -24.0 133.0 -8.5 160.0 7.0 209.0 7.0 239.0 7.0 277.0 -1.0 L264.0 -80.5" fill-rule="evenodd" stroke="none"/>
    </g>
    <g id="font_Arial_P0">
      <path d="M176.0 -384.5 L176.0 -646.5 363.5 -646.5 Q429.5 -646.5 454.0 -640.0 492.0 -629.5 515.5 -596.5 538.5 -564.0 538.5 -518.0 538.5 -454.5 499.0 -419.5 459.5 -384.5 365.5 -384.5 L176.0 -384.5 M79.0 0.0 L176.0 0.0 176.0 -298.0 364.0 -298.0 Q519.5 -298.0 579.0 -362.5 638.5 -427.5 638.5 -521.0 638.5 -575.5 616.5 -621.0 594.0 -666.5 557.5 -691.5 521.0 -717.0 467.0 -726.0 428.5 -733.0 355.5 -733.0 L79.0 -733.0 79.0 0.0" fill-rule="evenodd" stroke="none"/>
    </g>
    <g id="font_Arial_l0">
      <path d="M65.5 0.0 L155.5 0.0 155.5 -733.0 65.5 -733.0 65.5 0.0" fill-rule="evenodd" stroke="none"/>
    </g>
    <g id="font_Arial_a0">
      <path d="M406.5 -266.5 L406.5 -233.5 Q406.5 -174.0 392.0 -143.5 373.0 -104.0 332.5 -81.0 292.0 -58.5 240.0 -58.5 187.5 -58.5 160.5 -82.5 133.0 -106.5 133.0 -142.5 133.0 -166.0 145.5 -185.0 158.0 -204.5 181.0 -214.5 204.0 -224.5 259.5 -232.5 357.5 -246.5 406.5 -266.5 M414.0 -65.5 Q418.0 -28.0 432.0 0.0 L526.0 0.0 Q509.0 -30.5 503.5 -63.5 497.5 -97.0 497.5 -222.5 L497.5 -342.5 Q497.5 -402.5 493.0 -425.5 485.0 -462.5 465.0 -486.5 445.0 -511.0 402.5 -527.0 360.0 -543.0 292.0 -543.0 223.5 -543.0 171.5 -524.0 119.5 -505.5 92.0 -470.5 64.5 -436.0 52.5 -379.5 L140.5 -367.5 Q155.0 -424.0 185.5 -446.0 215.5 -468.5 279.0 -468.5 347.0 -468.5 381.5 -438.0 407.0 -415.5 407.0 -360.5 407.0 -355.5 406.5 -337.0 355.0 -319.0 246.0 -306.0 192.5 -299.5 166.0 -292.5 130.0 -282.5 101.5 -263.0 72.5 -243.5 55.0 -211.0 37.0 -179.0 37.0 -140.0 37.0 -73.5 84.0 -30.5 131.0 12.0 218.5 12.0 271.5 12.0 318.0 -5.5 364.0 -23.0 414.0 -65.5" fill-rule="evenodd" stroke="none"/>
    </g>
    <g id="font_Arial_y0">
      <path d="M63.5 204.5 Q95.5 215.5 121.5 215.5 164.5 215.5 195.5 195.0 226.5 174.0 250.5 129.5 268.5 96.5 301.0 9.0 L503.0 -531.0 413.0 -531.0 299.5 -221.5 Q278.0 -162.5 262.5 -100.5 245.5 -165.0 224.0 -223.5 L113.5 -531.0 16.5 -531.0 218.0 1.0 Q212.5 15.5 210.0 23.0 191.0 76.5 182.5 90.0 171.0 108.0 153.0 118.0 135.0 128.0 105.0 128.0 83.0 128.0 53.5 120.0 L63.5 204.5" fill-rule="evenodd" stroke="none"/>
    </g>
    <g id="font_Arial_s0">
      <path d="M31.5 -158.5 Q46.5 -74.0 101.0 -31.0 155.0 12.0 258.5 12.0 321.0 12.0 370.5 -9.5 420.0 -31.5 446.5 -71.0 472.5 -111.0 472.5 -156.0 472.5 -202.0 451.0 -233.0 429.5 -264.0 392.0 -280.0 354.0 -296.5 258.5 -322.0 192.5 -340.0 179.0 -345.0 155.5 -354.5 144.5 -369.0 133.5 -383.0 133.5 -400.5 133.5 -428.0 160.0 -448.5 186.5 -469.0 248.5 -469.0 301.0 -469.0 330.0 -446.0 358.5 -423.0 364.5 -382.0 L452.5 -394.0 Q444.0 -445.5 421.5 -476.0 399.0 -507.0 352.0 -525.0 304.5 -543.0 242.0 -543.0 200.5 -543.0 164.5 -532.0 128.0 -521.5 107.0 -506.0 79.0 -486.0 63.0 -455.5 46.5 -425.5 46.5 -390.0 46.5 -351.0 66.5 -318.5 86.0 -286.5 124.5 -268.0 162.5 -250.0 261.5 -225.0 335.0 -206.5 353.5 -194.5 380.0 -177.0 380.0 -146.5 380.0 -112.5 350.0 -87.0 320.0 -62.0 258.0 -62.0 196.5 -62.0 162.5 -90.5 128.0 -119.0 120.5 -172.5 L31.5 -158.5" fill-rule="evenodd" stroke="none"/>
    </g>
    <g id="sprite0" transform="matrix(1.0, 0.0, 0.0, 1.0, -4.0, 5.45)">
      <use data-characterId="1268" height="42.85" id="enterzonebutton" transform="matrix(1.0, 0.0, 0.0, 1.0, 340.9, -3.5)" width="141.0" xlink:href="#button0"/>
      <use data-characterId="1269" height="41.1" id="zonename" transform="matrix(1.0, 0.0, 0.0, 1.0, 4.0, -2.5)" width="247.4" xlink:href="#text4"/>
      <use data-characterId="1270" height="41.1" id="players" transform="matrix(1.0, 0.0, 0.0, 1.0, 237.5, -2.5)" width="105.6" xlink:href="#text5"/>
      <use data-characterId="1271" height="30.7" transform="matrix(1.0, 0.0, 0.0, 1.0, 7.75, -5.45)" width="466.2" xlink:href="#shape5"/>
    </g>
    <g id="button0" transform="matrix(1.0, 0.0, 0.0, 1.0, 0.5, 0.5)">
      <use data-characterId="1265" height="27.0" transform="matrix(1.0, 0.0, 0.0, 1.0, -0.5, -0.5)" width="141.0" xlink:href="#shape4"/>
      <use data-characterId="1266" height="39.65" transform="matrix(1.0, 0.0, 0.0, 1.0, 37.1, 2.7)" width="79.7" xlink:href="#text3"/>
    </g>
    <g id="shape4" transform="matrix(1.0, 0.0, 0.0, 1.0, 0.5, 0.5)">
      <path d="M135.6 2.1 Q140.0 6.5 140.0 12.7 140.0 18.9 135.6 23.3 L133.0 26.0 7.0 26.0 4.4 23.6 Q0.0 19.2 0.0 13.0 0.0 6.8 4.4 2.4 L7.0 0.0 131.0 0.0 Q134.35 0.85 135.6 2.1" fill="url(#gradient1)" fill-rule="evenodd" stroke="none"/>
      <path d="M135.6 2.1 Q134.35 0.85 131.0 0.0 L7.0 0.0 4.4 2.4 Q0.0 6.8 0.0 13.0 0.0 19.2 4.4 23.6 L7.0 26.0 133.0 26.0 135.6 23.3 Q140.0 18.9 140.0 12.7 140.0 6.5 135.6 2.1 Z" fill="none" stroke="#333333" stroke-linecap="butt" stroke-linejoin="miter-clip" stroke-miterlimit="3.0" stroke-width="1.0"/>
    </g>
    <radialGradient cx="0" cy="0" gradientTransform="matrix(0.0854, 0.0, 0.0, 0.0854, 70.0, 13.0)" gradientUnits="userSpaceOnUse" id="gradient1" r="819.2" spreadMethod="pad">
      <stop offset="0.0" stop-color="#e9ffe6"/>
      <stop offset="0.4" stop-color="#bfc0be"/>
      <stop offset="0.7647058823529411" stop-color="#9d9d9d"/>
      <stop offset="1.0" stop-color="#737373"/>
    </radialGradient>
    <g id="text3" transform="matrix(1.0, 0.0, 0.0, 1.0, -16.6, 0.2)">
      <g transform="matrix(1.0, 0.0, 0.0, 1.0, 15.0, -2.0)">
        <use fill="#003300" height="39.65" transform="matrix(0.0195, 0.0, 0.0, 0.0195, 0.0, 18.0)" width="79.7" xlink:href="#font_Arial_E0"/>
        <use fill="#003300" height="39.65" transform="matrix(0.0195, 0.0, 0.0, 0.0195, 13.35, 18.0)" width="79.7" xlink:href="#font_Arial_N0"/>
        <use fill="#003300" height="39.65" transform="matrix(0.0195, 0.0, 0.0, 0.0195, 27.8, 18.0)" width="79.7" xlink:href="#font_Arial_T0"/>
        <use fill="#003300" height="39.65" transform="matrix(0.0195, 0.0, 0.0, 0.0195, 40.0, 18.0)" width="79.7" xlink:href="#font_Arial_E0"/>
        <use fill="#003300" height="39.65" transform="matrix(0.0195, 0.0, 0.0, 0.0195, 53.35, 18.0)" width="79.7" xlink:href="#font_Arial_R0"/>
      </g>
    </g>
    <g id="font_Arial_R0">
      <path d="M177.5 -409.5 L177.5 -652.0 409.5 -652.0 Q491.0 -652.0 529.0 -618.5 566.5 -585.0 566.5 -533.0 566.5 -497.5 547.0 -467.0 527.5 -437.0 490.0 -423.0 452.5 -409.5 386.0 -409.5 L177.5 -409.5 M80.5 0.0 L177.5 0.0 177.5 -325.5 290.0 -325.5 Q327.5 -325.5 344.0 -322.0 366.5 -316.5 388.5 -302.5 410.0 -288.5 437.5 -253.5 465.0 -218.5 507.5 -152.5 L604.5 0.0 726.5 0.0 599.0 -199.5 Q561.0 -258.0 518.5 -297.0 498.5 -315.0 460.0 -333.5 565.5 -348.0 616.0 -401.5 666.5 -455.0 666.5 -533.0 666.5 -593.5 636.0 -643.5 605.5 -693.5 554.5 -713.0 503.5 -733.0 405.5 -733.0 L80.5 -733.0 80.5 0.0" fill-rule="evenodd" stroke="none"/>
    </g>
    <g id="text4" transform="matrix(1.0, 0.0, 0.0, 1.0, 4.0, 2.0)">
      <g transform="matrix(1.0, 0.0, 0.0, 1.0, -4.0, -2.0)">
        <use fill="#ffffcc" height="41.1" transform="matrix(0.0156, 0.0, 0.0, 0.0156, 0.0, 15.05)" width="247.4" xlink:href="#font_Trebuchet_MS_h0"/>
        <use fill="#ffffcc" height="41.1" transform="matrix(0.0156, 0.0, 0.0, 0.0156, 8.75, 15.05)" width="247.4" xlink:href="#font_Trebuchet_MS_o0"/>
        <use fill="#ffffcc" height="41.1" transform="matrix(0.0156, 0.0, 0.0, 0.0156, 17.35, 15.05)" width="247.4" xlink:href="#font_Trebuchet_MS_l0"/>
        <use fill="#ffffcc" height="41.1" transform="matrix(0.0156, 0.0, 0.0, 0.0156, 22.05, 15.05)" width="247.4" xlink:href="#font_Trebuchet_MS_d0"/>
        <use fill="#ffffcc" height="41.1" transform="matrix(0.0156, 0.0, 0.0, 0.0156, 30.95, 15.05)" width="247.4" xlink:href="#font_Trebuchet_MS_e0"/>
        <use fill="#ffffcc" height="41.1" transform="matrix(0.0156, 0.0, 0.0, 0.0156, 39.7, 15.05)" width="247.4" xlink:href="#font_Trebuchet_MS_r0"/>
      </g>
    </g>
    <g id="font_Trebuchet_MS_h0">
      <path d="M397.5 0.0 L492.5 0.0 492.5 -336.5 Q492.5 -433.5 444.5 -489.5 396.0 -545.5 311.0 -545.5 266.0 -545.5 224.0 -525.5 181.5 -506.0 162.5 -476.5 L162.5 -755.0 67.5 -755.0 67.5 0.0 162.5 0.0 162.5 -398.0 Q181.0 -425.0 216.0 -445.0 250.5 -465.5 285.0 -465.5 338.5 -465.5 368.0 -431.0 397.5 -396.5 397.5 -336.5 L397.5 0.0" fill-rule="evenodd" stroke="none"/>
    </g>
    <g id="font_Trebuchet_MS_o0">
      <path d="M132.5 -269.0 Q132.5 -362.0 171.5 -415.0 210.0 -468.0 275.0 -468.0 417.0 -468.0 417.0 -269.0 417.0 -175.5 379.5 -121.5 341.5 -67.5 275.0 -67.5 132.5 -67.5 132.5 -269.0 M32.5 -269.0 Q32.5 -141.0 96.5 -65.5 160.5 10.0 275.0 10.0 387.0 10.0 452.0 -64.5 517.0 -139.5 517.0 -269.0 517.0 -399.0 453.5 -472.0 390.0 -545.5 275.0 -545.5 166.0 -545.5 99.5 -469.0 32.5 -393.0 32.5 -269.0" fill-rule="evenodd" stroke="none"/>
    </g>
    <g id="font_Trebuchet_MS_l0">
      <path d="M75.0 -151.5 Q75.0 10.0 259.5 10.0 L259.5 -75.0 Q219.5 -75.0 195.0 -99.5 170.0 -124.5 170.0 -167.5 L170.0 -755.0 75.0 -755.0 75.0 -151.5" fill-rule="evenodd" stroke="none"/>
    </g>
    <g id="font_Trebuchet_MS_d0">
      <path d="M407.0 -411.5 L407.0 -114.5 Q399.0 -98.5 367.5 -84.0 336.0 -70.0 313.5 -70.0 137.5 -70.0 137.5 -263.5 137.5 -351.5 185.0 -408.5 232.0 -465.5 308.5 -465.5 371.0 -465.5 407.0 -411.5 M407.0 -0.5 L502.0 -0.5 502.0 -755.0 407.0 -755.0 407.0 -506.5 Q364.0 -545.5 281.0 -545.5 181.5 -545.5 109.5 -460.0 37.5 -375.0 37.5 -254.5 37.5 -134.5 100.0 -62.5 162.5 9.5 263.0 9.5 357.5 9.5 407.0 -40.0 L407.0 -0.5" fill-rule="evenodd" stroke="none"/>
    </g>
    <g id="font_Trebuchet_MS_e0">
      <path d="M288.0 -465.5 Q356.0 -465.5 395.5 -423.5 431.5 -385.0 431.5 -327.5 L135.0 -327.5 Q140.5 -385.5 181.5 -424.5 224.5 -465.5 288.0 -465.5 M518.5 -258.5 Q526.0 -285.0 526.0 -316.5 526.0 -419.0 463.0 -481.0 398.0 -545.5 283.5 -545.5 185.0 -545.5 113.0 -474.0 32.5 -394.0 32.5 -261.5 32.5 -134.0 111.0 -58.5 181.5 10.0 282.5 10.0 352.5 10.0 409.5 -11.0 455.0 -27.0 477.0 -49.0 L437.0 -117.5 Q382.5 -70.0 301.0 -70.0 229.5 -70.0 184.0 -114.0 132.5 -164.5 132.5 -258.5 L518.5 -258.5" fill-rule="evenodd" stroke="none"/>
    </g>
    <g id="font_Trebuchet_MS_r0">
      <path d="M358.5 -444.0 L398.0 -536.5 Q350.0 -545.5 324.5 -545.5 222.0 -545.5 170.0 -450.0 L170.0 -535.5 75.0 -535.5 75.0 0.0 170.0 0.0 170.0 -307.0 Q170.0 -372.5 208.0 -419.0 245.5 -465.5 296.0 -465.5 327.5 -465.5 358.5 -444.0" fill-rule="evenodd" stroke="none"/>
    </g>
    <g id="text5" transform="matrix(1.0, 0.0, 0.0, 1.0, 4.0, 2.0)">
      <g transform="matrix(1.0, 0.0, 0.0, 1.0, -4.0, -2.0)">
        <use fill="#ffffcc" height="41.1" transform="matrix(0.0156, 0.0, 0.0, 0.0156, 0.0, 15.05)" width="105.6" xlink:href="#font_Trebuchet_MS_h0"/>
        <use fill="#ffffcc" height="41.1" transform="matrix(0.0156, 0.0, 0.0, 0.0156, 8.75, 15.05)" width="105.6" xlink:href="#font_Trebuchet_MS_o0"/>
        <use fill="#ffffcc" height="41.1" transform="matrix(0.0156, 0.0, 0.0, 0.0156, 17.35, 15.05)" width="105.6" xlink:href="#font_Trebuchet_MS_l0"/>
        <use fill="#ffffcc" height="41.1" transform="matrix(0.0156, 0.0, 0.0, 0.0156, 22.05, 15.05)" width="105.6" xlink:href="#font_Trebuchet_MS_d0"/>
        <use fill="#ffffcc" height="41.1" transform="matrix(0.0156, 0.0, 0.0, 0.0156, 30.95, 15.05)" width="105.6" xlink:href="#font_Trebuchet_MS_e0"/>
        <use fill="#ffffcc" height="41.1" transform="matrix(0.0156, 0.0, 0.0, 0.0156, 39.7, 15.05)" width="105.6" xlink:href="#font_Trebuchet_MS_r0"/>
      </g>
    </g>
    <g id="shape5" transform="matrix(1.0, 0.0, 0.0, 1.0, -7.75, 5.45)">
      <path d="M471.95 -4.95 L8.25 -4.95" fill="none" stroke="#111111" stroke-linecap="butt" stroke-linejoin="miter-clip" stroke-miterlimit="3.0" stroke-width="1.0"/>
      <path d="M473.45 24.75 L9.75 24.75" fill="none" stroke="#111111" stroke-linecap="butt" stroke-linejoin="miter-clip" stroke-miterlimit="3.0" stroke-width="1.0"/>
    </g>
    <g id="text6" transform="matrix(1.0, 0.0, 0.0, 1.0, 0.6, 0.8)">
      <g transform="matrix(1.0, 0.0, 0.0, 1.0, -2.0, -2.2)">
        <use fill="#0099ff" height="36.0" transform="matrix(0.0176, 0.0, 0.0, 0.0176, 0.0, 16.0)" width="167.85" xlink:href="#font_Arial_D0"/>
        <use fill="#0099ff" height="36.0" transform="matrix(0.0176, 0.0, 0.0, 0.0176, 13.0, 16.0)" width="167.85" xlink:href="#font_Arial_e0"/>
        <use fill="#0099ff" height="36.0" transform="matrix(0.0176, 0.0, 0.0, 0.0176, 23.0, 16.0)" width="167.85" xlink:href="#font_Arial_a0"/>
        <use fill="#0099ff" height="36.0" transform="matrix(0.0176, 0.0, 0.0, 0.0176, 33.0, 16.0)" width="167.85" xlink:href="#font_Arial_t0"/>
        <use fill="#0099ff" height="36.0" transform="matrix(0.0176, 0.0, 0.0, 0.0176, 38.0, 16.0)" width="167.85" xlink:href="#font_Arial_h0"/>
        <use fill="#0099ff" height="36.0" transform="matrix(0.0176, 0.0, 0.0, 0.0176, 53.0, 16.0)" width="167.85" xlink:href="#font_Arial_M0"/>
        <use fill="#0099ff" height="36.0" transform="matrix(0.0176, 0.0, 0.0, 0.0176, 68.0, 16.0)" width="167.85" xlink:href="#font_Arial_a0"/>
        <use fill="#0099ff" height="36.0" transform="matrix(0.0176, 0.0, 0.0, 0.0176, 78.0, 16.0)" width="167.85" xlink:href="#font_Arial_t0"/>
        <use fill="#0099ff" height="36.0" transform="matrix(0.0176, 0.0, 0.0, 0.0176, 83.0, 16.0)" width="167.85" xlink:href="#font_Arial_c0"/>
        <use fill="#0099ff" height="36.0" transform="matrix(0.0176, 0.0, 0.0, 0.0176, 92.0, 16.0)" width="167.85" xlink:href="#font_Arial_h0"/>
        <use fill="#0099ff" height="36.0" transform="matrix(0.0176, 0.0, 0.0, 0.0176, 107.0, 16.0)" width="167.85" xlink:href="#font_Arial_Z0"/>
        <use fill="#0099ff" height="36.0" transform="matrix(0.0176, 0.0, 0.0, 0.0176, 118.0, 16.0)" width="167.85" xlink:href="#font_Arial_o0"/>
        <use fill="#0099ff" height="36.0" transform="matrix(0.0176, 0.0, 0.0, 0.0176, 128.0, 16.0)" width="167.85" xlink:href="#font_Arial_n0"/>
        <use fill="#0099ff" height="36.0" transform="matrix(0.0176, 0.0, 0.0, 0.0176, 138.0, 16.0)" width="167.85" xlink:href="#font_Arial_e0"/>
        <use fill="#0099ff" height="36.0" transform="matrix(0.0176, 0.0, 0.0, 0.0176, 148.0, 16.0)" width="167.85" xlink:href="#font_Arial_s0"/>
      </g>
    </g>
    <g id="font_Arial_D0">
      <path d="M176.0 -86.5 L176.0 -646.5 330.0 -646.5 Q416.5 -646.5 455.5 -631.5 509.5 -610.5 547.5 -548.5 585.0 -487.0 585.0 -372.0 585.0 -289.0 566.0 -230.5 546.5 -172.5 512.0 -138.0 487.5 -113.5 446.5 -100.0 405.0 -86.5 332.5 -86.5 L176.0 -86.5 M79.0 0.0 L343.5 0.0 Q410.0 0.0 461.5 -12.5 512.5 -25.0 549.0 -49.0 585.0 -73.5 615.5 -115.5 646.0 -158.0 665.5 -222.5 685.0 -287.0 685.0 -370.5 685.0 -468.5 656.5 -544.5 627.5 -621.0 569.5 -670.0 525.0 -708.0 462.0 -722.5 417.0 -733.0 331.5 -733.0 L79.0 -733.0 79.0 0.0" fill-rule="evenodd" stroke="none"/>
    </g>
    <g id="font_Arial_h0">
      <path d="M67.5 0.0 L157.5 0.0 157.5 -290.5 Q157.5 -353.0 172.5 -388.5 187.5 -424.0 223.0 -444.5 258.0 -465.5 298.0 -465.5 351.5 -465.5 381.0 -434.5 410.0 -404.0 410.0 -336.5 L410.0 0.0 500.0 0.0 500.0 -336.5 Q500.0 -414.5 481.5 -455.5 462.5 -496.5 419.0 -519.5 375.5 -543.0 316.5 -543.0 220.5 -543.0 157.5 -470.0 L157.5 -733.0 67.5 -733.0 67.5 0.0" fill-rule="evenodd" stroke="none"/>
    </g>
    <g id="font_Arial_M0">
      <path d="M76.0 0.0 L169.5 0.0 169.5 -624.0 381.5 0.0 469.0 0.0 682.0 -613.5 682.0 0.0 775.5 0.0 775.5 -733.0 645.0 -733.0 469.5 -223.0 Q443.0 -145.5 430.5 -105.5 419.5 -141.5 395.5 -214.0 L222.0 -733.0 76.0 -733.0 76.0 0.0" fill-rule="evenodd" stroke="none"/>
    </g>
    <g id="font_Arial_c0">
      <path d="M414.0 -194.5 Q404.5 -127.0 369.0 -94.5 333.5 -62.0 280.5 -62.0 214.5 -62.0 173.5 -110.5 132.5 -159.0 132.5 -266.0 132.5 -371.5 175.0 -420.0 217.5 -469.0 285.5 -469.0 330.5 -469.0 362.5 -442.0 394.0 -415.0 406.5 -361.5 L494.0 -375.0 Q478.5 -455.5 423.5 -499.0 368.5 -543.0 282.0 -543.0 213.5 -543.0 155.5 -510.5 97.0 -478.5 68.5 -414.0 40.0 -349.5 40.0 -263.5 40.0 -130.5 106.5 -59.0 172.5 12.0 281.5 12.0 368.5 12.0 428.5 -39.5 488.0 -91.5 502.5 -183.0 L414.0 -194.5" fill-rule="evenodd" stroke="none"/>
    </g>
    <g id="text7" transform="matrix(1.0, 0.0, 0.0, 1.0, 0.65, 0.8)">
      <g transform="matrix(1.0, 0.0, 0.0, 1.0, -2.0, -2.2)">
        <use fill="#0099ff" height="36.0" transform="matrix(0.0176, 0.0, 0.0, 0.0176, 0.0, 16.0)" width="157.9" xlink:href="#font_Arial_N0"/>
        <use fill="#0099ff" height="36.0" transform="matrix(0.0176, 0.0, 0.0, 0.0176, 13.0, 16.0)" width="157.9" xlink:href="#font_Arial_e0"/>
        <use fill="#0099ff" height="36.0" transform="matrix(0.0176, 0.0, 0.0, 0.0176, 23.0, 16.0)" width="157.9" xlink:href="#font_Arial_w0"/>
        <use fill="#0099ff" height="36.0" transform="matrix(0.0176, 0.0, 0.0, 0.0176, 41.0, 16.0)" width="157.9" xlink:href="#font_Arial_P0"/>
        <use fill="#0099ff" height="36.0" transform="matrix(0.0176, 0.0, 0.0, 0.0176, 53.0, 16.0)" width="157.9" xlink:href="#font_Arial_l0"/>
        <use fill="#0099ff" height="36.0" transform="matrix(0.0176, 0.0, 0.0, 0.0176, 57.0, 16.0)" width="157.9" xlink:href="#font_Arial_a0"/>
        <use fill="#0099ff" height="36.0" transform="matrix(0.0176, 0.0, 0.0, 0.0176, 67.0, 16.0)" width="157.9" xlink:href="#font_Arial_y0"/>
        <use fill="#0099ff" height="36.0" transform="matrix(0.0176, 0.0, 0.0, 0.0176, 76.0, 16.0)" width="157.9" xlink:href="#font_Arial_e0"/>
        <use fill="#0099ff" height="36.0" transform="matrix(0.0176, 0.0, 0.0, 0.0176, 86.0, 16.0)" width="157.9" xlink:href="#font_Arial_r0"/>
        <use fill="#0099ff" height="36.0" transform="matrix(0.0176, 0.0, 0.0, 0.0176, 97.0, 16.0)" width="157.9" xlink:href="#font_Arial_Z0"/>
        <use fill="#0099ff" height="36.0" transform="matrix(0.0176, 0.0, 0.0, 0.0176, 108.0, 16.0)" width="157.9" xlink:href="#font_Arial_o0"/>
        <use fill="#0099ff" height="36.0" transform="matrix(0.0176, 0.0, 0.0, 0.0176, 118.0, 16.0)" width="157.9" xlink:href="#font_Arial_n0"/>
        <use fill="#0099ff" height="36.0" transform="matrix(0.0176, 0.0, 0.0, 0.0176, 128.0, 16.0)" width="157.9" xlink:href="#font_Arial_e0"/>
        <use fill="#0099ff" height="36.0" transform="matrix(0.0176, 0.0, 0.0, 0.0176, 138.0, 16.0)" width="157.9" xlink:href="#font_Arial_s0"/>
      </g>
    </g>
    <g id="font_Arial_w0">
      <path d="M165.5 0.0 L259.5 0.0 367.0 -408.5 387.5 -318.0 472.0 0.0 565.5 0.0 731.5 -531.0 644.0 -531.0 553.0 -224.0 522.5 -121.5 496.0 -223.0 416.5 -531.0 324.0 -531.0 239.5 -220.0 Q214.0 -119.0 212.0 -110.5 L180.5 -224.5 96.0 -531.0 3.0 -531.0 165.5 0.0" fill-rule="evenodd" stroke="none"/>
    </g>
    <g id="text8" transform="matrix(1.0, 0.0, 0.0, 1.0, 1.2, 1.0)">
      <g transform="matrix(1.0, 0.0, 0.0, 1.0, -2.0, -2.2)">
        <use fill="#0099ff" height="36.2" transform="matrix(0.0176, 0.0, 0.0, 0.0176, 0.0, 16.0)" width="144.45" xlink:href="#font_Arial_S0"/>
        <use fill="#0099ff" height="36.2" transform="matrix(0.0176, 0.0, 0.0, 0.0176, 12.0, 16.0)" width="144.45" xlink:href="#font_Arial_t0"/>
        <use fill="#0099ff" height="36.2" transform="matrix(0.0176, 0.0, 0.0, 0.0176, 17.0, 16.0)" width="144.45" xlink:href="#font_Arial_a0"/>
        <use fill="#0099ff" height="36.2" transform="matrix(0.0176, 0.0, 0.0, 0.0176, 27.0, 16.0)" width="144.45" xlink:href="#font_Arial_n0"/>
        <use fill="#0099ff" height="36.2" transform="matrix(0.0176, 0.0, 0.0, 0.0176, 37.0, 16.0)" width="144.45" xlink:href="#font_Arial_d0"/>
        <use fill="#0099ff" height="36.2" transform="matrix(0.0176, 0.0, 0.0, 0.0176, 47.0, 16.0)" width="144.45" xlink:href="#font_Arial_a0"/>
        <use fill="#0099ff" height="36.2" transform="matrix(0.0176, 0.0, 0.0, 0.0176, 57.0, 16.0)" width="144.45" xlink:href="#font_Arial_r0"/>
        <use fill="#0099ff" height="36.2" transform="matrix(0.0176, 0.0, 0.0, 0.0176, 63.0, 16.0)" width="144.45" xlink:href="#font_Arial_d0"/>
        <use fill="#0099ff" height="36.2" transform="matrix(0.0176, 0.0, 0.0, 0.0176, 83.0, 16.0)" width="144.45" xlink:href="#font_Arial_Z0"/>
        <use fill="#0099ff" height="36.2" transform="matrix(0.0176, 0.0, 0.0, 0.0176, 94.0, 16.0)" width="144.45" xlink:href="#font_Arial_o0"/>
        <use fill="#0099ff" height="36.2" transform="matrix(0.0176, 0.0, 0.0, 0.0176, 104.0, 16.0)" width="144.45" xlink:href="#font_Arial_n0"/>
        <use fill="#0099ff" height="36.2" transform="matrix(0.0176, 0.0, 0.0, 0.0176, 114.0, 16.0)" width="144.45" xlink:href="#font_Arial_e0"/>
        <use fill="#0099ff" height="36.2" transform="matrix(0.0176, 0.0, 0.0, 0.0176, 124.0, 16.0)" width="144.45" xlink:href="#font_Arial_s0"/>
      </g>
    </g>
    <g id="font_Arial_d0">
      <path d="M127.5 -265.0 Q127.5 -370.5 168.0 -419.5 208.0 -468.5 268.0 -468.5 329.5 -468.5 371.5 -417.5 413.5 -366.5 413.5 -257.5 413.5 -158.5 372.5 -110.0 331.0 -62.0 272.0 -62.0 213.5 -62.0 170.5 -112.5 127.5 -163.0 127.5 -265.0 M412.0 0.0 L495.5 0.0 495.5 -733.0 406.0 -733.0 406.0 -470.0 Q382.5 -502.5 345.0 -522.5 307.5 -543.0 259.5 -543.0 194.0 -543.0 141.0 -508.5 88.0 -474.0 61.5 -409.0 35.0 -344.5 35.0 -265.0 35.0 -183.5 64.5 -120.5 93.5 -58.0 147.0 -23.0 200.0 12.0 263.5 12.0 361.5 12.0 412.0 -67.0 L412.0 0.0" fill-rule="evenodd" stroke="none"/>
    </g>
    <g id="text9" transform="matrix(1.0, 0.0, 0.0, 1.0, 4.0, 2.0)">
      <g transform="matrix(1.0, 0.0, 0.0, 1.0, -4.0, -2.0)">
        <use fill="#00ff00" height="44.8" transform="matrix(0.0156, 0.0, 0.0, 0.0156, 53.85, 15.25)" width="175.6" xlink:href="#font_Source_Sans_Pro_r0"/>
        <use fill="#00ff00" height="44.8" transform="matrix(0.0156, 0.0, 0.0, 0.0156, 59.4, 15.25)" width="175.6" xlink:href="#font_Source_Sans_Pro_e0"/>
        <use fill="#00ff00" height="44.8" transform="matrix(0.0156, 0.0, 0.0, 0.0156, 67.4, 15.25)" width="175.6" xlink:href="#font_Source_Sans_Pro_f0"/>
        <use fill="#00ff00" height="44.8" transform="matrix(0.0156, 0.0, 0.0, 0.0156, 72.05, 15.25)" width="175.6" xlink:href="#font_Source_Sans_Pro_r0"/>
        <use fill="#00ff00" height="44.8" transform="matrix(0.0156, 0.0, 0.0, 0.0156, 77.6, 15.25)" width="175.6" xlink:href="#font_Source_Sans_Pro_e0"/>
        <use fill="#00ff00" height="44.8" transform="matrix(0.0156, 0.0, 0.0, 0.0156, 85.6, 15.25)" width="175.6" xlink:href="#font_Source_Sans_Pro_s0"/>
        <use fill="#00ff00" height="44.8" transform="matrix(0.0156, 0.0, 0.0, 0.0156, 92.3, 15.25)" width="175.6" xlink:href="#font_Source_Sans_Pro_h0"/>
        <use fill="#00ff00" height="44.8" transform="matrix(0.0156, 0.0, 0.0, 0.0156, 101.0, 15.25)" width="175.6" xlink:href="#font_Source_Sans_Pro_i0"/>
        <use fill="#00ff00" height="44.8" transform="matrix(0.0156, 0.0, 0.0, 0.0156, 104.95, 15.25)" width="175.6" xlink:href="#font_Source_Sans_Pro_n0"/>
        <use fill="#00ff00" height="44.8" transform="matrix(0.0156, 0.0, 0.0, 0.0156, 113.7, 15.25)" width="175.6" xlink:href="#font_Source_Sans_Pro_g0"/>
      </g>
    </g>
    <g id="font_Source_Sans_Pro_r0">
      <path d="M84.0 0.0 L84.0 -497.5 153.5 -497.5 161.0 -407.0 164.0 -407.0 Q189.5 -454.5 226.0 -481.5 262.5 -509.0 305.0 -509.5 321.0 -509.5 333.5 -507.0 346.5 -504.5 358.5 -499.5 L342.0 -425.5 Q330.0 -429.5 319.5 -431.5 309.0 -433.5 294.0 -433.5 261.5 -434.5 228.0 -408.0 194.0 -381.0 168.0 -319.0 L168.0 0.0 84.0 0.0" fill-rule="evenodd" stroke="none"/>
    </g>
    <g id="font_Source_Sans_Pro_e0">
      <path d="M129.0 -286.0 L395.5 -286.0 Q395.0 -362.0 363.0 -402.5 331.5 -442.5 272.5 -443.0 237.0 -443.0 206.5 -424.5 176.0 -406.0 155.0 -371.0 134.5 -336.0 129.0 -286.0 M47.0 -248.0 Q48.0 -329.5 79.5 -388.0 111.5 -446.5 162.0 -478.0 212.5 -509.0 270.5 -509.5 366.5 -508.0 417.5 -446.5 468.5 -384.5 469.0 -276.5 469.0 -263.5 468.0 -251.5 467.5 -240.0 466.0 -230.5 L130.0 -230.5 Q135.5 -149.0 179.5 -102.5 223.5 -56.5 296.0 -55.5 331.5 -55.5 362.0 -66.0 392.5 -76.5 420.0 -94.5 L449.5 -39.0 Q417.5 -18.0 377.0 -3.0 336.5 11.5 286.0 12.0 218.5 11.5 164.5 -19.0 111.0 -50.0 79.5 -108.0 48.0 -166.5 47.0 -248.0" fill-rule="evenodd" stroke="none"/>
    </g>
    <g id="font_Source_Sans_Pro_f0">
      <path d="M327.0 -724.5 L308.5 -660.0 Q294.5 -666.5 280.5 -669.5 266.0 -672.5 252.0 -672.5 217.0 -672.5 199.5 -648.0 182.5 -624.0 182.5 -576.5 L182.5 -497.5 288.0 -497.5 288.0 -429.0 182.5 -429.0 182.5 0.0 98.5 0.0 98.5 -429.0 31.0 -429.0 31.0 -492.5 98.5 -497.5 98.5 -576.5 Q98.5 -653.0 134.0 -696.5 169.5 -740.0 244.0 -741.0 267.0 -741.0 288.5 -736.0 310.0 -731.5 327.0 -724.5" fill-rule="evenodd" stroke="none"/>
    </g>
    <g id="font_Source_Sans_Pro_s0">
      <path d="M28.5 -56.5 L70.5 -113.0 Q102.5 -86.5 137.5 -70.0 173.0 -54.0 217.0 -53.5 266.5 -54.5 291.0 -76.0 315.5 -98.0 315.5 -131.0 315.0 -156.5 298.0 -173.5 281.5 -191.0 255.5 -203.0 229.5 -215.5 201.5 -225.0 165.5 -237.5 131.5 -255.0 98.0 -272.5 76.0 -299.5 54.0 -327.0 53.0 -368.5 53.0 -408.5 73.5 -440.5 94.0 -472.0 132.0 -490.5 170.0 -509.0 224.0 -509.5 271.5 -509.0 311.0 -493.0 350.5 -477.0 379.0 -453.0 L339.0 -400.0 Q314.0 -419.5 286.0 -431.5 258.0 -443.5 225.5 -444.0 178.5 -443.0 156.0 -422.5 134.0 -402.0 134.0 -372.5 134.5 -349.5 150.0 -334.5 166.0 -319.5 191.0 -308.0 216.0 -297.0 245.0 -286.5 281.5 -274.0 316.0 -256.5 350.5 -239.5 373.0 -211.0 395.5 -182.5 396.5 -136.5 396.5 -95.5 375.5 -62.0 354.5 -28.5 313.5 -8.5 273.0 11.5 214.0 12.0 160.5 11.5 112.5 -7.5 64.5 -27.0 28.5 -56.5" fill-rule="evenodd" stroke="none"/>
    </g>
    <g id="font_Source_Sans_Pro_h0">
      <path d="M84.0 0.0 L84.0 -729.0 168.0 -729.0 168.0 -530.0 165.0 -428.0 Q200.0 -462.5 240.0 -485.5 280.0 -508.5 331.0 -509.5 409.0 -509.0 446.0 -460.0 483.0 -410.5 482.5 -315.0 L482.5 0.0 398.5 0.0 398.5 -304.0 Q399.0 -373.5 376.0 -405.5 353.0 -437.5 304.5 -437.0 267.0 -437.0 235.5 -417.5 204.5 -398.0 168.0 -360.5 L168.0 0.0 84.0 0.0" fill-rule="evenodd" stroke="none"/>
    </g>
    <g id="font_Source_Sans_Pro_i0">
      <path d="M84.0 0.0 L84.0 -497.5 168.0 -497.5 168.0 0.0 84.0 0.0 M126.5 -600.0 Q101.5 -600.5 85.5 -615.0 69.0 -630.0 68.5 -654.5 69.0 -679.0 85.5 -693.5 101.5 -708.0 126.5 -708.5 152.0 -708.0 168.0 -693.5 184.5 -679.0 185.0 -654.5 184.5 -630.0 168.0 -615.0 152.0 -600.5 126.5 -600.0" fill-rule="evenodd" stroke="none"/>
    </g>
    <g id="font_Source_Sans_Pro_n0">
      <path d="M84.0 0.0 L84.0 -497.5 153.5 -497.5 161.0 -426.0 164.0 -426.0 Q199.0 -462.0 239.5 -485.0 280.0 -508.5 331.0 -509.5 409.0 -509.0 446.0 -460.0 483.0 -410.5 482.5 -315.0 L482.5 0.0 398.5 0.0 398.5 -304.0 Q399.0 -373.5 376.0 -405.5 353.0 -437.5 304.5 -437.0 267.0 -437.0 235.5 -417.5 204.5 -398.0 168.0 -360.5 L168.0 0.0 84.0 0.0" fill-rule="evenodd" stroke="none"/>
    </g>
    <g id="font_Source_Sans_Pro_g0">
      <path d="M252.0 -214.0 Q296.5 -214.5 326.5 -246.0 356.5 -277.5 357.5 -332.5 356.5 -387.5 326.5 -417.5 297.0 -447.5 252.0 -448.0 207.0 -447.5 177.5 -417.5 147.5 -387.5 146.5 -332.5 147.5 -277.5 177.5 -246.0 208.0 -214.5 252.0 -214.0 M46.0 95.5 Q46.5 63.5 65.5 34.5 84.5 6.0 119.0 -17.5 L119.0 -21.5 Q100.0 -33.0 88.0 -53.0 75.5 -73.5 75.0 -102.5 76.0 -134.0 92.5 -157.5 109.0 -181.0 129.0 -194.5 L129.0 -198.5 Q103.5 -219.0 84.5 -253.5 65.5 -287.5 64.5 -332.5 65.0 -387.0 90.5 -426.5 116.0 -466.0 158.5 -487.5 200.5 -509.0 252.0 -509.5 273.0 -509.5 291.0 -506.0 309.0 -502.5 322.5 -497.5 L496.0 -497.5 496.0 -433.0 393.5 -433.0 Q411.5 -416.0 423.0 -389.0 434.0 -362.5 434.5 -330.5 434.0 -277.0 409.5 -238.5 385.5 -199.5 344.5 -179.0 303.5 -158.0 252.0 -157.5 233.5 -157.5 214.0 -162.0 194.5 -166.5 177.0 -175.0 164.0 -164.0 155.0 -150.0 146.0 -136.0 145.5 -115.5 144.5 -91.5 164.0 -76.5 183.5 -62.0 233.5 -61.5 L330.0 -61.5 Q416.5 -62.0 460.5 -33.0 504.0 -4.5 504.0 57.0 503.5 104.0 473.0 143.0 442.5 182.0 386.0 205.5 329.5 229.0 252.0 229.5 190.5 229.5 144.0 214.0 98.0 198.0 72.5 168.5 46.5 138.5 46.0 95.5 M119.5 84.0 Q120.0 124.5 158.0 147.5 196.0 170.5 264.5 171.0 312.0 170.5 347.5 156.5 383.0 142.0 402.5 119.0 422.0 96.0 422.0 69.5 422.0 35.5 396.0 21.5 370.5 7.5 321.5 8.0 L235.5 8.0 Q221.0 8.0 204.0 6.0 187.5 4.5 171.0 0.0 144.0 19.5 131.5 41.0 119.5 62.5 119.5 84.0" fill-rule="evenodd" stroke="none"/>
    </g>
    <g id="button1" transform="matrix(1.0, 0.0, 0.0, 1.0, 13.5, 13.5)">
      <use data-characterId="1278" height="27.0" transform="matrix(1.0, 0.0, 0.0, 1.0, -13.5, -13.5)" width="27.0" xlink:href="#shape6"/>
      <use data-characterId="1279" height="30.55" transform="matrix(1.0, 0.0, 0.0, 1.0, -5.5, -8.15)" width="11.4" xlink:href="#text10"/>
    </g>
    <g id="shape6" transform="matrix(1.0, 0.0, 0.0, 1.0, 13.5, 13.5)">
      <path d="M0.0 -12.5 Q5.2 -12.55 8.85 -8.85 12.5 -5.2 12.5 0.0 12.5 5.15 8.85 8.85 5.2 12.5 0.0 12.5 -5.2 12.5 -8.85 8.85 -12.5 5.15 -12.5 0.0 -12.5 -5.2 -8.85 -8.85 -5.2 -12.55 0.0 -12.5" fill="#ff9900" fill-rule="evenodd" stroke="none"/>
      <path d="M0.0 -12.5 Q-5.2 -12.55 -8.85 -8.85 -12.5 -5.2 -12.5 0.0 -12.5 5.15 -8.85 8.85 -5.2 12.5 0.0 12.5 5.2 12.5 8.85 8.85 12.5 5.15 12.5 0.0 12.5 -5.2 8.85 -8.85 5.2 -12.55 0.0 -12.5 Z" fill="none" stroke="#000000" stroke-linecap="butt" stroke-linejoin="miter-clip" stroke-miterlimit="3.0" stroke-width="2.0"/>
    </g>
    <g id="text10" transform="matrix(1.0, 0.0, 0.0, 1.0, 1.05, -1.05)">
      <g transform="matrix(1.0, 0.0, 0.0, 1.0, -2.0, -0.6)">
        <use fill="#000000" height="30.55" transform="matrix(0.0137, 0.0, 0.0, 0.0137, 0.0, 13.0)" width="11.4" xlink:href="#font_Source_Sans_Pro_i0"/>
      </g>
    </g>
    <g id="text11" transform="matrix(1.0, 0.0, 0.0, 1.0, 4.0, 2.0)">
      <g transform="matrix(1.0, 0.0, 0.0, 1.0, -4.0, -2.0)">
        <use fill="#ffffcc" height="67.25" transform="matrix(0.0156, 0.0, 0.0, 0.0156, 0.0, 14.5)" width="412.75" xlink:href="#font_Arial_I0"/>
        <use fill="#ffffcc" height="67.25" transform="matrix(0.0156, 0.0, 0.0, 0.0156, 4.45, 14.5)" width="412.75" xlink:href="#font_Arial_n0"/>
        <use fill="#ffffcc" height="67.25" transform="matrix(0.0156, 0.0, 0.0, 0.0156, 13.35, 14.5)" width="412.75" xlink:href="#font_Arial_f0"/>
        <use fill="#ffffcc" height="67.25" transform="matrix(0.0156, 0.0, 0.0, 0.0156, 17.8, 14.5)" width="412.75" xlink:href="#font_Arial_o0"/>
        <use fill="#ffffcc" height="67.25" transform="matrix(0.0156, 0.0, 0.0, 0.0156, 26.7, 14.5)" width="412.75" xlink:href="#font_Arial_r0"/>
        <use fill="#ffffcc" height="67.25" transform="matrix(0.0156, 0.0, 0.0, 0.0156, 32.05, 14.5)" width="412.75" xlink:href="#font_Arial_m0"/>
        <use fill="#ffffcc" height="67.25" transform="matrix(0.0156, 0.0, 0.0, 0.0156, 45.4, 14.5)" width="412.75" xlink:href="#font_Arial_a0"/>
        <use fill="#ffffcc" height="67.25" transform="matrix(0.0156, 0.0, 0.0, 0.0156, 54.3, 14.5)" width="412.75" xlink:href="#font_Arial_t0"/>
        <use fill="#ffffcc" height="67.25" transform="matrix(0.0156, 0.0, 0.0, 0.0156, 58.75, 14.5)" width="412.75" xlink:href="#font_Arial_i0"/>
        <use fill="#ffffcc" height="67.25" transform="matrix(0.0156, 0.0, 0.0, 0.0156, 62.3, 14.5)" width="412.75" xlink:href="#font_Arial_o0"/>
        <use fill="#ffffcc" height="67.25" transform="matrix(0.0156, 0.0, 0.0, 0.0156, 71.2, 14.5)" width="412.75" xlink:href="#font_Arial_n0"/>
      </g>
      <g transform="matrix(1.0, 0.0, 0.0, 1.0, -4.0, -2.0)">
        <use fill="#ffffcc" height="67.25" transform="matrix(0.0156, 0.0, 0.0, 0.0156, 84.55, 14.5)" width="412.75" xlink:href="#font_Arial_a0"/>
        <use fill="#ffffcc" height="67.25" transform="matrix(0.0156, 0.0, 0.0, 0.0156, 93.45, 14.5)" width="412.75" xlink:href="#font_Arial_b0"/>
        <use fill="#ffffcc" height="67.25" transform="matrix(0.0156, 0.0, 0.0, 0.0156, 102.35, 14.5)" width="412.75" xlink:href="#font_Arial_o0"/>
        <use fill="#ffffcc" height="67.25" transform="matrix(0.0156, 0.0, 0.0, 0.0156, 111.25, 14.5)" width="412.75" xlink:href="#font_Arial_u0"/>
        <use fill="#ffffcc" height="67.25" transform="matrix(0.0156, 0.0, 0.0, 0.0156, 120.15, 14.5)" width="412.75" xlink:href="#font_Arial_t0"/>
      </g>
      <g transform="matrix(1.0, 0.0, 0.0, 1.0, -4.0, -2.0)">
        <use fill="#ffffcc" height="67.25" transform="matrix(0.0156, 0.0, 0.0, 0.0156, 129.05, 14.5)" width="412.75" xlink:href="#font_Arial_t0"/>
        <use fill="#ffffcc" height="67.25" transform="matrix(0.0156, 0.0, 0.0, 0.0156, 133.5, 14.5)" width="412.75" xlink:href="#font_Arial_h0"/>
        <use fill="#ffffcc" height="67.25" transform="matrix(0.0156, 0.0, 0.0, 0.0156, 142.4, 14.5)" width="412.75" xlink:href="#font_Arial_e0"/>
      </g>
      <g transform="matrix(1.0, 0.0, 0.0, 1.0, -4.0, -2.0)">
        <use fill="#ffffcc" height="67.25" transform="matrix(0.0156, 0.0, 0.0, 0.0156, 155.75, 14.5)" width="412.75" xlink:href="#font_Arial_z0"/>
        <use fill="#ffffcc" height="67.25" transform="matrix(0.0156, 0.0, 0.0, 0.0156, 163.75, 14.5)" width="412.75" xlink:href="#font_Arial_o0"/>
        <use fill="#ffffcc" height="67.25" transform="matrix(0.0156, 0.0, 0.0, 0.0156, 172.65, 14.5)" width="412.75" xlink:href="#font_Arial_n0"/>
        <use fill="#ffffcc" height="67.25" transform="matrix(0.0156, 0.0, 0.0, 0.0156, 181.55, 14.5)" width="412.75" xlink:href="#font_Arial_e0"/>
      </g>
    </g>
    <g id="font_Arial_I0">
      <path d="M95.5 0.0 L192.5 0.0 192.5 -733.0 95.5 -733.0 95.5 0.0" fill-rule="evenodd" stroke="none"/>
    </g>
    <g id="font_Arial_f0">
      <path d="M89.0 0.0 L178.5 0.0 178.5 -461.0 282.0 -461.0 282.0 -531.0 178.5 -531.0 178.5 -580.0 Q178.5 -628.0 195.5 -645.5 212.5 -663.0 253.5 -663.0 278.5 -663.0 306.5 -658.0 L320.0 -736.5 Q274.0 -745.5 236.0 -745.5 177.0 -745.5 144.5 -723.5 111.5 -702.0 98.5 -667.0 89.0 -641.0 89.0 -587.5 L89.0 -531.0 9.5 -531.0 9.5 -461.0 89.0 -461.0 89.0 0.0" fill-rule="evenodd" stroke="none"/>
    </g>
    <g id="font_Arial_i0">
      <path d="M68.0 0.0 L158.0 0.0 158.0 -531.0 68.0 -531.0 68.0 0.0 M68.0 -629.5 L158.0 -629.5 158.0 -733.0 68.0 -733.0 68.0 -629.5" fill-rule="evenodd" stroke="none"/>
    </g>
    <g id="font_Arial_z0">
      <path d="M20.0 0.0 L490.0 0.0 490.0 -77.5 244.5 -77.5 Q191.5 -77.5 131.0 -73.0 L186.5 -134.5 474.0 -471.5 474.0 -531.0 40.0 -531.0 40.0 -458.0 256.5 -458.0 Q300.5 -458.0 358.0 -461.0 L20.0 -73.0 20.0 0.0" fill-rule="evenodd" stroke="none"/>
    </g>
    <g id="text12" transform="matrix(1.0, 0.0, 0.0, 1.0, 1.1, 1.0)">
      <g transform="matrix(1.0, 0.0, 0.0, 1.0, -2.0, -2.2)">
        <use fill="#0099ff" height="36.2" transform="matrix(0.0176, 0.0, 0.0, 0.0176, 0.0, 16.0)" width="143.35" xlink:href="#font_Arial_C0"/>
        <use fill="#0099ff" height="36.2" transform="matrix(0.0176, 0.0, 0.0, 0.0176, 13.0, 16.0)" width="143.35" xlink:href="#font_Arial_o0"/>
        <use fill="#0099ff" height="36.2" transform="matrix(0.0176, 0.0, 0.0, 0.0176, 23.0, 16.0)" width="143.35" xlink:href="#font_Arial_n0"/>
        <use fill="#0099ff" height="36.2" transform="matrix(0.0176, 0.0, 0.0, 0.0176, 33.0, 16.0)" width="143.35" xlink:href="#font_Arial_q0"/>
        <use fill="#0099ff" height="36.2" transform="matrix(0.0176, 0.0, 0.0, 0.0176, 43.0, 16.0)" width="143.35" xlink:href="#font_Arial_u0"/>
        <use fill="#0099ff" height="36.2" transform="matrix(0.0176, 0.0, 0.0, 0.0176, 53.0, 16.0)" width="143.35" xlink:href="#font_Arial_e0"/>
        <use fill="#0099ff" height="36.2" transform="matrix(0.0176, 0.0, 0.0, 0.0176, 63.0, 16.0)" width="143.35" xlink:href="#font_Arial_s0"/>
        <use fill="#0099ff" height="36.2" transform="matrix(0.0176, 0.0, 0.0, 0.0176, 72.0, 16.0)" width="143.35" xlink:href="#font_Arial_t0"/>
        <use fill="#0099ff" height="36.2" transform="matrix(0.0176, 0.0, 0.0, 0.0176, 82.0, 16.0)" width="143.35" xlink:href="#font_Arial_Z0"/>
        <use fill="#0099ff" height="36.2" transform="matrix(0.0176, 0.0, 0.0, 0.0176, 93.0, 16.0)" width="143.35" xlink:href="#font_Arial_o0"/>
        <use fill="#0099ff" height="36.2" transform="matrix(0.0176, 0.0, 0.0, 0.0176, 103.0, 16.0)" width="143.35" xlink:href="#font_Arial_n0"/>
        <use fill="#0099ff" height="36.2" transform="matrix(0.0176, 0.0, 0.0, 0.0176, 113.0, 16.0)" width="143.35" xlink:href="#font_Arial_e0"/>
        <use fill="#0099ff" height="36.2" transform="matrix(0.0176, 0.0, 0.0, 0.0176, 123.0, 16.0)" width="143.35" xlink:href="#font_Arial_s0"/>
      </g>
    </g>
    <g id="font_Arial_q0">
      <path d="M128.5 -267.0 Q128.5 -372.5 169.5 -422.0 210.0 -472.0 268.5 -472.0 327.5 -472.0 371.5 -418.5 415.0 -365.0 415.0 -259.0 415.0 -159.5 373.5 -110.5 332.0 -62.0 274.5 -62.0 214.5 -62.0 171.5 -113.0 128.5 -164.5 128.5 -267.0 M406.0 203.5 L496.0 203.5 496.0 -531.0 415.0 -531.0 415.0 -460.0 Q358.5 -543.0 260.0 -543.0 197.0 -543.0 144.5 -510.0 91.5 -477.5 64.0 -414.0 36.0 -350.5 36.0 -270.5 36.0 -139.0 104.5 -63.5 172.5 12.0 267.0 12.0 309.5 12.0 347.5 -7.5 385.0 -27.0 406.0 -56.5 L406.0 203.5" fill-rule="evenodd" stroke="none"/>
    </g>
    <g id="text13" transform="matrix(1.0, 0.0, 0.0, 1.0, 1.6, 0.8)">
      <g transform="matrix(1.0, 0.0, 0.0, 1.0, -2.0, -2.2)">
        <use fill="#0099ff" height="36.0" transform="matrix(0.0176, 0.0, 0.0, 0.0176, 0.0, 16.0)" width="71.85" xlink:href="#font_Arial_T0"/>
        <use fill="#0099ff" height="36.0" transform="matrix(0.0176, 0.0, 0.0, 0.0176, 11.0, 16.0)" width="71.85" xlink:href="#font_Arial_u0"/>
        <use fill="#0099ff" height="36.0" transform="matrix(0.0176, 0.0, 0.0, 0.0176, 21.0, 16.0)" width="71.85" xlink:href="#font_Arial_t0"/>
        <use fill="#0099ff" height="36.0" transform="matrix(0.0176, 0.0, 0.0, 0.0176, 26.0, 16.0)" width="71.85" xlink:href="#font_Arial_o0"/>
        <use fill="#0099ff" height="36.0" transform="matrix(0.0176, 0.0, 0.0, 0.0176, 36.0, 16.0)" width="71.85" xlink:href="#font_Arial_r0"/>
        <use fill="#0099ff" height="36.0" transform="matrix(0.0176, 0.0, 0.0, 0.0176, 42.0, 16.0)" width="71.85" xlink:href="#font_Arial_i0"/>
        <use fill="#0099ff" height="36.0" transform="matrix(0.0176, 0.0, 0.0, 0.0176, 46.0, 16.0)" width="71.85" xlink:href="#font_Arial_a0"/>
        <use fill="#0099ff" height="36.0" transform="matrix(0.0176, 0.0, 0.0, 0.0176, 56.0, 16.0)" width="71.85" xlink:href="#font_Arial_l0"/>
      </g>
    </g>
    <g id="shape7" transform="matrix(1.0, 0.0, 0.0, 1.0, 101.0, 101.0)">
      <path d="M95.0 -95.0 Q99.95 -90.0 100.0 -82.9 L100.0 82.95 Q99.95 90.0 95.0 95.0 90.0 100.0 82.9 100.0 L-82.95 100.0 Q-90.05 100.0 -95.05 95.0 -100.05 90.0 -100.0 82.95 L-100.0 -82.9 Q-100.05 -90.0 -95.05 -95.0 -90.05 -100.0 -82.95 -100.0 L82.9 -100.0 Q90.0 -100.0 95.0 -95.0" fill="url(#gradient2)" fill-rule="evenodd" stroke="none"/>
      <path d="M95.0 -95.0 Q90.0 -100.0 82.9 -100.0 L-82.95 -100.0 Q-90.05 -100.0 -95.05 -95.0 -100.05 -90.0 -100.0 -82.9 L-100.0 82.95 Q-100.05 90.0 -95.05 95.0 -90.05 100.0 -82.95 100.0 L82.9 100.0 Q90.0 100.0 95.0 95.0 99.95 90.0 100.0 82.95 L100.0 -82.9 Q99.95 -90.0 95.0 -95.0 Z" fill="none" stroke="#000000" stroke-linecap="butt" stroke-linejoin="miter-clip" stroke-miterlimit="3.0" stroke-width="2.0"/>
    </g>
    <linearGradient gradientTransform="matrix(0.0, 0.1221, -0.1221, 0.0, 0.0, 0.0)" gradientUnits="userSpaceOnUse" id="gradient2" spreadMethod="pad" x1="-819.2" x2="819.2">
      <stop offset="0.0" stop-color="#cccccc"/>
      <stop offset="0.058823529411764705" stop-color="#ffffff"/>
      <stop offset="0.12549019607843137" stop-color="#cccccc"/>
      <stop offset="0.4117647058823529" stop-color="#666666"/>
      <stop offset="0.8470588235294118" stop-color="#333333"/>
      <stop offset="0.9254901960784314" stop-color="#666666"/>
      <stop offset="1.0" stop-color="#333333"/>
    </linearGradient>
    <g id="text14" transform="matrix(1.0, 0.0, 0.0, 1.0, 0.25, -0.65)">
      <g transform="matrix(1.0, 0.0, 0.0, 1.0, -2.0, -1.6)">
        <use fill="#999999" height="47.35" transform="matrix(0.0234, 0.0, 0.0, 0.0234, 0.0, 22.0)" width="107.55" xlink:href="#font_Arial_L0"/>
        <use fill="#999999" height="47.35" transform="matrix(0.0234, 0.0, 0.0, 0.0234, 13.35, 22.0)" width="107.55" xlink:href="#font_Arial_O0"/>
        <use fill="#999999" height="47.35" transform="matrix(0.0234, 0.0, 0.0, 0.0234, 32.0, 22.0)" width="107.55" xlink:href="#font_Arial_G0"/>
        <use fill="#999999" height="47.35" transform="matrix(0.0234, 0.0, 0.0, 0.0234, 57.3, 22.0)" width="107.55" xlink:href="#font_Arial_O0"/>
        <use fill="#999999" height="47.35" transform="matrix(0.0234, 0.0, 0.0, 0.0234, 75.95, 22.0)" width="107.55" xlink:href="#font_Arial_N0"/>
      </g>
    </g>
    <g id="font_Arial_G0">
      <path d="M422.0 -287.5 L637.5 -287.5 637.5 -151.0 Q606.5 -123.5 546.5 -99.0 486.5 -75.0 423.5 -75.0 351.0 -75.0 286.5 -107.0 222.0 -139.0 188.5 -205.0 154.5 -271.0 154.5 -369.0 154.5 -448.5 182.5 -516.5 199.0 -556.0 229.0 -589.0 258.5 -622.0 307.0 -642.0 355.5 -662.5 422.0 -662.5 477.5 -662.5 523.0 -643.0 568.5 -624.0 593.0 -592.0 617.5 -560.0 634.0 -504.0 L721.5 -528.0 Q702.5 -602.0 666.0 -648.0 629.5 -694.0 565.5 -719.5 501.0 -745.5 421.5 -745.5 312.0 -745.5 228.0 -700.5 144.0 -655.5 99.5 -562.5 54.5 -470.0 54.5 -363.0 54.5 -255.0 99.5 -167.5 144.5 -80.0 233.0 -33.5 321.0 12.5 429.0 12.5 509.0 12.5 585.0 -16.0 661.0 -45.0 732.5 -102.0 L732.5 -374.0 422.0 -373.5 422.0 -287.5" fill-rule="evenodd" stroke="none"/>
    </g>
    <g id="text15" transform="matrix(1.0, 0.0, 0.0, 1.0, 0.25, -0.65)">
      <g transform="matrix(1.0, 0.0, 0.0, 1.0, -2.0, -1.6)">
        <use fill="#000000" height="47.35" transform="matrix(0.0234, 0.0, 0.0, 0.0234, 0.0, 22.0)" width="107.55" xlink:href="#font_Arial_L0"/>
        <use fill="#000000" height="47.35" transform="matrix(0.0234, 0.0, 0.0, 0.0234, 13.35, 22.0)" width="107.55" xlink:href="#font_Arial_O0"/>
        <use fill="#000000" height="47.35" transform="matrix(0.0234, 0.0, 0.0, 0.0234, 32.0, 22.0)" width="107.55" xlink:href="#font_Arial_G0"/>
        <use fill="#000000" height="47.35" transform="matrix(0.0234, 0.0, 0.0, 0.0234, 57.3, 22.0)" width="107.55" xlink:href="#font_Arial_O0"/>
        <use fill="#000000" height="47.35" transform="matrix(0.0234, 0.0, 0.0, 0.0234, 75.95, 22.0)" width="107.55" xlink:href="#font_Arial_N0"/>
      </g>
    </g>
    <g id="shape8" transform="matrix(1.0, 0.0, 0.0, 1.0, 60.0, 60.0)">
      <path d="M1.85 -57.7 Q10.4 -57.45 18.6 -54.65 L-3.25 -39.65 6.7 -39.8 6.9 -39.75 22.65 -53.1 Q30.3 -49.85 36.95 -44.35 L20.35 -34.1 21.1 -33.55 22.95 -31.6 23.25 -31.2 38.5 -43.0 Q22.2 -57.75 0.0 -57.75 L-4.05 -57.6 -37.5 -34.35 -37.35 -34.45 -30.5 -36.45 -18.75 -38.4 1.85 -57.7 M-25.7 -30.3 Q-16.95 -31.85 -8.05 -32.4 1.4 -33.4 11.0 -32.8 L20.1 -31.4 Q16.7 -34.35 12.2 -36.0 5.35 -38.3 -1.85 -37.75 -12.0 -37.6 -22.0 -36.1 -32.0 -34.6 -41.0 -30.3 -44.6 -28.6 -44.15 -24.8 L-44.05 -23.7 Q-43.7 -18.0 -43.65 -12.35 L-42.4 -11.8 Q-39.95 -10.25 -39.5 -7.2 L-39.1 -2.8 Q-38.9 2.65 -39.1 8.15 -39.2 10.5 -41.25 11.35 -40.2 14.65 -38.45 17.55 L-35.9 21.4 -37.9 10.95 -39.1 -20.45 Q-39.1 -23.95 -36.1 -25.95 -31.35 -29.1 -25.75 -30.3 L-25.3 -28.15 -28.25 -27.25 Q-37.3 -24.2 -36.85 -20.5 -36.5 -16.9 -36.35 -6.75 -36.2 3.65 -35.85 8.6 -35.2 17.0 -33.55 21.4 -32.2 25.0 -22.45 25.7 -13.75 26.3 -1.75 24.55 10.05 22.75 18.25 19.65 27.25 16.3 27.3 12.95 27.4 3.85 26.75 -5.5 25.9 -17.7 23.95 -25.35 22.95 -29.4 13.1 -30.9 4.25 -32.25 -7.95 -31.1 -17.5 -30.3 -24.6 -28.35 L-25.7 -30.3 M36.55 -37.05 Q35.75 -36.3 35.8 -35.25 35.75 -34.2 36.55 -33.4 37.3 -32.65 38.35 -32.65 39.4 -32.65 40.2 -33.4 40.95 -34.2 40.95 -35.25 40.95 -36.3 40.2 -37.05 39.4 -37.85 38.35 -37.85 37.3 -37.85 36.55 -37.05 M27.95 -29.9 Q27.95 -28.85 28.7 -28.05 29.45 -27.3 30.55 -27.3 31.6 -27.3 32.4 -28.05 33.15 -28.85 33.15 -29.9 33.15 -30.95 32.4 -31.7 31.6 -32.5 30.55 -32.5 29.45 -32.5 28.7 -31.7 27.95 -30.95 27.95 -29.9 M-21.65 -23.75 Q-4.75 -28.7 12.5 -26.7 15.35 -26.25 17.85 -24.6 18.65 -24.1 18.9 -23.25 22.3 -10.75 22.4 2.25 L22.15 10.0 Q21.95 12.55 19.5 13.65 4.55 20.1 -11.85 20.55 -19.45 21.3 -26.45 18.95 L-28.2 17.9 Q-30.4 15.6 -30.7 12.4 -31.8 0.85 -31.35 -10.8 -25.2 -13.0 -19.25 -10.45 -17.6 -9.7 -16.2 -8.5 L-11.35 -3.7 -15.05 -10.95 Q-10.25 -10.3 -7.8 -13.85 -7.55 -14.25 -7.8 -14.6 -8.65 -16.0 -10.25 -16.2 -12.5 -16.7 -14.9 -16.15 -11.15 -20.75 -5.45 -22.8 L-4.85 -23.05 Q-10.7 -21.1 -16.75 -21.25 -19.75 -21.35 -21.65 -23.75 M-31.35 -12.45 L-31.55 -16.9 Q-31.95 -20.0 -24.65 -22.75 -25.4 -16.6 -30.6 -12.95 L-31.35 -12.45 M30.55 -19.55 L31.85 -18.8 32.7 -17.95 49.0 -30.5 Q52.6 -24.65 54.85 -18.0 L34.4 -5.7 33.6 -2.15 Q33.05 0.0 31.75 1.85 30.8 3.2 29.45 3.55 L29.5 4.7 55.65 -15.45 56.95 -9.95 Q54.55 -24.85 44.75 -36.4 L47.35 -33.0 27.1 -20.7 27.2 -20.1 29.1 -20.1 30.55 -19.55 M30.8 -16.7 Q29.35 -18.15 27.6 -17.95 L28.1 -14.9 29.25 1.2 Q30.85 0.35 31.95 -4.4 33.1 -9.3 32.75 -12.4 32.45 -15.1 30.8 -16.7 M42.4 -42.4 Q60.0 -24.8 60.0 0.0 60.0 24.75 42.4 42.4 24.75 60.0 0.0 60.0 -24.8 60.0 -42.4 42.4 -60.05 24.75 -60.0 0.0 -60.05 -24.8 -42.4 -42.4 -24.8 -60.0 0.0 -60.0 24.75 -60.0 42.4 -42.4 M-48.15 31.8 L-49.35 29.95 -39.65 28.45 -38.75 27.2 -37.35 25.65 -36.0 24.55 -39.7 19.65 -51.25 26.5 -40.55 18.2 -43.65 11.5 -45.55 11.05 -46.95 10.55 -48.35 9.8 -49.35 9.05 -55.05 12.55 -50.1 8.35 Q-52.55 5.75 -53.5 2.2 L-54.05 -1.55 -53.95 -4.9 -56.15 -3.45 Q-54.9 -4.6 -54.05 -6.0 -52.55 -8.7 -49.7 -10.45 -49.05 -10.8 -48.4 -11.25 L-45.95 -12.95 -46.45 -25.8 -46.35 -26.9 -45.9 -28.5 -52.45 -24.0 -21.35 -53.65 -13.15 -56.25 Q-24.95 -53.65 -34.5 -46.25 -45.95 -37.55 -52.2 -24.5 L-52.45 -24.0 Q-58.35 -11.4 -57.8 2.45 -57.2 16.65 -50.1 28.75 L-48.9 30.7 -48.15 31.8 -47.9 32.15 -47.6 32.65 -46.3 34.55 -47.6 32.65 -47.9 32.15 -48.15 31.8 M-51.95 -2.05 Q-51.8 3.3 -48.15 7.05 -45.35 9.9 -41.6 9.1 -39.8 0.95 -41.85 -7.35 -42.05 -8.6 -42.8 -9.45 L-43.3 -9.95 Q-49.65 -9.75 -51.65 -4.0 -52.0 -3.1 -51.95 -2.05 M-33.25 25.1 L-35.6 27.0 Q-37.55 28.65 -38.2 31.0 -39.65 35.95 -35.0 38.95 -29.5 42.5 -22.75 43.25 -4.15 45.8 13.45 39.05 17.25 37.6 20.15 34.85 21.15 33.8 21.65 32.5 23.45 27.8 20.05 23.65 L18.45 21.9 Q12.65 23.55 6.75 24.5 L-20.25 28.05 -30.6 26.2 -32.2 25.7 -33.25 25.1 M-28.7 50.1 L-32.5 47.75 Q-27.55 51.25 -22.05 53.45 -25.45 51.95 -28.7 50.1 M47.0 33.65 Q55.4 22.2 57.25 8.1 L57.05 9.2 23.3 24.65 23.8 25.7 24.1 26.65 30.9 27.15 57.0 9.3 Q55.4 19.05 50.55 27.95 L47.8 29.15 49.65 29.45 47.0 33.65 M15.35 55.8 Q25.15 53.2 33.5 47.1 L28.95 49.95 Q22.35 53.75 15.35 55.8" fill="#000000" fill-rule="evenodd" stroke="none"/>
      <path d="M-28.7 50.1 Q-25.45 51.95 -22.05 53.45 -27.55 51.25 -32.5 47.75 L-28.7 50.1 M15.35 55.8 Q22.35 53.75 28.95 49.95 L33.5 47.1 Q25.15 53.2 15.35 55.8" fill="#ce8f00" fill-rule="evenodd" stroke="none"/>
      <path d="M-25.7 -30.3 L-24.6 -28.35 -21.65 -23.75 Q-19.75 -21.35 -16.75 -21.25 -10.7 -21.1 -4.85 -23.05 L-5.45 -22.8 Q-11.15 -20.75 -14.9 -16.15 L-15.25 -15.3 Q-15.9 -13.5 -15.05 -10.95 L-11.35 -3.7 -16.2 -8.5 Q-17.6 -9.7 -19.25 -10.45 -25.2 -13.0 -31.35 -10.8 L-35.4 -9.55 -31.35 -12.45 -30.6 -12.95 Q-25.4 -16.6 -24.65 -22.75 L-25.3 -28.15 -25.75 -30.3 -25.75 -30.35 -25.7 -30.3" fill="#ffffff" fill-rule="evenodd" stroke="none"/>
      <path d="M1.85 -57.7 L-18.75 -38.4 -30.5 -36.45 -37.35 -34.45 -37.5 -34.35 -4.05 -57.6 0.0 -57.75 Q22.2 -57.75 38.5 -43.0 L23.25 -31.2 22.95 -31.6 21.1 -33.55 20.35 -34.1 36.95 -44.35 Q30.3 -49.85 22.65 -53.1 L6.9 -39.75 6.7 -39.8 -3.25 -39.65 18.6 -54.65 Q10.4 -57.45 1.85 -57.7 M30.55 -19.55 L29.1 -20.1 27.2 -20.1 27.1 -20.7 47.35 -33.0 44.75 -36.4 Q54.55 -24.85 56.95 -9.95 L55.65 -15.45 29.5 4.7 29.45 3.55 Q30.8 3.2 31.75 1.85 33.05 0.0 33.6 -2.15 L34.4 -5.7 54.85 -18.0 Q52.6 -24.65 49.0 -30.5 L32.7 -17.95 31.85 -18.8 30.55 -19.55 M-48.15 31.8 L-48.9 30.7 -50.1 28.75 Q-57.2 16.65 -57.8 2.45 -58.35 -11.4 -52.45 -24.0 L-52.2 -24.5 Q-45.95 -37.55 -34.5 -46.25 -24.95 -53.65 -13.15 -56.25 L-21.35 -53.65 -52.45 -24.0 -45.9 -28.5 -46.35 -26.9 -46.45 -25.8 -45.95 -12.95 -48.4 -11.25 Q-49.05 -10.8 -49.7 -10.45 -52.55 -8.7 -54.05 -6.0 -54.9 -4.6 -56.15 -3.45 L-53.95 -4.9 -54.05 -1.55 -53.5 2.2 Q-52.55 5.75 -50.1 8.35 L-55.05 12.55 -49.35 9.05 -48.35 9.8 -46.95 10.55 -45.55 11.05 -43.65 11.5 -40.55 18.2 -51.25 26.5 -39.7 19.65 -36.0 24.55 -37.35 25.65 -38.75 27.2 -39.65 28.45 -49.35 29.95 -48.15 31.8 M47.0 33.65 L49.65 29.45 47.8 29.15 50.55 27.95 Q55.4 19.05 57.0 9.3 L30.9 27.15 24.1 26.65 23.8 25.7 23.3 24.65 57.05 9.2 57.25 8.1 Q55.4 22.2 47.0 33.65" fill="#0066cc" fill-rule="evenodd" stroke="none"/>
      <path d="M27.95 -29.9 Q27.95 -30.95 28.7 -31.7 29.45 -32.5 30.55 -32.5 31.6 -32.5 32.4 -31.7 33.15 -30.95 33.15 -29.9 33.15 -28.85 32.4 -28.05 31.6 -27.3 30.55 -27.3 29.45 -27.3 28.7 -28.05 27.95 -28.85 27.95 -29.9 M36.55 -37.05 Q37.3 -37.85 38.35 -37.85 39.4 -37.85 40.2 -37.05 40.95 -36.3 40.95 -35.25 40.95 -34.2 40.2 -33.4 39.4 -32.65 38.35 -32.65 37.3 -32.65 36.55 -33.4 35.75 -34.2 35.8 -35.25 35.75 -36.3 36.55 -37.05 M-25.75 -30.3 Q-31.35 -29.1 -36.1 -25.95 -39.1 -23.95 -39.1 -20.45 L-37.9 10.95 -35.9 21.4 -38.45 17.55 Q-40.2 14.65 -41.25 11.35 -39.2 10.5 -39.1 8.15 -38.9 2.65 -39.1 -2.8 L-39.5 -7.2 Q-39.95 -10.25 -42.4 -11.8 L-43.65 -12.35 Q-43.7 -18.0 -44.05 -23.7 L-44.15 -24.8 Q-44.6 -28.6 -41.0 -30.3 -32.0 -34.6 -22.0 -36.1 -12.0 -37.6 -1.85 -37.75 5.35 -38.3 12.2 -36.0 16.7 -34.35 20.1 -31.4 L11.0 -32.8 Q1.4 -33.4 -8.05 -32.4 -16.95 -31.85 -25.7 -30.3 L-25.75 -30.35 -25.75 -30.3 M-24.6 -28.35 Q-17.5 -30.3 -7.95 -31.1 4.25 -32.25 13.1 -30.9 22.95 -29.4 23.95 -25.35 25.9 -17.7 26.75 -5.5 27.4 3.85 27.3 12.95 27.25 16.3 18.25 19.65 10.05 22.75 -1.75 24.55 -13.75 26.3 -22.45 25.7 -32.2 25.0 -33.55 21.4 -35.2 17.0 -35.85 8.6 -36.2 3.65 -36.35 -6.75 -36.5 -16.9 -36.85 -20.5 -37.3 -24.2 -28.25 -27.25 L-25.3 -28.15 -24.65 -22.75 Q-31.95 -20.0 -31.55 -16.9 L-31.35 -12.45 -35.4 -9.55 -31.35 -10.8 Q-31.8 0.85 -30.7 12.4 -30.4 15.6 -28.2 17.9 L-26.45 18.95 Q-19.45 21.3 -11.85 20.55 4.55 20.1 19.5 13.65 21.95 12.55 22.15 10.0 L22.4 2.25 Q22.3 -10.75 18.9 -23.25 18.65 -24.1 17.85 -24.6 15.35 -26.25 12.5 -26.7 -4.75 -28.7 -21.65 -23.75 L-24.6 -28.35 M30.8 -16.7 Q32.45 -15.1 32.75 -12.4 33.1 -9.3 31.95 -4.4 30.85 0.35 29.25 1.2 L28.1 -14.9 27.6 -17.95 Q29.35 -18.15 30.8 -16.7 M-51.95 -2.05 Q-52.0 -3.1 -51.65 -4.0 -49.65 -9.75 -43.3 -9.95 L-42.8 -9.45 Q-42.05 -8.6 -41.85 -7.35 -39.8 0.95 -41.6 9.1 -45.35 9.9 -48.15 7.05 -51.8 3.3 -51.95 -2.05 M-33.25 25.1 L-32.2 25.7 -30.6 26.2 -20.25 28.05 6.75 24.5 Q12.65 23.55 18.45 21.9 L20.05 23.65 Q23.45 27.8 21.65 32.5 21.15 33.8 20.15 34.85 17.25 37.6 13.45 39.05 -4.15 45.8 -22.75 43.25 -29.5 42.5 -35.0 38.95 -39.65 35.95 -38.2 31.0 -37.55 28.65 -35.6 27.0 L-33.25 25.1" fill="#0099ff" fill-rule="evenodd" stroke="none"/>
      <path d="M-14.9 -16.15 Q-12.5 -16.7 -10.25 -16.2 -8.65 -16.0 -7.8 -14.6 -7.55 -14.25 -7.8 -13.85 -10.25 -10.3 -15.05 -10.95 -15.9 -13.5 -15.25 -15.3 L-14.9 -16.15" fill="#99ccff" fill-rule="evenodd" stroke="none"/>
    </g>
  </defs>
</svg>
