<?xml version="1.0" encoding="UTF-8" standalone="no"?>
<svg xmlns:xlink="http://www.w3.org/1999/xlink" height="300.75px" width="300.1px" xmlns="http://www.w3.org/2000/svg">
  <g transform="matrix(1.0, 0.0, 0.0, 1.0, 150.05, 150.05)">
    <use data-characterId="713" height="300.75" transform="matrix(1.0, 0.0, 0.0, 1.0, -150.05, -150.05)" width="300.1" xlink:href="#shape0"/>
  </g>
  <defs>
    <g id="shape0" transform="matrix(1.0, 0.0, 0.0, 1.0, 150.05, 150.05)">
      <path d="M16.5 -135.45 L20.1 -118.9 60.1 -75.1 57.05 -63.45 52.55 -45.0 37.55 -37.5 37.55 -33.9 45.05 -26.4 45.05 -0.1 67.6 -0.1 Q77.5 31.65 90.1 52.15 L90.1 37.5 93.85 33.75 93.85 -6.2 90.1 -6.2 92.2 -36.25 103.05 -36.25 105.15 -6.2 101.4 -6.2 101.4 33.75 105.15 37.5 105.15 71.9 Q118.55 85.5 134.4 89.0 L134.4 74.9 Q142.15 96.9 150.0 100.1 L146.6 136.75 134.4 142.4 134.4 127.35 60.1 127.35 52.55 134.85 52.55 138.65 50.7 138.65 45.05 150.65 37.55 150.65 33.8 150.65 30.05 150.65 22.55 150.65 16.9 138.65 -16.9 138.65 -22.55 150.65 -30.05 150.65 -33.8 150.65 -37.55 150.65 -45.05 150.65 -50.7 138.65 -52.55 138.65 -52.55 134.85 -60.05 127.35 -134.4 127.35 -134.4 142.4 -146.6 136.75 -150.0 100.1 Q-142.2 96.9 -134.4 74.9 L-134.4 89.0 Q-118.55 85.5 -105.15 71.9 L-105.15 37.5 -101.4 33.75 -101.4 -6.2 -105.15 -6.2 -103.05 -36.25 -92.2 -36.25 -90.1 -6.2 -93.85 -6.2 -93.85 33.75 -90.1 37.5 -90.1 52.15 Q-77.5 31.65 -67.6 -0.1 L-45.05 -0.1 -45.05 -26.4 -37.55 -33.9 -37.55 -37.5 -52.55 -45.0 -57.05 -63.45 -60.05 -75.1 -20.1 -118.9 -16.5 -135.45 -15.75 -142.55 -15.2 -142.95 -0.1 -150.0 15.2 -142.95 15.75 -142.55 16.5 -135.45 15.2 -142.95 M37.55 -37.5 L23.85 -101.6 20.1 -118.9 M0.0 -52.55 L-2.65 -52.35 Q-11.95 -51.3 -15.0 -45.0 -11.65 -86.05 -2.65 -89.75 -1.4 -90.35 0.0 -90.15 1.35 -90.35 2.65 -89.75 11.65 -86.05 15.0 -45.0 11.95 -51.3 2.65 -52.35 L0.0 -52.55 M93.85 -6.2 L101.4 -6.2 M57.05 -63.45 L23.85 -101.6 M105.15 37.5 Q97.6 42.5 90.1 37.5 M101.4 33.75 L93.85 33.75 M90.1 52.15 Q97.2 63.8 105.15 71.9 M37.55 52.35 L36.8 52.35 7.5 52.35 15.0 59.85 60.1 59.85 75.1 44.85 75.1 37.5 45.05 37.5 45.05 44.85 37.55 52.35 37.55 -33.9 M60.1 59.85 L60.1 127.35 75.1 112.5 75.1 44.85 M7.5 52.35 L7.5 112.5 7.5 127.35 15.0 134.85 15.0 59.85 M37.55 150.65 L38.1 148.05 Q39.15 143.2 40.35 138.65 L34.15 138.65 33.8 150.65 M30.05 150.65 L27.4 138.65 16.9 138.65 M34.15 138.65 L27.4 138.65 M50.7 138.65 L40.35 138.65 M15.0 134.85 L52.55 134.85 M134.4 127.35 L134.4 112.5 75.1 112.5 M134.4 112.5 L134.4 89.0 M45.05 -0.1 L45.05 37.5 M16.5 -135.45 L36.8 52.35 M-20.1 -118.9 L-23.85 -101.6 -37.55 -37.5 M-15.2 -142.95 L-16.5 -135.45 -36.8 52.35 -7.5 52.35 -7.5 112.5 7.5 112.5 M-101.4 -6.2 L-93.85 -6.2 M-23.85 -101.6 L-57.05 -63.45 M-36.8 52.35 L-37.55 52.35 -45.05 44.85 -45.05 37.5 -75.1 37.5 -75.1 44.85 -60.05 59.85 -15.0 59.85 -7.5 52.35 M-105.15 37.5 Q-97.65 42.5 -90.1 37.5 M-93.85 33.75 L-101.4 33.75 M-105.15 71.9 Q-97.2 63.8 -90.1 52.15 M-60.05 127.35 L-75.1 112.5 -134.4 112.5 -134.4 127.35 M-30.05 150.65 L-27.4 138.65 -34.15 138.65 -33.8 150.65 M-34.15 138.65 L-40.35 138.65 -38.1 148.05 -37.55 150.65 M-15.0 59.85 L-15.0 134.85 -7.5 127.35 -7.5 112.5 M-16.9 138.65 L-27.4 138.65 M-52.55 134.85 L-15.0 134.85 M-40.35 138.65 L-50.7 138.65 M-134.4 89.0 L-134.4 112.5 M-75.1 112.5 L-75.1 44.85 M-60.05 127.35 L-60.05 59.85 M-37.55 52.35 L-37.55 -33.9 M-45.05 37.5 L-45.05 -0.1" fill="none" stroke="#cccccc" stroke-linecap="round" stroke-linejoin="round" stroke-width="0.1"/>
    </g>
  </defs>
</svg>
