<?xml version="1.0" encoding="UTF-8" standalone="no"?>
<svg xmlns:xlink="http://www.w3.org/1999/xlink" height="7.0px" width="4.0px" xmlns="http://www.w3.org/2000/svg">
  <g transform="matrix(1.0, 0.0, 0.0, 1.0, 2.0, 3.5)">
    <use data-characterId="636" height="7.0" transform="matrix(1.0, 0.0, 0.0, 1.0, -2.0, -3.5)" width="4.0" xlink:href="#shape0"/>
  </g>
  <defs>
    <g id="shape0" transform="matrix(1.0, 0.0, 0.0, 1.0, 2.0, 3.5)">
      <path d="M1.0 2.25 L2.0 3.5 -2.0 3.5 -1.0 2.25 1.0 2.25 M-1.75 -1.35 Q0.1 -5.65 1.75 -1.35 L-1.75 -1.35" fill="#ff0000" fill-rule="evenodd" stroke="none"/>
      <path d="M1.75 -1.35 L1.05 -1.0 1.05 2.25 1.0 2.25 -1.0 2.25 -1.05 2.25 -1.05 -1.0 -1.75 -1.35 1.75 -1.35" fill="#00ff00" fill-rule="evenodd" stroke="none"/>
      <path d="M1.75 -1.35 L1.05 -1.0 1.05 2.25 1.0 2.25 2.0 3.5 -2.0 3.5 -1.0 2.25 -1.05 2.25 -1.05 -1.0 -1.75 -1.35 Q0.1 -5.65 1.75 -1.35 L-1.75 -1.35 M1.0 2.25 L-1.0 2.25" fill="none" stroke="#999999" stroke-linecap="round" stroke-linejoin="miter-clip" stroke-miterlimit="3.0" stroke-width="0.05"/>
    </g>
  </defs>
</svg>
