<?xml version="1.0" encoding="UTF-8" standalone="no"?>
<svg xmlns:xlink="http://www.w3.org/1999/xlink" height="13.65px" width="20.9px" xmlns="http://www.w3.org/2000/svg">
  <g transform="matrix(1.0, 0.0, 0.0, 1.0, 11.4, 6.9)">
    <use data-characterId="1586" height="13.65" transform="matrix(1.0, 0.0, 0.0, 1.0, -11.4, -6.9)" width="20.9" xlink:href="#shape0"/>
  </g>
  <defs>
    <g id="shape0" transform="matrix(1.0, 0.0, 0.0, 1.0, 11.4, 6.9)">
      <path d="M8.0 -5.4 L0.05 -0.15 0.0 -0.1 0.0 0.0 8.25 -0.65 M-4.65 -6.4 L-0.1 -0.05 0.0 -0.1 0.0 -6.0 M0.05 -0.15 L4.25 -6.4 M3.85 5.5 L0.0 0.1 0.0 6.0 M9.0 4.75 L0.0 0.0 0.0 0.1 -0.05 0.0 -4.25 6.25 M-10.4 -5.5 L-0.1 -0.05 -0.05 0.0 0.0 -0.1 M-10.9 0.85 L-0.2 0.0 -0.1 -0.05 M-0.05 0.0 L-0.2 0.0 -9.25 6.0 M0.0 0.0 L-0.05 0.0" fill="none" stroke="#333333" stroke-linecap="round" stroke-linejoin="round" stroke-width="1.0"/>
    </g>
  </defs>
</svg>
