<?xml version="1.0" encoding="UTF-8" standalone="no"?>
<svg xmlns:xlink="http://www.w3.org/1999/xlink" height="25.45px" width="148.55px" xmlns="http://www.w3.org/2000/svg">
  <g transform="matrix(1.0, 0.0, 0.0, 1.0, 72.45, 8.25)">
    <use data-characterId="1140" height="25.45" transform="matrix(1.0, 0.0, 0.0, 1.0, -72.45, -8.25)" width="148.55" xlink:href="#text0"/>
  </g>
  <defs>
    <g id="text0" transform="matrix(1.0, 0.0, 0.0, 1.0, -35.05, 1.4)">
      <g transform="matrix(1.0, 0.0, 0.0, 1.0, 35.0, -1.8)">
        <use fill="#ff0000" fill-opacity="0.7176471" height="25.45" transform="matrix(0.0117, 0.0, 0.0, 0.0117, 0.0, 11.0)" width="148.55" xlink:href="#font_Arial_W0"/>
        <use fill="#ff0000" fill-opacity="0.7176471" height="25.45" transform="matrix(0.0117, 0.0, 0.0, 0.0117, 11.35, 11.0)" width="148.55" xlink:href="#font_Arial_a0"/>
        <use fill="#ff0000" fill-opacity="0.7176471" height="25.45" transform="matrix(0.0117, 0.0, 0.0, 0.0117, 18.0, 11.0)" width="148.55" xlink:href="#font_Arial_r0"/>
        <use fill="#ff0000" fill-opacity="0.7176471" height="25.45" transform="matrix(0.0117, 0.0, 0.0, 0.0117, 22.65, 11.0)" width="148.55" xlink:href="#font_Arial_n0"/>
        <use fill="#ff0000" fill-opacity="0.7176471" height="25.45" transform="matrix(0.0117, 0.0, 0.0, 0.0117, 30.0, 11.0)" width="148.55" xlink:href="#font_Arial_i0"/>
        <use fill="#ff0000" fill-opacity="0.7176471" height="25.45" transform="matrix(0.0117, 0.0, 0.0, 0.0117, 33.35, 11.0)" width="148.55" xlink:href="#font_Arial_n0"/>
        <use fill="#ff0000" fill-opacity="0.7176471" height="25.45" transform="matrix(0.0117, 0.0, 0.0, 0.0117, 40.7, 11.0)" width="148.55" xlink:href="#font_Arial_g0"/>
        <use fill="#ff0000" fill-opacity="0.7176471" height="25.45" transform="matrix(0.0117, 0.0, 0.0, 0.0117, 48.05, 11.0)" width="148.55" xlink:href="#font_Arial__0"/>
        <use fill="#ff0000" fill-opacity="0.7176471" height="25.45" transform="matrix(0.0117, 0.0, 0.0, 0.0117, 55.4, 11.0)" width="148.55" xlink:href="#font_Arial_L0"/>
        <use fill="#ff0000" fill-opacity="0.7176471" height="25.45" transform="matrix(0.0117, 0.0, 0.0, 0.0117, 62.75, 11.0)" width="148.55" xlink:href="#font_Arial_o0"/>
        <use fill="#ff0000" fill-opacity="0.7176471" height="25.45" transform="matrix(0.0117, 0.0, 0.0, 0.0117, 70.1, 11.0)" width="148.55" xlink:href="#font_Arial_w0"/>
        <use fill="#ff0000" fill-opacity="0.7176471" height="25.45" transform="matrix(0.0117, 0.0, 0.0, 0.0117, 82.8, 11.0)" width="148.55" xlink:href="#font_Arial_S0"/>
        <use fill="#ff0000" fill-opacity="0.7176471" height="25.45" transform="matrix(0.0117, 0.0, 0.0, 0.0117, 90.8, 11.0)" width="148.55" xlink:href="#font_Arial_t0"/>
        <use fill="#ff0000" fill-opacity="0.7176471" height="25.45" transform="matrix(0.0117, 0.0, 0.0, 0.0117, 94.8, 11.0)" width="148.55" xlink:href="#font_Arial_r0"/>
        <use fill="#ff0000" fill-opacity="0.7176471" height="25.45" transform="matrix(0.0117, 0.0, 0.0, 0.0117, 99.45, 11.0)" width="148.55" xlink:href="#font_Arial_u0"/>
        <use fill="#ff0000" fill-opacity="0.7176471" height="25.45" transform="matrix(0.0117, 0.0, 0.0, 0.0117, 106.8, 11.0)" width="148.55" xlink:href="#font_Arial_c0"/>
        <use fill="#ff0000" fill-opacity="0.7176471" height="25.45" transform="matrix(0.0117, 0.0, 0.0, 0.0117, 113.45, 11.0)" width="148.55" xlink:href="#font_Arial_t0"/>
        <use fill="#ff0000" fill-opacity="0.7176471" height="25.45" transform="matrix(0.0117, 0.0, 0.0, 0.0117, 117.45, 11.0)" width="148.55" xlink:href="#font_Arial_u0"/>
        <use fill="#ff0000" fill-opacity="0.7176471" height="25.45" transform="matrix(0.0117, 0.0, 0.0, 0.0117, 124.8, 11.0)" width="148.55" xlink:href="#font_Arial_r0"/>
        <use fill="#ff0000" fill-opacity="0.7176471" height="25.45" transform="matrix(0.0117, 0.0, 0.0, 0.0117, 129.45, 11.0)" width="148.55" xlink:href="#font_Arial_e0"/>
        <use fill="#ff0000" fill-opacity="0.7176471" height="25.45" transform="matrix(0.0117, 0.0, 0.0, 0.0117, 136.1, 11.0)" width="148.55" xlink:href="#font_Arial__0"/>
      </g>
    </g>
    <g id="font_Arial_W0">
      <path d="M178.5 0.0 L339.0 0.0 484.5 -548.0 630.5 0.0 787.5 0.0 965.5 -733.0 816.5 -733.0 704.0 -221.0 575.5 -733.0 399.5 -733.0 265.5 -229.5 155.0 -733.0 3.5 -733.0 178.5 0.0" fill-rule="evenodd" stroke="none"/>
    </g>
    <g id="font_Arial_a0">
      <path d="M366.5 -255.0 L366.5 -227.0 Q366.5 -176.5 361.0 -158.5 353.0 -131.0 327.5 -112.0 293.0 -87.0 255.0 -87.0 221.0 -87.0 199.0 -108.5 177.0 -130.0 177.0 -159.5 177.0 -189.5 204.5 -209.0 222.5 -221.0 281.0 -233.5 339.5 -246.0 366.5 -255.0 M178.5 -369.0 Q191.5 -406.0 212.5 -420.5 233.5 -435.5 271.0 -435.5 326.5 -435.5 346.5 -418.0 366.5 -401.0 366.5 -360.5 L366.5 -346.5 Q328.5 -330.5 230.0 -312.0 157.0 -298.0 118.5 -279.0 79.5 -260.5 58.0 -225.0 36.5 -190.0 36.5 -145.0 36.5 -77.0 84.0 -32.5 131.0 12.0 213.0 12.0 259.5 12.0 300.5 -5.5 341.5 -23.0 377.5 -58.0 379.0 -54.0 382.5 -41.5 390.5 -14.0 396.0 0.0 L535.0 0.0 Q516.5 -38.0 510.0 -71.0 503.0 -104.5 503.0 -174.5 L504.5 -338.5 Q504.5 -430.0 486.0 -464.0 467.0 -498.5 421.0 -520.5 375.0 -543.0 281.0 -543.0 177.5 -543.0 125.0 -506.0 72.5 -469.0 51.0 -392.0 L178.5 -369.0" fill-rule="evenodd" stroke="none"/>
    </g>
    <g id="font_Arial_r0">
      <path d="M208.0 0.0 L208.0 -164.0 Q208.0 -299.5 220.0 -342.0 231.5 -384.5 252.0 -400.5 272.5 -417.0 302.0 -417.0 332.5 -417.0 368.0 -394.0 L411.5 -516.5 Q367.0 -543.0 319.0 -543.0 285.0 -543.0 258.5 -526.0 231.5 -509.0 198.0 -455.5 L198.0 -531.0 67.5 -531.0 67.5 0.0 208.0 0.0" fill-rule="evenodd" stroke="none"/>
    </g>
    <g id="font_Arial_n0">
      <path d="M556.5 0.0 L556.5 -330.0 Q556.5 -391.5 549.0 -424.5 541.0 -457.5 521.5 -483.5 501.5 -509.5 463.0 -526.0 424.5 -543.0 378.0 -543.0 272.5 -543.0 203.0 -453.0 L203.0 -531.0 72.5 -531.0 72.5 0.0 213.0 0.0 213.0 -240.5 Q213.0 -329.5 224.0 -362.5 234.5 -395.5 263.5 -415.5 292.5 -435.5 329.0 -435.5 357.5 -435.5 378.0 -421.5 398.0 -407.5 407.0 -382.0 416.0 -357.0 416.0 -271.0 L416.0 0.0 556.5 0.0" fill-rule="evenodd" stroke="none"/>
    </g>
    <g id="font_Arial_i0">
      <path d="M73.5 0.0 L214.0 0.0 214.0 -531.0 73.5 -531.0 73.5 0.0 M73.5 -603.0 L214.0 -603.0 214.0 -733.0 73.5 -733.0 73.5 -603.0" fill-rule="evenodd" stroke="none"/>
    </g>
    <g id="font_Arial_g0">
      <path d="M186.0 -276.5 Q186.0 -357.0 219.0 -396.0 251.5 -435.5 302.0 -435.5 354.0 -435.5 388.0 -395.5 422.0 -355.5 422.0 -273.0 422.0 -194.0 386.5 -153.5 351.0 -113.5 299.5 -113.5 251.5 -113.5 219.0 -152.5 186.0 -192.0 186.0 -276.5 M60.5 35.0 Q60.0 45.0 60.0 52.0 60.0 123.0 116.5 169.5 173.0 215.5 308.0 215.5 379.5 215.5 426.5 200.5 473.0 185.5 501.0 159.0 529.0 132.5 544.5 86.0 560.0 39.5 560.0 -54.5 L560.0 -531.0 428.5 -531.0 428.5 -456.5 Q364.5 -543.0 266.0 -543.0 170.5 -543.0 106.5 -472.5 42.0 -402.0 42.0 -268.5 42.0 -162.0 91.0 -90.5 153.5 0.0 260.5 0.0 356.5 0.0 419.5 -86.0 L419.5 -8.5 Q419.5 38.5 413.0 56.0 403.5 80.5 385.0 91.5 357.5 108.0 302.5 108.0 259.5 108.0 239.5 93.0 225.0 82.5 221.0 54.5 L60.5 35.0" fill-rule="evenodd" stroke="none"/>
    </g>
    <g id="font_Arial__0">
      <path d="M98.0 0.0 L238.5 0.0 238.5 -140.5 98.0 -140.5 98.0 0.0 M128.5 -189.0 L208.0 -189.0 244.0 -561.0 244.0 -733.0 92.0 -733.0 92.0 -561.0 128.5 -189.0" fill-rule="evenodd" stroke="none"/>
    </g>
    <g id="font_Arial_L0">
      <path d="M78.5 0.0 L594.5 0.0 594.5 -123.5 226.5 -123.5 226.5 -727.0 78.5 -727.0 78.5 0.0" fill-rule="evenodd" stroke="none"/>
    </g>
    <g id="font_Arial_o0">
      <path d="M185.0 -265.5 Q185.0 -344.5 222.5 -386.5 260.0 -428.5 315.0 -428.5 370.0 -428.5 407.5 -386.5 444.5 -344.5 444.5 -266.5 444.5 -186.5 407.5 -144.5 370.0 -102.5 315.0 -102.5 260.0 -102.5 222.5 -144.5 185.0 -186.5 185.0 -265.5 M41.0 -273.0 Q41.0 -181.5 75.5 -117.5 110.0 -54.0 176.5 -21.0 242.5 12.0 315.5 12.0 433.5 12.0 511.5 -67.0 589.0 -146.5 589.0 -267.0 589.0 -386.5 512.0 -464.5 435.0 -543.0 314.5 -543.0 236.5 -543.0 173.5 -508.5 110.0 -474.0 75.5 -408.5 41.0 -343.0 41.0 -273.0" fill-rule="evenodd" stroke="none"/>
    </g>
    <g id="font_Arial_w0">
      <path d="M172.5 0.0 L309.0 0.0 399.0 -341.5 490.5 0.0 625.5 0.0 796.0 -531.0 657.5 -531.0 556.0 -183.0 467.5 -531.0 332.0 -531.0 240.5 -183.0 141.0 -531.0 4.5 -531.0 172.5 0.0" fill-rule="evenodd" stroke="none"/>
    </g>
    <g id="font_Arial_S0">
      <path d="M37.0 -238.5 Q51.5 -115.5 126.0 -51.0 200.5 13.0 339.5 13.0 435.0 13.0 499.0 -13.5 563.0 -40.5 598.0 -95.5 633.0 -150.5 633.0 -213.5 633.0 -283.0 604.0 -330.0 574.5 -377.5 523.0 -404.5 471.0 -432.0 363.0 -457.5 255.0 -483.0 227.0 -506.5 205.0 -525.0 205.0 -551.0 205.0 -579.5 228.5 -596.5 265.0 -623.0 329.5 -623.0 392.0 -623.0 423.5 -598.0 454.5 -573.5 464.0 -517.0 L612.0 -523.5 Q608.5 -624.5 539.0 -685.0 469.0 -745.5 331.0 -745.5 246.5 -745.5 187.0 -720.0 127.0 -694.5 95.5 -645.5 63.5 -597.0 63.5 -541.0 63.5 -454.0 131.0 -393.5 179.0 -350.5 298.0 -321.0 390.5 -298.0 416.5 -289.0 454.5 -275.5 470.0 -257.0 485.0 -239.0 485.0 -213.0 485.0 -172.5 449.0 -142.0 412.5 -112.0 341.0 -112.0 273.5 -112.0 234.0 -146.0 194.0 -180.0 181.0 -252.5 L37.0 -238.5" fill-rule="evenodd" stroke="none"/>
    </g>
    <g id="font_Arial_t0">
      <path d="M317.0 -531.0 L221.0 -531.0 221.0 -718.5 80.0 -636.5 80.0 -531.0 15.5 -531.0 15.5 -419.0 80.0 -419.0 80.0 -187.5 Q80.0 -113.0 84.5 -88.5 90.0 -54.0 104.5 -33.5 118.5 -13.5 149.0 -0.5 179.5 12.0 217.5 12.0 279.5 12.0 328.5 -9.0 L316.5 -118.0 Q279.5 -104.5 260.0 -104.5 246.0 -104.5 236.5 -111.5 226.5 -118.5 224.0 -129.0 221.0 -140.0 221.0 -205.0 L221.0 -419.0 317.0 -419.0 317.0 -531.0" fill-rule="evenodd" stroke="none"/>
    </g>
    <g id="font_Arial_u0">
      <path d="M423.0 0.0 L553.5 0.0 553.5 -531.0 413.0 -531.0 413.0 -307.0 Q413.0 -193.0 402.5 -163.5 392.0 -134.5 363.5 -114.5 335.0 -95.0 299.0 -95.0 267.5 -95.0 247.0 -109.5 226.5 -124.5 219.0 -149.5 211.0 -175.0 211.0 -287.0 L211.0 -531.0 70.5 -531.0 70.5 -195.0 Q70.5 -120.0 89.5 -77.5 108.5 -35.0 151.0 -11.5 193.5 12.0 247.0 12.0 299.5 12.0 347.0 -12.5 394.0 -37.0 423.0 -79.5 L423.0 0.0" fill-rule="evenodd" stroke="none"/>
    </g>
    <g id="font_Arial_c0">
      <path d="M536.5 -374.0 Q511.5 -459.5 454.5 -501.0 397.0 -543.0 300.0 -543.0 181.5 -543.0 112.0 -469.5 42.5 -396.5 42.5 -265.0 42.5 -135.0 112.0 -61.5 181.0 12.0 297.5 12.0 400.0 12.0 461.0 -36.5 522.0 -85.0 543.5 -180.0 L405.5 -203.5 Q395.0 -148.0 369.5 -125.0 344.0 -102.5 304.0 -102.5 250.5 -102.5 219.0 -141.5 187.0 -180.5 187.0 -275.0 187.0 -360.0 218.5 -396.0 249.5 -432.5 302.0 -432.5 341.5 -432.5 366.5 -411.5 391.0 -390.5 398.0 -349.0 L536.5 -374.0" fill-rule="evenodd" stroke="none"/>
    </g>
    <g id="font_Arial_e0">
      <path d="M389.0 -311.0 L179.0 -311.0 Q178.5 -368.5 208.5 -402.0 238.5 -435.5 284.5 -435.5 327.5 -435.5 357.5 -403.5 387.5 -372.0 389.0 -311.0 M381.0 -169.0 Q369.5 -129.0 347.0 -111.0 324.5 -93.0 291.5 -93.0 243.0 -93.0 210.5 -127.5 178.0 -162.5 176.5 -225.0 L528.5 -225.0 Q531.5 -386.5 463.0 -464.5 394.5 -543.0 276.0 -543.0 170.5 -543.0 101.5 -468.0 32.5 -393.5 32.5 -261.5 32.5 -151.0 85.0 -78.5 151.5 12.0 290.0 12.0 377.5 12.0 436.0 -28.0 494.0 -68.5 521.0 -145.5 L381.0 -169.0" fill-rule="evenodd" stroke="none"/>
    </g>
  </defs>
</svg>
