<?xml version="1.0" encoding="UTF-8" standalone="no"?>
<svg xmlns:xlink="http://www.w3.org/1999/xlink" height="100.35px" width="100.45px" xmlns="http://www.w3.org/2000/svg">
  <g transform="matrix(1.0, 0.0, 0.0, 1.0, 50.5, 49.9)">
    <use data-characterId="896" height="100.35" transform="matrix(1.0, 0.0, 0.0, 1.0, -50.5, -49.9)" width="100.45" xlink:href="#shape0"/>
  </g>
  <defs>
    <g id="shape0" transform="matrix(1.0, 0.0, 0.0, 1.0, 50.5, 49.9)">
      <path d="M37.25 -33.5 L35.35 -35.5 32.45 -38.2 M15.15 -47.9 L11.3 -48.85 M48.5 -12.6 L47.4 -16.4 M48.75 11.35 L49.45 7.35 M38.0 32.4 L40.45 29.35 M18.7 46.45 L22.4 44.8 M-45.4 -21.5 L-46.95 -17.85 M-30.3 -40.0 L-33.35 -37.45 M-8.75 -49.4 L-12.6 -48.65 M-27.3 41.95 L-23.9 44.0 M-43.55 24.85 L-41.4 28.2 M-50.0 2.05 L-49.75 6.05 M-4.75 49.75 L-0.65 49.95" fill="none" stroke="#ffff00" stroke-linecap="round" stroke-linejoin="round" stroke-width="1.0"/>
    </g>
  </defs>
</svg>
