<?xml version="1.0" encoding="UTF-8" standalone="no"?>
<svg xmlns:xlink="http://www.w3.org/1999/xlink" height="21.75px" width="41.0px" xmlns="http://www.w3.org/2000/svg">
  <g transform="matrix(1.0, 0.0, 0.0, 1.0, 21.0, 8.0)">
    <use data-characterId="870" height="15.0" transform="matrix(1.0, 0.0, 0.0, 1.0, -21.0, -8.0)" width="41.0" xlink:href="#shape0"/>
    <use data-characterId="871" height="21.05" transform="matrix(1.0, 0.0, 0.0, 1.0, -11.5, -7.55)" width="22.85" xlink:href="#text0"/>
  </g>
  <defs>
    <g id="shape0" transform="matrix(1.0, 0.0, 0.0, 1.0, 21.0, 8.0)">
      <path d="M19.5 -7.5 L19.5 6.5 -20.5 6.5 -20.5 -7.5 19.5 -7.5" fill="#993300" fill-rule="evenodd" stroke="none"/>
      <path d="M19.5 -7.5 L19.5 6.5 -20.5 6.5 -20.5 -7.5 19.5 -7.5 Z" fill="none" stroke="#333333" stroke-linecap="butt" stroke-linejoin="miter-clip" stroke-miterlimit="3.0" stroke-width="1.0"/>
    </g>
    <g id="text0" transform="matrix(1.0, 0.0, 0.0, 1.0, -8.0, 0.8)">
      <g transform="matrix(1.0, 0.0, 0.0, 1.0, 8.0, -1.35)">
        <use fill="#ffff00" height="21.05" transform="matrix(0.0098, 0.0, 0.0, 0.0098, 0.0, 10.0)" width="22.85" xlink:href="#font_Trebuchet_MS_A0"/>
        <use fill="#ffff00" height="21.05" transform="matrix(0.0098, 0.0, 0.0, 0.0098, 6.35, 10.0)" width="22.85" xlink:href="#font_Trebuchet_MS_L0"/>
        <use fill="#ffff00" height="21.05" transform="matrix(0.0098, 0.0, 0.0, 0.0098, 11.9, 10.0)" width="22.85" xlink:href="#font_Trebuchet_MS_L0"/>
      </g>
    </g>
    <g id="font_Trebuchet_MS_A0">
      <path d="M323.0 -518.5 L411.0 -248.0 235.0 -248.0 323.0 -518.5 M502.5 0.0 L646.0 0.0 351.5 -742.5 294.5 -742.5 2.5 0.0 147.0 0.0 198.0 -148.5 449.0 -148.5 502.5 0.0" fill-rule="evenodd" stroke="none"/>
    </g>
    <g id="font_Trebuchet_MS_L0">
      <path d="M75.0 0.0 L536.0 0.0 536.0 -115.5 205.0 -115.5 205.0 -732.5 75.0 -732.5 75.0 0.0" fill-rule="evenodd" stroke="none"/>
    </g>
  </defs>
</svg>
