<?xml version="1.0" encoding="UTF-8" standalone="no"?>
<svg xmlns:xlink="http://www.w3.org/1999/xlink" height="49.7px" width="65.3px" xmlns="http://www.w3.org/2000/svg">
  <g transform="matrix(1.0, 0.0, 0.0, 1.0, 30.6, 22.55)">
    <clipPath id="clipPath0" transform="matrix(1.0, 0.0, 0.0, 1.0, 0.0, 0.0)">
      <path d="M9.1 -0.05 Q9.1 3.7 6.35 6.35 3.65 9.05 -0.2 9.05 -4.05 9.05 -6.8 6.35 -9.5 3.7 -9.5 -0.1 -9.5 -3.85 -6.8 -6.55 -4.05 -9.2 -0.2 -9.2 3.65 -9.2 6.35 -6.55 9.1 -3.85 9.1 -0.05" fill="#00cccc" fill-rule="evenodd" stroke="none"/>
      <path d="M9.1 -0.05 Q9.1 3.7 6.35 6.35 3.65 9.05 -0.2 9.05 -4.05 9.05 -6.8 6.35 -9.5 3.7 -9.5 -0.1 -9.5 -3.85 -6.8 -6.55 -4.05 -9.2 -0.2 -9.2 3.65 -9.2 6.35 -6.55 9.1 -3.85 9.1 -0.05 Z" fill="none" stroke="#333333" stroke-linecap="round" stroke-linejoin="round" stroke-width="1.0"/>
    </clipPath>
    <g clip-path="url(#clipPath0)">
      <use data-characterId="32" height="49.7" transform="matrix(1.0, 0.0, 0.0, 1.0, -30.6, -22.55)" width="65.3" xlink:href="#shape1"/>
    </g>
  </g>
  <defs>
    <g id="shape1" transform="matrix(1.0, 0.0, 0.0, 1.0, 30.6, 22.55)">
      <path d="M24.8 -14.95 Q34.2 -7.85 34.2 2.3 34.2 12.4 24.8 19.5 15.4 26.65 2.05 26.65 -11.25 26.65 -20.7 19.5 -30.1 12.4 -30.1 2.25 -30.1 -7.85 -20.7 -14.95 -11.25 -22.05 2.05 -22.05 15.4 -22.05 24.8 -14.95" fill="#ffff00" fill-rule="evenodd" stroke="none"/>
      <path d="M24.8 -14.95 Q34.2 -7.85 34.2 2.3 34.2 12.4 24.8 19.5 15.4 26.65 2.05 26.65 -11.25 26.65 -20.7 19.5 -30.1 12.4 -30.1 2.25 -30.1 -7.85 -20.7 -14.95 -11.25 -22.05 2.05 -22.05 15.4 -22.05 24.8 -14.95 Z" fill="none" stroke="#d6d6d6" stroke-linecap="round" stroke-linejoin="round" stroke-width="1.0"/>
    </g>
  </defs>
</svg>
