<?xml version="1.0" encoding="UTF-8" standalone="no"?>
<svg xmlns:xlink="http://www.w3.org/1999/xlink" height="112.0px" width="167.95px" xmlns="http://www.w3.org/2000/svg">
  <g transform="matrix(1.0, 0.0, 0.0, 1.0, 1.5, 0.5)">
    <use data-characterId="451" height="112.0" transform="matrix(1.0, 0.0, 0.0, 1.0, -1.5, -0.5)" width="167.95" xlink:href="#shape0"/>
    <use data-characterId="452" height="19.6" id="label" transform="matrix(1.0, 0.0, 0.0, 1.0, 4.0, 4.05)" width="157.95" xlink:href="#text0"/>
    <use data-characterId="453" height="19.0" id="newnumber" transform="matrix(1.0, 0.0, 0.0, 1.0, 9.0, 86.0)" width="55.0" xlink:href="#text1"/>
    <use data-characterId="454" height="54.8" id="description" transform="matrix(1.0, 0.0, 0.0, 1.0, 0.95, 27.2)" width="162.0" xlink:href="#text2"/>
    <use data-characterId="457" height="23.0" transform="matrix(1.0, 0.0, 0.0, 1.0, 116.35, 81.35)" width="46.0" xlink:href="#button0"/>
    <use data-characterId="460" height="23.0" id="okbutton" transform="matrix(1.0, 0.0, 0.0, 1.0, 71.45, 83.0)" width="37.0" xlink:href="#button1"/>
  </g>
  <defs>
    <g id="shape0" transform="matrix(1.0, 0.0, 0.0, 1.0, 1.5, 0.5)">
      <path d="M165.95 111.0 L-1.0 111.0 -1.0 0.0 165.95 0.0 165.95 111.0 Z" fill="none" stroke="#cccccc" stroke-linecap="round" stroke-linejoin="round" stroke-width="1.0"/>
    </g>
    <g id="text0" transform="matrix(1.0, 0.0, 0.0, 1.0, 2.0, 2.0)">
      <g transform="matrix(1.0, 0.0, 0.0, 1.0, -2.0, -2.0)">
        <use fill="#00ffff" height="19.6" transform="matrix(0.0137, 0.0, 0.0, 0.0137, 64.15, 14.55)" width="157.95" xlink:href="#font_Arial_l0"/>
        <use fill="#00ffff" height="19.6" transform="matrix(0.0137, 0.0, 0.0, 0.0137, 67.25, 14.55)" width="157.95" xlink:href="#font_Arial_a0"/>
        <use fill="#00ffff" height="19.6" transform="matrix(0.0137, 0.0, 0.0, 0.0137, 75.05, 14.55)" width="157.95" xlink:href="#font_Arial_b0"/>
        <use fill="#00ffff" height="19.6" transform="matrix(0.0137, 0.0, 0.0, 0.0137, 82.85, 14.55)" width="157.95" xlink:href="#font_Arial_e0"/>
        <use fill="#00ffff" height="19.6" transform="matrix(0.0137, 0.0, 0.0, 0.0137, 90.65, 14.55)" width="157.95" xlink:href="#font_Arial_l0"/>
      </g>
    </g>
    <g id="font_Arial_l0">
      <path d="M65.5 0.0 L155.5 0.0 155.5 -733.0 65.5 -733.0 65.5 0.0" fill-rule="evenodd" stroke="none"/>
    </g>
    <g id="font_Arial_a0">
      <path d="M406.5 -266.5 L406.5 -233.5 Q406.5 -174.0 392.0 -143.5 373.0 -104.0 332.5 -81.0 292.0 -58.5 240.0 -58.5 187.5 -58.5 160.5 -82.5 133.0 -106.5 133.0 -142.5 133.0 -166.0 145.5 -185.0 158.0 -204.5 181.0 -214.5 204.0 -224.5 259.5 -232.5 357.5 -246.5 406.5 -266.5 M414.0 -65.5 Q418.0 -28.0 432.0 0.0 L526.0 0.0 Q509.0 -30.5 503.5 -63.5 497.5 -97.0 497.5 -222.5 L497.5 -342.5 Q497.5 -402.5 493.0 -425.5 485.0 -462.5 465.0 -486.5 445.0 -511.0 402.5 -527.0 360.0 -543.0 292.0 -543.0 223.5 -543.0 171.5 -524.0 119.5 -505.5 92.0 -470.5 64.5 -436.0 52.5 -379.5 L140.5 -367.5 Q155.0 -424.0 185.5 -446.0 215.5 -468.5 279.0 -468.5 347.0 -468.5 381.5 -438.0 407.0 -415.5 407.0 -360.5 L406.5 -337.0 Q355.0 -319.0 246.0 -306.0 192.5 -299.5 166.0 -292.5 130.0 -282.5 101.5 -263.0 72.5 -243.5 55.0 -211.0 37.0 -179.0 37.0 -140.0 37.0 -73.5 84.0 -30.5 131.0 12.0 218.5 12.0 271.5 12.0 318.0 -5.5 364.0 -23.0 414.0 -65.5" fill-rule="evenodd" stroke="none"/>
    </g>
    <g id="font_Arial_b0">
      <path d="M149.5 -269.5 Q149.5 -366.5 192.5 -417.5 235.5 -469.0 294.5 -469.0 353.0 -469.0 394.5 -419.5 435.5 -370.0 435.5 -266.0 435.5 -164.5 392.5 -113.0 349.5 -62.0 290.5 -62.0 218.0 -62.0 175.5 -131.5 149.5 -174.0 149.5 -269.5 M150.5 0.0 L150.5 -66.5 Q204.0 12.0 298.0 12.0 392.5 12.0 460.0 -62.5 527.5 -137.0 527.5 -273.5 527.5 -331.0 511.5 -381.5 495.5 -432.0 467.5 -467.5 439.0 -503.5 395.5 -523.0 351.5 -543.0 302.5 -543.0 214.0 -543.0 157.0 -471.5 L157.0 -733.0 67.0 -733.0 67.0 0.0 150.5 0.0" fill-rule="evenodd" stroke="none"/>
    </g>
    <g id="font_Arial_e0">
      <path d="M135.5 -316.5 Q140.0 -386.0 182.5 -427.5 224.5 -469.0 286.5 -469.0 355.0 -469.0 398.0 -417.0 426.0 -383.5 432.0 -316.5 L135.5 -316.5 M431.0 -171.0 Q410.5 -114.0 375.5 -88.0 340.5 -62.0 291.0 -62.0 224.5 -62.0 180.0 -108.5 135.5 -155.0 130.5 -242.5 L526.5 -242.5 527.0 -266.5 Q527.0 -398.0 459.5 -470.5 392.0 -543.0 285.5 -543.0 175.5 -543.0 106.5 -469.0 37.5 -395.0 37.5 -261.0 37.5 -131.5 106.0 -59.5 174.0 12.0 290.5 12.0 383.0 12.0 442.5 -33.0 502.0 -78.0 524.0 -159.5 L431.0 -171.0" fill-rule="evenodd" stroke="none"/>
    </g>
    <g id="text1" transform="matrix(1.0, 0.0, 0.0, 1.0, 2.0, 2.0)">
      <g transform="matrix(1.0, 0.0, 0.0, 1.0, -2.0, -2.0)">
        <path d="M0.0 0.0 L0.0 19.0 55.0 19.0 55.0 0.0 0.0 0.0" fill="#ffffff" fill-rule="evenodd" stroke="none"/>
        <path d="M0.0 0.0 L55.0 0.0 55.0 19.0 0.0 19.0 0.0 0.0 Z" fill="none" stroke="#000000" stroke-linecap="round" stroke-linejoin="round" stroke-width="1.0"/>
      </g>
    </g>
    <g id="text2" transform="matrix(1.0, 0.0, 0.0, 1.0, 2.0, 2.0)">
      <g transform="matrix(1.0, 0.0, 0.0, 1.0, -2.0, -2.0)">
        <use fill="#00ff33" height="54.8" transform="matrix(0.0117, 0.0, 0.0, 0.0117, 52.05, 12.75)" width="162.0" xlink:href="#font_Arial_d0"/>
        <use fill="#00ff33" height="54.8" transform="matrix(0.0117, 0.0, 0.0, 0.0117, 58.7, 12.75)" width="162.0" xlink:href="#font_Arial_e0"/>
        <use fill="#00ff33" height="54.8" transform="matrix(0.0117, 0.0, 0.0, 0.0117, 65.35, 12.75)" width="162.0" xlink:href="#font_Arial_s0"/>
        <use fill="#00ff33" height="54.8" transform="matrix(0.0117, 0.0, 0.0, 0.0117, 71.35, 12.75)" width="162.0" xlink:href="#font_Arial_c0"/>
        <use fill="#00ff33" height="54.8" transform="matrix(0.0117, 0.0, 0.0, 0.0117, 77.35, 12.75)" width="162.0" xlink:href="#font_Arial_r0"/>
        <use fill="#00ff33" height="54.8" transform="matrix(0.0117, 0.0, 0.0, 0.0117, 81.35, 12.75)" width="162.0" xlink:href="#font_Arial_i0"/>
        <use fill="#00ff33" height="54.8" transform="matrix(0.0117, 0.0, 0.0, 0.0117, 84.0, 12.75)" width="162.0" xlink:href="#font_Arial_p0"/>
        <use fill="#00ff33" height="54.8" transform="matrix(0.0117, 0.0, 0.0, 0.0117, 90.65, 12.75)" width="162.0" xlink:href="#font_Arial_t0"/>
        <use fill="#00ff33" height="54.8" transform="matrix(0.0117, 0.0, 0.0, 0.0117, 94.0, 12.75)" width="162.0" xlink:href="#font_Arial_i0"/>
        <use fill="#00ff33" height="54.8" transform="matrix(0.0117, 0.0, 0.0, 0.0117, 96.65, 12.75)" width="162.0" xlink:href="#font_Arial_o0"/>
        <use fill="#00ff33" height="54.8" transform="matrix(0.0117, 0.0, 0.0, 0.0117, 103.3, 12.75)" width="162.0" xlink:href="#font_Arial_n0"/>
      </g>
    </g>
    <g id="font_Arial_d0">
      <path d="M127.5 -265.0 Q127.5 -370.5 168.0 -419.5 208.0 -468.5 268.0 -468.5 329.5 -468.5 371.5 -417.5 413.5 -366.5 413.5 -257.5 413.5 -158.5 372.5 -110.0 331.0 -62.0 272.0 -62.0 213.5 -62.0 170.5 -112.5 127.5 -163.0 127.5 -265.0 M412.0 0.0 L495.5 0.0 495.5 -733.0 406.0 -733.0 406.0 -470.0 Q382.5 -502.5 345.0 -522.5 307.5 -543.0 259.5 -543.0 194.0 -543.0 141.0 -508.5 88.0 -474.0 61.5 -409.0 35.0 -344.5 35.0 -265.0 35.0 -183.5 64.5 -120.5 93.5 -58.0 147.0 -23.0 200.0 12.0 263.5 12.0 361.5 12.0 412.0 -67.0 L412.0 0.0" fill-rule="evenodd" stroke="none"/>
    </g>
    <g id="font_Arial_s0">
      <path d="M31.5 -158.5 Q46.5 -74.0 101.0 -31.0 155.0 12.0 258.5 12.0 321.0 12.0 370.5 -9.5 420.0 -31.5 446.5 -71.0 472.5 -111.0 472.5 -156.0 472.5 -202.0 451.0 -233.0 429.5 -264.0 392.0 -280.0 354.0 -296.5 258.5 -322.0 192.5 -340.0 179.0 -345.0 155.5 -354.5 144.5 -369.0 133.5 -383.0 133.5 -400.5 133.5 -428.0 160.0 -448.5 186.5 -469.0 248.5 -469.0 301.0 -469.0 330.0 -446.0 358.5 -423.0 364.5 -382.0 L452.5 -394.0 Q444.0 -445.5 421.5 -476.0 399.0 -507.0 352.0 -525.0 304.5 -543.0 242.0 -543.0 200.5 -543.0 164.5 -532.0 128.0 -521.5 107.0 -506.0 79.0 -486.0 63.0 -455.5 46.5 -425.5 46.5 -390.0 46.5 -351.0 66.5 -318.5 86.0 -286.5 124.5 -268.0 162.5 -250.0 261.5 -225.0 335.0 -206.5 353.5 -194.5 380.0 -177.0 380.0 -146.5 380.0 -112.5 350.0 -87.0 320.0 -62.0 258.0 -62.0 196.5 -62.0 162.5 -90.5 128.0 -119.0 120.5 -172.5 L31.5 -158.5" fill-rule="evenodd" stroke="none"/>
    </g>
    <g id="font_Arial_c0">
      <path d="M414.0 -194.5 Q404.5 -127.0 369.0 -94.5 333.5 -62.0 280.5 -62.0 214.5 -62.0 173.5 -110.5 132.5 -159.0 132.5 -266.0 132.5 -371.5 175.0 -420.0 217.5 -469.0 285.5 -469.0 330.5 -469.0 362.5 -442.0 394.0 -415.0 406.5 -361.5 L494.0 -375.0 Q478.5 -455.5 423.5 -499.0 368.5 -543.0 282.0 -543.0 213.5 -543.0 155.5 -510.5 97.0 -478.5 68.5 -414.0 40.0 -349.5 40.0 -263.5 40.0 -130.5 106.5 -59.0 172.5 12.0 281.5 12.0 368.5 12.0 428.5 -39.5 488.0 -91.5 502.5 -183.0 L414.0 -194.5" fill-rule="evenodd" stroke="none"/>
    </g>
    <g id="font_Arial_r0">
      <path d="M66.5 0.0 L156.5 0.0 156.5 -278.0 Q156.5 -335.0 171.5 -383.0 181.5 -414.5 205.0 -432.0 228.5 -450.0 258.0 -450.0 291.0 -450.0 324.0 -430.5 L355.0 -514.0 Q308.0 -543.0 262.5 -543.0 231.0 -543.0 205.0 -525.0 178.5 -507.0 147.5 -450.5 L147.5 -531.0 66.5 -531.0 66.5 0.0" fill-rule="evenodd" stroke="none"/>
    </g>
    <g id="font_Arial_i0">
      <path d="M68.0 0.0 L158.0 0.0 158.0 -531.0 68.0 -531.0 68.0 0.0 M68.0 -629.5 L158.0 -629.5 158.0 -733.0 68.0 -733.0 68.0 -629.5" fill-rule="evenodd" stroke="none"/>
    </g>
    <g id="font_Arial_p0">
      <path d="M149.0 -262.5 Q149.0 -365.0 193.5 -418.5 237.5 -472.5 295.0 -472.5 353.0 -472.5 395.0 -422.0 436.5 -371.5 436.5 -270.0 436.5 -163.5 394.0 -112.5 351.0 -62.0 291.0 -62.0 232.0 -62.0 190.5 -111.0 149.0 -160.0 149.0 -262.5 M67.5 203.5 L157.5 203.5 157.5 -55.0 Q180.5 -26.0 216.5 -7.0 252.0 12.0 297.0 12.0 358.5 12.0 414.5 -22.5 470.0 -57.5 499.5 -122.5 528.5 -188.0 528.5 -269.5 528.5 -345.5 502.0 -409.0 475.5 -473.0 423.5 -508.0 371.5 -543.0 303.5 -543.0 251.5 -543.0 215.0 -522.5 178.5 -502.5 149.5 -462.0 L149.5 -531.0 67.5 -531.0 67.5 203.5" fill-rule="evenodd" stroke="none"/>
    </g>
    <g id="font_Arial_t0">
      <path d="M264.0 -80.5 Q239.5 -77.0 224.5 -77.0 204.5 -77.0 194.0 -83.5 183.0 -90.0 178.5 -101.0 173.5 -112.0 173.5 -150.5 L173.5 -461.0 264.0 -461.0 264.0 -531.0 173.5 -531.0 173.5 -716.5 84.0 -662.5 84.0 -531.0 18.0 -531.0 18.0 -461.0 84.0 -461.0 84.0 -155.5 Q84.0 -74.5 95.0 -49.0 106.0 -24.0 133.0 -8.5 160.0 7.0 209.0 7.0 239.0 7.0 277.0 -1.0 L264.0 -80.5" fill-rule="evenodd" stroke="none"/>
    </g>
    <g id="font_Arial_o0">
      <path d="M126.5 -265.5 Q126.5 -367.5 171.0 -418.0 215.5 -468.5 283.0 -468.5 349.5 -468.5 394.5 -417.5 439.0 -367.0 439.0 -268.5 439.0 -164.0 394.5 -113.0 350.0 -62.0 283.0 -62.0 215.5 -62.0 171.0 -112.5 126.5 -163.5 126.5 -265.5 M34.0 -265.5 Q34.0 -131.0 103.0 -59.5 171.5 12.0 283.0 12.0 352.5 12.0 411.5 -20.5 470.0 -53.0 501.0 -111.5 531.5 -170.5 531.5 -273.0 531.5 -399.5 462.0 -471.0 392.5 -543.0 283.0 -543.0 184.5 -543.0 116.0 -484.0 34.0 -413.0 34.0 -265.5" fill-rule="evenodd" stroke="none"/>
    </g>
    <g id="font_Arial_n0">
      <path d="M67.5 0.0 L157.5 0.0 157.5 -290.0 Q157.5 -392.0 199.5 -428.5 241.0 -465.0 298.5 -465.0 334.5 -465.0 361.5 -448.5 388.0 -432.5 398.5 -405.0 409.0 -378.0 409.0 -323.0 L409.0 0.0 499.0 0.0 499.0 -326.5 Q499.0 -389.0 494.0 -414.0 486.0 -452.5 466.0 -480.5 446.0 -508.5 406.0 -525.5 365.5 -543.0 317.5 -543.0 207.0 -543.0 148.5 -455.5 L148.5 -531.0 67.5 -531.0 67.5 0.0" fill-rule="evenodd" stroke="none"/>
    </g>
    <g id="button0" transform="matrix(1.0, 0.0, 0.0, 1.0, 1.55, 0.0)">
      <use data-characterId="455" height="23.0" transform="matrix(1.0, 0.0, 0.0, 1.0, -1.55, 0.0)" width="46.0" xlink:href="#shape1"/>
      <use data-characterId="456" height="9.4" transform="matrix(1.0, 0.0, 0.0, 1.0, 3.15, 7.2)" width="28.45" xlink:href="#text3"/>
    </g>
    <g id="shape1" transform="matrix(1.0, 0.0, 0.0, 1.0, 1.55, 0.0)">
      <path d="M43.95 22.5 L-1.05 22.5 -1.05 0.5 43.95 0.5 43.95 22.5" fill="#808080" fill-rule="evenodd" stroke="none"/>
      <path d="M43.95 22.5 L-1.05 22.5 -1.05 0.5 43.95 0.5 43.95 22.5 Z" fill="none" stroke="#cccccc" stroke-linecap="round" stroke-linejoin="round" stroke-width="1.0"/>
    </g>
    <g id="text3" transform="matrix(1.0, 0.0, 0.0, 1.0, -1.2, -1.5)">
      <g transform="matrix(1.0, 0.0, 0.0, 1.0, 0.0, 0.0)">
        <use fill="#ffffff" height="9.4" transform="matrix(0.0098, 0.0, 0.0, 0.0098, 1.0, 10.0)" width="28.45" xlink:href="#font_Trebuchet_MS_C0"/>
        <use fill="#ffffff" height="9.4" transform="matrix(0.0098, 0.0, 0.0, 0.0098, 5.3, 10.0)" width="28.45" xlink:href="#font_Trebuchet_MS_A0"/>
        <use fill="#ffffff" height="9.4" transform="matrix(0.0098, 0.0, 0.0, 0.0098, 9.45, 10.0)" width="28.45" xlink:href="#font_Trebuchet_MS_N0"/>
        <use fill="#ffffff" height="9.4" transform="matrix(0.0098, 0.0, 0.0, 0.0098, 14.15, 10.0)" width="28.45" xlink:href="#font_Trebuchet_MS_C0"/>
        <use fill="#ffffff" height="9.4" transform="matrix(0.0098, 0.0, 0.0, 0.0098, 18.45, 10.0)" width="28.45" xlink:href="#font_Trebuchet_MS_E0"/>
        <use fill="#ffffff" height="9.4" transform="matrix(0.0098, 0.0, 0.0, 0.0098, 22.1, 10.0)" width="28.45" xlink:href="#font_Trebuchet_MS_L0"/>
      </g>
    </g>
    <g id="font_Trebuchet_MS_C0">
      <path d="M542.5 -705.5 Q475.0 -745.0 355.5 -745.0 216.0 -745.0 128.0 -636.5 40.0 -528.0 40.0 -364.0 40.0 -194.5 122.5 -91.0 205.0 12.5 348.5 12.5 485.5 12.5 572.5 -74.0 545.0 -112.0 517.5 -150.5 462.0 -77.5 359.0 -77.5 264.5 -77.5 205.0 -155.0 145.0 -233.0 145.0 -358.0 145.0 -489.0 203.5 -572.0 261.5 -655.0 358.0 -655.0 461.0 -655.0 509.0 -620.0 526.0 -662.5 542.5 -705.5" fill-rule="evenodd" stroke="none"/>
    </g>
    <g id="font_Trebuchet_MS_A0">
      <path d="M308.0 -550.5 L412.0 -228.0 194.5 -228.0 Q251.5 -389.0 308.0 -550.5 M491.0 0.0 L602.0 0.0 326.0 -742.5 299.5 -742.5 Q151.0 -371.0 2.0 0.0 L114.0 0.0 168.0 -154.5 440.5 -154.5 491.0 0.0" fill-rule="evenodd" stroke="none"/>
    </g>
    <g id="font_Trebuchet_MS_N0">
      <path d="M548.5 10.0 L578.5 10.0 578.5 -732.5 483.5 -732.5 483.5 -226.0 115.0 -732.5 75.0 -732.5 75.0 0.0 170.0 0.0 170.0 -525.5 548.5 10.0" fill-rule="evenodd" stroke="none"/>
    </g>
    <g id="font_Trebuchet_MS_E0">
      <path d="M175.0 -642.5 L512.5 -642.5 512.5 -732.5 75.0 -732.5 75.0 0.0 507.0 0.0 507.0 -90.0 175.0 -90.0 175.0 -354.0 417.0 -354.0 417.0 -439.0 175.0 -439.0 175.0 -642.5" fill-rule="evenodd" stroke="none"/>
    </g>
    <g id="font_Trebuchet_MS_L0">
      <path d="M75.0 0.0 L506.0 0.0 506.0 -90.0 175.0 -90.0 175.0 -732.5 75.0 -732.5 75.0 0.0" fill-rule="evenodd" stroke="none"/>
    </g>
    <g id="button1" transform="matrix(1.0, 0.0, 0.0, 1.0, 1.5, 1.5)">
      <use data-characterId="458" height="23.0" transform="matrix(1.0, 0.0, 0.0, 1.0, -1.5, -1.5)" width="37.0" xlink:href="#shape2"/>
      <use data-characterId="459" height="10.9" transform="matrix(1.0, 0.0, 0.0, 1.0, 11.5, 3.25)" width="19.7" xlink:href="#text4"/>
    </g>
    <g id="shape2" transform="matrix(1.0, 0.0, 0.0, 1.0, 1.5, 1.5)">
      <path d="M35.0 -1.0 L35.0 21.0 -1.0 21.0 -1.0 -1.0 35.0 -1.0" fill="#808080" fill-rule="evenodd" stroke="none"/>
      <path d="M35.0 -1.0 L35.0 21.0 -1.0 21.0 -1.0 -1.0 35.0 -1.0 Z" fill="none" stroke="#cccccc" stroke-linecap="round" stroke-linejoin="round" stroke-width="1.0"/>
    </g>
    <g id="text4" transform="matrix(1.0, 0.0, 0.0, 1.0, -0.5, -2.05)">
      <g transform="matrix(1.0, 0.0, 0.0, 1.0, 0.0, 0.0)">
        <use fill="#ffffff" height="10.9" transform="matrix(0.0117, 0.0, 0.0, 0.0117, 0.0, 12.0)" width="19.7" xlink:href="#font_Trebuchet_MS_O0"/>
        <use fill="#ffffff" height="10.9" transform="matrix(0.0117, 0.0, 0.0, 0.0117, 8.05, 12.0)" width="19.7" xlink:href="#font_Trebuchet_MS_K0"/>
      </g>
    </g>
    <g id="font_Trebuchet_MS_O0">
      <path d="M145.0 -372.5 Q145.0 -503.5 193.5 -579.5 242.0 -655.5 335.0 -655.5 545.0 -655.5 545.0 -372.5 545.0 -232.5 491.5 -155.0 437.5 -77.5 335.0 -77.5 244.5 -77.5 195.0 -162.0 145.0 -246.5 145.0 -372.5 M40.0 -372.5 Q40.0 -203.5 118.5 -95.5 196.5 12.5 335.0 12.5 487.0 12.5 568.5 -89.5 650.0 -192.0 650.0 -372.5 650.0 -548.5 569.0 -647.0 487.5 -745.5 335.0 -745.5 199.5 -745.5 120.0 -638.5 40.0 -531.5 40.0 -372.5" fill-rule="evenodd" stroke="none"/>
    </g>
    <g id="font_Trebuchet_MS_K0">
      <path d="M479.0 0.0 L589.5 0.0 339.5 -415.0 558.5 -732.5 447.0 -732.5 Q311.0 -533.0 175.0 -334.0 L175.0 -732.5 75.0 -732.5 75.0 0.0 175.0 0.0 175.0 -198.5 Q224.0 -267.5 272.5 -337.0 376.0 -168.5 479.0 0.0" fill-rule="evenodd" stroke="none"/>
    </g>
  </defs>
</svg>
