<?xml version="1.0" encoding="UTF-8" standalone="no"?>
<svg xmlns:xlink="http://www.w3.org/1999/xlink" height="11.55px" width="520.15px" xmlns="http://www.w3.org/2000/svg">
  <g transform="matrix(1.0, 0.0, 0.0, 1.0, 0.05, 0.05)">
    <use data-characterId="1540" height="11.55" transform="matrix(1.0, 0.0, 0.0, 1.0, -0.05, -0.05)" width="520.15" xlink:href="#shape0"/>
  </g>
  <defs>
    <g id="shape0" transform="matrix(1.0, 0.0, 0.0, 1.0, 0.05, 0.05)">
      <path d="M520.05 11.45 L0.0 11.45 0.0 0.0 520.05 0.0 520.05 11.45" fill="#888888" fill-rule="evenodd" stroke="none"/>
      <path d="M520.05 11.45 L0.0 11.45 0.0 0.0 520.05 0.0 520.05 11.45 Z" fill="none" stroke="#333333" stroke-linecap="round" stroke-linejoin="round" stroke-width="0.1"/>
    </g>
  </defs>
</svg>
