<?xml version="1.0" encoding="UTF-8" standalone="no"?>
<svg xmlns:xlink="http://www.w3.org/1999/xlink" height="71.35px" width="166.5px" xmlns="http://www.w3.org/2000/svg">
  <g transform="matrix(1.0, 0.0, 0.0, 1.0, 74.05, 37.45)">
    <use data-characterId="114" height="71.35" transform="matrix(1.0, 0.0, 0.0, 1.0, -38.0, -37.45)" width="75.0" xlink:href="#shape0"/>
    <use data-characterId="138" height="32.9" transform="matrix(1.0, 0.0, 0.0, 1.0, -74.05, -10.45)" width="166.5" xlink:href="#text0"/>
  </g>
  <defs>
    <g id="shape0" transform="matrix(1.0, 0.0, 0.0, 1.0, 38.0, 37.45)">
      <path d="M23.85 -9.95 L23.0 -11.1 Q14.05 -22.2 0.25 -22.5 L-0.5 -22.5 Q-15.5 -22.25 -24.8 -10.0 M-0.5 18.95 Q-15.5 18.65 -24.8 6.4 M23.85 6.4 L23.0 7.5 Q14.05 18.6 0.25 18.9 L-0.5 18.95" fill="none" stroke="#cccccc" stroke-linecap="round" stroke-linejoin="round" stroke-width="2.0"/>
      <path d="M0.25 -36.4 Q-5.2 -36.75 -11.2 -35.25 -27.1 -31.3 -37.0 -17.65 M0.25 -36.4 Q17.95 -36.0 30.35 -24.15 33.45 -21.2 36.0 -17.6 M-37.0 14.05 Q-27.1 27.7 -11.2 31.65 -5.9 32.95 -0.45 32.9 L1.05 32.85 Q17.95 32.4 30.35 20.6 33.45 17.6 36.0 14.05" fill="none" stroke="#999999" stroke-linecap="round" stroke-linejoin="round" stroke-width="2.0"/>
      <path d="M0.25 -22.5 L0.25 -36.4" fill="none" stroke="#cccccc" stroke-linecap="round" stroke-linejoin="round" stroke-width="2.0"/>
      <path d="M-0.45 32.9 L-0.5 18.95" fill="none" stroke="#cccccc" stroke-linecap="round" stroke-linejoin="round" stroke-width="1.0"/>
    </g>
  </defs>
</svg>
