<?xml version="1.0" encoding="UTF-8" standalone="no"?>
<svg xmlns:xlink="http://www.w3.org/1999/xlink" height="102.0px" width="102.0px" xmlns="http://www.w3.org/2000/svg">
  <g transform="matrix(1.0, 0.0, 0.0, 1.0, 51.0, 51.0)">
    <path d="M-5.0 0.0 Q-5.0 -2.1 -3.55 -3.55 -2.1 -5.0 0.0 -5.0 2.05 -5.0 3.5 -3.55 4.95 -2.1 5.0 0.0 4.95 2.1 3.5 3.55 2.05 5.0 0.0 5.0 -2.1 5.0 -3.55 3.55 -5.0 2.1 -5.0 0.0 -5.0 -2.1 -3.55 -3.55 -2.1 -5.0 0.0 -5.0 2.05 -5.0 3.5 -3.55 4.95 -2.1 5.0 0.0 4.95 2.1 3.5 3.55 2.05 5.0 0.0 5.0 -2.1 5.0 -3.55 3.55 -5.0 2.1 -5.0 0.0" fill="none" stroke="#ffff00" stroke-linecap="round" stroke-linejoin="round" stroke-width="2.0">
      <animate attributeName="stroke" dur="2s" repeatCount="indefinite" values="#ffff00;#ffff01"/>
      <animate attributeName="stroke-width" dur="2s" repeatCount="indefinite" values="2.0;2.0"/>
      <animate attributeName="fill-opacity" dur="2s" repeatCount="indefinite" values="1.0;1.0"/>
      <animate attributeName="d" dur="2s" repeatCount="indefinite" values="M-5.0 0.0 Q-5.0 -2.1 -3.55 -3.55 -2.1 -5.0 0.0 -5.0 2.05 -5.0 3.5 -3.55 4.95 -2.1 5.0 0.0 4.95 2.1 3.5 3.55 2.05 5.0 0.0 5.0 -2.1 5.0 -3.55 3.55 -5.0 2.1 -5.0 0.0 -5.0 -2.1 -3.55 -3.55 -2.1 -5.0 0.0 -5.0 2.05 -5.0 3.5 -3.55 4.95 -2.1 5.0 0.0 4.95 2.1 3.5 3.55 2.05 5.0 0.0 5.0 -2.1 5.0 -3.55 3.55 -5.0 2.1 -5.0 0.0;M-50.0 0.0 Q-50.05 -20.95 -35.5 -35.5 -20.9 -50.0 0.0 -50.0 20.65 -50.0 35.0 -35.5 49.7 -20.95 50.0 0.0 49.7 20.95 35.0 35.5 20.65 50.0 0.0 50.0 -20.9 50.0 -35.5 35.5 -50.05 20.95 -50.0 0.0 -50.05 -20.95 -35.5 -35.5 -20.9 -50.0 0.0 -50.0 20.65 -50.0 35.0 -35.5 49.7 -20.95 50.0 0.0 49.7 20.95 35.0 35.5 20.65 50.0 0.0 50.0 -20.9 50.0 -35.5 35.5 -50.05 20.95 -50.0 0.0"/>
    </path>
  </g>
</svg>
