<?xml version="1.0" encoding="UTF-8" standalone="no"?>
<svg xmlns:xlink="http://www.w3.org/1999/xlink" height="101.45px" width="167.5px" xmlns="http://www.w3.org/2000/svg">
  <g transform="matrix(1.0, 0.0, 0.0, 1.0, 71.05, 40.0)">
    <use data-characterId="134" height="80.0" transform="matrix(1.0, 0.0, 0.0, 1.0, -39.95, -40.0)" width="80.0" xlink:href="#shape0"/>
    <use data-characterId="135" height="32.9" transform="matrix(1.0, 0.0, 0.0, 1.0, -71.05, 28.55)" width="166.5" xlink:href="#text0"/>
    <use data-characterId="136" height="32.9" transform="matrix(1.0, 0.0, 0.0, 1.0, -70.05, -37.75)" width="166.5" xlink:href="#text1"/>
  </g>
  <defs>
    <g id="shape0" transform="matrix(1.0, 0.0, 0.0, 1.0, 39.95, 40.0)">
      <path d="M40.05 0.0 Q40.0 16.6 28.3 28.25 16.6 40.0 0.05 40.0 -16.6 40.0 -28.3 28.25 -40.0 16.6 -39.95 0.0 -40.0 -16.6 -28.3 -28.35 -16.6 -40.0 0.05 -40.0 16.6 -40.0 28.3 -28.35 40.0 -16.6 40.05 0.0" fill="url(#gradient0)" fill-rule="evenodd" stroke="none"/>
    </g>
    <radialGradient cx="0" cy="0" gradientTransform="matrix(0.0507, 0.0, 0.0, 0.0507, 0.0, 0.0)" gradientUnits="userSpaceOnUse" id="gradient0" r="819.2" spreadMethod="pad">
      <stop offset="0.0" stop-color="#0000ff"/>
      <stop offset="1.0" stop-color="#000000"/>
    </radialGradient>
  </defs>
</svg>
