<?xml version="1.0" encoding="UTF-8" standalone="no"?>
<svg xmlns:xlink="http://www.w3.org/1999/xlink" height="43.0px" width="43.0px" xmlns="http://www.w3.org/2000/svg">
  <g transform="matrix(1.0, 0.0, 0.0, 1.0, 21.5, 21.5)">
    <use data-characterId="716" height="43.0" transform="matrix(1.0, 0.0, 0.0, 1.0, -21.5, -21.5)" width="43.0" xlink:href="#shape0"/>
  </g>
  <defs>
    <g id="shape0" transform="matrix(1.0, 0.0, 0.0, 1.0, 21.5, 21.5)">
      <path d="M6.1 -21.0 Q16.75 -9.5 21.0 4.45 L19.85 12.15 Q13.1 21.1 8.8 21.0 L-8.8 21.0 Q-13.1 21.1 -19.85 12.15 L-21.0 4.45 Q-16.75 -9.5 -6.1 -21.0 L6.1 -21.0 Z" fill="none" stroke="#3366ff" stroke-linecap="round" stroke-linejoin="round" stroke-width="1.0"/>
    </g>
  </defs>
</svg>
