<?xml version="1.0" encoding="UTF-8" standalone="no"?>
<svg xmlns:xlink="http://www.w3.org/1999/xlink" height="173.55px" width="170.4px" xmlns="http://www.w3.org/2000/svg">
  <g transform="matrix(1.0, 0.0, 0.0, 1.0, 91.05, 66.95)">
    <use data-characterId="430" height="36.5" transform="matrix(1.0, 0.0, 0.0, 1.0024, -67.0, 69.9951)" width="145.9" xlink:href="#text0"/>
    <use data-characterId="431" height="36.5" transform="matrix(1.0, 0.0, 0.0, 1.0024, -66.55, -9.6549)" width="145.9" xlink:href="#text1"/>
    <use data-characterId="433" height="36.5" id="label" transform="matrix(1.0, 0.0, 0.0, 1.0, -91.05, -66.95)" width="166.8" xlink:href="#text2"/>
  </g>
  <defs>
    <g id="text0" transform="matrix(1.0, 0.0, 0.0, 1.0, 4.0, 2.0)">
      <g transform="matrix(1.0, 0.0, 0.0, 1.0, -4.0, -2.0)">
        <use fill="#ffff00" height="36.5" transform="matrix(0.0137, 0.0, 0.0, 0.0137, 25.25, 13.15)" width="145.9" xlink:href="#font_Trebuchet_MS_S0"/>
        <use fill="#ffff00" height="36.5" transform="matrix(0.0137, 0.0, 0.0, 0.0137, 32.0, 13.15)" width="145.9" xlink:href="#font_Trebuchet_MS_T0"/>
        <use fill="#ffff00" height="36.5" transform="matrix(0.0137, 0.0, 0.0, 0.0137, 40.15, 13.15)" width="145.9" xlink:href="#font_Trebuchet_MS_A0"/>
        <use fill="#ffff00" height="36.5" transform="matrix(0.0137, 0.0, 0.0, 0.0137, 48.4, 13.15)" width="145.9" xlink:href="#font_Trebuchet_MS_R0"/>
        <use fill="#ffff00" height="36.5" transform="matrix(0.0137, 0.0, 0.0, 0.0137, 56.55, 13.15)" width="145.9" xlink:href="#font_Trebuchet_MS_B0"/>
        <use fill="#ffff00" height="36.5" transform="matrix(0.0137, 0.0, 0.0, 0.0137, 64.5, 13.15)" width="145.9" xlink:href="#font_Trebuchet_MS_A0"/>
        <use fill="#ffff00" height="36.5" transform="matrix(0.0137, 0.0, 0.0, 0.0137, 72.75, 13.15)" width="145.9" xlink:href="#font_Trebuchet_MS_S0"/>
        <use fill="#ffff00" height="36.5" transform="matrix(0.0137, 0.0, 0.0, 0.0137, 79.5, 13.15)" width="145.9" xlink:href="#font_Trebuchet_MS_E0"/>
      </g>
      <g transform="matrix(1.0, 0.0, 0.0, 1.0, -4.0, -2.0)">
        <use fill="#ffff00" height="36.5" transform="matrix(0.0137, 0.0, 0.0, 0.0137, 91.2, 13.15)" width="145.9" xlink:href="#font_Trebuchet_MS_10"/>
        <use fill="#ffff00" height="36.5" transform="matrix(0.0137, 0.0, 0.0, 0.0137, 98.55, 13.15)" width="145.9" xlink:href="#font_Trebuchet_MS_20"/>
        <use fill="#ffff00" height="36.5" transform="matrix(0.0137, 0.0, 0.0, 0.0137, 105.9, 13.15)" width="145.9" xlink:href="#font_Trebuchet_MS_10"/>
        <use fill="#ffff00" height="36.5" transform="matrix(0.0137, 0.0, 0.0, 0.0137, 113.25, 13.15)" width="145.9" xlink:href="#font_Trebuchet_MS_30"/>
      </g>
    </g>
    <g id="font_Trebuchet_MS_S0">
      <path d="M42.0 -33.5 Q111.0 12.5 208.5 12.5 319.5 12.5 386.0 -45.0 452.0 -102.5 452.0 -185.0 452.0 -261.0 422.0 -310.0 391.5 -359.5 316.5 -395.0 L256.5 -423.5 Q198.5 -451.5 180.0 -467.0 161.0 -482.5 150.5 -505.5 140.0 -528.5 140.0 -556.5 140.0 -602.0 169.5 -631.0 198.5 -660.0 249.5 -660.0 284.5 -660.0 325.5 -646.5 366.5 -633.0 386.5 -618.5 L416.0 -705.5 Q368.5 -745.0 247.0 -745.0 156.0 -745.0 98.0 -691.0 40.0 -637.0 40.0 -555.0 40.0 -487.5 70.0 -439.5 99.5 -391.5 174.5 -356.5 L233.5 -329.0 Q313.0 -291.5 333.0 -259.5 352.5 -228.0 352.5 -191.0 352.5 -141.5 317.0 -109.5 281.5 -77.5 223.0 -77.5 190.0 -77.5 148.5 -91.0 106.5 -105.0 78.5 -125.5 L42.0 -33.5" fill-rule="evenodd" stroke="none"/>
    </g>
    <g id="font_Trebuchet_MS_T0">
      <path d="M342.0 -642.5 L585.5 -642.5 585.5 -732.5 9.0 -732.5 9.0 -642.5 242.0 -642.5 242.0 0.0 342.0 0.0 342.0 -642.5" fill-rule="evenodd" stroke="none"/>
    </g>
    <g id="font_Trebuchet_MS_A0">
      <path d="M308.0 -550.5 L412.0 -228.0 194.5 -228.0 308.0 -550.5 M491.0 0.0 L602.0 0.0 326.0 -742.5 299.5 -742.5 2.0 0.0 114.0 0.0 168.0 -154.5 440.5 -154.5 491.0 0.0" fill-rule="evenodd" stroke="none"/>
    </g>
    <g id="font_Trebuchet_MS_R0">
      <path d="M180.0 -642.5 Q224.0 -647.5 239.0 -647.5 334.0 -647.5 378.0 -620.5 422.0 -593.5 422.0 -532.0 422.0 -457.5 381.0 -428.5 340.0 -399.5 250.0 -399.5 216.0 -399.5 180.0 -404.5 L180.0 -642.5 M481.5 0.0 L596.0 0.0 383.5 -337.0 Q442.0 -350.5 484.5 -405.5 527.0 -461.0 527.0 -530.0 527.0 -740.0 263.0 -740.0 230.0 -740.0 158.0 -736.0 85.5 -732.5 80.0 -732.5 L80.0 0.0 180.0 0.0 180.0 -319.5 Q252.5 -314.5 286.0 -314.5 L481.5 0.0" fill-rule="evenodd" stroke="none"/>
    </g>
    <g id="font_Trebuchet_MS_B0">
      <path d="M175.0 -364.5 L255.5 -367.0 Q352.0 -367.0 393.5 -333.0 434.5 -299.0 434.5 -227.5 434.5 -150.5 391.5 -115.0 348.0 -80.0 254.0 -80.0 226.5 -80.0 175.0 -85.0 L175.0 -364.5 M175.0 -652.5 Q214.5 -656.0 264.5 -656.0 395.0 -656.0 395.0 -554.5 395.0 -439.0 253.0 -439.0 206.5 -439.0 175.0 -442.0 L175.0 -652.5 M284.0 0.0 Q398.0 0.0 469.0 -57.5 539.5 -115.0 539.5 -211.5 539.5 -295.0 500.0 -343.5 460.0 -392.0 373.0 -413.0 419.0 -423.5 457.0 -465.5 495.0 -507.5 495.0 -558.5 495.0 -645.5 435.5 -692.0 376.0 -739.0 267.5 -739.0 208.5 -739.0 75.0 -732.5 L75.0 0.0 284.0 0.0" fill-rule="evenodd" stroke="none"/>
    </g>
    <g id="font_Trebuchet_MS_E0">
      <path d="M175.0 -642.5 L512.5 -642.5 512.5 -732.5 75.0 -732.5 75.0 0.0 507.0 0.0 507.0 -90.0 175.0 -90.0 175.0 -354.0 417.0 -354.0 417.0 -439.0 175.0 -439.0 175.0 -642.5" fill-rule="evenodd" stroke="none"/>
    </g>
    <g id="font_Trebuchet_MS_10">
      <path d="M249.0 0.0 L349.0 0.0 349.0 -735.5 319.0 -735.5 Q284.0 -690.5 220.5 -640.5 156.5 -590.5 100.0 -562.0 L100.0 -468.5 249.0 -561.5 249.0 0.0" fill-rule="evenodd" stroke="none"/>
    </g>
    <g id="font_Trebuchet_MS_20">
      <path d="M34.5 0.0 L484.5 0.0 484.5 -90.0 197.5 -90.0 362.0 -351.0 Q441.0 -476.5 441.0 -559.0 441.0 -648.0 381.5 -696.5 322.0 -745.5 216.5 -745.5 146.0 -745.5 96.5 -716.5 46.5 -687.5 29.5 -638.5 L94.0 -585.5 Q110.0 -618.0 145.5 -639.0 181.0 -660.5 221.5 -660.5 336.0 -660.5 336.0 -559.0 336.0 -482.0 264.0 -371.5 L34.5 -20.0 34.5 0.0" fill-rule="evenodd" stroke="none"/>
    </g>
    <g id="font_Trebuchet_MS_30">
      <path d="M54.5 -52.0 Q82.0 -26.5 129.0 -8.0 176.0 10.0 225.0 10.0 341.5 10.0 406.0 -45.5 470.5 -101.0 470.5 -203.0 470.5 -273.0 433.5 -322.0 396.0 -371.5 333.0 -392.0 378.5 -408.0 412.5 -455.0 446.0 -502.0 446.0 -563.0 446.0 -643.0 385.5 -694.0 325.0 -745.5 229.0 -745.5 120.0 -745.5 73.5 -685.0 L118.0 -617.0 Q156.5 -660.5 221.5 -660.5 341.0 -660.5 341.0 -543.5 341.0 -431.5 214.0 -431.5 L209.5 -431.5 209.5 -350.5 217.5 -350.5 Q284.5 -350.5 325.0 -311.5 365.5 -273.0 365.5 -211.0 365.5 -75.0 226.5 -75.0 151.5 -75.0 102.5 -129.0 L54.5 -52.0" fill-rule="evenodd" stroke="none"/>
    </g>
    <g id="text1" transform="matrix(1.0, 0.0, 0.0, 1.0, 4.0, 2.0)">
      <g transform="matrix(1.0, 0.0, 0.0, 1.0, -4.0, -2.0)">
        <use fill="#ffff00" height="36.5" transform="matrix(0.0137, 0.0, 0.0, 0.0137, 25.25, 13.15)" width="145.9" xlink:href="#font_Trebuchet_MS_S0"/>
        <use fill="#ffff00" height="36.5" transform="matrix(0.0137, 0.0, 0.0, 0.0137, 32.0, 13.15)" width="145.9" xlink:href="#font_Trebuchet_MS_T0"/>
        <use fill="#ffff00" height="36.5" transform="matrix(0.0137, 0.0, 0.0, 0.0137, 40.15, 13.15)" width="145.9" xlink:href="#font_Trebuchet_MS_A0"/>
        <use fill="#ffff00" height="36.5" transform="matrix(0.0137, 0.0, 0.0, 0.0137, 48.4, 13.15)" width="145.9" xlink:href="#font_Trebuchet_MS_R0"/>
        <use fill="#ffff00" height="36.5" transform="matrix(0.0137, 0.0, 0.0, 0.0137, 56.55, 13.15)" width="145.9" xlink:href="#font_Trebuchet_MS_B0"/>
        <use fill="#ffff00" height="36.5" transform="matrix(0.0137, 0.0, 0.0, 0.0137, 64.5, 13.15)" width="145.9" xlink:href="#font_Trebuchet_MS_A0"/>
        <use fill="#ffff00" height="36.5" transform="matrix(0.0137, 0.0, 0.0, 0.0137, 72.75, 13.15)" width="145.9" xlink:href="#font_Trebuchet_MS_S0"/>
        <use fill="#ffff00" height="36.5" transform="matrix(0.0137, 0.0, 0.0, 0.0137, 79.5, 13.15)" width="145.9" xlink:href="#font_Trebuchet_MS_E0"/>
      </g>
      <g transform="matrix(1.0, 0.0, 0.0, 1.0, -4.0, -2.0)">
        <use fill="#ffff00" height="36.5" transform="matrix(0.0137, 0.0, 0.0, 0.0137, 91.2, 13.15)" width="145.9" xlink:href="#font_Trebuchet_MS_10"/>
        <use fill="#ffff00" height="36.5" transform="matrix(0.0137, 0.0, 0.0, 0.0137, 98.55, 13.15)" width="145.9" xlink:href="#font_Trebuchet_MS_20"/>
        <use fill="#ffff00" height="36.5" transform="matrix(0.0137, 0.0, 0.0, 0.0137, 105.9, 13.15)" width="145.9" xlink:href="#font_Trebuchet_MS_10"/>
        <use fill="#ffff00" height="36.5" transform="matrix(0.0137, 0.0, 0.0, 0.0137, 113.25, 13.15)" width="145.9" xlink:href="#font_Trebuchet_MS_30"/>
      </g>
    </g>
    <g id="text2" transform="matrix(1.0, 0.0, 0.0, 1.0, 4.0, 2.0)">
      <g transform="matrix(1.0, 0.0, 0.0, 1.0, -4.0, -2.0)">
        <use fill="#ffffff" height="36.5" transform="matrix(0.0137, 0.0, 0.0, 0.0137, 34.8, 13.15)" width="166.8" xlink:href="#font_Trebuchet_MS_n0"/>
        <use fill="#ffffff" height="36.5" transform="matrix(0.0137, 0.0, 0.0, 0.0137, 43.05, 13.15)" width="166.8" xlink:href="#font_Trebuchet_MS_a0"/>
        <use fill="#ffffff" height="36.5" transform="matrix(0.0137, 0.0, 0.0, 0.0137, 50.5, 13.15)" width="166.8" xlink:href="#font_Trebuchet_MS_v0"/>
      </g>
      <g transform="matrix(1.0, 0.0, 0.0, 1.0, -4.0, -2.0)">
        <use fill="#ffffff" height="36.5" transform="matrix(0.0137, 0.0, 0.0, 0.0137, 62.1, 13.15)" width="166.8" xlink:href="#font_Trebuchet_MS_p0"/>
        <use fill="#ffffff" height="36.5" transform="matrix(0.0137, 0.0, 0.0, 0.0137, 70.25, 13.15)" width="166.8" xlink:href="#font_Trebuchet_MS_o0"/>
        <use fill="#ffffff" height="36.5" transform="matrix(0.0137, 0.0, 0.0, 0.0137, 78.2, 13.15)" width="166.8" xlink:href="#font_Trebuchet_MS_i0"/>
        <use fill="#ffffff" height="36.5" transform="matrix(0.0137, 0.0, 0.0, 0.0137, 82.4, 13.15)" width="166.8" xlink:href="#font_Trebuchet_MS_n0"/>
        <use fill="#ffffff" height="36.5" transform="matrix(0.0137, 0.0, 0.0, 0.0137, 90.65, 13.15)" width="166.8" xlink:href="#font_Trebuchet_MS_t0"/>
        <use fill="#ffffff" height="36.5" transform="matrix(0.0137, 0.0, 0.0, 0.0137, 96.2, 13.15)" width="166.8" xlink:href="#font_Trebuchet_MS_n0"/>
        <use fill="#ffffff" height="36.5" transform="matrix(0.0137, 0.0, 0.0, 0.0137, 104.45, 13.15)" width="166.8" xlink:href="#font_Trebuchet_MS_a0"/>
        <use fill="#ffffff" height="36.5" transform="matrix(0.0137, 0.0, 0.0, 0.0137, 111.9, 13.15)" width="166.8" xlink:href="#font_Trebuchet_MS_m0"/>
        <use fill="#ffffff" height="36.5" transform="matrix(0.0137, 0.0, 0.0, 0.0137, 123.95, 13.15)" width="166.8" xlink:href="#font_Trebuchet_MS_e0"/>
      </g>
    </g>
    <g id="font_Trebuchet_MS_n0">
      <path d="M412.0 0.0 L537.0 0.0 537.0 -328.5 Q537.0 -431.0 482.0 -488.0 426.5 -545.5 331.0 -545.5 231.5 -545.5 180.5 -485.5 L157.5 -535.5 67.5 -535.5 67.5 0.0 192.5 0.0 192.5 -387.0 Q210.0 -410.0 241.5 -425.5 272.5 -441.0 300.0 -441.0 359.5 -441.0 386.0 -409.5 412.0 -378.0 412.0 -309.5 L412.0 0.0" fill-rule="evenodd" stroke="none"/>
    </g>
    <g id="font_Trebuchet_MS_a0">
      <path d="M353.5 -252.0 L353.5 -202.0 Q353.5 -89.5 241.0 -89.5 157.5 -89.5 157.5 -161.5 157.5 -258.5 305.5 -258.5 321.5 -258.5 353.5 -252.0 M365.5 -53.5 Q373.0 -30.0 394.5 -10.0 416.0 10.0 443.0 10.0 467.5 10.0 486.5 4.0 505.5 -2.5 521.0 -29.5 478.0 -57.0 478.0 -164.0 L478.0 -278.5 Q478.0 -434.0 421.0 -489.5 364.0 -545.5 241.5 -545.5 152.5 -545.5 88.0 -514.5 L115.0 -417.5 Q162.5 -441.0 233.0 -441.0 352.5 -441.0 352.5 -346.5 322.5 -354.0 300.5 -354.0 172.0 -354.0 102.5 -301.5 32.5 -249.0 32.5 -156.0 32.5 -76.5 82.0 -33.0 131.5 10.0 218.0 10.0 264.0 10.0 306.5 -7.5 348.5 -25.5 365.5 -53.5" fill-rule="evenodd" stroke="none"/>
    </g>
    <g id="font_Trebuchet_MS_v0">
      <path d="M289.5 10.0 L537.5 -535.5 405.0 -535.5 267.5 -208.5 139.5 -535.5 2.5 -535.5 244.5 10.0 289.5 10.0" fill-rule="evenodd" stroke="none"/>
    </g>
    <g id="font_Trebuchet_MS_p0">
      <path d="M182.5 -404.5 Q217.5 -439.5 262.5 -439.5 349.0 -439.5 386.5 -400.5 424.0 -362.0 424.0 -267.0 424.0 -178.0 386.5 -136.5 348.5 -95.5 262.0 -95.5 216.5 -95.5 182.5 -123.0 L182.5 -404.5 M182.5 -13.5 Q231.0 10.0 290.0 10.0 412.5 10.0 483.5 -61.0 554.0 -132.0 554.0 -263.5 554.0 -545.5 298.0 -545.5 229.5 -545.5 182.5 -499.5 L182.5 -535.5 57.5 -535.5 57.5 210.0 182.5 210.0 182.5 -13.5" fill-rule="evenodd" stroke="none"/>
    </g>
    <g id="font_Trebuchet_MS_o0">
      <path d="M162.5 -269.0 Q162.5 -351.5 197.0 -397.5 231.5 -443.5 290.0 -443.5 417.0 -443.5 417.0 -269.0 417.0 -184.0 383.0 -138.0 348.5 -92.0 290.0 -92.0 162.5 -92.0 162.5 -269.0 M32.5 -269.0 Q32.5 -142.5 100.5 -66.0 168.0 10.0 290.0 10.0 409.5 10.0 478.5 -65.5 547.0 -141.0 547.0 -269.0 547.0 -397.5 479.5 -471.5 412.0 -545.5 290.0 -545.5 174.0 -545.5 103.5 -468.5 32.5 -391.5 32.5 -269.0" fill-rule="evenodd" stroke="none"/>
    </g>
    <g id="font_Trebuchet_MS_i0">
      <path d="M101.0 0.0 L227.5 0.0 227.5 -535.5 32.5 -535.5 32.5 -433.0 101.0 -433.0 101.0 0.0 M165.5 -743.0 Q135.5 -743.0 114.5 -721.5 93.0 -700.5 93.0 -670.5 93.0 -640.5 114.5 -619.0 135.5 -598.0 165.5 -598.0 195.5 -598.0 217.0 -619.0 238.0 -640.5 238.0 -670.5 238.0 -700.5 217.0 -721.5 195.5 -743.0 165.5 -743.0" fill-rule="evenodd" stroke="none"/>
    </g>
    <g id="font_Trebuchet_MS_t0">
      <path d="M86.5 -435.0 L86.5 -164.0 Q86.5 -80.5 129.5 -35.0 172.5 10.0 252.5 10.0 333.0 10.0 376.5 -5.0 L376.5 -120.0 Q337.5 -95.5 292.5 -95.5 247.5 -95.5 229.5 -119.0 211.5 -143.0 211.5 -200.5 L211.5 -435.0 358.5 -435.0 358.5 -535.5 211.5 -535.5 211.5 -690.5 86.5 -644.5 86.5 -535.5 24.5 -535.5 24.5 -435.0 86.5 -435.0" fill-rule="evenodd" stroke="none"/>
    </g>
    <g id="font_Trebuchet_MS_m0">
      <path d="M687.5 0.0 L812.5 0.0 812.5 -353.5 Q812.5 -443.0 763.0 -494.0 713.0 -545.5 623.5 -545.5 581.5 -545.5 539.5 -529.5 497.5 -514.0 474.0 -487.5 420.0 -545.5 313.5 -545.5 231.0 -545.5 179.0 -488.5 L153.5 -535.5 67.5 -535.5 67.5 0.0 192.5 0.0 192.5 -385.0 Q205.0 -406.0 233.0 -423.5 260.5 -441.0 284.0 -441.0 328.5 -441.0 353.0 -417.5 377.5 -394.5 377.5 -355.0 L377.5 0.0 502.5 0.0 502.5 -386.5 Q513.0 -408.0 539.0 -424.5 565.0 -441.0 593.0 -441.0 687.5 -441.0 687.5 -335.5 L687.5 0.0" fill-rule="evenodd" stroke="none"/>
    </g>
    <g id="font_Trebuchet_MS_e0">
      <path d="M167.5 -323.5 Q193.5 -441.0 300.5 -441.0 417.5 -441.0 430.5 -323.5 L167.5 -323.5 M545.5 -229.5 Q556.0 -276.0 556.0 -299.0 556.0 -406.5 485.5 -476.0 415.0 -545.5 298.5 -545.5 189.0 -545.5 111.0 -467.0 32.5 -388.5 32.5 -262.0 32.5 -133.5 104.0 -61.5 175.0 10.0 297.5 10.0 428.5 10.0 494.5 -43.5 L446.0 -139.0 Q401.5 -94.5 316.0 -94.5 247.5 -94.5 207.0 -130.0 166.5 -165.5 163.0 -229.5 L545.5 -229.5" fill-rule="evenodd" stroke="none"/>
    </g>
  </defs>
</svg>
