<?xml version="1.0" encoding="UTF-8" standalone="no"?>
<svg xmlns:xlink="http://www.w3.org/1999/xlink" height="6.0px" width="7.7px" xmlns="http://www.w3.org/2000/svg">
  <g transform="matrix(1.0, 0.0, 0.0, 1.0, 5.35, 2.5)">
    <use data-characterId="54" height="6.0" transform="matrix(0.2, 0.0, 0.0, 0.4, -1.1, -1.2)" width="11.0" xlink:href="#shape0"/>
  </g>
  <defs>
    <g id="shape0" transform="matrix(1.0, 0.0, 0.0, 1.0, 5.5, 3.0)">
      <path d="M-0.15 -0.85 L-1.65 -2.1 M-1.3 0.8 L-5.0 2.5" fill="none" stroke="#ffff00" stroke-linecap="butt" stroke-linejoin="miter-clip" stroke-miterlimit="3.0" stroke-width="1.0"/>
      <path d="M-1.3 0.4 L0.1 -0.55 0.55 1.65" fill="none" stroke="#ffff00" stroke-linecap="butt" stroke-linejoin="miter-clip" stroke-miterlimit="3.0" stroke-width="1.0"/>
      <path d="M0.1 -0.55 L1.7 -1.7 5.0 -2.5" fill="none" stroke="#ffff00" stroke-linecap="round" stroke-linejoin="miter-clip" stroke-miterlimit="3.0" stroke-width="1.0"/>
    </g>
  </defs>
</svg>
