<?xml version="1.0" encoding="UTF-8" standalone="no"?>
<svg xmlns:xlink="http://www.w3.org/1999/xlink" height="97.5px" width="88.8px" xmlns="http://www.w3.org/2000/svg">
  <g transform="matrix(1.0, 0.0, 0.0, 1.0, 44.8, 49.55)">
    <use data-characterId="810" height="97.5" transform="matrix(1.0, 0.0, 0.0, 1.0, -44.8, -49.55)" width="88.8" xlink:href="#shape0"/>
  </g>
  <defs>
    <g id="shape0" transform="matrix(1.0, 0.0, 0.0, 1.0, 44.8, 49.55)">
      <path d="M-44.3 -27.1 L-44.3 31.4 Q-43.2 42.95 -25.75 47.45 L24.9 47.45 Q42.35 42.95 43.5 31.4 L43.5 -27.1 Q33.7 -49.5 -0.4 -49.05 -34.55 -49.5 -44.3 -27.1 Z" fill="none" stroke="#3399ff" stroke-linecap="round" stroke-linejoin="round" stroke-width="1.0"/>
    </g>
  </defs>
</svg>
