<?xml version="1.0" encoding="UTF-8" standalone="no"?>
<svg xmlns:xlink="http://www.w3.org/1999/xlink" height="17.0px" width="17.0px" xmlns="http://www.w3.org/2000/svg">
  <g transform="matrix(1.0, 0.0, 0.0, 1.0, 8.5, 8.5)">
    <use data-characterId="215" height="17.0" transform="matrix(1.0, 0.0, 0.0, 1.0, -16.5, -8.5)" width="7.0" xlink:href="#shape0"/>
    <use data-characterId="238" height="16.65" transform="matrix(1.0, 0.0, 0.0, 1.0, -5.6, -8.15)" width="14.1" xlink:href="#shape1"/>
  </g>
  <defs>
    <g id="shape0" transform="matrix(1.0, 0.0, 0.0, 1.0, 16.5, 8.5)">
      <path d="M-16.0 -1.2 Q-12.7 -14.8 -10.0 -1.2 L-10.0 8.0 -16.0 8.0 -16.0 -1.2" fill="#cccccc" fill-rule="evenodd" stroke="none"/>
      <path d="M-16.0 -1.2 Q-12.7 -14.8 -10.0 -1.2" fill="none" stroke="#999999" stroke-linecap="round" stroke-linejoin="round" stroke-width="1.0"/>
      <path d="M-10.0 -1.2 L-10.0 8.0 -16.0 8.0 -16.0 -1.2" fill="none" stroke="#999999" stroke-linecap="round" stroke-linejoin="round" stroke-width="1.0"/>
    </g>
    <g id="shape1" transform="matrix(1.0, 0.0, 0.0, 1.0, 5.6, 8.15)">
      <path d="M5.1 3.75 L3.5 3.75 3.5 0.45 5.1 0.45 5.1 3.75 M-3.5 -0.5 L-3.5 2.75 -5.1 2.75 -5.1 -0.5 -3.5 -0.5" fill="#ffff00" fill-rule="evenodd" stroke="none"/>
      <path d="M2.35 -2.2 L2.4 -2.45 Q4.45 -12.85 6.2 -2.5 L6.25 -2.2 6.25 5.2 6.15 5.2 8.0 8.0 0.55 8.0 2.4 5.2 2.35 5.2 2.35 -2.2 M2.4 -2.45 L6.2 -2.5 2.4 -2.45 M5.1 3.75 L5.1 0.45 3.5 0.45 3.5 3.75 5.1 3.75 M5.9 4.8 L6.15 5.2 5.6 5.2 2.95 5.2 2.4 5.2 2.65 4.8 2.4 5.2 2.95 5.2 5.6 5.2 6.15 5.2 5.9 4.8 M2.95 7.65 L2.95 5.2 2.95 7.65 M5.6 7.65 L5.6 5.2 5.6 7.65" fill="#cccccc" fill-rule="evenodd" stroke="none"/>
      <path d="M5.1 3.75 L3.5 3.75 3.5 0.45 5.1 0.45 5.1 3.75 M-3.5 -0.5 L-3.5 2.75 -5.1 2.75 -5.1 -0.5 -3.5 -0.5" fill="none" stroke="#ffcc00" stroke-linecap="round" stroke-linejoin="round" stroke-width="1.0"/>
      <path d="M5.6 5.2 L5.6 7.65 M2.95 5.2 L2.95 7.65" fill="none" stroke="#ffff00" stroke-linecap="round" stroke-linejoin="round" stroke-width="1.0"/>
      <path d="M2.35 -2.2 L2.4 -2.45 Q4.45 -12.85 6.2 -2.5 L6.25 -2.2 6.25 5.2 6.15 5.2 8.0 8.0 0.55 8.0 2.4 5.2 2.35 5.2 2.35 -2.2 M6.2 -2.5 L2.4 -2.45 M2.65 4.8 L2.4 5.2 2.95 5.2 5.6 5.2 6.15 5.2 5.9 4.8" fill="none" stroke="#999999" stroke-linecap="round" stroke-linejoin="round" stroke-width="1.0"/>
    </g>
  </defs>
</svg>
