<?xml version="1.0" encoding="UTF-8" standalone="no"?>
<svg xmlns:xlink="http://www.w3.org/1999/xlink" height="70.1px" width="70.1px" xmlns="http://www.w3.org/2000/svg">
  <g transform="matrix(1.0, 0.0, 0.0, 1.0, 35.05, 35.05)">
    <use data-characterId="747" height="70.1" transform="matrix(1.0, 0.0, 0.0, 1.0, -35.05, -35.05)" width="70.1" xlink:href="#shape0"/>
  </g>
  <defs>
    <g id="shape0" transform="matrix(1.0, 0.0, 0.0, 1.0, 35.05, 35.05)">
      <path d="M6.15 -19.35 L9.45 -20.3 6.15 -19.35 3.4 -24.25 9.45 -20.3 9.45 -10.95 5.8 -14.45 9.45 -10.95 0.0 -8.6 5.8 -14.45 6.15 -19.35 M-6.15 -19.35 L-5.75 -14.45 -9.4 -10.95 -9.4 -20.3 -3.15 -24.25 -6.15 -19.35 -9.4 -20.3 -6.15 -19.35 M13.9 -8.15 L18.1 -20.3 20.7 -35.0 Q26.9 -27.2 31.65 -10.3 37.25 9.45 33.55 21.95 31.25 28.3 23.6 32.2 L13.9 25.95 13.9 -8.15 M-23.55 32.2 Q-31.25 28.3 -33.5 21.95 -37.25 9.45 -31.65 -10.3 -26.9 -27.2 -20.7 -35.0 L-18.05 -20.3 -13.85 -8.15 -13.85 25.95 -23.55 32.2 M19.35 -5.55 Q20.9 -4.2 23.05 -4.2 25.2 -4.2 26.75 -5.55 28.3 -6.95 28.3 -8.85 28.3 -10.8 26.75 -12.15 25.2 -13.55 23.05 -13.55 20.9 -13.55 19.35 -12.15 17.8 -10.8 17.85 -8.85 17.8 -6.95 19.35 -5.55 M28.05 17.0 Q26.5 15.6 24.35 15.65 22.2 15.6 20.65 17.0 19.1 18.35 19.1 20.3 19.1 22.2 20.65 23.6 22.2 24.95 24.35 24.95 26.5 24.95 28.05 23.6 29.6 22.2 29.6 20.3 29.6 18.35 28.05 17.0 M-26.75 -5.55 Q-25.2 -4.2 -23.05 -4.2 -20.9 -4.2 -19.35 -5.55 -17.8 -6.95 -17.8 -8.85 -17.8 -10.8 -19.35 -12.15 -20.9 -13.55 -23.05 -13.55 -25.2 -13.55 -26.75 -12.15 -28.3 -10.8 -28.3 -8.85 -28.3 -6.95 -26.75 -5.55 M0.0 -8.6 L-9.4 -10.95 -5.75 -14.45 0.0 -8.6 M-20.65 17.0 Q-22.2 15.6 -24.35 15.65 -26.5 15.6 -28.05 17.0 -29.6 18.35 -29.6 20.3 -29.6 22.2 -28.05 23.6 -26.5 24.95 -24.35 24.95 -22.2 24.95 -20.65 23.6 -19.1 22.2 -19.1 20.3 -19.1 18.35 -20.65 17.0" fill="#000099" fill-rule="evenodd" stroke="none"/>
      <path d="M12.65 -25.9 L14.95 -25.9 15.0 -20.3 18.1 -20.3 13.9 -8.15 9.45 -10.95 13.9 -8.15 11.65 -6.3 0.0 -8.6 11.65 -6.3 13.9 -8.15 13.9 25.95 23.6 32.2 17.5 31.65 15.7 28.8 11.75 28.45 7.85 28.15 6.8 30.65 0.0 30.0 -6.8 30.65 -7.8 28.15 -11.75 28.45 -15.65 28.8 -17.5 31.65 -23.55 32.2 -13.85 25.95 -13.85 -8.15 -18.05 -20.3 -14.95 -20.3 -14.9 -25.9 -12.65 -25.9 -12.7 -20.3 -9.4 -20.3 -9.4 -10.95 0.0 -8.6 9.45 -10.95 9.45 -20.3 12.75 -20.3 12.65 -25.9 M15.0 -20.3 L12.75 -20.3 15.0 -20.3 M19.35 -5.55 Q17.8 -6.95 17.85 -8.85 17.8 -10.8 19.35 -12.15 20.9 -13.55 23.05 -13.55 25.2 -13.55 26.75 -12.15 28.3 -10.8 28.3 -8.85 28.3 -6.95 26.75 -5.55 25.2 -4.2 23.05 -4.2 20.9 -4.2 19.35 -5.55 M28.05 17.0 Q29.6 18.35 29.6 20.3 29.6 22.2 28.05 23.6 26.5 24.95 24.35 24.95 22.2 24.95 20.65 23.6 19.1 22.2 19.1 20.3 19.1 18.35 20.65 17.0 22.2 15.6 24.35 15.65 26.5 15.6 28.05 17.0 M2.25 4.6 L0.0 5.45 0.0 -8.6 0.0 5.45 2.25 4.6 9.2 4.6 11.65 7.85 11.65 -6.3 11.65 7.85 9.2 4.6 2.25 4.6 2.25 18.25 9.2 18.25 11.65 24.05 0.0 21.5 -11.65 24.05 -9.15 18.25 -2.2 18.25 -9.15 18.25 -11.65 24.05 0.0 21.5 11.65 24.05 9.2 18.25 2.25 18.25 2.25 4.6 M-2.2 18.25 L0.0 18.85 2.25 18.25 0.0 18.85 -2.2 18.25 -2.2 4.6 -2.2 18.25 M9.2 4.6 L9.2 18.25 9.2 4.6 M11.65 7.85 L11.65 24.05 11.65 7.85 M-2.2 4.6 L0.0 5.45 0.0 18.85 0.0 5.45 -2.2 4.6 -9.15 4.6 -11.65 7.85 -11.65 -6.3 -11.65 7.85 -9.15 4.6 -2.2 4.6 M11.65 24.05 L13.9 25.95 0.0 25.0 -13.85 25.95 -11.65 24.05 -13.85 25.95 0.0 25.0 13.9 25.95 11.65 24.05 M-26.75 -5.55 Q-28.3 -6.95 -28.3 -8.85 -28.3 -10.8 -26.75 -12.15 -25.2 -13.55 -23.05 -13.55 -20.9 -13.55 -19.35 -12.15 -17.8 -10.8 -17.8 -8.85 -17.8 -6.95 -19.35 -5.55 -20.9 -4.2 -23.05 -4.2 -25.2 -4.2 -26.75 -5.55 M0.0 -8.6 L-11.65 -6.3 -13.85 -8.15 -9.4 -10.95 -13.85 -8.15 -11.65 -6.3 0.0 -8.6 M-14.95 -20.3 L-12.7 -20.3 -14.95 -20.3 M-9.15 18.25 L-9.15 4.6 -9.15 18.25 M-11.65 7.85 L-11.65 24.05 -11.65 7.85 M-20.65 17.0 Q-19.1 18.35 -19.1 20.3 -19.1 22.2 -20.65 23.6 -22.2 24.95 -24.35 24.95 -26.5 24.95 -28.05 23.6 -29.6 22.2 -29.6 20.3 -29.6 18.35 -28.05 17.0 -26.5 15.6 -24.35 15.65 -22.2 15.6 -20.65 17.0" fill="#666666" fill-rule="evenodd" stroke="none"/>
      <path d="M6.15 -19.35 L5.8 -14.45 -5.75 -14.45 5.8 -14.45 0.0 -8.6 -5.75 -14.45 -6.15 -19.35 6.15 -19.35 -6.15 -19.35 -3.15 -24.25 3.4 -24.25 6.15 -19.35" fill="#0000ff" fill-rule="evenodd" stroke="none"/>
      <path d="M14.95 -25.9 L12.65 -25.9 11.55 -25.9 12.15 -31.5 15.45 -31.5 16.05 -25.9 14.95 -25.9 M-14.9 -25.9 L-16.05 -25.9 -15.4 -31.5 -12.15 -31.5 -11.5 -25.9 -12.65 -25.9 -14.9 -25.9" fill="#990000" fill-rule="evenodd" stroke="none"/>
      <path d="M17.5 31.65 L19.65 35.0 12.3 35.0 5.0 35.0 6.8 30.65 7.85 28.15 11.75 28.45 15.7 28.8 17.5 31.65 M-6.8 30.65 L-4.95 35.0 -12.3 35.0 -19.65 35.0 -17.5 31.65 -15.65 28.8 -11.75 28.45 -7.8 28.15 -6.8 30.65 M12.3 35.0 L11.75 28.45 12.3 35.0 M-12.3 35.0 L-11.75 28.45 -12.3 35.0" fill="#333333" fill-rule="evenodd" stroke="none"/>
      <path d="M20.7 -35.0 Q26.9 -27.2 31.65 -10.3 M-31.65 -10.3 Q-26.9 -27.2 -20.7 -35.0" fill="none" stroke="#333333" stroke-linecap="round" stroke-linejoin="round" stroke-width="0.1"/>
      <path d="M19.35 -5.55 Q20.9 -4.2 23.05 -4.2 25.2 -4.2 26.75 -5.55 28.3 -6.95 28.3 -8.85 28.3 -10.8 26.75 -12.15 25.2 -13.55 23.05 -13.55 20.9 -13.55 19.35 -12.15 17.8 -10.8 17.85 -8.85 17.8 -6.95 19.35 -5.55 M28.05 17.0 Q26.5 15.6 24.35 15.65 22.2 15.6 20.65 17.0 19.1 18.35 19.1 20.3 19.1 22.2 20.65 23.6 22.2 24.95 24.35 24.95 26.5 24.95 28.05 23.6 29.6 22.2 29.6 20.3 29.6 18.35 28.05 17.0 M-26.75 -5.55 Q-28.3 -6.95 -28.3 -8.85 -28.3 -10.8 -26.75 -12.15 -25.2 -13.55 -23.05 -13.55 -20.9 -13.55 -19.35 -12.15 -17.8 -10.8 -17.8 -8.85 -17.8 -6.95 -19.35 -5.55 -20.9 -4.2 -23.05 -4.2 -25.2 -4.2 -26.75 -5.55 M-20.65 17.0 Q-19.1 18.35 -19.1 20.3 -19.1 22.2 -20.65 23.6 -22.2 24.95 -24.35 24.95 -26.5 24.95 -28.05 23.6 -29.6 22.2 -29.6 20.3 -29.6 18.35 -28.05 17.0 -26.5 15.6 -24.35 15.65 -22.2 15.6 -20.65 17.0" fill="none" stroke="#000000" stroke-linecap="round" stroke-linejoin="round" stroke-width="1.0"/>
      <path d="M19.65 35.0 L12.3 35.0 5.0 35.0 M-4.95 35.0 L-12.3 35.0 -19.65 35.0 M0.0 -8.6 L0.0 5.45 2.25 4.6 M2.25 18.25 L0.0 18.85 -2.2 18.25 M0.0 18.85 L0.0 5.45 -2.2 4.6" fill="none" stroke="#000000" stroke-linecap="round" stroke-linejoin="round" stroke-width="0.1"/>
      <path d="M12.75 -20.3 L15.0 -20.3 18.1 -20.3 20.7 -35.0 M9.45 -20.3 L6.15 -19.35 5.8 -14.45 9.45 -10.95 9.45 -20.3 3.4 -24.25 6.15 -19.35 -6.15 -19.35 -5.75 -14.45 5.8 -14.45 0.0 -8.6 9.45 -10.95 13.9 -8.15 18.1 -20.3 M31.65 -10.3 Q37.25 9.45 33.55 21.95 31.25 28.3 23.6 32.2 L17.5 31.65 19.65 35.0 M5.0 35.0 L6.8 30.65 0.0 30.0 -6.8 30.65 -4.95 35.0 M-19.65 35.0 L-17.5 31.65 -23.55 32.2 Q-31.25 28.3 -33.5 21.95 -37.25 9.45 -31.65 -10.3 M-20.7 -35.0 L-18.05 -20.3 -14.95 -20.3 -12.7 -20.3 -9.4 -20.3 -3.15 -24.25 3.4 -24.25 M0.0 -8.6 L11.65 -6.3 13.9 -8.15 13.9 25.95 23.6 32.2 M9.45 -20.3 L12.75 -20.3 M2.25 4.6 L9.2 4.6 11.65 7.85 11.65 -6.3 M-2.2 18.25 L-9.15 18.25 -11.65 24.05 0.0 21.5 11.65 24.05 9.2 18.25 2.25 18.25 2.25 4.6 M11.65 24.05 L11.65 7.85 M9.2 18.25 L9.2 4.6 M-2.2 4.6 L-2.2 18.25 M11.75 28.45 L12.3 35.0 M17.5 31.65 L15.7 28.8 11.75 28.45 7.85 28.15 6.8 30.65 M-11.65 24.05 L-13.85 25.95 0.0 25.0 13.9 25.95 11.65 24.05 M-9.4 -20.3 L-6.15 -19.35 -3.15 -24.25 M-9.4 -10.95 L-13.85 -8.15 -11.65 -6.3 0.0 -8.6 -9.4 -10.95 -9.4 -20.3 M-23.55 32.2 L-13.85 25.95 -13.85 -8.15 -18.05 -20.3 M-5.75 -14.45 L-9.4 -10.95 M-11.65 -6.3 L-11.65 7.85 -9.15 4.6 -2.2 4.6 M-11.65 24.05 L-11.65 7.85 M-9.15 4.6 L-9.15 18.25 M-6.8 30.65 L-7.8 28.15 -11.75 28.45 -12.3 35.0 M-11.75 28.45 L-15.65 28.8 -17.5 31.65 M0.0 -8.6 L-5.75 -14.45" fill="none" stroke="#000000" stroke-linecap="round" stroke-linejoin="round" stroke-width="0.1"/>
      <path d="M14.95 -25.9 L12.65 -25.9 11.55 -25.9 12.15 -31.5 15.45 -31.5 16.05 -25.9 14.95 -25.9 M-14.9 -25.9 L-16.05 -25.9 -15.4 -31.5 -12.15 -31.5 -11.5 -25.9 -12.65 -25.9 -14.9 -25.9 Z" fill="none" stroke="#990000" stroke-linecap="round" stroke-linejoin="round" stroke-width="0.1"/>
    </g>
  </defs>
</svg>
