<?xml version="1.0" encoding="UTF-8" standalone="no"?>
<svg xmlns:xlink="http://www.w3.org/1999/xlink" height="101.25px" width="95.4px" xmlns="http://www.w3.org/2000/svg">
  <g transform="matrix(1.0, 0.0, 0.0, 1.0, -1.0, 12.15)">
    <use data-characterId="857" height="29.0" id="missilename" transform="matrix(1.0, 0.0, 0.0, 1.0007, 1.75, 15.6987)" width="78.3" xlink:href="#text0"/>
    <use data-characterId="858" height="29.0" id="missileqty" transform="matrix(1.0, 0.0, 0.0, 1.0007, 1.0, 35.2487)" width="73.3" xlink:href="#text1"/>
    <use data-characterId="859" height="29.0" id="missilebank" transform="matrix(1.0, 0.0, 0.0, 1.0007, 10.25, -3.3013)" width="86.15" xlink:href="#text2"/>
    <use data-characterId="861" height="21.4" transform="matrix(1.0, 0.0, 0.0, 1.0007, 71.7, -12.1566)" width="21.8" xlink:href="#button0"/>
    <use data-characterId="867" data-characterName="sc346_fla.missilereadiness_85" height="49.7" id="missilereadiness" transform="matrix(0.9237, 0.0, 0.0, 0.9097, 8.6841, 43.8866)" width="65.3" xlink:href="#sprite0"/>
    <use data-characterId="872" data-characterName="sc346_fla.rightmissileautoswitch_82" height="21.75" id="autoswtichbutton" transform="matrix(0.9639, 0.0, 0.0, 0.9097, 53.4591, 58.9225)" width="41.0" xlink:href="#sprite1"/>
  </g>
  <defs>
    <g id="text0" transform="matrix(1.0, 0.0, 0.0, 1.0, 4.0, 2.0)">
      <g transform="matrix(1.0, 0.0, 0.0, 1.0, -4.0, -2.0)">
        <use fill="#ff0000" height="29.0" transform="matrix(0.0098, 0.0, 0.0, 0.0098, 0.0, 9.4)" width="78.3" xlink:href="#font_Trebuchet_MS_M0"/>
        <use fill="#ff0000" height="29.0" transform="matrix(0.0098, 0.0, 0.0, 0.0098, 7.45, 9.4)" width="78.3" xlink:href="#font_Trebuchet_MS_i0"/>
        <use fill="#ff0000" height="29.0" transform="matrix(0.0098, 0.0, 0.0, 0.0098, 10.45, 9.4)" width="78.3" xlink:href="#font_Trebuchet_MS_s0"/>
        <use fill="#ff0000" height="29.0" transform="matrix(0.0098, 0.0, 0.0, 0.0098, 14.75, 9.4)" width="78.3" xlink:href="#font_Trebuchet_MS_s0"/>
        <use fill="#ff0000" height="29.0" transform="matrix(0.0098, 0.0, 0.0, 0.0098, 19.05, 9.4)" width="78.3" xlink:href="#font_Trebuchet_MS_i0"/>
        <use fill="#ff0000" height="29.0" transform="matrix(0.0098, 0.0, 0.0, 0.0098, 22.05, 9.4)" width="78.3" xlink:href="#font_Trebuchet_MS_l0"/>
        <use fill="#ff0000" height="29.0" transform="matrix(0.0098, 0.0, 0.0, 0.0098, 25.0, 9.4)" width="78.3" xlink:href="#font_Trebuchet_MS_e0"/>
        <use fill="#ff0000" height="29.0" transform="matrix(0.0098, 0.0, 0.0, 0.0098, 30.75, 9.4)" width="78.3" xlink:href="#font_Trebuchet_MS_N0"/>
        <use fill="#ff0000" height="29.0" transform="matrix(0.0098, 0.0, 0.0, 0.0098, 37.45, 9.4)" width="78.3" xlink:href="#font_Trebuchet_MS_a0"/>
        <use fill="#ff0000" height="29.0" transform="matrix(0.0098, 0.0, 0.0, 0.0098, 42.8, 9.4)" width="78.3" xlink:href="#font_Trebuchet_MS_m0"/>
        <use fill="#ff0000" height="29.0" transform="matrix(0.0098, 0.0, 0.0, 0.0098, 51.4, 9.4)" width="78.3" xlink:href="#font_Trebuchet_MS_e0"/>
      </g>
    </g>
    <g id="font_Trebuchet_MS_M0">
      <path d="M758.0 0.5 L608.5 -732.5 540.0 -732.5 385.0 -239.0 226.5 -732.5 157.5 -732.5 10.0 0.5 135.5 0.5 214.5 -394.5 362.0 10.0 408.5 10.0 556.0 -394.5 632.0 0.5 758.0 0.5" fill-rule="evenodd" stroke="none"/>
    </g>
    <g id="font_Trebuchet_MS_i0">
      <path d="M101.0 0.0 L227.5 0.0 227.5 -535.5 32.5 -535.5 32.5 -433.0 101.0 -433.0 101.0 0.0 M165.5 -743.0 Q135.5 -743.0 114.5 -721.5 93.0 -700.5 93.0 -670.5 93.0 -640.5 114.5 -619.0 135.5 -598.0 165.5 -598.0 195.5 -598.0 217.0 -619.0 238.0 -640.5 238.0 -670.5 238.0 -700.5 217.0 -721.5 195.5 -743.0 165.5 -743.0" fill-rule="evenodd" stroke="none"/>
    </g>
    <g id="font_Trebuchet_MS_s0">
      <path d="M34.5 -34.5 Q85.0 -7.5 117.5 1.5 149.5 10.0 203.0 10.0 298.0 10.0 353.5 -32.5 408.5 -75.5 408.5 -150.0 408.5 -206.0 377.5 -245.5 346.5 -285.0 276.0 -312.5 205.5 -340.5 184.0 -357.0 162.5 -373.5 162.5 -394.0 162.5 -446.0 228.0 -446.0 301.0 -446.0 342.0 -411.0 L378.0 -508.0 Q304.5 -545.5 221.0 -545.5 138.5 -545.5 85.5 -506.5 32.5 -468.0 32.5 -398.5 32.5 -295.0 171.0 -237.5 234.5 -211.0 256.5 -191.5 278.5 -172.0 278.5 -141.5 278.5 -89.5 205.5 -89.5 135.0 -89.5 79.0 -134.0 L34.5 -34.5" fill-rule="evenodd" stroke="none"/>
    </g>
    <g id="font_Trebuchet_MS_l0">
      <path d="M89.0 -735.0 L89.0 -108.0 Q89.0 10.0 174.0 10.0 244.0 10.0 273.0 -45.0 214.0 -64.0 214.0 -163.0 L214.0 -765.0 89.0 -735.0" fill-rule="evenodd" stroke="none"/>
    </g>
    <g id="font_Trebuchet_MS_e0">
      <path d="M167.5 -323.5 Q193.5 -441.0 300.5 -441.0 417.5 -441.0 430.5 -323.5 L167.5 -323.5 M545.5 -229.5 Q556.0 -276.0 556.0 -299.0 556.0 -406.5 485.5 -476.0 415.0 -545.5 298.5 -545.5 189.0 -545.5 111.0 -467.0 32.5 -388.5 32.5 -262.0 32.5 -133.5 104.0 -61.5 175.0 10.0 297.5 10.0 428.5 10.0 494.5 -43.5 L446.0 -139.0 Q401.5 -94.5 316.0 -94.5 247.5 -94.5 207.0 -130.0 166.5 -165.5 163.0 -229.5 L545.5 -229.5" fill-rule="evenodd" stroke="none"/>
    </g>
    <g id="font_Trebuchet_MS_N0">
      <path d="M555.5 10.0 L608.5 10.0 608.5 -732.5 483.5 -732.5 483.5 -290.5 137.5 -732.5 75.0 -732.5 75.0 0.5 200.0 0.5 200.0 -453.5 555.5 10.0" fill-rule="evenodd" stroke="none"/>
    </g>
    <g id="font_Trebuchet_MS_a0">
      <path d="M353.5 -252.0 L353.5 -202.0 Q353.5 -89.5 241.0 -89.5 157.5 -89.5 157.5 -161.5 157.5 -258.5 305.5 -258.5 321.5 -258.5 353.5 -252.0 M365.5 -53.5 Q373.0 -30.0 394.5 -10.0 416.0 10.0 443.0 10.0 467.5 10.0 486.5 4.0 505.5 -2.5 521.0 -29.5 478.0 -57.0 478.0 -164.0 L478.0 -278.5 Q478.0 -434.0 421.0 -489.5 364.0 -545.5 241.5 -545.5 152.5 -545.5 88.0 -514.5 L115.0 -417.5 Q162.5 -441.0 233.0 -441.0 352.5 -441.0 352.5 -346.5 322.5 -354.0 300.5 -354.0 172.0 -354.0 102.5 -301.5 32.5 -249.0 32.5 -156.0 32.5 -76.5 82.0 -33.0 131.5 10.0 218.0 10.0 264.0 10.0 306.5 -7.5 348.5 -25.5 365.5 -53.5" fill-rule="evenodd" stroke="none"/>
    </g>
    <g id="font_Trebuchet_MS_m0">
      <path d="M687.5 0.0 L812.5 0.0 812.5 -353.5 Q812.5 -443.0 763.0 -494.0 713.0 -545.5 623.5 -545.5 581.5 -545.5 539.5 -529.5 497.5 -514.0 474.0 -487.5 420.0 -545.5 313.5 -545.5 231.0 -545.5 179.0 -488.5 L153.5 -535.5 67.5 -535.5 67.5 0.0 192.5 0.0 192.5 -385.0 Q205.0 -406.0 233.0 -423.5 260.5 -441.0 284.0 -441.0 328.5 -441.0 353.0 -417.5 377.5 -394.5 377.5 -355.0 L377.5 0.0 502.5 0.0 502.5 -386.5 Q513.0 -408.0 539.0 -424.5 565.0 -441.0 593.0 -441.0 687.5 -441.0 687.5 -335.5 L687.5 0.0" fill-rule="evenodd" stroke="none"/>
    </g>
    <g id="text1" transform="matrix(1.0, 0.0, 0.0, 1.0, 4.0, 2.0)">
      <g transform="matrix(1.0, 0.0, 0.0, 1.0, -4.0, -2.0)">
        <use fill="#ff0000" height="29.0" transform="matrix(0.0098, 0.0, 0.0, 0.0098, 0.0, 9.4)" width="73.3" xlink:href="#font_Trebuchet_MS_m0"/>
        <use fill="#ff0000" height="29.0" transform="matrix(0.0098, 0.0, 0.0, 0.0098, 8.6, 9.4)" width="73.3" xlink:href="#font_Trebuchet_MS_i0"/>
        <use fill="#ff0000" height="29.0" transform="matrix(0.0098, 0.0, 0.0, 0.0098, 11.6, 9.4)" width="73.3" xlink:href="#font_Trebuchet_MS_s0"/>
        <use fill="#ff0000" height="29.0" transform="matrix(0.0098, 0.0, 0.0, 0.0098, 15.9, 9.4)" width="73.3" xlink:href="#font_Trebuchet_MS_s0"/>
        <use fill="#ff0000" height="29.0" transform="matrix(0.0098, 0.0, 0.0, 0.0098, 20.2, 9.4)" width="73.3" xlink:href="#font_Trebuchet_MS_i0"/>
        <use fill="#ff0000" height="29.0" transform="matrix(0.0098, 0.0, 0.0, 0.0098, 23.2, 9.4)" width="73.3" xlink:href="#font_Trebuchet_MS_l0"/>
        <use fill="#ff0000" height="29.0" transform="matrix(0.0098, 0.0, 0.0, 0.0098, 26.15, 9.4)" width="73.3" xlink:href="#font_Trebuchet_MS_e0"/>
      </g>
      <g transform="matrix(1.0, 0.0, 0.0, 1.0, -4.0, -2.0)">
        <use fill="#ff0000" height="29.0" transform="matrix(0.0098, 0.0, 0.0, 0.0098, 34.9, 9.4)" width="73.3" xlink:href="#font_Trebuchet_MS_q0"/>
        <use fill="#ff0000" height="29.0" transform="matrix(0.0098, 0.0, 0.0, 0.0098, 40.75, 9.4)" width="73.3" xlink:href="#font_Trebuchet_MS_t0"/>
        <use fill="#ff0000" height="29.0" transform="matrix(0.0098, 0.0, 0.0, 0.0098, 44.7, 9.4)" width="73.3" xlink:href="#font_Trebuchet_MS_y0"/>
      </g>
    </g>
    <g id="font_Trebuchet_MS_q0">
      <path d="M415.5 -408.5 L415.5 -121.5 Q379.5 -95.5 324.0 -95.5 172.5 -95.5 172.5 -262.5 172.5 -343.0 214.0 -391.0 255.0 -439.5 328.0 -439.5 382.0 -439.5 415.5 -408.5 M415.5 210.0 L540.5 210.0 540.5 -535.5 459.5 -535.5 439.0 -503.5 Q382.0 -545.5 312.0 -545.5 194.0 -545.5 118.5 -468.5 42.5 -392.0 42.5 -262.5 42.5 -132.5 108.5 -61.0 174.5 10.0 291.5 10.0 370.5 10.0 415.5 -15.0 L415.5 210.0" fill-rule="evenodd" stroke="none"/>
    </g>
    <g id="font_Trebuchet_MS_t0">
      <path d="M86.5 -435.0 L86.5 -164.0 Q86.5 -80.5 129.5 -35.0 172.5 10.0 252.5 10.0 333.0 10.0 376.5 -5.0 L376.5 -120.0 Q337.5 -95.5 292.5 -95.5 247.5 -95.5 229.5 -119.0 211.5 -143.0 211.5 -200.5 L211.5 -435.0 358.5 -435.0 358.5 -535.5 211.5 -535.5 211.5 -690.5 86.5 -644.5 86.5 -535.5 24.5 -535.5 24.5 -435.0 86.5 -435.0" fill-rule="evenodd" stroke="none"/>
    </g>
    <g id="font_Trebuchet_MS_y0">
      <path d="M304.5 86.0 L539.0 -535.5 409.5 -535.5 278.0 -165.5 132.0 -535.5 2.5 -535.5 170.0 -120.0 Q210.0 -21.0 210.0 27.0 210.0 99.5 65.5 99.5 L65.5 210.0 Q153.0 210.0 219.0 175.0 284.5 139.5 304.5 86.0" fill-rule="evenodd" stroke="none"/>
    </g>
    <g id="text2" transform="matrix(1.0, 0.0, 0.0, 1.0, 4.0, 2.0)">
      <g transform="matrix(1.0, 0.0, 0.0, 1.0, -4.0, -2.0)">
        <use fill="#ff0000" height="29.0" transform="matrix(0.0098, 0.0, 0.0, 0.0098, 14.85, 9.4)" width="86.15" xlink:href="#font_Trebuchet_MS_M0"/>
        <use fill="#ff0000" height="29.0" transform="matrix(0.0098, 0.0, 0.0, 0.0098, 22.3, 9.4)" width="86.15" xlink:href="#font_Trebuchet_MS_i0"/>
        <use fill="#ff0000" height="29.0" transform="matrix(0.0098, 0.0, 0.0, 0.0098, 25.3, 9.4)" width="86.15" xlink:href="#font_Trebuchet_MS_s0"/>
        <use fill="#ff0000" height="29.0" transform="matrix(0.0098, 0.0, 0.0, 0.0098, 29.6, 9.4)" width="86.15" xlink:href="#font_Trebuchet_MS_s0"/>
        <use fill="#ff0000" height="29.0" transform="matrix(0.0098, 0.0, 0.0, 0.0098, 33.9, 9.4)" width="86.15" xlink:href="#font_Trebuchet_MS_i0"/>
        <use fill="#ff0000" height="29.0" transform="matrix(0.0098, 0.0, 0.0, 0.0098, 36.9, 9.4)" width="86.15" xlink:href="#font_Trebuchet_MS_l0"/>
        <use fill="#ff0000" height="29.0" transform="matrix(0.0098, 0.0, 0.0, 0.0098, 39.85, 9.4)" width="86.15" xlink:href="#font_Trebuchet_MS_e0"/>
      </g>
      <g transform="matrix(1.0, 0.0, 0.0, 1.0, -4.0, -2.0)">
        <use fill="#ff0000" height="29.0" transform="matrix(0.0098, 0.0, 0.0, 0.0098, 48.6, 9.4)" width="86.15" xlink:href="#font_Trebuchet_MS_B0"/>
        <use fill="#ff0000" height="29.0" transform="matrix(0.0098, 0.0, 0.0, 0.0098, 54.55, 9.4)" width="86.15" xlink:href="#font_Trebuchet_MS_a0"/>
        <use fill="#ff0000" height="29.0" transform="matrix(0.0098, 0.0, 0.0, 0.0098, 59.9, 9.4)" width="86.15" xlink:href="#font_Trebuchet_MS_n0"/>
        <use fill="#ff0000" height="29.0" transform="matrix(0.0098, 0.0, 0.0, 0.0098, 65.8, 9.4)" width="86.15" xlink:href="#font_Trebuchet_MS_k0"/>
      </g>
    </g>
    <g id="font_Trebuchet_MS_B0">
      <path d="M205.0 -351.0 Q251.5 -352.5 270.5 -352.5 361.5 -352.5 398.0 -324.0 434.5 -295.5 434.5 -233.0 434.5 -164.5 395.5 -135.0 356.0 -105.5 269.0 -105.5 244.5 -105.5 205.0 -109.0 L205.0 -351.0 M205.0 -628.0 Q249.0 -630.5 279.5 -630.5 395.0 -630.5 395.0 -546.0 395.0 -450.5 268.0 -450.5 235.0 -450.5 205.0 -452.5 L205.0 -628.0 M299.0 0.0 Q418.5 0.0 494.0 -58.5 569.5 -117.5 569.5 -217.5 569.5 -366.0 433.0 -413.5 525.0 -464.0 525.0 -551.0 525.0 -641.5 461.0 -690.0 396.5 -739.0 282.5 -739.0 223.0 -739.0 75.0 -732.0 L75.0 0.0 299.0 0.0" fill-rule="evenodd" stroke="none"/>
    </g>
    <g id="font_Trebuchet_MS_n0">
      <path d="M412.0 0.0 L537.0 0.0 537.0 -328.5 Q537.0 -431.0 482.0 -488.0 426.5 -545.5 331.0 -545.5 231.5 -545.5 180.5 -485.5 L157.5 -535.5 67.5 -535.5 67.5 0.0 192.5 0.0 192.5 -387.0 Q210.0 -410.0 241.5 -425.5 272.5 -441.0 300.0 -441.0 359.5 -441.0 386.0 -409.5 412.0 -378.0 412.0 -309.5 L412.0 0.0" fill-rule="evenodd" stroke="none"/>
    </g>
    <g id="font_Trebuchet_MS_k0">
      <path d="M410.0 0.0 L558.5 0.0 340.5 -332.5 521.5 -535.5 371.0 -535.5 192.5 -330.0 192.5 -765.0 67.5 -735.0 67.5 0.0 192.5 0.0 192.5 -179.0 252.5 -242.5 410.0 0.0" fill-rule="evenodd" stroke="none"/>
    </g>
    <g id="button0" transform="matrix(1.0, 0.0, 0.0, 1.0, 11.75, 10.1)">
      <use data-characterId="860" height="21.4" transform="matrix(1.0, 0.0, 0.0, 1.0, -11.75, -10.1)" width="21.8" xlink:href="#shape0"/>
    </g>
    <g id="shape0" transform="matrix(1.0, 0.0, 0.0, 1.0, 11.75, 10.1)">
      <path d="M-0.85 -9.6 Q3.45 -9.6 6.5 -6.65 9.55 -3.65 9.55 0.6 9.55 4.85 6.5 7.8 3.45 10.8 -0.85 10.8 -5.15 10.8 -8.2 7.8 -11.25 4.85 -11.25 0.6 -11.25 -3.65 -8.2 -6.65 -5.15 -9.6 -0.85 -9.6 M-2.85 4.45 L1.8 0.25 -2.85 -3.95 1.8 0.25 -2.85 4.45" fill="#00cccc" fill-rule="evenodd" stroke="none"/>
      <path d="M-0.85 -9.6 Q3.45 -9.6 6.5 -6.65 9.55 -3.65 9.55 0.6 9.55 4.85 6.5 7.8 3.45 10.8 -0.85 10.8 -5.15 10.8 -8.2 7.8 -11.25 4.85 -11.25 0.6 -11.25 -3.65 -8.2 -6.65 -5.15 -9.6 -0.85 -9.6" fill="none" stroke="#333333" stroke-linecap="butt" stroke-linejoin="miter-clip" stroke-miterlimit="3.0" stroke-width="1.0"/>
      <path d="M-2.85 -3.95 L1.8 0.25 -2.85 4.45" fill="none" stroke="#000000" stroke-linecap="butt" stroke-linejoin="miter-clip" stroke-miterlimit="3.0" stroke-width="2.9000000000000004"/>
    </g>
    <g id="sprite0" transform="matrix(1.0, 0.0, 0.0, 1.0, 30.6, 22.55)">
      <clipPath id="clipPath0" transform="matrix(1.0, 0.0, 0.0, 1.0, 0.0, 0.0)">
        <path d="M9.1 -0.05 Q9.1 3.7 6.35 6.35 3.65 9.05 -0.2 9.05 -4.05 9.05 -6.8 6.35 -9.5 3.7 -9.5 -0.1 -9.5 -3.85 -6.8 -6.55 -4.05 -9.2 -0.2 -9.2 3.65 -9.2 6.35 -6.55 9.1 -3.85 9.1 -0.05" fill="#00cccc" fill-rule="evenodd" stroke="none"/>
        <path d="M9.1 -0.05 Q9.1 3.7 6.35 6.35 3.65 9.05 -0.2 9.05 -4.05 9.05 -6.8 6.35 -9.5 3.7 -9.5 -0.1 -9.5 -3.85 -6.8 -6.55 -4.05 -9.2 -0.2 -9.2 3.65 -9.2 6.35 -6.55 9.1 -3.85 9.1 -0.05 Z" fill="none" stroke="#333333" stroke-linecap="butt" stroke-linejoin="miter-clip" stroke-miterlimit="3.0" stroke-width="1.0"/>
      </clipPath>
      <g clip-path="url(#clipPath0)">
        <use data-characterId="863" height="49.7" transform="matrix(1.0, 0.0, 0.0, 1.0, -30.6, -22.55)" width="65.3" xlink:href="#shape2"/>
      </g>
    </g>
    <g id="shape2" transform="matrix(1.0, 0.0, 0.0, 1.0, 30.6, 22.55)">
      <path d="M24.8 -14.95 Q34.2 -7.85 34.2 2.3 34.2 12.4 24.8 19.5 15.4 26.65 2.05 26.65 -11.25 26.65 -20.7 19.5 -30.1 12.4 -30.1 2.25 -30.1 -7.85 -20.7 -14.95 -11.25 -22.05 2.05 -22.05 15.4 -22.05 24.8 -14.95" fill="#00cc00" fill-rule="evenodd" stroke="none"/>
      <path d="M24.8 -14.95 Q34.2 -7.85 34.2 2.3 34.2 12.4 24.8 19.5 15.4 26.65 2.05 26.65 -11.25 26.65 -20.7 19.5 -30.1 12.4 -30.1 2.25 -30.1 -7.85 -20.7 -14.95 -11.25 -22.05 2.05 -22.05 15.4 -22.05 24.8 -14.95 Z" fill="none" stroke="#d6d6d6" stroke-linecap="butt" stroke-linejoin="miter-clip" stroke-miterlimit="3.0" stroke-width="1.0"/>
    </g>
    <g id="sprite1" transform="matrix(1.0, 0.0, 0.0, 1.0, 21.0, 8.0)">
      <use data-characterId="868" height="15.0" transform="matrix(1.0, 0.0, 0.0, 1.0, -21.0, -8.0)" width="41.0" xlink:href="#shape3"/>
      <use data-characterId="869" height="21.1" transform="matrix(1.0, 0.0, 0.0, 1.0, -18.8, -7.35)" width="37.5" xlink:href="#text3"/>
    </g>
    <g id="shape3" transform="matrix(1.0, 0.0, 0.0, 1.0, 21.0, 8.0)">
      <path d="M19.5 6.5 L-20.5 6.5 -20.5 -7.5 19.5 -7.5 19.5 6.5" fill="#0000cc" fill-rule="evenodd" stroke="none"/>
      <path d="M19.5 6.5 L-20.5 6.5 -20.5 -7.5 19.5 -7.5 19.5 6.5 Z" fill="none" stroke="#333333" stroke-linecap="butt" stroke-linejoin="miter-clip" stroke-miterlimit="3.0" stroke-width="1.0"/>
    </g>
    <g id="text3" transform="matrix(1.0, 0.0, 0.0, 1.0, -0.4, 0.85)">
      <g transform="matrix(1.0, 0.0, 0.0, 1.0, 0.0, -1.35)">
        <use fill="#ffffff" height="21.1" transform="matrix(0.0098, 0.0, 0.0, 0.0098, 0.0, 10.0)" width="37.5" xlink:href="#font_Trebuchet_MS_S0"/>
        <use fill="#ffffff" height="21.1" transform="matrix(0.0098, 0.0, 0.0, 0.0098, 5.1, 10.0)" width="37.5" xlink:href="#font_Trebuchet_MS_I0"/>
        <use fill="#ffffff" height="21.1" transform="matrix(0.0098, 0.0, 0.0, 0.0098, 7.9, 10.0)" width="37.5" xlink:href="#font_Trebuchet_MS_N0"/>
        <use fill="#ffffff" height="21.1" transform="matrix(0.0098, 0.0, 0.0, 0.0098, 14.55, 10.0)" width="37.5" xlink:href="#font_Trebuchet_MS_G0"/>
        <use fill="#ffffff" height="21.1" transform="matrix(0.0098, 0.0, 0.0, 0.0098, 21.25, 10.0)" width="37.5" xlink:href="#font_Trebuchet_MS_L0"/>
        <use fill="#ffffff" height="21.1" transform="matrix(0.0098, 0.0, 0.0, 0.0098, 26.8, 10.0)" width="37.5" xlink:href="#font_Trebuchet_MS_E0"/>
      </g>
    </g>
    <g id="font_Trebuchet_MS_S0">
      <path d="M40.0 -40.5 Q122.5 12.5 225.0 12.5 343.0 12.5 413.5 -45.0 483.5 -102.5 483.5 -191.5 483.5 -241.0 466.5 -281.0 449.5 -321.5 417.0 -351.5 384.5 -382.0 311.0 -418.0 171.5 -486.0 171.5 -549.0 171.5 -587.0 196.5 -610.5 221.0 -634.5 266.0 -634.5 342.0 -634.5 410.5 -585.5 L450.0 -697.5 Q390.5 -745.0 263.5 -745.0 166.0 -745.0 104.0 -689.0 41.5 -633.0 41.5 -548.0 41.5 -502.5 57.5 -465.0 73.0 -427.5 102.5 -400.0 131.5 -373.0 216.0 -330.5 300.0 -288.5 327.0 -254.5 354.0 -220.5 354.0 -183.0 354.0 -103.0 239.5 -103.0 165.0 -103.0 88.0 -157.0 L40.0 -40.5" fill-rule="evenodd" stroke="none"/>
    </g>
    <g id="font_Trebuchet_MS_I0">
      <path d="M77.5 0.0 L207.5 0.0 207.5 -732.5 77.5 -732.5 77.5 0.0" fill-rule="evenodd" stroke="none"/>
    </g>
    <g id="font_Trebuchet_MS_G0">
      <path d="M616.0 -673.0 Q531.5 -745.0 411.0 -745.0 241.0 -745.0 140.5 -639.0 40.0 -533.0 40.0 -363.5 40.0 -194.0 132.5 -90.5 224.5 12.5 382.0 12.5 454.5 12.5 528.0 -8.5 601.0 -30.0 647.5 -68.0 L647.5 -396.0 416.0 -396.0 416.0 -285.0 517.5 -285.0 517.5 -141.0 Q472.5 -103.0 403.0 -103.0 297.5 -103.0 236.5 -173.0 175.0 -243.0 175.0 -360.0 175.0 -483.0 237.5 -556.0 300.0 -629.5 408.0 -629.5 442.5 -629.5 490.5 -609.0 538.5 -589.0 561.5 -568.5 L616.0 -673.0" fill-rule="evenodd" stroke="none"/>
    </g>
    <g id="font_Trebuchet_MS_L0">
      <path d="M75.0 0.0 L536.0 0.0 536.0 -115.5 205.0 -115.5 205.0 -732.5 75.0 -732.5 75.0 0.0" fill-rule="evenodd" stroke="none"/>
    </g>
    <g id="font_Trebuchet_MS_E0">
      <path d="M205.0 -617.0 L542.5 -617.0 542.5 -732.5 75.0 -732.5 75.0 0.0 537.0 0.0 537.0 -115.5 205.0 -115.5 205.0 -335.0 447.0 -335.0 447.0 -445.5 205.0 -445.5 205.0 -617.0" fill-rule="evenodd" stroke="none"/>
    </g>
  </defs>
</svg>
