<?xml version="1.0" encoding="UTF-8" standalone="no"?>
<svg xmlns:xlink="http://www.w3.org/1999/xlink" height="904.7px" width="1158.55px" xmlns="http://www.w3.org/2000/svg">
  <g transform="matrix(1.0, 0.0, 0.0, 1.0, 140.2, 166.2)">
    <use data-characterId="1043" height="904.7" transform="matrix(1.0, 0.0, 0.0, 1.0, -140.2, -166.2)" width="1158.55" xlink:href="#shape0"/>
    <use data-characterId="931" data-characterName="sc346_fla.SelectionWindow_117" height="135.6" id="DisplayScreen" transform="matrix(1.0, 0.0, 0.0, 1.0, 203.95, -14.3)" width="550.1" xlink:href="#sprite0"/>
    <use data-characterId="1063" height="247.45" transform="matrix(1.0, 0.0, 0.0, 1.0, 6.7, 35.75)" width="171.0" xlink:href="#shape5"/>
    <use data-characterId="1062" data-characterName="sc346_fla.hardwareshopmenulabel_121" height="34.0" id="guns" transform="matrix(1.0, 0.0, 0.0, 1.0, 14.8, 80.9)" width="158.95" xlink:href="#sprite4"/>
    <use data-characterId="1062" data-characterName="sc346_fla.hardwareshopmenulabel_121" height="34.0" id="missiles" transform="matrix(1.0, 0.0, 0.0, 1.0, 15.05, 106.05)" width="158.95" xlink:href="#sprite4"/>
    <use data-characterId="1062" data-characterName="sc346_fla.hardwareshopmenulabel_121" height="34.0" id="shieldgen" transform="matrix(1.0, 0.0, 0.0, 1.0, 15.05, 132.8)" width="158.95" xlink:href="#sprite4"/>
    <use data-characterId="1062" data-characterName="sc346_fla.hardwareshopmenulabel_121" height="34.0" id="energygen" transform="matrix(1.0, 0.0, 0.0, 1.0, 15.05, 156.8)" width="158.95" xlink:href="#sprite4"/>
    <use data-characterId="1062" data-characterName="sc346_fla.hardwareshopmenulabel_121" height="34.0" id="energycap" transform="matrix(1.0, 0.0, 0.0, 1.0, 15.05, 181.05)" width="158.95" xlink:href="#sprite4"/>
    <use data-characterId="1062" data-characterName="sc346_fla.hardwareshopmenulabel_121" height="34.0" id="specials" transform="matrix(1.0, 0.0, 0.0, 1.0, 15.05, 207.55)" width="158.95" xlink:href="#sprite4"/>
    <use data-characterId="1062" data-characterName="sc346_fla.hardwareshopmenulabel_121" height="34.0" id="exit_but" transform="matrix(1.0, 0.0, 0.0, 1.0, 15.05, 234.05)" width="158.95" xlink:href="#sprite4"/>
    <use data-characterId="1062" data-characterName="sc346_fla.hardwareshopmenulabel_121" height="34.0" id="turrets" transform="matrix(1.0, 0.0, 0.0, 1.0, 15.05, 56.2)" width="158.95" xlink:href="#sprite4"/>
    <use data-characterId="922" height="80.9" id="buyspecial" transform="matrix(1.0, 0.0, 0.0, 1.0, 389.6, 119.6)" width="136.0" xlink:href="#sprite5"/>
    <use data-characterId="1067" height="50.6" id="specialsDisplay" transform="matrix(1.0, 0.0, 0.0, 1.0, 606.35, 206.1)" width="165.4" xlink:href="#sprite6"/>
  </g>
  <defs>
    <g id="shape0" transform="matrix(1.0, 0.0, 0.0, 1.0, 286.35, 189.45)">
      <path d="M871.7 -188.95 L871.7 714.75 -285.85 714.75 -285.85 -188.95 871.7 -188.95" fill="#000000" fill-opacity="0.8980392" fill-rule="evenodd" stroke="none"/>
      <path d="M871.7 -188.95 L871.7 714.75 -285.85 714.75 -285.85 -188.95 871.7 -188.95 Z" fill="none" stroke="#000000" stroke-linecap="butt" stroke-linejoin="miter-clip" stroke-miterlimit="3.0" stroke-width="1.0"/>
    </g>
    <g id="sprite0" transform="matrix(1.0, 0.0, 0.0, 1.0, 0.05, 0.05)">
      <use data-characterId="924" height="124.15" transform="matrix(1.0, 0.0, 0.0, 1.0, -0.05, -0.05)" width="550.1" xlink:href="#shape1"/>
      <clipPath id="clipPath0" transform="matrix(1.0, 0.0, 0.0, 1.0, 0.0, 0.0)">
        <path d="M548.0 122.5 L2.95 122.5 2.95 2.5 548.0 2.5 548.0 122.5" fill="#ff0000" fill-rule="evenodd" stroke="none"/>
        <path d="M548.0 122.5 L2.95 122.5 2.95 2.5 548.0 2.5 548.0 122.5 Z" fill="none" stroke="#ff0000" stroke-linecap="butt" stroke-linejoin="miter-clip" stroke-miterlimit="3.0" stroke-width="0.1"/>
      </clipPath>
      <g clip-path="url(#clipPath0)">
        <use data-characterId="926" height="0.0" id="screen" transform="matrix(1.0, 0.0, 0.0, 1.0, 2.95, 2.5)" width="0.0" xlink:href="#sprite1"/>
      </g>
      <use data-characterId="930" height="11.55" id="slider" transform="matrix(1.0, 0.0, 0.0, 1.0, -0.05, 124.0)" width="550.1" xlink:href="#sprite2"/>
    </g>
    <g id="shape1" transform="matrix(1.0, 0.0, 0.0, 1.0, 0.05, 0.05)">
      <path d="M550.0 124.05 L0.0 124.05 0.0 0.0 550.0 0.0 550.0 124.05" fill="#000033" fill-rule="evenodd" stroke="none"/>
      <path d="M550.0 124.05 L0.0 124.05 0.0 0.0 550.0 0.0 550.0 124.05 Z" fill="none" stroke="#999999" stroke-linecap="butt" stroke-linejoin="miter-clip" stroke-miterlimit="3.0" stroke-width="0.1"/>
      <path d="M548.0 122.5 L2.95 122.5 2.95 2.5 548.0 2.5 548.0 122.5" fill="#000000" fill-rule="evenodd" stroke="none"/>
      <path d="M548.0 122.5 L2.95 122.5 2.95 2.5 548.0 2.5 548.0 122.5 Z" fill="none" stroke="#333333" stroke-linecap="butt" stroke-linejoin="miter-clip" stroke-miterlimit="3.0" stroke-width="0.1"/>
    </g>
    <g id="sprite2" transform="matrix(1.0, 0.0, 0.0, 1.0, 0.05, 0.05)">
      <use data-characterId="927" height="11.55" transform="matrix(1.0, 0.0, 0.0, 1.0, -0.05, -0.05)" width="550.1" xlink:href="#shape3"/>
      <use data-characterId="929" height="11.55" id="sliderBar" transform="matrix(1.0, 0.0, 0.0, 1.0, 14.95, -0.05)" width="520.15" xlink:href="#sprite3"/>
    </g>
    <g id="shape3" transform="matrix(1.0, 0.0, 0.0, 1.0, 0.05, 0.05)">
      <path d="M547.65 11.45 L0.5 11.45 0.5 0.0 547.65 0.0 547.65 11.45" fill="#333333" fill-rule="evenodd" stroke="none"/>
      <path d="M547.65 11.45 L0.5 11.45 0.5 0.0 547.65 0.0 547.65 11.45 Z" fill="none" stroke="#333333" stroke-linecap="butt" stroke-linejoin="miter-clip" stroke-miterlimit="3.0" stroke-width="0.1"/>
      <path d="M15.0 0.0 L15.0 11.45 0.0 11.45 0.0 0.0 15.0 0.0" fill="#999999" fill-rule="evenodd" stroke="none"/>
      <path d="M15.0 0.0 L15.0 11.45 0.0 11.45 0.0 0.0 15.0 0.0 Z" fill="none" stroke="#333333" stroke-linecap="butt" stroke-linejoin="miter-clip" stroke-miterlimit="3.0" stroke-width="0.1"/>
      <path d="M550.0 0.0 L550.0 11.45 535.0 11.45 535.0 0.0 550.0 0.0" fill="#999999" fill-rule="evenodd" stroke="none"/>
      <path d="M550.0 0.0 L550.0 11.45 535.0 11.45 535.0 0.0 550.0 0.0 Z" fill="none" stroke="#333333" stroke-linecap="butt" stroke-linejoin="miter-clip" stroke-miterlimit="3.0" stroke-width="0.1"/>
    </g>
    <g id="sprite3" transform="matrix(1.0, 0.0, 0.0, 1.0, 0.05, 0.05)">
      <use data-characterId="928" height="11.55" transform="matrix(1.0, 0.0, 0.0, 1.0, -0.05, -0.05)" width="520.15" xlink:href="#shape4"/>
    </g>
    <g id="shape4" transform="matrix(1.0, 0.0, 0.0, 1.0, 0.05, 0.05)">
      <path d="M520.05 11.45 L0.0 11.45 0.0 0.0 520.05 0.0 520.05 11.45" fill="#999999" fill-rule="evenodd" stroke="none"/>
      <path d="M520.05 11.45 L0.0 11.45 0.0 0.0 520.05 0.0 520.05 11.45 Z" fill="none" stroke="#333333" stroke-linecap="butt" stroke-linejoin="miter-clip" stroke-miterlimit="3.0" stroke-width="0.1"/>
    </g>
    <g id="shape5" transform="matrix(1.0, 0.0, 0.0, 1.0, -6.7, -35.75)">
      <path d="M177.2 282.7 L7.2 282.7 7.2 36.25 177.2 36.25 177.2 282.7" fill="#000099" fill-opacity="0.14901961" fill-rule="evenodd" stroke="none"/>
      <path d="M177.2 282.7 L7.2 282.7 7.2 36.25 177.2 36.25 177.2 282.7 Z" fill="none" stroke="#003366" stroke-linecap="butt" stroke-linejoin="miter-clip" stroke-miterlimit="3.0" stroke-width="1.0"/>
    </g>
    <g id="sprite4" transform="matrix(1.0, 0.0, 0.0, 1.0, 77.7, 10.2)">
      <use data-characterId="1059" height="18.35" transform="matrix(1.0, 0.0, 0.0, 1.0, -77.7, -9.3)" width="153.1" xlink:href="#shape6"/>
      <use data-characterId="1060" height="34.0" id="label" transform="matrix(1.0, 0.0, 0.0, 1.0, -68.5, -10.2)" width="149.75" xlink:href="#text0"/>
    </g>
    <g id="shape6" transform="matrix(1.0, 0.0, 0.0, 1.0, 77.7, 9.3)">
      <path d="M71.35 -9.25 Q75.35 -9.25 75.35 -6.95 L75.35 6.65 Q75.35 9.0 71.35 9.0 L-73.65 9.0 Q-77.65 9.0 -77.65 6.65 L-77.65 -6.95 Q-77.65 -9.25 -73.65 -9.25 L71.35 -9.25" fill="#0066ff" fill-rule="evenodd" stroke="none"/>
      <path d="M71.35 -9.25 L-73.65 -9.25 Q-77.65 -9.25 -77.65 -6.95 L-77.65 6.65 Q-77.65 9.0 -73.65 9.0 L71.35 9.0 Q75.35 9.0 75.35 6.65 L75.35 -6.95 Q75.35 -9.25 71.35 -9.25 Z" fill="none" stroke="#333333" stroke-linecap="butt" stroke-linejoin="miter-clip" stroke-miterlimit="3.0" stroke-width="0.1"/>
    </g>
    <g id="text0" transform="matrix(1.0, 0.0, 0.0, 1.0, 4.0, 2.0)">
      <g transform="matrix(1.0, 0.0, 0.0, 1.0, -4.0, -2.0)">
        <use fill="#ffffcc" height="34.0" transform="matrix(0.0117, 0.0, 0.0, 0.0117, 41.9, 11.25)" width="149.75" xlink:href="#font_Trebuchet_MS_D0"/>
        <use fill="#ffffcc" height="34.0" transform="matrix(0.0117, 0.0, 0.0, 0.0117, 49.6, 11.25)" width="149.75" xlink:href="#font_Trebuchet_MS_E0"/>
        <use fill="#ffffcc" height="34.0" transform="matrix(0.0117, 0.0, 0.0, 0.0117, 56.45, 11.25)" width="149.75" xlink:href="#font_Trebuchet_MS_S0"/>
        <use fill="#ffffcc" height="34.0" transform="matrix(0.0117, 0.0, 0.0, 0.0117, 62.6, 11.25)" width="149.75" xlink:href="#font_Trebuchet_MS_C0"/>
        <use fill="#ffffcc" height="34.0" transform="matrix(0.0117, 0.0, 0.0, 0.0117, 69.95, 11.25)" width="149.75" xlink:href="#font_Trebuchet_MS_R0"/>
        <use fill="#ffffcc" height="34.0" transform="matrix(0.0117, 0.0, 0.0, 0.0117, 77.3, 11.25)" width="149.75" xlink:href="#font_Trebuchet_MS_I0"/>
        <use fill="#ffffcc" height="34.0" transform="matrix(0.0117, 0.0, 0.0, 0.0117, 80.65, 11.25)" width="149.75" xlink:href="#font_Trebuchet_MS_T0"/>
        <use fill="#ffffcc" height="34.0" transform="matrix(0.0117, 0.0, 0.0, 0.0117, 88.0, 11.25)" width="149.75" xlink:href="#font_Trebuchet_MS_I0"/>
        <use fill="#ffffcc" height="34.0" transform="matrix(0.0117, 0.0, 0.0, 0.0117, 91.35, 11.25)" width="149.75" xlink:href="#font_Trebuchet_MS_O0"/>
        <use fill="#ffffcc" height="34.0" transform="matrix(0.0117, 0.0, 0.0, 0.0117, 99.8, 11.25)" width="149.75" xlink:href="#font_Trebuchet_MS_N0"/>
      </g>
    </g>
    <g id="font_Trebuchet_MS_D0">
      <path d="M205.0 -618.5 Q243.5 -622.0 264.5 -622.0 483.0 -622.0 483.0 -387.0 483.0 -258.5 427.5 -187.0 371.5 -115.5 273.0 -115.5 236.5 -115.5 205.0 -118.5 L205.0 -618.5 M237.5 0.0 Q618.0 0.0 618.0 -395.0 618.0 -550.0 524.5 -643.5 430.5 -737.5 270.5 -737.5 230.5 -737.5 75.0 -732.0 L75.0 0.0 237.5 0.0" fill-rule="evenodd" stroke="none"/>
    </g>
    <g id="font_Trebuchet_MS_E0">
      <path d="M205.0 -617.0 L542.5 -617.0 542.5 -732.5 75.0 -732.5 75.0 0.0 537.0 0.0 537.0 -115.5 205.0 -115.5 205.0 -335.0 447.0 -335.0 447.0 -445.5 205.0 -445.5 205.0 -617.0" fill-rule="evenodd" stroke="none"/>
    </g>
    <g id="font_Trebuchet_MS_S0">
      <path d="M40.0 -40.5 Q122.5 12.5 225.0 12.5 343.0 12.5 413.5 -45.0 483.5 -102.5 483.5 -191.5 483.5 -241.0 466.5 -281.0 449.5 -321.5 417.0 -351.5 384.5 -382.0 311.0 -418.0 171.5 -486.0 171.5 -549.0 171.5 -587.0 196.5 -610.5 221.0 -634.5 266.0 -634.5 342.0 -634.5 410.5 -585.5 L450.0 -697.5 Q390.5 -745.0 263.5 -745.0 166.0 -745.0 104.0 -689.0 41.5 -633.0 41.5 -548.0 41.5 -502.5 57.5 -465.0 73.0 -427.5 102.5 -400.0 131.5 -373.0 216.0 -330.5 300.0 -288.5 327.0 -254.5 354.0 -220.5 354.0 -183.0 354.0 -103.0 239.5 -103.0 165.0 -103.0 88.0 -157.0 L40.0 -40.5" fill-rule="evenodd" stroke="none"/>
    </g>
    <g id="font_Trebuchet_MS_C0">
      <path d="M577.0 -693.5 Q501.5 -745.0 375.5 -745.0 228.5 -745.0 134.5 -635.5 40.0 -526.5 40.0 -364.0 40.0 -189.5 125.0 -88.5 210.0 12.5 363.5 12.5 517.0 12.5 596.5 -72.0 L536.0 -177.0 Q477.5 -103.0 374.0 -103.0 283.5 -103.0 229.5 -172.0 175.0 -241.0 175.0 -358.5 175.0 -476.0 233.5 -552.5 292.0 -629.5 383.5 -629.5 480.0 -629.5 523.5 -586.0 L577.0 -693.5" fill-rule="evenodd" stroke="none"/>
    </g>
    <g id="font_Trebuchet_MS_R0">
      <path d="M210.0 -619.5 Q233.0 -622.5 254.0 -622.5 341.0 -622.5 381.5 -601.0 422.0 -579.5 422.0 -525.5 422.0 -459.0 384.5 -436.0 346.5 -413.0 265.0 -413.0 246.0 -413.0 210.0 -416.0 L210.0 -619.5 M488.0 0.0 L638.0 0.0 421.5 -330.0 Q480.0 -352.0 518.5 -405.5 557.0 -459.0 557.0 -524.0 557.0 -740.0 278.0 -740.0 233.0 -740.0 159.5 -736.0 86.0 -732.5 75.0 -732.5 L75.0 0.0 210.0 0.0 210.0 -306.0 Q263.0 -303.0 292.5 -302.5 L488.0 0.0" fill-rule="evenodd" stroke="none"/>
    </g>
    <g id="font_Trebuchet_MS_I0">
      <path d="M77.5 0.0 L207.5 0.0 207.5 -732.5 77.5 -732.5 77.5 0.0" fill-rule="evenodd" stroke="none"/>
    </g>
    <g id="font_Trebuchet_MS_T0">
      <path d="M373.0 -617.0 L616.5 -617.0 616.5 -732.5 10.0 -732.5 10.0 -617.0 243.0 -617.0 243.0 0.0 373.0 0.0 373.0 -617.0" fill-rule="evenodd" stroke="none"/>
    </g>
    <g id="font_Trebuchet_MS_O0">
      <path d="M175.0 -372.5 Q175.0 -490.5 221.5 -560.0 268.0 -630.0 355.0 -630.0 545.0 -630.0 545.0 -372.5 545.0 -241.0 494.0 -172.0 442.5 -103.0 345.0 -103.0 262.0 -103.0 218.5 -173.5 175.0 -244.0 175.0 -372.5 M40.0 -372.5 Q40.0 -193.5 119.0 -90.5 197.5 12.5 345.0 12.5 505.5 12.5 593.0 -91.5 680.0 -195.5 680.0 -372.5 680.0 -549.5 596.5 -647.5 513.0 -745.5 355.0 -745.5 211.5 -745.5 126.0 -637.0 40.0 -529.0 40.0 -372.5" fill-rule="evenodd" stroke="none"/>
    </g>
    <g id="font_Trebuchet_MS_N0">
      <path d="M555.5 10.0 L608.5 10.0 608.5 -732.5 483.5 -732.5 483.5 -290.5 137.5 -732.5 75.0 -732.5 75.0 0.5 200.0 0.5 200.0 -453.5 555.5 10.0" fill-rule="evenodd" stroke="none"/>
    </g>
    <g id="sprite5" transform="matrix(1.0, 0.0, 0.0, 1.0, 62.4, 42.4)">
      <use data-characterId="918" height="80.9" transform="matrix(1.0, 0.0, 0.0, 1.0, -62.4, -42.4)" width="129.15" xlink:href="#shape7"/>
      <use data-characterId="919" height="58.0" id="question" transform="matrix(1.0, 0.0, 0.0, 1.0, -58.0, -38.25)" width="131.6" xlink:href="#text1"/>
      <use data-characterId="920" height="30.95" id="yes_button" transform="matrix(1.0, 0.0, 0.0, 1.0, -47.05, 4.5)" width="37.0" xlink:href="#button0"/>
      <use data-characterId="921" height="30.95" id="no_button" transform="matrix(1.0, 0.0, 0.0, 1.0, 13.95, 5.5)" width="37.0" xlink:href="#button1"/>
    </g>
    <g id="shape7" transform="matrix(1.0, 0.0, 0.0, 1.0, 62.4, 42.4)">
      <path d="M50.0 37.5 L50.0 37.55 -50.0 37.55 -50.0 37.5 50.0 37.5" fill="#ff0066" fill-rule="evenodd" stroke="none"/>
      <path d="M-50.0 37.5 L-55.35 37.5 Q-57.6 37.1 -59.3 35.45 -61.3 33.45 -61.4 30.65 L-61.4 -34.5 Q-61.3 -37.3 -59.3 -39.3 -57.2 -41.35 -54.25 -41.4 L58.4 -41.4 Q61.35 -41.35 63.45 -39.3 65.45 -37.3 65.75 -34.5 L65.75 30.75 Q65.5 33.3 63.65 35.2 61.55 37.25 58.6 37.5 L50.0 37.5 -50.0 37.5" fill="#003366" fill-rule="evenodd" stroke="none"/>
      <path d="M-50.0 37.5 L-55.35 37.5 Q-57.6 37.1 -59.3 35.45 -61.3 33.45 -61.4 30.65 L-61.4 -34.5 Q-61.3 -37.3 -59.3 -39.3 -57.2 -41.35 -54.25 -41.4 L58.4 -41.4 Q61.35 -41.35 63.45 -39.3 65.45 -37.3 65.75 -34.5 L65.75 30.75 Q65.5 33.3 63.65 35.2 61.55 37.25 58.6 37.5 L50.0 37.5 -50.0 37.5 Z" fill="none" stroke="#333333" stroke-linecap="butt" stroke-linejoin="miter-clip" stroke-miterlimit="3.0" stroke-width="2.0"/>
    </g>
    <g id="text1" transform="matrix(1.0, 0.0, 0.0, 1.0, 4.0, 2.0)">
      <g transform="matrix(1.0, 0.0, 0.0, 1.0, -4.0, -2.0)">
        <use fill="#ffffff" height="58.0" transform="matrix(0.0098, 0.0, 0.0, 0.0098, 44.95, 9.05)" width="131.6" xlink:href="#font_Arial_q0"/>
        <use fill="#ffffff" height="58.0" transform="matrix(0.0098, 0.0, 0.0, 0.0098, 51.05, 9.05)" width="131.6" xlink:href="#font_Arial_u0"/>
        <use fill="#ffffff" height="58.0" transform="matrix(0.0098, 0.0, 0.0, 0.0098, 57.15, 9.05)" width="131.6" xlink:href="#font_Arial_e0"/>
        <use fill="#ffffff" height="58.0" transform="matrix(0.0098, 0.0, 0.0, 0.0098, 62.7, 9.05)" width="131.6" xlink:href="#font_Arial_s0"/>
        <use fill="#ffffff" height="58.0" transform="matrix(0.0098, 0.0, 0.0, 0.0098, 68.25, 9.05)" width="131.6" xlink:href="#font_Arial_t0"/>
        <use fill="#ffffff" height="58.0" transform="matrix(0.0098, 0.0, 0.0, 0.0098, 71.6, 9.05)" width="131.6" xlink:href="#font_Arial_i0"/>
        <use fill="#ffffff" height="58.0" transform="matrix(0.0098, 0.0, 0.0, 0.0098, 74.4, 9.05)" width="131.6" xlink:href="#font_Arial_o0"/>
        <use fill="#ffffff" height="58.0" transform="matrix(0.0098, 0.0, 0.0, 0.0098, 80.5, 9.05)" width="131.6" xlink:href="#font_Arial_n0"/>
      </g>
    </g>
    <g id="font_Arial_q0">
      <path d="M425.0 -272.0 Q425.0 -186.0 388.5 -142.5 352.0 -99.0 303.5 -99.0 255.0 -99.0 222.0 -137.5 189.0 -176.5 189.0 -264.0 189.0 -352.0 223.5 -392.5 257.5 -433.0 308.5 -433.0 358.5 -433.0 392.0 -393.0 425.0 -353.5 425.0 -272.0 M420.5 202.0 L561.0 202.0 561.0 -531.0 431.5 -531.0 431.5 -452.5 Q401.5 -498.0 363.0 -520.5 324.0 -543.0 271.0 -543.0 175.0 -543.0 110.5 -471.0 45.5 -399.5 45.5 -271.5 45.5 -135.5 114.5 -56.0 173.0 12.0 263.5 12.0 311.0 12.0 352.0 -8.5 393.0 -29.5 420.5 -65.0 L420.5 202.0" fill-rule="evenodd" stroke="none"/>
    </g>
    <g id="font_Arial_u0">
      <path d="M423.0 0.0 L553.5 0.0 553.5 -531.0 413.0 -531.0 413.0 -307.0 Q413.0 -193.0 402.5 -163.5 392.0 -134.5 363.5 -114.5 335.0 -95.0 299.0 -95.0 267.5 -95.0 247.0 -109.5 226.5 -124.5 219.0 -149.5 211.0 -175.0 211.0 -287.0 L211.0 -531.0 70.5 -531.0 70.5 -195.0 Q70.5 -120.0 89.5 -77.5 108.5 -35.0 151.0 -11.5 193.5 12.0 247.0 12.0 299.5 12.0 347.0 -12.5 394.0 -37.0 423.0 -79.5 L423.0 0.0" fill-rule="evenodd" stroke="none"/>
    </g>
    <g id="font_Arial_e0">
      <path d="M389.0 -311.0 L179.0 -311.0 Q178.5 -368.5 208.5 -402.0 238.5 -435.5 284.5 -435.5 327.5 -435.5 357.5 -403.5 387.5 -372.0 389.0 -311.0 M381.0 -169.0 Q369.5 -129.0 347.0 -111.0 324.5 -93.0 291.5 -93.0 243.0 -93.0 210.5 -127.5 178.0 -162.5 176.5 -225.0 L528.5 -225.0 Q531.5 -386.5 463.0 -464.5 394.5 -543.0 276.0 -543.0 170.5 -543.0 101.5 -468.0 32.5 -393.5 32.5 -261.5 32.5 -151.0 85.0 -78.5 151.5 12.0 290.0 12.0 377.5 12.0 436.0 -28.0 494.0 -68.5 521.0 -145.5 L381.0 -169.0" fill-rule="evenodd" stroke="none"/>
    </g>
    <g id="font_Arial_s0">
      <path d="M24.0 -151.5 Q43.5 -76.0 107.0 -32.0 170.0 12.0 278.5 12.0 398.0 12.0 459.0 -40.5 520.0 -93.0 520.0 -166.0 520.0 -233.0 476.0 -270.5 431.5 -307.5 319.5 -333.0 207.0 -358.5 188.0 -372.5 174.0 -383.0 174.0 -398.0 174.0 -415.5 190.0 -426.5 214.0 -442.0 269.5 -442.0 313.5 -442.0 337.5 -425.5 361.0 -409.0 369.5 -378.0 L502.0 -402.5 Q482.0 -472.0 429.0 -507.5 376.0 -543.0 267.0 -543.0 152.5 -543.0 98.0 -496.0 43.5 -449.0 43.5 -380.0 43.5 -303.5 106.5 -260.5 152.0 -229.5 322.0 -192.0 358.5 -183.5 369.0 -173.5 379.0 -163.0 379.0 -147.0 379.0 -123.5 360.5 -109.5 333.0 -89.5 278.5 -89.5 229.0 -89.5 201.5 -110.5 174.0 -132.0 165.0 -173.0 L24.0 -151.5" fill-rule="evenodd" stroke="none"/>
    </g>
    <g id="font_Arial_t0">
      <path d="M317.0 -531.0 L221.0 -531.0 221.0 -718.5 80.0 -636.5 80.0 -531.0 15.5 -531.0 15.5 -419.0 80.0 -419.0 80.0 -187.5 Q80.0 -113.0 84.5 -88.5 90.0 -54.0 104.5 -33.5 118.5 -13.5 149.0 -0.5 179.5 12.0 217.5 12.0 279.5 12.0 328.5 -9.0 L316.5 -118.0 Q279.5 -104.5 260.0 -104.5 246.0 -104.5 236.5 -111.5 226.5 -118.5 224.0 -129.0 221.0 -140.0 221.0 -205.0 L221.0 -419.0 317.0 -419.0 317.0 -531.0" fill-rule="evenodd" stroke="none"/>
    </g>
    <g id="font_Arial_i0">
      <path d="M73.5 0.0 L214.0 0.0 214.0 -531.0 73.5 -531.0 73.5 0.0 M73.5 -603.0 L214.0 -603.0 214.0 -733.0 73.5 -733.0 73.5 -603.0" fill-rule="evenodd" stroke="none"/>
    </g>
    <g id="font_Arial_o0">
      <path d="M185.0 -265.5 Q185.0 -344.5 222.5 -386.5 260.0 -428.5 315.0 -428.5 370.0 -428.5 407.5 -386.5 444.5 -344.5 444.5 -266.5 444.5 -186.5 407.5 -144.5 370.0 -102.5 315.0 -102.5 260.0 -102.5 222.5 -144.5 185.0 -186.5 185.0 -265.5 M41.0 -273.0 Q41.0 -181.5 75.5 -117.5 110.0 -54.0 176.5 -21.0 242.5 12.0 315.5 12.0 433.5 12.0 511.5 -67.0 589.0 -146.5 589.0 -267.0 589.0 -386.5 512.0 -464.5 435.0 -543.0 314.5 -543.0 236.5 -543.0 173.5 -508.5 110.0 -474.0 75.5 -408.5 41.0 -343.0 41.0 -273.0" fill-rule="evenodd" stroke="none"/>
    </g>
    <g id="font_Arial_n0">
      <path d="M556.5 0.0 L556.5 -330.0 Q556.5 -391.5 549.0 -424.5 541.0 -457.5 521.5 -483.5 501.5 -509.5 463.0 -526.0 424.5 -543.0 378.0 -543.0 272.5 -543.0 203.0 -453.0 L203.0 -531.0 72.5 -531.0 72.5 0.0 213.0 0.0 213.0 -240.5 Q213.0 -329.5 224.0 -362.5 234.5 -395.5 263.5 -415.5 292.5 -435.5 329.0 -435.5 357.5 -435.5 378.0 -421.5 398.0 -407.5 407.0 -382.0 416.0 -357.0 416.0 -271.0 L416.0 0.0 556.5 0.0" fill-rule="evenodd" stroke="none"/>
    </g>
    <g id="button0" transform="matrix(1.0, 0.0, 0.0, 1.0, 18.5, 13.5)">
      <use data-characterId="695" height="27.0" transform="matrix(1.0, 0.0, 0.0, 1.0, -18.5, -13.5)" width="37.0" xlink:href="#shape8"/>
      <use data-characterId="696" height="21.7" transform="matrix(1.1667, 0.0, 0.0, 1.25, -14.1333, -9.6625)" width="27.2" xlink:href="#text2"/>
    </g>
    <g id="shape8" transform="matrix(1.0, 0.0, 0.0, 1.0, 18.5, 13.5)">
      <path d="M17.5 12.5 L-17.5 12.5 -17.5 -12.5 17.5 -12.5 17.5 12.5" fill="#ffffff" fill-rule="evenodd" stroke="none"/>
      <path d="M14.2 -12.5 L-14.1 -12.5 Q-15.35 -12.4 -16.3 -11.45 -17.25 -10.5 -17.5 -9.25 L-17.5 9.2 Q-17.35 10.45 -16.4 11.4 -15.45 12.35 -14.2 12.5 L13.3 12.5 13.75 12.5 14.2 12.5 Q15.45 12.35 16.4 11.4 17.35 10.45 17.5 9.2 L17.5 8.75 17.5 8.3 17.5 -9.25 Q17.35 -10.5 16.4 -11.45 15.45 -12.4 14.2 -12.5 Z" fill="none" stroke="#000000" stroke-linecap="butt" stroke-linejoin="miter-clip" stroke-miterlimit="3.0" stroke-width="2.0"/>
    </g>
    <g id="text2" transform="matrix(1.0, 0.0, 0.0, 1.0, 2.0, 2.05)">
      <g transform="matrix(1.0, 0.0, 0.0, 1.0, -2.0, -2.0)">
        <use fill="#000000" height="21.7" transform="matrix(0.0098, 0.0, 0.0, 0.0098, 0.0, 9.0)" width="27.2" xlink:href="#font_Arial_Y0"/>
        <use fill="#000000" height="21.7" transform="matrix(0.0098, 0.0, 0.0, 0.0098, 6.65, 9.0)" width="27.2" xlink:href="#font_Arial_E0"/>
        <use fill="#000000" height="21.7" transform="matrix(0.0098, 0.0, 0.0, 0.0098, 13.3, 9.0)" width="27.2" xlink:href="#font_Arial_S0"/>
      </g>
    </g>
    <g id="font_Arial_Y0">
      <path d="M267.0 0.0 L414.5 0.0 414.5 -307.5 684.0 -733.0 513.5 -733.0 344.5 -443.0 172.0 -733.0 -1.5 -733.0 267.0 -308.5 267.0 0.0" fill-rule="evenodd" stroke="none"/>
    </g>
    <g id="font_Arial_E0">
      <path d="M74.5 0.0 L632.0 0.0 632.0 -123.5 222.5 -123.5 222.5 -323.0 590.5 -323.0 590.5 -446.5 222.5 -446.5 222.5 -609.0 618.0 -609.0 618.0 -733.0 74.5 -733.0 74.5 0.0" fill-rule="evenodd" stroke="none"/>
    </g>
    <g id="font_Arial_S0">
      <path d="M37.0 -238.5 Q51.5 -115.5 126.0 -51.0 200.5 13.0 339.5 13.0 435.0 13.0 499.0 -13.5 563.0 -40.5 598.0 -95.5 633.0 -150.5 633.0 -213.5 633.0 -283.0 604.0 -330.0 574.5 -377.5 523.0 -404.5 471.0 -432.0 363.0 -457.5 255.0 -483.0 227.0 -506.5 205.0 -525.0 205.0 -551.0 205.0 -579.5 228.5 -596.5 265.0 -623.0 329.5 -623.0 392.0 -623.0 423.5 -598.0 454.5 -573.5 464.0 -517.0 L612.0 -523.5 Q608.5 -624.5 539.0 -685.0 469.0 -745.5 331.0 -745.5 246.5 -745.5 187.0 -720.0 127.0 -694.5 95.5 -645.5 63.5 -597.0 63.5 -541.0 63.5 -454.0 131.0 -393.5 179.0 -350.5 298.0 -321.0 390.5 -298.0 416.5 -289.0 454.5 -275.5 470.0 -257.0 485.0 -239.0 485.0 -213.0 485.0 -172.5 449.0 -142.0 412.5 -112.0 341.0 -112.0 273.5 -112.0 234.0 -146.0 194.0 -180.0 181.0 -252.5 L37.0 -238.5" fill-rule="evenodd" stroke="none"/>
    </g>
    <g id="button1" transform="matrix(1.0, 0.0, 0.0, 1.0, 99.5, 13.5)">
      <use data-characterId="698" height="27.0" transform="matrix(1.0, 0.0, 0.0, 1.0, -99.5, -13.5)" width="37.0" xlink:href="#shape9"/>
      <use data-characterId="699" height="21.7" transform="matrix(1.1667, 0.0, 0.0, 1.25, -90.125, -9.6625)" width="21.5" xlink:href="#text3"/>
    </g>
    <g id="shape9" transform="matrix(1.0, 0.0, 0.0, 1.0, 99.5, 13.5)">
      <path d="M-98.5 -9.25 L-98.5 -12.5 -95.1 -12.5 Q-96.35 -12.4 -97.3 -11.45 -98.25 -10.5 -98.5 -9.25 -98.25 -10.5 -97.3 -11.45 -96.35 -12.4 -95.1 -12.5 L-66.8 -12.5 -63.5 -12.5 -63.5 -9.25 -63.5 8.3 -63.5 8.75 -63.5 9.2 -63.5 12.5 -66.8 12.5 -67.25 12.5 -67.7 12.5 -95.2 12.5 -98.5 12.5 -98.5 9.2 -98.5 -9.25 M-98.5 9.2 Q-98.35 10.45 -97.4 11.4 -96.45 12.35 -95.2 12.5 -96.45 12.35 -97.4 11.4 -98.35 10.45 -98.5 9.2 M-63.5 9.2 Q-63.65 10.45 -64.6 11.4 -65.55 12.35 -66.8 12.5 -65.55 12.35 -64.6 11.4 -63.65 10.45 -63.5 9.2 M-63.5 -9.25 Q-63.65 -10.5 -64.6 -11.45 -65.55 -12.4 -66.8 -12.5 -65.55 -12.4 -64.6 -11.45 -63.65 -10.5 -63.5 -9.25" fill="#ffffff" fill-rule="evenodd" stroke="none"/>
      <path d="M-98.5 -9.25 Q-98.25 -10.5 -97.3 -11.45 -96.35 -12.4 -95.1 -12.5 L-66.8 -12.5 Q-65.55 -12.4 -64.6 -11.45 -63.65 -10.5 -63.5 -9.25 L-63.5 8.3 -63.5 8.75 -63.5 9.2 Q-63.65 10.45 -64.6 11.4 -65.55 12.35 -66.8 12.5 L-67.25 12.5 -67.7 12.5 -95.2 12.5 Q-96.45 12.35 -97.4 11.4 -98.35 10.45 -98.5 9.2 L-98.5 -9.25 Z" fill="none" stroke="#000000" stroke-linecap="butt" stroke-linejoin="miter-clip" stroke-miterlimit="3.0" stroke-width="2.0"/>
    </g>
    <g id="text3" transform="matrix(1.0, 0.0, 0.0, 1.0, -0.75, 2.05)">
      <g transform="matrix(1.0, 0.0, 0.0, 1.0, 0.0, -2.0)">
        <use fill="#000000" height="21.7" transform="matrix(0.0098, 0.0, 0.0, 0.0098, 0.0, 9.0)" width="21.5" xlink:href="#font_Arial_N0"/>
        <use fill="#000000" height="21.7" transform="matrix(0.0098, 0.0, 0.0, 0.0098, 7.2, 9.0)" width="21.5" xlink:href="#font_Arial_O0"/>
      </g>
    </g>
    <g id="font_Arial_N0">
      <path d="M76.0 0.0 L213.5 0.0 213.5 -478.0 509.0 0.0 657.5 0.0 657.5 -733.0 520.0 -733.0 520.0 -243.5 220.0 -733.0 76.0 -733.0 76.0 0.0" fill-rule="evenodd" stroke="none"/>
    </g>
    <g id="font_Arial_O0">
      <path d="M197.0 -367.0 Q197.0 -493.5 253.0 -556.0 309.0 -619.0 400.5 -619.0 492.0 -619.0 547.5 -557.0 602.5 -495.0 602.5 -369.0 602.5 -241.5 546.0 -177.5 489.0 -114.0 400.5 -114.0 312.0 -114.0 254.5 -178.0 197.0 -242.5 197.0 -367.0 M44.5 -362.0 Q44.5 -187.0 141.0 -87.0 237.5 12.5 401.0 12.5 562.5 12.5 659.0 -87.5 755.5 -188.0 755.5 -365.5 755.5 -544.5 658.5 -645.0 561.0 -745.5 399.0 -745.5 309.5 -745.5 241.0 -716.5 189.5 -695.0 146.5 -650.5 103.0 -606.0 78.0 -550.0 44.5 -474.0 44.5 -362.0" fill-rule="evenodd" stroke="none"/>
    </g>
    <g id="sprite6" transform="matrix(1.0, 0.0, 0.0, 1.0, 6.5, 47.55)">
      <use data-characterId="724" height="24.8" transform="matrix(0.9997, 0.0, 0.0, 1.0, -2.2995, -21.75)" width="135.75" xlink:href="#text4"/>
      <use data-characterId="1066" height="34.0" id="titledisp" transform="matrix(1.0, 0.0, 0.0, 1.0, -6.5, -47.55)" width="165.4" xlink:href="#text5"/>
    </g>
    <g id="text4" transform="matrix(1.0, 0.0, 0.0, 1.0, 1.55, 0.25)">
      <g transform="matrix(1.0, 0.0, 0.0, 1.0, -2.0, -1.2)">
        <use fill="#ffffff" height="24.8" transform="matrix(0.0117, 0.0, 0.0, 0.0117, 0.0, 12.0)" width="135.75" xlink:href="#font_Trebuchet_MS_C1"/>
        <use fill="#ffffff" height="24.8" transform="matrix(0.0117, 0.0, 0.0, 0.0117, 7.2, 12.0)" width="135.75" xlink:href="#font_Trebuchet_MS_u0"/>
        <use fill="#ffffff" height="24.8" transform="matrix(0.0117, 0.0, 0.0, 0.0117, 13.75, 12.0)" width="135.75" xlink:href="#font_Trebuchet_MS_r0"/>
        <use fill="#ffffff" height="24.8" transform="matrix(0.0117, 0.0, 0.0, 0.0117, 18.4, 12.0)" width="135.75" xlink:href="#font_Trebuchet_MS_r0"/>
        <use fill="#ffffff" height="24.8" transform="matrix(0.0117, 0.0, 0.0, 0.0117, 23.05, 12.0)" width="135.75" xlink:href="#font_Trebuchet_MS_e0"/>
        <use fill="#ffffff" height="24.8" transform="matrix(0.0117, 0.0, 0.0, 0.0117, 29.6, 12.0)" width="135.75" xlink:href="#font_Trebuchet_MS_n0"/>
        <use fill="#ffffff" height="24.8" transform="matrix(0.0117, 0.0, 0.0, 0.0117, 36.15, 12.0)" width="135.75" xlink:href="#font_Trebuchet_MS_t0"/>
        <use fill="#ffffff" height="24.8" transform="matrix(0.0117, 0.0, 0.0, 0.0117, 44.5, 12.0)" width="135.75" xlink:href="#font_Trebuchet_MS_S1"/>
        <use fill="#ffffff" height="24.8" transform="matrix(0.0117, 0.0, 0.0, 0.0117, 50.25, 12.0)" width="135.75" xlink:href="#font_Trebuchet_MS_p0"/>
        <use fill="#ffffff" height="24.8" transform="matrix(0.0117, 0.0, 0.0, 0.0117, 56.95, 12.0)" width="135.75" xlink:href="#font_Trebuchet_MS_e0"/>
        <use fill="#ffffff" height="24.8" transform="matrix(0.0117, 0.0, 0.0, 0.0117, 63.5, 12.0)" width="135.75" xlink:href="#font_Trebuchet_MS_c0"/>
        <use fill="#ffffff" height="24.8" transform="matrix(0.0117, 0.0, 0.0, 0.0117, 69.45, 12.0)" width="135.75" xlink:href="#font_Trebuchet_MS_i0"/>
        <use fill="#ffffff" height="24.8" transform="matrix(0.0117, 0.0, 0.0, 0.0117, 72.85, 12.0)" width="135.75" xlink:href="#font_Trebuchet_MS_a0"/>
        <use fill="#ffffff" height="24.8" transform="matrix(0.0117, 0.0, 0.0, 0.0117, 79.15, 12.0)" width="135.75" xlink:href="#font_Trebuchet_MS_l0"/>
        <use fill="#ffffff" height="24.8" transform="matrix(0.0117, 0.0, 0.0, 0.0117, 82.7, 12.0)" width="135.75" xlink:href="#font_Trebuchet_MS_s0"/>
        <use fill="#ffffff" height="24.8" transform="matrix(0.0117, 0.0, 0.0, 0.0117, 91.15, 12.0)" width="135.75" xlink:href="#font_Trebuchet_MS_L0"/>
        <use fill="#ffffff" height="24.8" transform="matrix(0.0117, 0.0, 0.0, 0.0117, 97.25, 12.0)" width="135.75" xlink:href="#font_Trebuchet_MS_o0"/>
        <use fill="#ffffff" height="24.8" transform="matrix(0.0117, 0.0, 0.0, 0.0117, 103.7, 12.0)" width="135.75" xlink:href="#font_Trebuchet_MS_a0"/>
        <use fill="#ffffff" height="24.8" transform="matrix(0.0117, 0.0, 0.0, 0.0117, 110.0, 12.0)" width="135.75" xlink:href="#font_Trebuchet_MS_d0"/>
        <use fill="#ffffff" height="24.8" transform="matrix(0.0117, 0.0, 0.0, 0.0117, 116.7, 12.0)" width="135.75" xlink:href="#font_Trebuchet_MS_e0"/>
        <use fill="#ffffff" height="24.8" transform="matrix(0.0117, 0.0, 0.0, 0.0117, 123.25, 12.0)" width="135.75" xlink:href="#font_Trebuchet_MS_d0"/>
      </g>
    </g>
    <g id="font_Trebuchet_MS_C1">
      <path d="M542.5 -705.5 Q475.0 -745.0 355.5 -745.0 216.0 -745.0 128.0 -636.5 40.0 -528.0 40.0 -364.0 40.0 -194.5 122.5 -91.0 205.0 12.5 348.5 12.5 485.5 12.5 572.5 -74.0 L517.5 -150.5 Q462.0 -77.5 359.0 -77.5 264.5 -77.5 205.0 -155.0 145.0 -233.0 145.0 -358.0 145.0 -489.0 203.5 -572.0 261.5 -655.0 358.0 -655.0 461.0 -655.0 509.0 -620.0 L542.5 -705.5" fill-rule="evenodd" stroke="none"/>
    </g>
    <g id="font_Trebuchet_MS_u0">
      <path d="M157.5 -535.5 L62.5 -535.5 62.5 -184.0 Q62.5 -91.0 109.5 -40.5 156.0 10.0 244.0 10.0 290.0 10.0 338.5 -16.0 386.5 -42.5 402.5 -74.0 L402.5 0.0 497.5 0.0 497.5 -535.5 402.5 -535.5 402.5 -159.5 Q390.0 -124.0 351.0 -97.0 312.0 -70.0 265.0 -70.0 157.5 -70.0 157.5 -194.0 L157.5 -535.5" fill-rule="evenodd" stroke="none"/>
    </g>
    <g id="font_Trebuchet_MS_r0">
      <path d="M358.5 -444.0 L398.0 -536.5 Q350.0 -545.5 324.5 -545.5 222.0 -545.5 170.0 -450.0 L170.0 -535.5 75.0 -535.5 75.0 0.0 170.0 0.0 170.0 -307.0 Q170.0 -372.5 208.0 -419.0 245.5 -465.5 296.0 -465.5 327.5 -465.5 358.5 -444.0" fill-rule="evenodd" stroke="none"/>
    </g>
    <g id="font_Trebuchet_MS_e0">
      <path d="M288.0 -465.5 Q356.0 -465.5 395.5 -423.5 431.5 -385.0 431.5 -327.5 L135.0 -327.5 Q140.5 -385.5 181.5 -424.5 224.5 -465.5 288.0 -465.5 M518.5 -258.5 Q526.0 -285.0 526.0 -316.5 526.0 -419.0 463.0 -481.0 398.0 -545.5 283.5 -545.5 185.0 -545.5 113.0 -474.0 32.5 -394.0 32.5 -261.5 32.5 -134.0 111.0 -58.5 181.5 10.0 282.5 10.0 352.5 10.0 409.5 -11.0 455.0 -27.0 477.0 -49.0 L437.0 -117.5 Q382.5 -70.0 301.0 -70.0 229.5 -70.0 184.0 -114.0 132.5 -164.5 132.5 -258.5 L518.5 -258.5" fill-rule="evenodd" stroke="none"/>
    </g>
    <g id="font_Trebuchet_MS_n0">
      <path d="M397.0 0.0 L492.0 0.0 492.0 -331.5 Q492.0 -545.5 316.0 -545.5 209.5 -545.5 162.5 -466.5 L132.5 -535.5 67.5 -535.5 67.5 0.0 162.5 0.0 162.5 -398.0 Q181.5 -426.5 217.0 -446.0 252.5 -465.5 285.0 -465.5 345.5 -465.5 371.5 -431.0 397.0 -397.0 397.0 -311.5 L397.0 0.0" fill-rule="evenodd" stroke="none"/>
    </g>
    <g id="font_Trebuchet_MS_t0">
      <path d="M101.5 -460.5 L101.5 -156.5 Q101.5 -84.5 145.5 -37.0 189.0 10.0 252.5 10.0 323.0 10.0 382.0 -5.0 L368.0 -88.5 Q329.0 -70.0 292.5 -70.0 242.0 -70.0 219.5 -98.5 196.5 -127.0 196.5 -194.5 L196.5 -460.5 343.5 -460.5 343.5 -535.5 196.5 -535.5 196.5 -684.0 101.5 -647.5 101.5 -535.5 39.5 -535.5 39.5 -460.5 101.5 -460.5" fill-rule="evenodd" stroke="none"/>
    </g>
    <g id="font_Trebuchet_MS_S1">
      <path d="M42.0 -33.5 Q111.0 12.5 208.5 12.5 319.5 12.5 386.0 -45.0 452.0 -102.5 452.0 -185.0 452.0 -261.0 422.0 -310.0 391.5 -359.5 316.5 -395.0 L256.5 -423.5 Q198.5 -451.5 180.0 -467.0 161.0 -482.5 150.5 -505.5 140.0 -528.5 140.0 -556.5 140.0 -602.0 169.5 -631.0 198.5 -660.0 249.5 -660.0 284.5 -660.0 325.5 -646.5 366.5 -633.0 386.5 -618.5 L416.0 -705.5 Q368.5 -745.0 247.0 -745.0 156.0 -745.0 98.0 -691.0 40.0 -637.0 40.0 -555.0 40.0 -487.5 70.0 -439.5 99.5 -391.5 174.5 -356.5 L233.5 -329.0 Q313.0 -291.5 333.0 -259.5 352.5 -228.0 352.5 -191.0 352.5 -141.5 317.0 -109.5 281.5 -77.5 223.0 -77.5 190.0 -77.5 148.5 -91.0 106.5 -105.0 78.5 -125.5 L42.0 -33.5" fill-rule="evenodd" stroke="none"/>
    </g>
    <g id="font_Trebuchet_MS_p0">
      <path d="M162.5 -420.0 Q179.5 -437.5 208.5 -451.5 237.5 -465.5 257.5 -465.5 350.0 -465.5 392.0 -418.5 434.0 -371.5 434.0 -270.0 434.0 -70.0 257.0 -70.0 229.5 -70.0 200.5 -82.0 171.5 -94.5 162.5 -108.0 L162.5 -420.0 M162.5 -29.5 Q173.5 -14.0 212.5 -2.0 251.0 10.0 285.0 10.0 406.0 10.0 470.0 -67.0 534.0 -144.5 534.0 -266.5 534.0 -403.5 470.5 -474.5 407.0 -545.5 293.0 -545.5 216.5 -545.5 162.5 -491.5 L162.5 -535.5 67.5 -535.5 67.5 210.0 162.5 210.0 162.5 -29.5" fill-rule="evenodd" stroke="none"/>
    </g>
    <g id="font_Trebuchet_MS_c0">
      <path d="M471.5 -492.0 Q448.5 -510.5 400.0 -528.0 351.5 -545.5 310.0 -545.5 181.0 -545.5 107.0 -468.0 32.5 -390.5 32.5 -262.5 32.5 -137.0 104.0 -63.5 175.5 10.0 285.0 10.0 398.0 10.0 474.5 -39.5 L437.0 -119.5 Q372.0 -70.0 308.0 -70.0 225.5 -70.0 179.0 -119.0 132.5 -168.5 132.5 -262.5 132.5 -357.0 178.0 -411.0 223.5 -465.5 301.0 -465.5 336.5 -465.5 373.5 -452.5 410.0 -439.5 424.5 -425.0 L471.5 -492.0" fill-rule="evenodd" stroke="none"/>
    </g>
    <g id="font_Trebuchet_MS_i0">
      <path d="M113.5 0.0 L208.5 0.0 208.5 -535.5 40.0 -535.5 40.0 -455.5 113.5 -455.5 113.5 0.0 M165.5 -738.0 Q141.0 -738.0 124.0 -721.0 107.0 -704.0 107.0 -679.5 107.0 -655.0 124.5 -637.5 141.5 -620.5 165.5 -620.5 190.0 -620.5 207.5 -637.5 224.5 -655.0 224.5 -679.5 224.5 -703.5 207.5 -720.5 190.0 -738.0 165.5 -738.0" fill-rule="evenodd" stroke="none"/>
    </g>
    <g id="font_Trebuchet_MS_a0">
      <path d="M361.0 -263.0 L361.0 -133.5 Q305.5 -65.0 233.5 -65.0 135.0 -65.0 135.0 -148.5 135.0 -199.0 180.5 -236.0 226.0 -273.0 298.0 -273.0 316.0 -273.0 361.0 -263.0 M370.0 -61.5 Q382.5 -23.5 411.5 -7.0 440.0 9.5 498.0 9.5 L498.0 -38.0 Q456.0 -61.5 456.0 -132.0 L456.0 -324.0 Q456.0 -439.5 403.5 -492.5 350.5 -545.5 234.0 -545.5 190.5 -545.5 143.0 -529.5 95.0 -514.0 68.0 -492.0 L108.0 -412.5 Q156.0 -460.5 245.0 -460.5 361.0 -460.5 361.0 -330.5 323.0 -343.5 293.0 -343.5 182.5 -343.5 111.5 -287.0 40.0 -231.0 40.0 -149.5 40.0 -81.5 86.5 -35.5 132.5 10.0 195.5 10.0 313.0 10.0 370.0 -61.5" fill-rule="evenodd" stroke="none"/>
    </g>
    <g id="font_Trebuchet_MS_l0">
      <path d="M75.0 -151.5 Q75.0 10.0 259.5 10.0 L259.5 -75.0 Q219.5 -75.0 195.0 -99.5 170.0 -124.5 170.0 -167.5 L170.0 -755.0 75.0 -755.0 75.0 -151.5" fill-rule="evenodd" stroke="none"/>
    </g>
    <g id="font_Trebuchet_MS_s0">
      <path d="M32.5 -32.0 Q107.0 10.0 191.5 10.0 281.0 10.0 331.5 -30.5 382.0 -71.5 382.0 -143.5 382.0 -198.5 353.5 -235.0 325.0 -271.5 262.5 -300.0 L194.5 -331.0 Q136.0 -357.5 136.0 -409.0 136.0 -433.5 159.5 -449.5 182.5 -465.5 216.5 -465.5 273.5 -465.5 330.0 -420.5 L357.0 -508.5 Q268.0 -545.5 209.5 -545.5 132.0 -545.5 84.0 -508.5 36.0 -471.5 36.0 -405.5 36.0 -380.0 44.5 -357.5 52.5 -335.5 69.5 -315.5 86.0 -296.0 109.0 -280.5 131.5 -265.0 197.0 -235.0 282.0 -197.0 282.0 -144.0 282.0 -70.0 194.0 -70.0 145.5 -70.0 66.0 -122.0 L32.5 -32.0" fill-rule="evenodd" stroke="none"/>
    </g>
    <g id="font_Trebuchet_MS_L0">
      <path d="M75.0 0.0 L506.0 0.0 506.0 -90.0 175.0 -90.0 175.0 -732.5 75.0 -732.5 75.0 0.0" fill-rule="evenodd" stroke="none"/>
    </g>
    <g id="font_Trebuchet_MS_o0">
      <path d="M132.5 -269.0 Q132.5 -362.0 171.5 -415.0 210.0 -468.0 275.0 -468.0 417.0 -468.0 417.0 -269.0 417.0 -175.5 379.5 -121.5 341.5 -67.5 275.0 -67.5 132.5 -67.5 132.5 -269.0 M32.5 -269.0 Q32.5 -141.0 96.5 -65.5 160.5 10.0 275.0 10.0 387.0 10.0 452.0 -64.5 517.0 -139.5 517.0 -269.0 517.0 -399.0 453.5 -472.0 390.0 -545.5 275.0 -545.5 166.0 -545.5 99.5 -469.0 32.5 -393.0 32.5 -269.0" fill-rule="evenodd" stroke="none"/>
    </g>
    <g id="font_Trebuchet_MS_d0">
      <path d="M407.0 -411.5 L407.0 -114.5 Q399.0 -98.5 367.5 -84.0 336.0 -70.0 313.5 -70.0 137.5 -70.0 137.5 -263.5 137.5 -351.5 185.0 -408.5 232.0 -465.5 308.5 -465.5 371.0 -465.5 407.0 -411.5 M407.0 -0.5 L502.0 -0.5 502.0 -755.0 407.0 -755.0 407.0 -506.5 Q364.0 -545.5 281.0 -545.5 181.5 -545.5 109.5 -460.0 37.5 -375.0 37.5 -254.5 37.5 -134.5 100.0 -62.5 162.5 9.5 263.0 9.5 357.5 9.5 407.0 -40.0 L407.0 -0.5" fill-rule="evenodd" stroke="none"/>
    </g>
    <g id="text5" transform="matrix(1.0, 0.0, 0.0, 1.0, 4.0, 2.0)">
      <g transform="matrix(1.0, 0.0, 0.0, 1.0, -4.0, -2.0)">
        <use fill="#ffffff" height="34.0" transform="matrix(0.0117, 0.0, 0.0, 0.0117, 0.0, 11.25)" width="165.4" xlink:href="#font_Trebuchet_MS_t0"/>
        <use fill="#ffffff" height="34.0" transform="matrix(0.0117, 0.0, 0.0, 0.0117, 4.75, 11.25)" width="165.4" xlink:href="#font_Trebuchet_MS_i0"/>
        <use fill="#ffffff" height="34.0" transform="matrix(0.0117, 0.0, 0.0, 0.0117, 8.15, 11.25)" width="165.4" xlink:href="#font_Trebuchet_MS_t0"/>
        <use fill="#ffffff" height="34.0" transform="matrix(0.0117, 0.0, 0.0, 0.0117, 12.9, 11.25)" width="165.4" xlink:href="#font_Trebuchet_MS_l0"/>
        <use fill="#ffffff" height="34.0" transform="matrix(0.0117, 0.0, 0.0, 0.0117, 16.45, 11.25)" width="165.4" xlink:href="#font_Trebuchet_MS_e0"/>
        <use fill="#ffffff" height="34.0" transform="matrix(0.0117, 0.0, 0.0, 0.0117, 23.0, 11.25)" width="165.4" xlink:href="#font_Trebuchet_MS_d0"/>
        <use fill="#ffffff" height="34.0" transform="matrix(0.0117, 0.0, 0.0, 0.0117, 29.7, 11.25)" width="165.4" xlink:href="#font_Trebuchet_MS_i0"/>
        <use fill="#ffffff" height="34.0" transform="matrix(0.0117, 0.0, 0.0, 0.0117, 33.1, 11.25)" width="165.4" xlink:href="#font_Trebuchet_MS_s0"/>
        <use fill="#ffffff" height="34.0" transform="matrix(0.0117, 0.0, 0.0, 0.0117, 37.95, 11.25)" width="165.4" xlink:href="#font_Trebuchet_MS_p0"/>
      </g>
    </g>
  </defs>
</svg>
