<?xml version="1.0" encoding="UTF-8" standalone="no"?>
<svg xmlns:xlink="http://www.w3.org/1999/xlink" height="904.7px" width="1158.55px" xmlns="http://www.w3.org/2000/svg">
  <g transform="matrix(1.0, 0.0, 0.0, 1.0, 140.2, 166.2)">
    <use data-characterId="1043" height="904.7" transform="matrix(1.0, 0.0, 0.0, 1.0, -140.2, -166.2)" width="1158.55" xlink:href="#shape0"/>
    <use data-characterId="931" data-characterName="sc346_fla.SelectionWindow_117" height="135.6" id="DisplayScreen" transform="matrix(1.0, 0.0, 0.0, 1.0, 203.95, -14.3)" width="550.1" xlink:href="#sprite0"/>
    <use data-characterId="1063" height="247.45" transform="matrix(1.0, 0.0, 0.0, 1.0, 6.7, 35.75)" width="171.0" xlink:href="#shape5"/>
    <use data-characterId="1062" data-characterName="sc346_fla.hardwareshopmenulabel_121" height="34.0" id="guns" transform="matrix(1.0, 0.0, 0.0, 1.0, 14.8, 80.9)" width="158.95" xlink:href="#sprite4"/>
    <use data-characterId="1062" data-characterName="sc346_fla.hardwareshopmenulabel_121" height="34.0" id="missiles" transform="matrix(1.0, 0.0, 0.0, 1.0, 15.05, 106.05)" width="158.95" xlink:href="#sprite4"/>
    <use data-characterId="1062" data-characterName="sc346_fla.hardwareshopmenulabel_121" height="34.0" id="shieldgen" transform="matrix(1.0, 0.0, 0.0, 1.0, 15.05, 132.8)" width="158.95" xlink:href="#sprite4"/>
    <use data-characterId="1062" data-characterName="sc346_fla.hardwareshopmenulabel_121" height="34.0" id="energygen" transform="matrix(1.0, 0.0, 0.0, 1.0, 15.05, 156.8)" width="158.95" xlink:href="#sprite4"/>
    <use data-characterId="1062" data-characterName="sc346_fla.hardwareshopmenulabel_121" height="34.0" id="energycap" transform="matrix(1.0, 0.0, 0.0, 1.0, 15.05, 181.05)" width="158.95" xlink:href="#sprite4"/>
    <use data-characterId="1062" data-characterName="sc346_fla.hardwareshopmenulabel_121" height="34.0" id="specials" transform="matrix(1.0, 0.0, 0.0, 1.0, 15.05, 207.55)" width="158.95" xlink:href="#sprite4"/>
    <use data-characterId="1062" data-characterName="sc346_fla.hardwareshopmenulabel_121" height="34.0" id="exit_but" transform="matrix(1.0, 0.0, 0.0, 1.0, 15.05, 234.05)" width="158.95" xlink:href="#sprite4"/>
    <use data-characterId="1062" data-characterName="sc346_fla.hardwareshopmenulabel_121" height="34.0" id="turrets" transform="matrix(1.0, 0.0, 0.0, 1.0, 15.05, 56.2)" width="158.95" xlink:href="#sprite4"/>
  </g>
  <defs>
    <g id="shape0" transform="matrix(1.0, 0.0, 0.0, 1.0, 286.35, 189.45)">
      <path d="M871.7 -188.95 L871.7 714.75 -285.85 714.75 -285.85 -188.95 871.7 -188.95" fill="#000000" fill-opacity="0.8980392" fill-rule="evenodd" stroke="none"/>
      <path d="M871.7 -188.95 L871.7 714.75 -285.85 714.75 -285.85 -188.95 871.7 -188.95 Z" fill="none" stroke="#000000" stroke-linecap="butt" stroke-linejoin="miter-clip" stroke-miterlimit="3.0" stroke-width="1.0"/>
    </g>
    <g id="sprite0" transform="matrix(1.0, 0.0, 0.0, 1.0, 0.05, 0.05)">
      <use data-characterId="924" height="124.15" transform="matrix(1.0, 0.0, 0.0, 1.0, -0.05, -0.05)" width="550.1" xlink:href="#shape1"/>
      <clipPath id="clipPath0" transform="matrix(1.0, 0.0, 0.0, 1.0, 0.0, 0.0)">
        <path d="M548.0 122.5 L2.95 122.5 2.95 2.5 548.0 2.5 548.0 122.5" fill="#ff0000" fill-rule="evenodd" stroke="none"/>
        <path d="M548.0 122.5 L2.95 122.5 2.95 2.5 548.0 2.5 548.0 122.5 Z" fill="none" stroke="#ff0000" stroke-linecap="butt" stroke-linejoin="miter-clip" stroke-miterlimit="3.0" stroke-width="0.1"/>
      </clipPath>
      <g clip-path="url(#clipPath0)">
        <use data-characterId="926" height="0.0" id="screen" transform="matrix(1.0, 0.0, 0.0, 1.0, 2.95, 2.5)" width="0.0" xlink:href="#sprite1"/>
      </g>
      <use data-characterId="930" height="11.55" id="slider" transform="matrix(1.0, 0.0, 0.0, 1.0, -0.05, 124.0)" width="550.1" xlink:href="#sprite2"/>
    </g>
    <g id="shape1" transform="matrix(1.0, 0.0, 0.0, 1.0, 0.05, 0.05)">
      <path d="M550.0 124.05 L0.0 124.05 0.0 0.0 550.0 0.0 550.0 124.05" fill="#000033" fill-rule="evenodd" stroke="none"/>
      <path d="M550.0 124.05 L0.0 124.05 0.0 0.0 550.0 0.0 550.0 124.05 Z" fill="none" stroke="#999999" stroke-linecap="butt" stroke-linejoin="miter-clip" stroke-miterlimit="3.0" stroke-width="0.1"/>
      <path d="M548.0 122.5 L2.95 122.5 2.95 2.5 548.0 2.5 548.0 122.5" fill="#000000" fill-rule="evenodd" stroke="none"/>
      <path d="M548.0 122.5 L2.95 122.5 2.95 2.5 548.0 2.5 548.0 122.5 Z" fill="none" stroke="#333333" stroke-linecap="butt" stroke-linejoin="miter-clip" stroke-miterlimit="3.0" stroke-width="0.1"/>
    </g>
    <g id="sprite2" transform="matrix(1.0, 0.0, 0.0, 1.0, 0.05, 0.05)">
      <use data-characterId="927" height="11.55" transform="matrix(1.0, 0.0, 0.0, 1.0, -0.05, -0.05)" width="550.1" xlink:href="#shape3"/>
      <use data-characterId="929" height="11.55" id="sliderBar" transform="matrix(1.0, 0.0, 0.0, 1.0, 14.95, -0.05)" width="520.15" xlink:href="#sprite3"/>
    </g>
    <g id="shape3" transform="matrix(1.0, 0.0, 0.0, 1.0, 0.05, 0.05)">
      <path d="M547.65 11.45 L0.5 11.45 0.5 0.0 547.65 0.0 547.65 11.45" fill="#333333" fill-rule="evenodd" stroke="none"/>
      <path d="M547.65 11.45 L0.5 11.45 0.5 0.0 547.65 0.0 547.65 11.45 Z" fill="none" stroke="#333333" stroke-linecap="butt" stroke-linejoin="miter-clip" stroke-miterlimit="3.0" stroke-width="0.1"/>
      <path d="M15.0 0.0 L15.0 11.45 0.0 11.45 0.0 0.0 15.0 0.0" fill="#999999" fill-rule="evenodd" stroke="none"/>
      <path d="M15.0 0.0 L15.0 11.45 0.0 11.45 0.0 0.0 15.0 0.0 Z" fill="none" stroke="#333333" stroke-linecap="butt" stroke-linejoin="miter-clip" stroke-miterlimit="3.0" stroke-width="0.1"/>
      <path d="M550.0 0.0 L550.0 11.45 535.0 11.45 535.0 0.0 550.0 0.0" fill="#999999" fill-rule="evenodd" stroke="none"/>
      <path d="M550.0 0.0 L550.0 11.45 535.0 11.45 535.0 0.0 550.0 0.0 Z" fill="none" stroke="#333333" stroke-linecap="butt" stroke-linejoin="miter-clip" stroke-miterlimit="3.0" stroke-width="0.1"/>
    </g>
    <g id="sprite3" transform="matrix(1.0, 0.0, 0.0, 1.0, 0.05, 0.05)">
      <use data-characterId="928" height="11.55" transform="matrix(1.0, 0.0, 0.0, 1.0, -0.05, -0.05)" width="520.15" xlink:href="#shape4"/>
    </g>
    <g id="shape4" transform="matrix(1.0, 0.0, 0.0, 1.0, 0.05, 0.05)">
      <path d="M520.05 11.45 L0.0 11.45 0.0 0.0 520.05 0.0 520.05 11.45" fill="#999999" fill-rule="evenodd" stroke="none"/>
      <path d="M520.05 11.45 L0.0 11.45 0.0 0.0 520.05 0.0 520.05 11.45 Z" fill="none" stroke="#333333" stroke-linecap="butt" stroke-linejoin="miter-clip" stroke-miterlimit="3.0" stroke-width="0.1"/>
    </g>
    <g id="shape5" transform="matrix(1.0, 0.0, 0.0, 1.0, -6.7, -35.75)">
      <path d="M177.2 282.7 L7.2 282.7 7.2 36.25 177.2 36.25 177.2 282.7" fill="#000099" fill-opacity="0.14901961" fill-rule="evenodd" stroke="none"/>
      <path d="M177.2 282.7 L7.2 282.7 7.2 36.25 177.2 36.25 177.2 282.7 Z" fill="none" stroke="#003366" stroke-linecap="butt" stroke-linejoin="miter-clip" stroke-miterlimit="3.0" stroke-width="1.0"/>
    </g>
    <g id="sprite4" transform="matrix(1.0, 0.0, 0.0, 1.0, 77.7, 10.2)">
      <use data-characterId="1059" height="18.35" transform="matrix(1.0, 0.0, 0.0, 1.0, -77.7, -9.3)" width="153.1" xlink:href="#shape6"/>
      <use data-characterId="1060" height="34.0" id="label" transform="matrix(1.0, 0.0, 0.0, 1.0, -68.5, -10.2)" width="149.75" xlink:href="#text0"/>
    </g>
    <g id="shape6" transform="matrix(1.0, 0.0, 0.0, 1.0, 77.7, 9.3)">
      <path d="M71.35 -9.25 Q75.35 -9.25 75.35 -6.95 L75.35 6.65 Q75.35 9.0 71.35 9.0 L-73.65 9.0 Q-77.65 9.0 -77.65 6.65 L-77.65 -6.95 Q-77.65 -9.25 -73.65 -9.25 L71.35 -9.25" fill="#0066ff" fill-rule="evenodd" stroke="none"/>
      <path d="M71.35 -9.25 L-73.65 -9.25 Q-77.65 -9.25 -77.65 -6.95 L-77.65 6.65 Q-77.65 9.0 -73.65 9.0 L71.35 9.0 Q75.35 9.0 75.35 6.65 L75.35 -6.95 Q75.35 -9.25 71.35 -9.25 Z" fill="none" stroke="#333333" stroke-linecap="butt" stroke-linejoin="miter-clip" stroke-miterlimit="3.0" stroke-width="0.1"/>
    </g>
    <g id="text0" transform="matrix(1.0, 0.0, 0.0, 1.0, 4.0, 2.0)">
      <g transform="matrix(1.0, 0.0, 0.0, 1.0, -4.0, -2.0)">
        <use fill="#ffffcc" height="34.0" transform="matrix(0.0117, 0.0, 0.0, 0.0117, 41.9, 11.25)" width="149.75" xlink:href="#font_Trebuchet_MS_D0"/>
        <use fill="#ffffcc" height="34.0" transform="matrix(0.0117, 0.0, 0.0, 0.0117, 49.6, 11.25)" width="149.75" xlink:href="#font_Trebuchet_MS_E0"/>
        <use fill="#ffffcc" height="34.0" transform="matrix(0.0117, 0.0, 0.0, 0.0117, 56.45, 11.25)" width="149.75" xlink:href="#font_Trebuchet_MS_S0"/>
        <use fill="#ffffcc" height="34.0" transform="matrix(0.0117, 0.0, 0.0, 0.0117, 62.6, 11.25)" width="149.75" xlink:href="#font_Trebuchet_MS_C0"/>
        <use fill="#ffffcc" height="34.0" transform="matrix(0.0117, 0.0, 0.0, 0.0117, 69.95, 11.25)" width="149.75" xlink:href="#font_Trebuchet_MS_R0"/>
        <use fill="#ffffcc" height="34.0" transform="matrix(0.0117, 0.0, 0.0, 0.0117, 77.3, 11.25)" width="149.75" xlink:href="#font_Trebuchet_MS_I0"/>
        <use fill="#ffffcc" height="34.0" transform="matrix(0.0117, 0.0, 0.0, 0.0117, 80.65, 11.25)" width="149.75" xlink:href="#font_Trebuchet_MS_T0"/>
        <use fill="#ffffcc" height="34.0" transform="matrix(0.0117, 0.0, 0.0, 0.0117, 88.0, 11.25)" width="149.75" xlink:href="#font_Trebuchet_MS_I0"/>
        <use fill="#ffffcc" height="34.0" transform="matrix(0.0117, 0.0, 0.0, 0.0117, 91.35, 11.25)" width="149.75" xlink:href="#font_Trebuchet_MS_O0"/>
        <use fill="#ffffcc" height="34.0" transform="matrix(0.0117, 0.0, 0.0, 0.0117, 99.8, 11.25)" width="149.75" xlink:href="#font_Trebuchet_MS_N0"/>
      </g>
    </g>
    <g id="font_Trebuchet_MS_D0">
      <path d="M205.0 -618.5 Q243.5 -622.0 264.5 -622.0 483.0 -622.0 483.0 -387.0 483.0 -258.5 427.5 -187.0 371.5 -115.5 273.0 -115.5 236.5 -115.5 205.0 -118.5 L205.0 -618.5 M237.5 0.0 Q618.0 0.0 618.0 -395.0 618.0 -550.0 524.5 -643.5 430.5 -737.5 270.5 -737.5 230.5 -737.5 75.0 -732.0 L75.0 0.0 237.5 0.0" fill-rule="evenodd" stroke="none"/>
    </g>
    <g id="font_Trebuchet_MS_E0">
      <path d="M205.0 -617.0 L542.5 -617.0 542.5 -732.5 75.0 -732.5 75.0 0.0 537.0 0.0 537.0 -115.5 205.0 -115.5 205.0 -335.0 447.0 -335.0 447.0 -445.5 205.0 -445.5 205.0 -617.0" fill-rule="evenodd" stroke="none"/>
    </g>
    <g id="font_Trebuchet_MS_S0">
      <path d="M40.0 -40.5 Q122.5 12.5 225.0 12.5 343.0 12.5 413.5 -45.0 483.5 -102.5 483.5 -191.5 483.5 -241.0 466.5 -281.0 449.5 -321.5 417.0 -351.5 384.5 -382.0 311.0 -418.0 171.5 -486.0 171.5 -549.0 171.5 -587.0 196.5 -610.5 221.0 -634.5 266.0 -634.5 342.0 -634.5 410.5 -585.5 L450.0 -697.5 Q390.5 -745.0 263.5 -745.0 166.0 -745.0 104.0 -689.0 41.5 -633.0 41.5 -548.0 41.5 -502.5 57.5 -465.0 73.0 -427.5 102.5 -400.0 131.5 -373.0 216.0 -330.5 300.0 -288.5 327.0 -254.5 354.0 -220.5 354.0 -183.0 354.0 -103.0 239.5 -103.0 165.0 -103.0 88.0 -157.0 L40.0 -40.5" fill-rule="evenodd" stroke="none"/>
    </g>
    <g id="font_Trebuchet_MS_C0">
      <path d="M577.0 -693.5 Q501.5 -745.0 375.5 -745.0 228.5 -745.0 134.5 -635.5 40.0 -526.5 40.0 -364.0 40.0 -189.5 125.0 -88.5 210.0 12.5 363.5 12.5 517.0 12.5 596.5 -72.0 L536.0 -177.0 Q477.5 -103.0 374.0 -103.0 283.5 -103.0 229.5 -172.0 175.0 -241.0 175.0 -358.5 175.0 -476.0 233.5 -552.5 292.0 -629.5 383.5 -629.5 480.0 -629.5 523.5 -586.0 L577.0 -693.5" fill-rule="evenodd" stroke="none"/>
    </g>
    <g id="font_Trebuchet_MS_R0">
      <path d="M210.0 -619.5 Q233.0 -622.5 254.0 -622.5 341.0 -622.5 381.5 -601.0 422.0 -579.5 422.0 -525.5 422.0 -459.0 384.5 -436.0 346.5 -413.0 265.0 -413.0 246.0 -413.0 210.0 -416.0 L210.0 -619.5 M488.0 0.0 L638.0 0.0 421.5 -330.0 Q480.0 -352.0 518.5 -405.5 557.0 -459.0 557.0 -524.0 557.0 -740.0 278.0 -740.0 233.0 -740.0 159.5 -736.0 86.0 -732.5 75.0 -732.5 L75.0 0.0 210.0 0.0 210.0 -306.0 Q263.0 -303.0 292.5 -302.5 L488.0 0.0" fill-rule="evenodd" stroke="none"/>
    </g>
    <g id="font_Trebuchet_MS_I0">
      <path d="M77.5 0.0 L207.5 0.0 207.5 -732.5 77.5 -732.5 77.5 0.0" fill-rule="evenodd" stroke="none"/>
    </g>
    <g id="font_Trebuchet_MS_T0">
      <path d="M373.0 -617.0 L616.5 -617.0 616.5 -732.5 10.0 -732.5 10.0 -617.0 243.0 -617.0 243.0 0.0 373.0 0.0 373.0 -617.0" fill-rule="evenodd" stroke="none"/>
    </g>
    <g id="font_Trebuchet_MS_O0">
      <path d="M175.0 -372.5 Q175.0 -490.5 221.5 -560.0 268.0 -630.0 355.0 -630.0 545.0 -630.0 545.0 -372.5 545.0 -241.0 494.0 -172.0 442.5 -103.0 345.0 -103.0 262.0 -103.0 218.5 -173.5 175.0 -244.0 175.0 -372.5 M40.0 -372.5 Q40.0 -193.5 119.0 -90.5 197.5 12.5 345.0 12.5 505.5 12.5 593.0 -91.5 680.0 -195.5 680.0 -372.5 680.0 -549.5 596.5 -647.5 513.0 -745.5 355.0 -745.5 211.5 -745.5 126.0 -637.0 40.0 -529.0 40.0 -372.5" fill-rule="evenodd" stroke="none"/>
    </g>
    <g id="font_Trebuchet_MS_N0">
      <path d="M555.5 10.0 L608.5 10.0 608.5 -732.5 483.5 -732.5 483.5 -290.5 137.5 -732.5 75.0 -732.5 75.0 0.5 200.0 0.5 200.0 -453.5 555.5 10.0" fill-rule="evenodd" stroke="none"/>
    </g>
  </defs>
</svg>
