<?xml version="1.0" encoding="UTF-8" standalone="no"?>
<svg xmlns:xlink="http://www.w3.org/1999/xlink" height="325.9px" width="514.2px" xmlns="http://www.w3.org/2000/svg">
  <g transform="matrix(1.0, 0.0, 0.0, 1.0, 255.05, 189.5)">
    <use data-characterId="519" height="71.35" transform="matrix(1.0, 0.0, 0.0, 1.0, -38.0, -37.45)" width="75.0" xlink:href="#shape0"/>
    <use data-characterId="526" height="19.6" transform="matrix(1.0, 0.0, 0.0, 1.0, -83.3, -10.45)" width="166.5" xlink:href="#text0"/>
    <use data-characterId="528" height="70.1" transform="matrix(1.0, 0.0, 0.0, 1.0, -255.05, 65.8)" width="71.25" xlink:href="#sprite0"/>
    <use data-characterId="528" height="70.1" transform="matrix(1.0, 0.0, 0.0, 1.0, 187.9, 66.3)" width="71.25" xlink:href="#sprite0"/>
    <use data-characterId="528" height="70.1" transform="matrix(1.0, 0.0, 0.0, 1.0, -41.95, -189.5)" width="71.25" xlink:href="#sprite0"/>
  </g>
  <defs>
    <g id="shape0" transform="matrix(1.0, 0.0, 0.0, 1.0, 38.0, 37.45)">
      <path d="M23.85 -9.95 L23.0 -11.1 Q14.05 -22.2 0.25 -22.5 L-0.5 -22.5 Q-15.5 -22.25 -24.8 -10.0 M-0.5 18.95 Q-15.5 18.65 -24.8 6.4 M23.85 6.4 L23.0 7.5 Q14.05 18.6 0.25 18.9 L-0.5 18.95" fill="none" stroke="#cccccc" stroke-linecap="round" stroke-linejoin="round" stroke-width="2.0"/>
      <path d="M0.25 -36.4 Q-5.2 -36.75 -11.2 -35.25 -27.1 -31.3 -37.0 -17.65 M0.25 -36.4 Q17.95 -36.0 30.35 -24.15 33.45 -21.2 36.0 -17.6 M36.0 14.05 Q33.45 17.6 30.35 20.6 17.95 32.4 1.05 32.85 L-0.45 32.9 Q-5.9 32.95 -11.2 31.65 -27.1 27.7 -37.0 14.05" fill="none" stroke="#999999" stroke-linecap="round" stroke-linejoin="round" stroke-width="2.0"/>
      <path d="M0.25 -22.5 L0.25 -36.4" fill="none" stroke="#cccccc" stroke-linecap="round" stroke-linejoin="round" stroke-width="2.0"/>
      <path d="M-0.5 18.95 L-0.45 32.9" fill="none" stroke="#cccccc" stroke-linecap="round" stroke-linejoin="round" stroke-width="1.0"/>
    </g>
    <g id="sprite0" transform="matrix(1.0, 0.0, 0.0, 1.0, 33.9, 33.0)">
      <use data-characterId="527" height="70.1" transform="matrix(1.0, 0.0, 0.0, 1.0, -33.9, -33.0)" width="71.25" xlink:href="#shape1"/>
    </g>
    <g id="shape1" transform="matrix(1.0, 0.0, 0.0, 1.0, 33.9, 33.0)">
      <path d="M-11.65 -16.25 Q-6.9 -19.8 -0.75 -20.0 L0.0 -20.0 Q6.7 -20.0 11.8 -16.15 L14.15 -14.1 16.75 -11.0 25.15 -14.25 29.55 -21.85 31.4 -16.7 33.2 -11.65 35.0 -6.55 36.85 -1.45 28.2 -6.45 19.75 -3.2 20.0 0.0 20.0 0.55 Q19.8 8.5 14.15 14.15 L11.75 16.25 Q6.65 20.0 0.0 20.0 L-0.75 20.0 -4.2 19.6 -7.95 28.15 -5.7 36.6 -10.6 34.25 -15.45 32.0 -20.35 29.65 -25.25 27.35 -15.6 24.75 -11.8 16.2 -13.6 14.7 -14.15 14.15 Q-19.95 8.35 -20.0 0.2 L-20.0 0.0 Q-20.0 -5.6 -17.3 -10.1 L-24.65 -16.0 -33.4 -16.0 -29.85 -20.15 -26.4 -24.25 -22.9 -28.35 -19.4 -32.5 -19.4 -22.5 -11.65 -16.25 -13.7 -14.55 -5.25 -4.3 -13.7 -14.55 -11.65 -16.25 M19.75 -3.2 Q19.1 -7.5 16.75 -11.0 19.1 -7.5 19.75 -3.2 M2.95 -5.4 L3.75 -5.05 5.15 -3.95 Q7.0 -2.1 7.15 0.45 L7.2 0.95 Q7.2 3.8 5.15 5.75 L4.6 6.3 3.9 6.8 Q2.35 7.8 0.35 7.8 L-0.75 7.7 Q-2.9 7.4 -4.55 5.75 L-4.9 5.45 Q-6.55 3.55 -6.5 0.95 L-6.5 0.3 Q-6.3 -2.15 -4.55 -3.95 L-4.15 -4.3 Q-2.65 -5.55 -0.75 -5.8 L-0.75 -20.0 -0.75 -5.8 0.35 -5.9 2.8 -5.5 2.95 -5.4 11.8 -16.15 2.95 -5.4 2.8 -5.5 0.35 -5.9 -0.75 -5.8 Q-2.65 -5.55 -4.15 -4.3 L-4.55 -3.95 Q-6.3 -2.15 -6.5 0.3 L-6.5 0.95 Q-6.55 3.55 -4.9 5.45 L-4.55 5.75 Q-2.9 7.4 -0.75 7.7 L0.35 7.8 Q2.35 7.8 3.9 6.8 L4.6 6.3 5.15 5.75 Q7.2 3.8 7.2 0.95 L7.15 0.45 Q7.0 -2.1 5.15 -3.95 L3.75 -5.05 2.95 -5.4 M-22.0 -19.25 L-23.2 -17.75 -24.65 -16.0 -23.2 -17.75 -29.85 -20.15 -23.2 -17.75 -22.0 -19.25 -26.4 -24.25 -22.0 -19.25 -20.8 -20.75 -22.9 -28.35 -20.8 -20.75 -22.0 -19.25 M33.2 -11.65 L26.7 -10.35 27.35 -8.55 28.2 -6.45 27.35 -8.55 26.7 -10.35 26.0 -12.15 25.15 -14.25 26.0 -12.15 26.7 -10.35 33.2 -11.65 M26.0 -12.15 L31.4 -16.7 26.0 -12.15 M35.0 -6.55 L27.35 -8.55 35.0 -6.55 M-17.3 -10.1 Q-16.05 -12.25 -14.15 -14.1 L-13.7 -14.55 -14.15 -14.1 Q-16.05 -12.25 -17.3 -10.1 M-19.4 -22.5 L-20.8 -20.75 -19.4 -22.5 M-0.75 7.7 L-0.75 20.0 -0.75 7.7 M-7.6 0.3 L-20.0 0.2 -7.6 0.3 M-4.2 19.6 Q-8.35 18.75 -11.8 16.2 -8.35 18.75 -4.2 19.6 M-5.95 5.45 L-13.6 14.7 -5.95 5.45 M-15.6 24.75 L-13.55 25.65 -11.8 26.45 -15.45 32.0 -11.8 26.45 -13.55 25.65 -20.35 29.65 -13.55 25.65 -15.6 24.75 M-11.8 26.45 L-10.05 27.2 -7.95 28.15 -10.05 27.2 -10.6 34.25 -10.05 27.2 -11.8 26.45 M3.9 6.8 L11.75 16.25 3.9 6.8 M7.15 0.45 L20.0 0.55 7.15 0.45" fill="#6600cc" fill-rule="evenodd" stroke="none"/>
      <path d="M16.75 -11.0 L25.15 -14.25 29.55 -21.85 M36.85 -1.45 L28.2 -6.45 19.75 -3.2 M-4.2 19.6 L-7.95 28.15 -5.7 36.6 M-25.25 27.35 L-15.6 24.75 -11.8 16.2 M-17.3 -10.1 L-24.65 -16.0 -33.4 -16.0 M-19.4 -32.5 L-19.4 -22.5 -11.65 -16.25" fill="none" stroke="#9900cc" stroke-linecap="round" stroke-linejoin="round" stroke-width="1.0"/>
      <path d="M29.55 -21.85 L31.4 -16.7 33.2 -11.65 35.0 -6.55 36.85 -1.45 M-5.7 36.6 L-10.6 34.25 -15.45 32.0 -20.35 29.65 -25.25 27.35 M-33.4 -16.0 L-29.85 -20.15 -26.4 -24.25 -22.9 -28.35 -19.4 -32.5 M28.2 -6.45 L27.35 -8.55 26.7 -10.35 26.0 -12.15 25.15 -14.25 M27.35 -8.55 L35.0 -6.55 M31.4 -16.7 L26.0 -12.15 M26.7 -10.35 L33.2 -11.65 M-26.4 -24.25 L-22.0 -19.25 -20.8 -20.75 -22.9 -28.35 M-24.65 -16.0 L-23.2 -17.75 -29.85 -20.15 M-23.2 -17.75 L-22.0 -19.25 M-20.8 -20.75 L-19.4 -22.5 M-7.95 28.15 L-10.05 27.2 -10.6 34.25 M-15.45 32.0 L-11.8 26.45 -13.55 25.65 -20.35 29.65 M-10.05 27.2 L-11.8 26.45 M-13.55 25.65 L-15.6 24.75" fill="none" stroke="#9900cc" stroke-linecap="round" stroke-linejoin="round" stroke-width="1.0"/>
      <path d="M-11.65 -16.25 Q-6.9 -19.8 -0.75 -20.0 L0.0 -20.0 Q6.7 -20.0 11.8 -16.15 L14.15 -14.1 16.75 -11.0 Q19.1 -7.5 19.75 -3.2 L20.0 0.0 20.0 0.55 Q19.8 8.5 14.15 14.15 L11.75 16.25 Q6.65 20.0 0.0 20.0 L-0.75 20.0 -4.2 19.6 Q-8.35 18.75 -11.8 16.2 L-13.6 14.7 -14.15 14.15 Q-19.95 8.35 -20.0 0.2 L-20.0 0.0 Q-20.0 -5.6 -17.3 -10.1 -16.05 -12.25 -14.15 -14.1 L-13.7 -14.55 -5.25 -4.3 M-11.65 -16.25 L-13.7 -14.55 M-0.75 -20.0 L-0.75 -5.8 0.35 -5.9 2.8 -5.5 2.95 -5.4 11.8 -16.15 M-0.75 -5.8 Q-2.65 -5.55 -4.15 -4.3 L-4.55 -3.95 Q-6.3 -2.15 -6.5 0.3 L-6.5 0.95 Q-6.55 3.55 -4.9 5.45 L-4.55 5.75 Q-2.9 7.4 -0.75 7.7 L0.35 7.8 Q2.35 7.8 3.9 6.8 L4.6 6.3 5.15 5.75 Q7.2 3.8 7.2 0.95 L7.15 0.45 Q7.0 -2.1 5.15 -3.95 L3.75 -5.05 2.95 -5.4 M-13.6 14.7 L-5.95 5.45 M-20.0 0.2 L-7.6 0.3 M-0.75 20.0 L-0.75 7.7 M20.0 0.55 L7.15 0.45 M11.75 16.25 L3.9 6.8" fill="none" stroke="#990000" stroke-linecap="round" stroke-linejoin="round" stroke-width="1.0"/>
    </g>
  </defs>
</svg>
