<?xml version="1.0" encoding="UTF-8" standalone="no"?>
<svg xmlns:xlink="http://www.w3.org/1999/xlink" height="5.0px" width="4.0px" xmlns="http://www.w3.org/2000/svg">
  <g transform="matrix(1.0, 0.0, 0.0, 1.0, 2.0, 2.5)">
    <use data-characterId="273" height="5.0" transform="matrix(1.0, 0.0, 0.0, 1.0, -2.0, -2.5)" width="4.0" xlink:href="#shape0"/>
  </g>
  <defs>
    <g id="shape0" transform="matrix(1.0, 0.0, 0.0, 1.0, 2.0, 2.5)">
      <path d="M-1.05 -0.75 L-1.0 -0.85 Q0.1 -4.15 1.05 -0.85 L1.05 -0.75 1.05 1.6 2.0 2.5 -0.2 2.5 -2.0 2.5 -1.0 1.6 -1.05 1.6 -1.05 -0.75 M-0.2 1.6 L1.05 1.6 -0.2 1.6 -0.2 2.5 -0.2 1.6 -1.0 1.6 -0.2 1.6 M1.05 -0.85 L-1.0 -0.85 1.05 -0.85" fill="#cccccc" fill-rule="evenodd" stroke="none"/>
      <path d="M-1.05 -0.75 L-1.0 -0.85 Q0.1 -4.15 1.05 -0.85 L1.05 -0.75 M2.0 2.5 L-0.2 2.5 -2.0 2.5 M-1.0 -0.85 L1.05 -0.85" fill="none" stroke="#999999" stroke-linecap="round" stroke-linejoin="round" stroke-width="0.05"/>
      <path d="M1.05 -0.75 L1.05 1.6 2.0 2.5 M-2.0 2.5 L-1.0 1.6 -1.05 1.6 -1.05 -0.75 M-0.2 2.5 L-0.2 1.6 -1.0 1.6 M1.05 1.6 L-0.2 1.6" fill="none" stroke="#999999" stroke-linecap="round" stroke-linejoin="round" stroke-width="0.05"/>
    </g>
  </defs>
</svg>
