<?xml version="1.0" encoding="UTF-8" standalone="no"?>
<svg xmlns:xlink="http://www.w3.org/1999/xlink" height="15.0px" width="9.0px" xmlns="http://www.w3.org/2000/svg">
  <g transform="matrix(1.0, 0.0, 0.0, 1.0, 4.5, 7.5)">
    <use data-characterId="215" height="17.0" transform="matrix(1.0, 0.0, 0.0, 1.0, -16.5, -8.5)" width="7.0" xlink:href="#shape0"/>
    <use data-characterId="228" height="3.95" transform="matrix(1.0, 0.0, 0.0, 1.0, -1.35, -0.8)" width="2.7" xlink:href="#shape1"/>
  </g>
  <defs>
    <g id="shape0" transform="matrix(1.0, 0.0, 0.0, 1.0, 16.5, 8.5)">
      <path d="M-16.0 -1.2 Q-12.7 -14.8 -10.0 -1.2 L-10.0 8.0 -16.0 8.0 -16.0 -1.2" fill="#cccccc" fill-rule="evenodd" stroke="none"/>
      <path d="M-16.0 -1.2 Q-12.7 -14.8 -10.0 -1.2" fill="none" stroke="#999999" stroke-linecap="round" stroke-linejoin="round" stroke-width="1.0"/>
      <path d="M-10.0 -1.2 L-10.0 8.0 -16.0 8.0 -16.0 -1.2" fill="none" stroke="#999999" stroke-linecap="round" stroke-linejoin="round" stroke-width="1.0"/>
    </g>
    <g id="shape1" transform="matrix(1.0, 0.0, 0.0, 1.0, 1.35, 0.8)">
      <path d="M0.85 -0.3 L0.85 2.65 -0.85 2.65 -0.85 -0.3 0.85 -0.3" fill="#ffff00" fill-rule="evenodd" stroke="none"/>
      <path d="M0.85 -0.3 L0.85 2.65 -0.85 2.65 -0.85 -0.3 0.85 -0.3 Z" fill="none" stroke="#ffcc00" stroke-linecap="round" stroke-linejoin="round" stroke-width="1.0"/>
    </g>
  </defs>
</svg>
