<?xml version="1.0" encoding="UTF-8" standalone="no"?>
<svg xmlns:xlink="http://www.w3.org/1999/xlink" height="148.5px" width="131.3px" xmlns="http://www.w3.org/2000/svg">
  <g transform="matrix(1.0, 0.0, 0.0, 1.0, 57.35, 130.5)">
    <use data-characterId="182" height="120.15" transform="matrix(1.0, 0.0, 0.0, 1.0, -57.25, -107.5)" width="126.0" xlink:href="#morphshape0"/>
    <use data-characterId="189" height="47.4" transform="matrix(1.0, 0.0, 0.0, 1.0, -55.0, -42.4)" width="118.0" xlink:href="#text0"/>
    <use data-characterId="187" height="24.0" id="changebutton" transform="matrix(1.0, 0.0, 0.0, 1.0, -57.35, -69.35)" width="125.95" xlink:href="#sprite0"/>
  </g>
  <defs>
    <g id="morphshape0" transform="matrix(1.0, 0.0, 0.0, 1.0, 57.25, 107.5)">
      <path d="M-56.75 -59.05 L-56.75 11.9 68.0 11.9 68.0 -59.05 -56.75 -59.05" fill="#333333" fill-rule="evenodd" stroke="none"/>
      <path d="M-56.75 -59.05 L68.0 -59.05 68.0 11.9 -56.75 11.9 -56.75 -59.05 68.0 -59.05 68.0 11.9 -56.75 11.9 -56.75 -59.05 Z" fill="none" stroke="#999999" stroke-linecap="round" stroke-linejoin="round" stroke-width="1.0"/>
    </g>
    <g id="text0" transform="matrix(1.0, 0.0, 0.0, 1.0, 2.0, 2.0)">
      <g transform="matrix(1.0, 0.0, 0.0, 1.0, -2.0, -2.0)">
        <use fill="#ffffff" height="47.4" transform="matrix(0.0098, 0.0, 0.0, 0.0098, 0.0, 12.0)" width="118.0" xlink:href="#font_Trebuchet_MS_-0"/>
      </g>
      <g transform="matrix(1.0, 0.0, 0.0, 1.0, -2.0, -2.0)">
        <use fill="#ffffff" height="47.4" transform="matrix(0.0098, 0.0, 0.0, 0.0098, 0.0, 12.0)" width="118.0" xlink:href="#font_Trebuchet_MS_W0"/>
        <use fill="#ffffff" height="47.4" transform="matrix(0.0098, 0.0, 0.0, 0.0098, 0.0, 12.0)" width="118.0" xlink:href="#font_Trebuchet_MS_o0"/>
        <use fill="#ffffff" height="47.4" transform="matrix(0.0098, 0.0, 0.0, 0.0098, 0.0, 12.0)" width="118.0" xlink:href="#font_Trebuchet_MS_o0"/>
        <use fill="#ffffff" height="47.4" transform="matrix(0.0098, 0.0, 0.0, 0.0098, 0.0, 12.0)" width="118.0" xlink:href="#font_Trebuchet_MS_d0"/>
      </g>
      <g transform="matrix(1.0, 0.0, 0.0, 1.0, -2.0, -2.0)">
        <use fill="#ffffff" height="47.4" transform="matrix(0.0098, 0.0, 0.0, 0.0098, 0.0, 12.0)" width="118.0" xlink:href="#font_Trebuchet_MS_a0"/>
        <use fill="#ffffff" height="47.4" transform="matrix(0.0098, 0.0, 0.0, 0.0098, 0.0, 12.0)" width="118.0" xlink:href="#font_Trebuchet_MS_t0"/>
      </g>
      <g transform="matrix(1.0, 0.0, 0.0, 1.0, -2.0, -2.0)">
        <use fill="#ffffff" height="47.4" transform="matrix(0.0098, 0.0, 0.0, 0.0098, 0.0, 12.0)" width="118.0" xlink:href="#font_Trebuchet_MS_P0"/>
        <use fill="#ffffff" height="47.4" transform="matrix(0.0098, 0.0, 0.0, 0.0098, 0.0, 12.0)" width="118.0" xlink:href="#font_Trebuchet_MS_a0"/>
        <use fill="#ffffff" height="47.4" transform="matrix(0.0098, 0.0, 0.0, 0.0098, 0.0, 12.0)" width="118.0" xlink:href="#font_Trebuchet_MS_r0"/>
        <use fill="#ffffff" height="47.4" transform="matrix(0.0098, 0.0, 0.0, 0.0098, 0.0, 12.0)" width="118.0" xlink:href="#font_Trebuchet_MS_a0"/>
        <use fill="#ffffff" height="47.4" transform="matrix(0.0098, 0.0, 0.0, 0.0098, 0.0, 12.0)" width="118.0" xlink:href="#font_Trebuchet_MS_d0"/>
        <use fill="#ffffff" height="47.4" transform="matrix(0.0098, 0.0, 0.0, 0.0098, 0.0, 12.0)" width="118.0" xlink:href="#font_Trebuchet_MS_i0"/>
        <use fill="#ffffff" height="47.4" transform="matrix(0.0098, 0.0, 0.0, 0.0098, 0.0, 12.0)" width="118.0" xlink:href="#font_Trebuchet_MS_s0"/>
        <use fill="#ffffff" height="47.4" transform="matrix(0.0098, 0.0, 0.0, 0.0098, 0.0, 12.0)" width="118.0" xlink:href="#font_Trebuchet_MS_e0"/>
      </g>
      <g transform="matrix(1.0, 0.0, 0.0, 1.0, -2.0, -2.0)">
        <use fill="#ffffff" height="47.4" transform="matrix(0.0098, 0.0, 0.0, 0.0098, 0.0, 12.0)" width="118.0" xlink:href="#font_Trebuchet_MS_20"/>
        <use fill="#ffffff" height="47.4" transform="matrix(0.0098, 0.0, 0.0, 0.0098, 0.0, 12.0)" width="118.0" xlink:href="#font_Trebuchet_MS_50"/>
        <use fill="#ffffff" height="47.4" transform="matrix(0.0098, 0.0, 0.0, 0.0098, 0.0, 12.0)" width="118.0" xlink:href="#font_Trebuchet_MS__2"/>
      </g>
      <g transform="matrix(1.0, 0.0, 0.0, 1.0, -2.0, -2.0)">
        <use fill="#ffffff" height="47.4" transform="matrix(0.0098, 0.0, 0.0, 0.0098, 6.0, 12.0)" width="118.0" xlink:href="#font_Trebuchet_MS_50"/>
      </g>
      <g transform="matrix(1.0, 0.0, 0.0, 1.0, -2.0, -2.0)">
        <use fill="#ffffff" height="47.4" transform="matrix(0.0098, 0.0, 0.0, 0.0098, 6.0, 12.0)" width="118.0" xlink:href="#font_Trebuchet_MS_m0"/>
        <use fill="#ffffff" height="47.4" transform="matrix(0.0098, 0.0, 0.0, 0.0098, 6.0, 12.0)" width="118.0" xlink:href="#font_Trebuchet_MS_i0"/>
        <use fill="#ffffff" height="47.4" transform="matrix(0.0098, 0.0, 0.0, 0.0098, 6.0, 12.0)" width="118.0" xlink:href="#font_Trebuchet_MS_n0"/>
        <use fill="#ffffff" height="47.4" transform="matrix(0.0098, 0.0, 0.0, 0.0098, 6.0, 12.0)" width="118.0" xlink:href="#font_Trebuchet_MS_s0"/>
      </g>
      <g transform="matrix(1.0, 0.0, 0.0, 1.0, -2.0, -2.0)">
        <use fill="#ffffff" height="47.4" transform="matrix(0.0098, 0.0, 0.0, 0.0098, 6.0, 12.0)" width="118.0" xlink:href="#font_Trebuchet_MS_l0"/>
        <use fill="#ffffff" height="47.4" transform="matrix(0.0098, 0.0, 0.0, 0.0098, 6.0, 12.0)" width="118.0" xlink:href="#font_Trebuchet_MS_e0"/>
        <use fill="#ffffff" height="47.4" transform="matrix(0.0098, 0.0, 0.0, 0.0098, 6.0, 12.0)" width="118.0" xlink:href="#font_Trebuchet_MS_f0"/>
        <use fill="#ffffff" height="47.4" transform="matrix(0.0098, 0.0, 0.0, 0.0098, 6.0, 12.0)" width="118.0" xlink:href="#font_Trebuchet_MS_t0"/>
      </g>
    </g>
    <g id="font_Trebuchet_MS_-0">
      <path d="M79.5 -253.0 L293.5 -253.0 293.5 -340.5 79.5 -340.5 79.5 -253.0" fill-rule="evenodd" stroke="none"/>
    </g>
    <g id="font_Trebuchet_MS_W0">
      <path d="M638.0 10.0 L866.0 -732.5 762.0 -732.5 Q687.5 -477.0 612.5 -222.0 L453.5 -732.5 418.5 -732.5 257.5 -221.0 110.5 -732.5 6.5 -732.5 237.5 10.0 269.0 10.0 432.0 -495.0 Q519.5 -242.5 606.5 10.0 L638.0 10.0" fill-rule="evenodd" stroke="none"/>
    </g>
    <g id="font_Trebuchet_MS_o0">
      <path d="M132.5 -269.0 Q132.5 -362.0 171.5 -415.0 210.0 -468.0 275.0 -468.0 417.0 -468.0 417.0 -269.0 417.0 -175.5 379.5 -121.5 341.5 -67.5 275.0 -67.5 132.5 -67.5 132.5 -269.0 M32.5 -269.0 Q32.5 -141.0 96.5 -65.5 160.5 10.0 275.0 10.0 387.0 10.0 452.0 -64.5 517.0 -139.5 517.0 -269.0 517.0 -399.0 453.5 -472.0 390.0 -545.5 275.0 -545.5 166.0 -545.5 99.5 -469.0 32.5 -393.0 32.5 -269.0" fill-rule="evenodd" stroke="none"/>
    </g>
    <g id="font_Trebuchet_MS_d0">
      <path d="M407.0 -411.5 L407.0 -114.5 Q399.0 -98.5 367.5 -84.0 336.0 -70.0 313.5 -70.0 137.5 -70.0 137.5 -263.5 137.5 -351.5 185.0 -408.5 232.0 -465.5 308.5 -465.5 371.0 -465.5 407.0 -411.5 M407.0 -0.5 L502.0 -0.5 502.0 -755.0 407.0 -755.0 407.0 -506.5 Q364.0 -545.5 281.0 -545.5 181.5 -545.5 109.5 -460.0 37.5 -375.0 37.5 -254.5 37.5 -134.5 100.0 -62.5 162.5 9.5 263.0 9.5 357.5 9.5 407.0 -40.0 L407.0 -0.5" fill-rule="evenodd" stroke="none"/>
    </g>
    <g id="font_Trebuchet_MS_a0">
      <path d="M361.0 -263.0 L361.0 -133.5 Q305.5 -65.0 233.5 -65.0 135.0 -65.0 135.0 -148.5 135.0 -199.0 180.5 -236.0 226.0 -273.0 298.0 -273.0 316.0 -273.0 361.0 -263.0 M370.0 -61.5 Q382.5 -23.5 411.5 -7.0 440.0 9.5 498.0 9.5 L498.0 -38.0 Q456.0 -61.5 456.0 -132.0 L456.0 -324.0 Q456.0 -439.5 403.5 -492.5 350.5 -545.5 234.0 -545.5 190.5 -545.5 143.0 -529.5 95.0 -514.0 68.0 -492.0 L108.0 -412.5 Q156.0 -460.5 245.0 -460.5 361.0 -460.5 361.0 -330.5 323.0 -343.5 293.0 -343.5 182.5 -343.5 111.5 -287.0 40.0 -231.0 40.0 -149.5 40.0 -81.5 86.5 -35.5 132.5 10.0 195.5 10.0 313.0 10.0 370.0 -61.5" fill-rule="evenodd" stroke="none"/>
    </g>
    <g id="font_Trebuchet_MS_t0">
      <path d="M101.5 -460.5 L101.5 -156.5 Q101.5 -84.5 145.5 -37.0 189.0 10.0 252.5 10.0 323.0 10.0 382.0 -5.0 L368.0 -88.5 Q329.0 -70.0 292.5 -70.0 242.0 -70.0 219.5 -98.5 196.5 -127.0 196.5 -194.5 L196.5 -460.5 343.5 -460.5 343.5 -535.5 196.5 -535.5 196.5 -684.0 Q149.0 -665.5 101.5 -647.5 L101.5 -535.5 39.5 -535.5 39.5 -460.5 101.5 -460.5" fill-rule="evenodd" stroke="none"/>
    </g>
    <g id="font_Trebuchet_MS_P0">
      <path d="M175.0 -642.5 Q209.5 -647.5 229.5 -647.5 428.0 -647.5 428.0 -513.5 428.0 -367.0 242.0 -367.0 L175.0 -372.0 175.0 -642.5 M175.0 -282.0 Q232.0 -277.0 249.0 -277.0 531.0 -277.0 531.0 -524.0 531.0 -737.5 212.0 -737.5 L75.0 -732.5 75.0 0.0 175.0 0.0 175.0 -282.0" fill-rule="evenodd" stroke="none"/>
    </g>
    <g id="font_Trebuchet_MS_r0">
      <path d="M358.5 -444.0 Q378.5 -490.0 398.0 -536.5 350.0 -545.5 324.5 -545.5 222.0 -545.5 170.0 -450.0 L170.0 -535.5 75.0 -535.5 75.0 0.0 170.0 0.0 170.0 -307.0 Q170.0 -372.5 208.0 -419.0 245.5 -465.5 296.0 -465.5 327.5 -465.5 358.5 -444.0" fill-rule="evenodd" stroke="none"/>
    </g>
    <g id="font_Trebuchet_MS_i0">
      <path d="M113.5 0.0 L208.5 0.0 208.5 -535.5 40.0 -535.5 40.0 -455.5 113.5 -455.5 113.5 0.0 M165.5 -738.0 Q141.0 -738.0 124.0 -721.0 107.0 -704.0 107.0 -679.5 107.0 -655.0 124.5 -637.5 141.5 -620.5 165.5 -620.5 190.0 -620.5 207.5 -637.5 224.5 -655.0 224.5 -679.5 224.5 -703.5 207.5 -720.5 190.0 -738.0 165.5 -738.0" fill-rule="evenodd" stroke="none"/>
    </g>
    <g id="font_Trebuchet_MS_s0">
      <path d="M32.5 -32.0 Q107.0 10.0 191.5 10.0 281.0 10.0 331.5 -30.5 382.0 -71.5 382.0 -143.5 382.0 -198.5 353.5 -235.0 325.0 -271.5 262.5 -300.0 L194.5 -331.0 Q136.0 -357.5 136.0 -409.0 136.0 -433.5 159.5 -449.5 182.5 -465.5 216.5 -465.5 273.5 -465.5 330.0 -420.5 L357.0 -508.5 Q268.0 -545.5 209.5 -545.5 132.0 -545.5 84.0 -508.5 36.0 -471.5 36.0 -405.5 36.0 -380.0 44.5 -357.5 52.5 -335.5 69.5 -315.5 86.0 -296.0 109.0 -280.5 131.5 -265.0 197.0 -235.0 282.0 -197.0 282.0 -144.0 282.0 -70.0 194.0 -70.0 145.5 -70.0 66.0 -122.0 49.5 -77.0 32.5 -32.0" fill-rule="evenodd" stroke="none"/>
    </g>
    <g id="font_Trebuchet_MS_e0">
      <path d="M288.0 -465.5 Q356.0 -465.5 395.5 -423.5 431.5 -385.0 431.5 -327.5 L135.0 -327.5 Q140.5 -385.5 181.5 -424.5 224.5 -465.5 288.0 -465.5 M518.5 -258.5 Q526.0 -285.0 526.0 -316.5 526.0 -419.0 463.0 -481.0 398.0 -545.5 283.5 -545.5 185.0 -545.5 113.0 -474.0 32.5 -394.0 32.5 -261.5 32.5 -134.0 111.0 -58.5 181.5 10.0 282.5 10.0 352.5 10.0 409.5 -11.0 455.0 -27.0 477.0 -49.0 L437.0 -117.5 Q382.5 -70.0 301.0 -70.0 229.5 -70.0 184.0 -114.0 132.5 -164.5 132.5 -258.5 L518.5 -258.5" fill-rule="evenodd" stroke="none"/>
    </g>
    <g id="font_Trebuchet_MS_20">
      <path d="M34.5 0.0 L484.5 0.0 484.5 -90.0 197.5 -90.0 362.0 -351.0 Q441.0 -476.5 441.0 -559.0 441.0 -648.0 381.5 -696.5 322.0 -745.5 216.5 -745.5 146.0 -745.5 96.5 -716.5 46.5 -687.5 29.5 -638.5 L94.0 -585.5 Q110.0 -618.0 145.5 -639.0 181.0 -660.5 221.5 -660.5 336.0 -660.5 336.0 -559.0 336.0 -482.0 264.0 -371.5 149.5 -195.5 34.5 -20.0 L34.5 0.0" fill-rule="evenodd" stroke="none"/>
    </g>
    <g id="font_Trebuchet_MS_50">
      <path d="M116.0 -357.5 Q169.5 -415.0 236.5 -415.0 375.5 -415.0 375.5 -251.0 375.5 -75.0 234.5 -75.0 171.5 -75.0 103.5 -130.5 84.5 -88.5 65.0 -47.0 132.5 10.0 235.0 10.0 480.5 10.0 480.5 -265.5 480.5 -378.0 427.0 -439.0 373.0 -500.0 271.0 -500.0 214.0 -500.0 177.0 -472.5 L177.0 -650.5 446.5 -650.5 446.5 -735.5 82.0 -735.5 82.0 -381.0 Q99.0 -369.0 116.0 -357.5" fill-rule="evenodd" stroke="none"/>
    </g>
    <g id="font_Trebuchet_MS__2">
      <path d="M112.0 181.5 Q202.0 114.5 230.0 61.5 257.5 8.0 257.5 -58.5 257.5 -90.5 236.0 -114.5 214.0 -138.5 186.5 -138.5 155.5 -138.5 135.0 -121.0 114.5 -104.0 114.5 -77.5 114.5 -39.0 157.5 -18.5 172.5 3.5 172.5 25.5 172.5 75.0 86.5 145.5 99.5 163.5 112.0 181.5" fill-rule="evenodd" stroke="none"/>
    </g>
    <g id="font_Trebuchet_MS_m0">
      <path d="M687.5 0.0 L782.5 0.0 782.5 -358.0 Q782.5 -447.0 737.0 -496.0 691.5 -545.5 608.5 -545.5 562.5 -545.5 519.0 -525.0 475.5 -504.5 459.5 -474.0 413.5 -545.5 298.5 -545.5 216.0 -545.5 161.0 -473.5 L129.5 -535.5 67.5 -535.5 67.5 0.0 162.5 0.0 162.5 -395.0 Q176.0 -421.5 208.5 -443.5 240.5 -465.5 269.0 -465.5 318.0 -465.5 348.0 -442.5 377.5 -420.0 377.5 -380.5 L377.5 0.0 472.5 0.0 472.5 -396.0 Q483.5 -423.0 513.5 -444.0 543.5 -465.5 578.0 -465.5 687.5 -465.5 687.5 -339.0 L687.5 0.0" fill-rule="evenodd" stroke="none"/>
    </g>
    <g id="font_Trebuchet_MS_n0">
      <path d="M397.0 0.0 L492.0 0.0 492.0 -331.5 Q492.0 -545.5 316.0 -545.5 209.5 -545.5 162.5 -466.5 L132.5 -535.5 67.5 -535.5 67.5 0.0 162.5 0.0 162.5 -398.0 Q181.5 -426.5 217.0 -446.0 252.5 -465.5 285.0 -465.5 345.5 -465.5 371.5 -431.0 397.0 -397.0 397.0 -311.5 L397.0 0.0" fill-rule="evenodd" stroke="none"/>
    </g>
    <g id="font_Trebuchet_MS_l0">
      <path d="M75.0 -151.5 Q75.0 10.0 259.5 10.0 L259.5 -75.0 Q219.5 -75.0 195.0 -99.5 170.0 -124.5 170.0 -167.5 L170.0 -755.0 75.0 -755.0 75.0 -151.5" fill-rule="evenodd" stroke="none"/>
    </g>
    <g id="font_Trebuchet_MS_f0">
      <path d="M357.0 -670.0 Q370.5 -705.0 383.5 -740.0 336.0 -755.0 294.5 -755.0 211.5 -755.0 161.0 -696.5 110.5 -638.0 110.5 -535.5 L32.5 -535.5 32.5 -455.5 110.5 -455.5 110.5 0.0 205.5 0.0 205.5 -455.5 314.5 -455.5 314.5 -535.5 205.5 -535.5 Q203.0 -550.0 203.0 -563.5 203.0 -614.0 231.5 -647.0 259.5 -680.0 303.0 -680.0 328.0 -680.0 357.0 -670.0" fill-rule="evenodd" stroke="none"/>
    </g>
    <g id="sprite0" transform="matrix(1.0, 0.0, 0.0, 1.0, 62.95, 12.0)">
      <use data-characterId="183" height="24.0" transform="matrix(1.0, 0.0, 0.0, 1.0, -62.95, -12.0)" width="125.95" xlink:href="#shape0"/>
      <use data-characterId="184" height="16.5" transform="matrix(1.0, 0.0, 0.0, 1.0, -45.95, -8.0)" width="104.0" xlink:href="#text1"/>
    </g>
    <g id="shape0" transform="matrix(1.0, 0.0, 0.0, 1.0, 62.95, 12.0)">
      <path d="M-48.45 -0.1 L-52.6 -4.9 -56.75 -0.1 -52.6 -4.9 -48.45 -0.1 M62.5 -11.5 L62.5 11.5 -62.45 11.5 -62.45 -11.5 62.5 -11.5 M-52.6 -4.9 L-52.5 5.75 -52.6 -4.9" fill="#333333" fill-rule="evenodd" stroke="none"/>
      <path d="M-56.75 -0.1 L-52.6 -4.9 -48.45 -0.1 M-52.5 5.75 L-52.6 -4.9" fill="none" stroke="#ffff00" stroke-linecap="round" stroke-linejoin="round" stroke-width="1.0"/>
      <path d="M62.5 -11.5 L62.5 11.5 -62.45 11.5 -62.45 -11.5 62.5 -11.5 Z" fill="none" stroke="#999999" stroke-linecap="round" stroke-linejoin="round" stroke-width="1.0"/>
    </g>
    <g id="text1" transform="matrix(1.0, 0.0, 0.0, 1.0, 2.0, 2.0)">
      <g transform="matrix(1.0, 0.0, 0.0, 1.0, -2.0, -2.0)">
        <use fill="#ffff00" height="16.5" transform="matrix(0.0098, 0.0, 0.0, 0.0098, 52.0, 12.0)" width="104.0" xlink:href="#font_Trebuchet_MS_S0"/>
        <use fill="#ffff00" height="16.5" transform="matrix(0.0098, 0.0, 0.0, 0.0098, 52.0, 12.0)" width="104.0" xlink:href="#font_Trebuchet_MS_h0"/>
        <use fill="#ffff00" height="16.5" transform="matrix(0.0098, 0.0, 0.0, 0.0098, 52.0, 12.0)" width="104.0" xlink:href="#font_Trebuchet_MS_o0"/>
        <use fill="#ffff00" height="16.5" transform="matrix(0.0098, 0.0, 0.0, 0.0098, 52.0, 12.0)" width="104.0" xlink:href="#font_Trebuchet_MS_w0"/>
      </g>
      <g transform="matrix(1.0, 0.0, 0.0, 1.0, -2.0, -2.0)">
        <use fill="#ffff00" height="16.5" transform="matrix(0.0098, 0.0, 0.0, 0.0098, 52.0, 12.0)" width="104.0" xlink:href="#font_Trebuchet_MS_C0"/>
        <use fill="#ffff00" height="16.5" transform="matrix(0.0098, 0.0, 0.0, 0.0098, 52.0, 12.0)" width="104.0" xlink:href="#font_Trebuchet_MS_u0"/>
        <use fill="#ffff00" height="16.5" transform="matrix(0.0098, 0.0, 0.0, 0.0098, 52.0, 12.0)" width="104.0" xlink:href="#font_Trebuchet_MS_r0"/>
        <use fill="#ffff00" height="16.5" transform="matrix(0.0098, 0.0, 0.0, 0.0098, 52.0, 12.0)" width="104.0" xlink:href="#font_Trebuchet_MS_r0"/>
        <use fill="#ffff00" height="16.5" transform="matrix(0.0098, 0.0, 0.0, 0.0098, 52.0, 12.0)" width="104.0" xlink:href="#font_Trebuchet_MS_e0"/>
        <use fill="#ffff00" height="16.5" transform="matrix(0.0098, 0.0, 0.0, 0.0098, 52.0, 12.0)" width="104.0" xlink:href="#font_Trebuchet_MS_n0"/>
        <use fill="#ffff00" height="16.5" transform="matrix(0.0098, 0.0, 0.0, 0.0098, 52.0, 12.0)" width="104.0" xlink:href="#font_Trebuchet_MS_t0"/>
      </g>
      <g transform="matrix(1.0, 0.0, 0.0, 1.0, -2.0, -2.0)">
        <use fill="#ffff00" height="16.5" transform="matrix(0.0098, 0.0, 0.0, 0.0098, 52.0, 12.0)" width="104.0" xlink:href="#font_Trebuchet_MS_D0"/>
        <use fill="#ffff00" height="16.5" transform="matrix(0.0098, 0.0, 0.0, 0.0098, 52.0, 12.0)" width="104.0" xlink:href="#font_Trebuchet_MS_e0"/>
        <use fill="#ffff00" height="16.5" transform="matrix(0.0098, 0.0, 0.0, 0.0098, 52.0, 12.0)" width="104.0" xlink:href="#font_Trebuchet_MS_a0"/>
        <use fill="#ffff00" height="16.5" transform="matrix(0.0098, 0.0, 0.0, 0.0098, 52.0, 12.0)" width="104.0" xlink:href="#font_Trebuchet_MS_l0"/>
        <use fill="#ffff00" height="16.5" transform="matrix(0.0098, 0.0, 0.0, 0.0098, 52.0, 12.0)" width="104.0" xlink:href="#font_Trebuchet_MS_s0"/>
      </g>
    </g>
    <g id="font_Trebuchet_MS_S0">
      <path d="M42.0 -33.5 Q111.0 12.5 208.5 12.5 319.5 12.5 386.0 -45.0 452.0 -102.5 452.0 -185.0 452.0 -261.0 422.0 -310.0 391.5 -359.5 316.5 -395.0 286.5 -409.0 256.5 -423.5 198.5 -451.5 180.0 -467.0 161.0 -482.5 150.5 -505.5 140.0 -528.5 140.0 -556.5 140.0 -602.0 169.5 -631.0 198.5 -660.0 249.5 -660.0 284.5 -660.0 325.5 -646.5 366.5 -633.0 386.5 -618.5 401.5 -662.0 416.0 -705.5 368.5 -745.0 247.0 -745.0 156.0 -745.0 98.0 -691.0 40.0 -637.0 40.0 -555.0 40.0 -487.5 70.0 -439.5 99.5 -391.5 174.5 -356.5 204.0 -342.5 233.5 -329.0 313.0 -291.5 333.0 -259.5 352.5 -228.0 352.5 -191.0 352.5 -141.5 317.0 -109.5 281.5 -77.5 223.0 -77.5 190.0 -77.5 148.5 -91.0 106.5 -105.0 78.5 -125.5 60.5 -79.5 42.0 -33.5" fill-rule="evenodd" stroke="none"/>
    </g>
    <g id="font_Trebuchet_MS_h0">
      <path d="M397.5 0.0 L492.5 0.0 492.5 -336.5 Q492.5 -433.5 444.5 -489.5 396.0 -545.5 311.0 -545.5 266.0 -545.5 224.0 -525.5 181.5 -506.0 162.5 -476.5 L162.5 -755.0 67.5 -755.0 67.5 0.0 162.5 0.0 162.5 -398.0 Q181.0 -425.0 216.0 -445.0 250.5 -465.5 285.0 -465.5 338.5 -465.5 368.0 -431.0 397.5 -396.5 397.5 -336.5 L397.5 0.0" fill-rule="evenodd" stroke="none"/>
    </g>
    <g id="font_Trebuchet_MS_w0">
      <path d="M562.5 10.0 L754.5 -537.0 661.0 -537.0 538.0 -185.5 391.0 -537.0 366.0 -537.0 Q295.0 -361.0 223.5 -185.5 L109.0 -537.0 7.5 -537.0 Q103.5 -263.5 199.0 10.0 L224.0 10.0 Q302.5 -172.0 380.5 -354.5 L537.5 10.0 562.5 10.0" fill-rule="evenodd" stroke="none"/>
    </g>
    <g id="font_Trebuchet_MS_C0">
      <path d="M542.5 -705.5 Q475.0 -745.0 355.5 -745.0 216.0 -745.0 128.0 -636.5 40.0 -528.0 40.0 -364.0 40.0 -194.5 122.5 -91.0 205.0 12.5 348.5 12.5 485.5 12.5 572.5 -74.0 545.0 -112.0 517.5 -150.5 462.0 -77.5 359.0 -77.5 264.5 -77.5 205.0 -155.0 145.0 -233.0 145.0 -358.0 145.0 -489.0 203.5 -572.0 261.5 -655.0 358.0 -655.0 461.0 -655.0 509.0 -620.0 526.0 -662.5 542.5 -705.5" fill-rule="evenodd" stroke="none"/>
    </g>
    <g id="font_Trebuchet_MS_u0">
      <path d="M157.5 -535.5 L62.5 -535.5 62.5 -184.0 Q62.5 -91.0 109.5 -40.5 156.0 10.0 244.0 10.0 290.0 10.0 338.5 -16.0 386.5 -42.5 402.5 -74.0 L402.5 0.0 497.5 0.0 497.5 -535.5 402.5 -535.5 402.5 -159.5 Q390.0 -124.0 351.0 -97.0 312.0 -70.0 265.0 -70.0 157.5 -70.0 157.5 -194.0 L157.5 -535.5" fill-rule="evenodd" stroke="none"/>
    </g>
    <g id="font_Trebuchet_MS_D0">
      <path d="M175.0 -642.5 Q235.5 -647.5 249.5 -647.5 483.0 -647.5 483.0 -387.5 483.0 -247.5 423.0 -168.5 363.0 -90.0 258.0 -90.0 208.5 -90.0 175.0 -95.0 L175.0 -642.5 M222.5 0.0 Q588.0 0.0 588.0 -396.0 588.0 -551.0 498.5 -644.0 409.0 -737.5 255.5 -737.5 216.0 -737.5 75.0 -732.5 L75.0 0.0 222.5 0.0" fill-rule="evenodd" stroke="none"/>
    </g>
  </defs>
</svg>
