<?xml version="1.0" encoding="UTF-8" standalone="no"?>
<svg xmlns:xlink="http://www.w3.org/1999/xlink" height="7.0px" width="4.0px" xmlns="http://www.w3.org/2000/svg">
  <g transform="matrix(1.0, 0.0, 0.0, 1.0, 2.0, 3.5)">
    <use data-characterId="632" height="17.0" transform="matrix(1.0, 0.0, 0.0, 1.0, -16.5, -8.5)" width="7.0" xlink:href="#shape0"/>
  </g>
  <defs>
    <g id="shape0" transform="matrix(1.0, 0.0, 0.0, 1.0, 16.5, 8.5)">
      <path d="M-10.0 -1.2 L-10.0 8.0 -16.0 8.0 -16.0 -1.2 Q-12.7 -14.8 -10.0 -1.2" fill="#cccccc" fill-rule="evenodd" stroke="none"/>
      <path d="M-10.0 -1.2 L-10.0 8.0 -16.0 8.0 -16.0 -1.2 Q-12.7 -14.8 -10.0 -1.2 Z" fill="none" stroke="#999999" stroke-linecap="butt" stroke-linejoin="miter-clip" stroke-miterlimit="3.0" stroke-width="1.0"/>
    </g>
  </defs>
</svg>
