<?xml version="1.0" encoding="UTF-8" standalone="no"?>
<svg xmlns:xlink="http://www.w3.org/1999/xlink" height="66.85px" width="75.7px" xmlns="http://www.w3.org/2000/svg">
  <g transform="matrix(1.0, 0.0, 0.0, 1.0, 35.75, 31.0)">
    <clipPath id="clipPath0" transform="matrix(1.0, 0.0, 0.0, 1.0, 0.0, 0.0)">
      <path d="M21.25 -21.25 Q30.1 -12.45 30.1 -0.05 30.1 12.35 21.25 21.1 12.5 29.95 0.05 29.95 -12.4 29.95 -21.25 21.1 -30.0 12.35 -30.0 -0.05 -30.0 -12.45 -21.25 -21.25 -12.4 -30.0 0.05 -30.0 12.5 -30.0 21.25 -21.25" fill="#ffffff" fill-rule="evenodd" stroke="none"/>
      <path d="M21.25 -21.25 Q30.1 -12.45 30.1 -0.05 30.1 12.35 21.25 21.1 12.5 29.95 0.05 29.95 -12.4 29.95 -21.25 21.1 -30.0 12.35 -30.0 -0.05 -30.0 -12.45 -21.25 -21.25 -12.4 -30.0 0.05 -30.0 12.5 -30.0 21.25 -21.25 Z" fill="none" stroke="#000000" stroke-linecap="butt" stroke-linejoin="miter-clip" stroke-miterlimit="3.0" stroke-width="2.0"/>
    </clipPath>
    <g clip-path="url(#clipPath0)">
      <use data-characterId="876" height="75.2" transform="matrix(1.0, 0.0, 0.0, 1.0, -59.1, -34.7)" width="124.0" xlink:href="#shape1"/>
    </g>
  </g>
  <defs>
    <g id="shape1" transform="matrix(1.0, 0.0, 0.0, 1.0, 59.1, 34.7)">
      <path d="M46.0 -23.0 Q63.9 -12.25 63.9 2.9 63.9 18.05 46.0 28.75 28.15 39.5 2.9 39.5 -22.35 39.5 -40.25 28.75 -58.1 18.05 -58.1 2.9 -58.1 -12.25 -40.25 -23.0 -22.35 -33.7 2.9 -33.7 28.15 -33.7 46.0 -23.0" fill="#ff0000" fill-rule="evenodd" stroke="none"/>
      <path d="M46.0 -23.0 Q63.9 -12.25 63.9 2.9 63.9 18.05 46.0 28.75 28.15 39.5 2.9 39.5 -22.35 39.5 -40.25 28.75 -58.1 18.05 -58.1 2.9 -58.1 -12.25 -40.25 -23.0 -22.35 -33.7 2.9 -33.7 28.15 -33.7 46.0 -23.0 Z" fill="none" stroke="#33ff00" stroke-linecap="butt" stroke-linejoin="miter-clip" stroke-miterlimit="3.0" stroke-width="2.0"/>
    </g>
  </defs>
</svg>
