<?xml version="1.0" encoding="UTF-8" standalone="no"?>
<svg xmlns:xlink="http://www.w3.org/1999/xlink" height="6.25px" width="9.0px" xmlns="http://www.w3.org/2000/svg">
  <g transform="matrix(1.0, 0.0, 0.0, 1.0, 4.5, 1.2)">
    <use data-characterId="190" height="8.3" transform="matrix(1.0, 0.0, 0.0, 1.0, -3.75, -1.4)" width="7.5" xlink:href="#shape0"/>
  </g>
  <defs>
    <g id="shape0" transform="matrix(1.0, 0.0, 0.0, 1.0, 3.75, 1.4)">
      <path d="M-3.0 0.0 L3.0 0.0 Q0.0 6.1 -3.0 0.0" fill="#ffffff" fill-rule="evenodd" stroke="none"/>
      <path d="M-3.0 0.0 Q0.0 6.1 3.0 0.0 L-3.0 0.0 Z" fill="none" stroke="#ffffff" stroke-linecap="butt" stroke-linejoin="miter-clip" stroke-miterlimit="3.0" stroke-width="1.0"/>
      <path d="M-3.0 0.0 Q0.0 6.85 3.0 0.0 0.0 12.85 -3.0 0.0" fill="#0099cc" fill-rule="evenodd" stroke="none"/>
      <path d="M-3.0 0.0 Q0.0 6.85 3.0 0.0 0.0 12.85 -3.0 0.0 Z" fill="none" stroke="#0099cc" stroke-linecap="butt" stroke-linejoin="miter-clip" stroke-miterlimit="3.0" stroke-width="1.0"/>
    </g>
  </defs>
</svg>
